\relax 
\catcode `"\active 
\catcode `:\active 
\catcode `;\active 
\catcode `!\active 
\catcode `?\active 
\select@language{french}
\@writefile{toc}{\select@language{french}}
\@writefile{lof}{\select@language{french}}
\@writefile{lot}{\select@language{french}}
\@writefile{toc}{\contentsline {chapter}{\numberline {1}Introduction}{15}}
\@writefile{lof}{\addvspace {10\p@ }}
\@writefile{lot}{\addvspace {10\p@ }}
\@writefile{toc}{\contentsline {section}{\numberline {1.1}Introduction}{15}}
\@writefile{toc}{\contentsline {section}{\numberline {1.2}Rappels}{16}}
\@writefile{toc}{\contentsline {subsection}{\numberline {1.2.1}Les lois de Newton}{16}}
\@writefile{toc}{\contentsline {subsubsection}{Premi\IeC {\`e}re loi (loi d'inertie)}{16}}
\@writefile{toc}{\contentsline {subsubsection}{Deuxi\IeC {\`e}me loi (principe fondamental)}{16}}
\@writefile{toc}{\contentsline {subsubsection}{Troisi\IeC {\`e}me loi (action et r\IeC {\'e}action)}{16}}
\@writefile{toc}{\contentsline {subsection}{\numberline {1.2.2}La loi de la gravitation universelle}{16}}
\@writefile{toc}{\contentsline {subsection}{\numberline {1.2.3}Conclusion}{16}}
\citation{BF06}
\citation{BF06}
\@writefile{toc}{\contentsline {chapter}{\numberline {2}\IeC {\'E}lectrostatique }{17}}
\@writefile{lof}{\addvspace {10\p@ }}
\@writefile{lot}{\addvspace {10\p@ }}
\@writefile{toc}{\contentsline {section}{\numberline {2.1}Introduction}{17}}
\@writefile{toc}{\contentsline {section}{\numberline {2.2}La loi de Coulomb}{17}}
\@writefile{toc}{\contentsline {subsection}{\numberline {2.2.1}La charge \IeC {\'e}lectrique}{17}}
\newlabel{pendule}{{2.2.2}{17}}
\@writefile{toc}{\contentsline {subsection}{\numberline {2.2.2}Le pendule \IeC {\'e}lectrique}{17}}
\@writefile{toc}{\contentsline {subsubsection}{Description de l'exp\IeC {\'e}rience}{17}}
\@writefile{toc}{\contentsline {subsubsection}{Explications}{17}}
\@writefile{toc}{\contentsline {subsection}{\numberline {2.2.3}Les isolants}{19}}
\@writefile{toc}{\contentsline {subsection}{\numberline {2.2.4}L'\IeC {\'e}lectroscope}{19}}
\@writefile{toc}{\contentsline {subsubsection}{Description de l'exp\IeC {\'e}rience}{19}}
\@writefile{lof}{\contentsline {figure}{\numberline {2.1}{\ignorespaces L'\IeC {\'e}lectroscope et le b\IeC {\^a}ton charg\IeC {\'e}.\relax }}{19}}
\providecommand*\caption@xref[2]{\@setref\relax\@undefined{#1}}
\newlabel{electroscope}{{2.1}{19}}
\@writefile{toc}{\contentsline {subsubsection}{Explications}{19}}
\@writefile{lof}{\contentsline {figure}{\numberline {2.2}{\ignorespaces Une ``g\IeC {\'e}lule'' reli\IeC {\'e}e \IeC {\`a} deux \IeC {\'e}lectroscopes.\relax }}{20}}
\newlabel{gelule}{{2.2}{20}}
\@writefile{toc}{\contentsline {subsection}{\numberline {2.2.5}Charge par influence}{20}}
\@writefile{toc}{\contentsline {subsubsection}{Description de l'exp\IeC {\'e}rience}{20}}
\@writefile{toc}{\contentsline {subsubsection}{Explications}{20}}
\@writefile{toc}{\contentsline {subsection}{\numberline {2.2.6}La machine de Van de Graaff}{20}}
\@writefile{toc}{\contentsline {subsubsection}{Description de l'exp\IeC {\'e}rience}{20}}
\@writefile{toc}{\contentsline {subsubsection}{Explications}{20}}
\@writefile{lof}{\contentsline {figure}{\numberline {2.3}{\ignorespaces La machine de Van der Graaff\relax }}{21}}
\newlabel{vandergraaf}{{2.3}{21}}
\@writefile{toc}{\contentsline {subsection}{\numberline {2.2.7}La machine de Wimshurst}{21}}
\@writefile{lof}{\contentsline {figure}{\numberline {2.4}{\ignorespaces Les picants d'un oursin ...\relax }}{21}}
\newlabel{oursin}{{2.4}{21}}
\newlabel{LaFoudre}{{2.2.8}{21}}
\@writefile{toc}{\contentsline {subsection}{\numberline {2.2.8}La foudre}{21}}
\citation{CG94}
\@writefile{lof}{\contentsline {figure}{\numberline {2.5}{\ignorespaces La machine de Wimshurst\relax }}{22}}
\newlabel{wimshurst}{{2.5}{22}}
\@writefile{lof}{\contentsline {figure}{\numberline {2.6}{\ignorespaces \IeC {\'E}clair}}{22}}
\@writefile{lof}{\contentsline {figure}{\numberline {2.7}{\ignorespaces Les trajets de la foudre\relax }}{22}}
\newlabel{foudre}{{2.7}{22}}
\newlabel{effetpointe}{{2.2.8}{22}}
\citation{HB99}
\@writefile{lof}{\contentsline {figure}{\numberline {2.8}{\ignorespaces Le pr\IeC {\'e}curseur}}{23}}
\newlabel{precurseur}{{2.8}{23}}
\@writefile{toc}{\contentsline {subsection}{\numberline {2.2.9}Conservation et charge \IeC {\'e}l\IeC {\'e}mentaire}{23}}
\@writefile{toc}{\contentsline {subsection}{\numberline {2.2.10}La loi de Coulomb}{23}}
\citation{CdC84}
\@writefile{lof}{\contentsline {figure}{\numberline {2.9}{\ignorespaces La balance de Coulomb}}{24}}
\newlabel{balcoul}{{2.9}{24}}
\@writefile{lof}{\contentsline {figure}{\numberline {2.10}{\ignorespaces La force de Coulomb\relax }}{24}}
\@writefile{toc}{\contentsline {section}{\numberline {2.3}Le champ \IeC {\'e}lectrique}{24}}
\@writefile{toc}{\contentsline {subsection}{\numberline {2.3.1}La loi de Coulomb}{24}}
\citation{FB92}
\citation{FB92}
\citation{FB92}
\@writefile{toc}{\contentsline {subsection}{\numberline {2.3.2}La notion de champ}{25}}
\citation{RF79}
\@writefile{lof}{\contentsline {figure}{\numberline {2.11}{\ignorespaces En terme de force\relax }}{26}}
\@writefile{lof}{\contentsline {figure}{\numberline {2.12}{\ignorespaces En terme de champ \IeC {\'e}lectrique\relax }}{26}}
\@writefile{toc}{\contentsline {subsection}{\numberline {2.3.3}D\IeC {\'e}finition}{26}}
\newlabel{chargepos}{{2.13(a)}{27}}
\newlabel{sub@chargepos}{{(a)}{27}}
\newlabel{chargeneg}{{2.13(b)}{27}}
\newlabel{sub@chargeneg}{{(b)}{27}}
\@writefile{lof}{\contentsline {figure}{\numberline {2.13}{\ignorespaces Champ \IeC {\'e}lectrique d'une charge ponctuelle ou sph\IeC {\'e}rique\relax }}{27}}
\newlabel{chargechamp}{{2.13}{27}}
\@writefile{lof}{\contentsline {subfigure}{\numberline{(a)}{\ignorespaces {Charge positive}}}{27}}
\@writefile{lof}{\contentsline {subfigure}{\numberline{(b)}{\ignorespaces {Charge n\IeC {\'e}gative}}}{27}}
\@writefile{toc}{\contentsline {subsection}{\numberline {2.3.4}Corollaires}{27}}
\newlabel{casa}{{2.14(a)}{27}}
\newlabel{sub@casa}{{(a)}{27}}
\newlabel{casb}{{2.14(b)}{27}}
\newlabel{sub@casb}{{(b)}{27}}
\newlabel{casc}{{2.14(c)}{27}}
\newlabel{sub@casc}{{(c)}{27}}
\newlabel{casd}{{2.14(d)}{27}}
\newlabel{sub@casd}{{(d)}{27}}
\@writefile{lof}{\contentsline {figure}{\numberline {2.14}{\ignorespaces Le champ et la force\relax }}{27}}
\newlabel{cas}{{2.14}{27}}
\@writefile{lof}{\contentsline {subfigure}{\numberline{(a)}{\ignorespaces {Source n\IeC {\'e}gative}}}{27}}
\@writefile{lof}{\contentsline {subfigure}{\numberline{(b)}{\ignorespaces {Source positive}}}{27}}
\@writefile{lof}{\contentsline {subfigure}{\numberline{(c)}{\ignorespaces {Source n\IeC {\'e}gative}}}{27}}
\@writefile{lof}{\contentsline {subfigure}{\numberline{(d)}{\ignorespaces {Source positive}}}{27}}
\citation{MF69}
\@writefile{lof}{\contentsline {figure}{\numberline {2.15}{\ignorespaces Lignes de champ charge positive}}{28}}
\newlabel{lignespositives}{{2.15}{28}}
\newlabel{Faraday}{{2.3.5}{28}}
\@writefile{toc}{\contentsline {subsection}{\numberline {2.3.5}La cage de Faraday}{28}}
\@writefile{toc}{\contentsline {subsection}{\numberline {2.3.6}Lignes de champ}{28}}
\@writefile{toc}{\contentsline {subsection}{\numberline {2.3.7}La notion de potentiel}{28}}
\@writefile{lof}{\contentsline {figure}{\numberline {2.16}{\ignorespaces Lignes de champ dans la semoule}}{29}}
\newlabel{lignessemoule}{{2.16}{29}}
\newlabel{RF1}{30}
\@writefile{lof}{\contentsline {figure}{\numberline {2.17}{\ignorespaces R\IeC {\'e}sum\IeC {\'e} d'\IeC {\'e}lectrostatique\relax }}{30}}
\citation{CB82}
\newlabel{\IeC {\'e}lectrocin\IeC {\'e}tique}{{3}{31}}
\@writefile{toc}{\contentsline {chapter}{\numberline {3}\IeC {\'E}lectrocin\IeC {\'e}tique}{31}}
\@writefile{lof}{\addvspace {10\p@ }}
\@writefile{lot}{\addvspace {10\p@ }}
\@writefile{toc}{\contentsline {section}{\numberline {3.1}Circuit et courant}{31}}
\newlabel{defcour}{{3.1}{31}}
\newlabel{r\IeC {\'e}sistance}{{3.2}{31}}
\@writefile{toc}{\contentsline {section}{\numberline {3.2}R\IeC {\'e}sistance et loi d'Ohm}{31}}
\citation{GO27}
\citation{GO27}
\newlabel{pouillet}{{3.3}{32}}
\citation{entry-0}
\@writefile{lof}{\contentsline {figure}{\numberline {3.1}{\ignorespaces Loi de Pouillet}}{33}}
\newlabel{geometriepouillet}{{3.1}{33}}
\@writefile{toc}{\contentsline {section}{\numberline {3.3}S\IeC {\'e}curit\IeC {\'e} \IeC {\'e}lectrique}{33}}
\@writefile{toc}{\contentsline {subsection}{\numberline {3.3.1}Introduction}{33}}
\@writefile{toc}{\contentsline {subsection}{\numberline {3.3.2}L'\IeC {\'e}lectricit\IeC {\'e} et l'homme}{34}}
\@writefile{lof}{\contentsline {figure}{\numberline {3.2}{\ignorespaces Danger et tension}}{34}}
\newlabel{oiseauxtension}{{3.2}{34}}
\@writefile{toc}{\contentsline {subsubsection}{Facteurs importants}{35}}
\@writefile{toc}{\contentsline {subsubsection}{Sympt\IeC {\^o}mes}{35}}
\@writefile{toc}{\contentsline {subsubsection}{Traitements}{35}}
\@writefile{lot}{\contentsline {table}{\numberline {3.1}{\ignorespaces Sympt\IeC {\^o}mes d'\IeC {\'e}lectrocution}}{35}}
\newlabel{courantsymptomes}{{3.1}{35}}
\@writefile{toc}{\contentsline {subsection}{\numberline {3.3.3}Les mesures de s\IeC {\'e}curit\IeC {\'e}}{35}}
\@writefile{toc}{\contentsline {subsubsection}{Le r\IeC {\'e}seau \IeC {\'e}lectrique}{35}}
\@writefile{lof}{\contentsline {figure}{\numberline {3.3}{\ignorespaces Sch\IeC {\'e}ma de principe d'une installation \IeC {\'e}lectrique.\relax }}{36}}
\newlabel{installelectrique}{{3.3}{36}}
\@writefile{toc}{\contentsline {subsubsection}{Pour les b\IeC {\^a}timents}{36}}
\@writefile{lof}{\contentsline {figure}{\numberline {3.4}{\ignorespaces Disjoncteurs\relax }}{37}}
\newlabel{disjoncteurs}{{3.4}{37}}
\@writefile{lof}{\contentsline {figure}{\numberline {3.5}{\ignorespaces Prises avec ligne de terre\relax }}{37}}
\newlabel{prises}{{3.5}{37}}
\@writefile{toc}{\contentsline {subsubsection}{Pour l'homme}{37}}
\@writefile{lof}{\contentsline {figure}{\numberline {3.6}{\ignorespaces Disjoncteur \IeC {\`a} courant de d\IeC {\'e}faut (FI)s\relax }}{38}}
\newlabel{disjoncteurFI}{{3.6}{38}}
\@writefile{lof}{\contentsline {figure}{\numberline {3.7}{\ignorespaces T\IeC {\^a}teur}}{38}}
\newlabel{tateur}{{3.7}{38}}
\newlabel{LeTateur}{{3.3.3}{38}}
\newlabel{puissance}{{3.4}{39}}
\@writefile{toc}{\contentsline {section}{\numberline {3.4}\IeC {\'E}nergie et puissance \IeC {\'e}lectrique}{39}}
\newlabel{enem}{{3.4}{39}}
\newlabel{pui}{{3.5}{39}}
\newlabel{pui23}{{3.6}{39}}
\newlabel{energie}{{3.7}{39}}
\@writefile{toc}{\contentsline {section}{\numberline {3.5}Accumulateurs}{40}}
\@writefile{toc}{\contentsline {subsection}{\numberline {3.5.1}\IeC {\'E}quations}{40}}
\@writefile{lof}{\contentsline {figure}{\numberline {3.8}{\ignorespaces Accumulateurs}}{41}}
\newlabel{accumulateurs}{{3.8}{41}}
\@writefile{toc}{\contentsline {subsection}{\numberline {3.5.2}Types d'accumulateurs}{41}}
\@writefile{toc}{\contentsline {section}{\numberline {3.6}Circuits \IeC {\'e}lectriques : les multiprises}{41}}
\@writefile{lof}{\contentsline {figure}{\numberline {3.9}{\ignorespaces Circuit \IeC {\'e}lectrique}}{42}}
\newlabel{circuitelectrique}{{3.9}{42}}
\@writefile{toc}{\contentsline {subsection}{\numberline {3.6.1}Circuit s\IeC {\'e}rie}{42}}
\@writefile{toc}{\contentsline {subsection}{\numberline {3.6.2}Circuit parall\IeC {\`e}le}{42}}
\@writefile{lof}{\contentsline {figure}{\numberline {3.10}{\ignorespaces Circuit s\IeC {\'e}rie}}{42}}
\newlabel{circuitserie}{{3.10}{42}}
\@writefile{lof}{\contentsline {figure}{\numberline {3.11}{\ignorespaces Circuit parall\IeC {\`e}le}}{42}}
\newlabel{circuitparallele}{{3.11}{42}}
\@writefile{lof}{\contentsline {figure}{\numberline {3.12}{\ignorespaces Une multiprise}}{42}}
\newlabel{multiprise}{{3.12}{42}}
\@writefile{lof}{\contentsline {figure}{\numberline {3.13}{\ignorespaces Multiprise}}{43}}
\newlabel{multipriseschema}{{3.13}{43}}
\newlabel{RF2}{44}
\@writefile{lof}{\contentsline {figure}{\numberline {3.14}{\ignorespaces R\IeC {\'e}sum\IeC {\'e} d'\IeC {\'e}lectrocin\IeC {\'e}tique\relax }}{44}}
\newlabel{magn\IeC {\'e}tisme}{{4}{45}}
\@writefile{toc}{\contentsline {chapter}{\numberline {4}Magn\IeC {\'e}tisme}{45}}
\@writefile{lof}{\addvspace {10\p@ }}
\@writefile{lot}{\addvspace {10\p@ }}
\@writefile{toc}{\contentsline {section}{\numberline {4.1}Introduction}{45}}
\@writefile{toc}{\contentsline {section}{\numberline {4.2}Le champ magn\IeC {\'e}tique}{45}}
\@writefile{toc}{\contentsline {subsection}{\numberline {4.2.1}D\IeC {\'e}finitions}{45}}
\@writefile{lof}{\contentsline {figure}{\numberline {4.1}{\ignorespaces La magn\IeC {\'e}tosph\IeC {\`e}re}}{46}}
\newlabel{magnetosphere}{{4.1}{46}}
\@writefile{toc}{\contentsline {subsection}{\numberline {4.2.2}Le champ magn\IeC {\'e}tique terrestre}{46}}
\newlabel{champmagnetiqueterrestre}{{4.2.2}{46}}
\@writefile{lof}{\contentsline {figure}{\numberline {4.2}{\ignorespaces Lignes de champ aimant droit}}{46}}
\newlabel{ligneschampmagn}{{4.2}{46}}
\@writefile{lof}{\contentsline {figure}{\numberline {4.3}{\ignorespaces Anomalies magn\IeC {\'e}tique}}{47}}
\newlabel{anomaliesmagnetiques}{{4.3}{47}}
\newlabel{oersted}{{4.2.3}{47}}
\@writefile{toc}{\contentsline {subsection}{\numberline {4.2.3}L'exp\IeC {\'e}rience d'\OE rsted}{47}}
\@writefile{lof}{\contentsline {figure}{\numberline {4.4}{\ignorespaces D\IeC {\'e}rive des continents}}{48}}
\newlabel{deriveinde}{{4.4}{48}}
\@writefile{lof}{\contentsline {figure}{\numberline {4.5}{\ignorespaces \OE rsted et la boussole\relax }}{48}}
\newlabel{oersted1}{{4.5}{48}}
\@writefile{lof}{\contentsline {figure}{\numberline {4.6}{\ignorespaces \OE rsted et la d\IeC {\'e}viation du fil\relax }}{48}}
\newlabel{oersted2}{{4.6}{48}}
\@writefile{lof}{\contentsline {figure}{\numberline {4.7}{\ignorespaces Aimant en U\relax }}{48}}
\newlabel{aimantU}{{4.7}{48}}
\citation{NT19}
\@writefile{lof}{\contentsline {figure}{\numberline {4.8}{\ignorespaces Champ magn\IeC {\'e}tique produit par un fil droit\relax }}{49}}
\newlabel{magnfil}{{4.8}{49}}
\@writefile{lof}{\contentsline {figure}{\numberline {4.9}{\ignorespaces Champ magn\IeC {\'e}tique produit par une boucle de courant (ou spire)\relax }}{49}}
\newlabel{magnboucle}{{4.9}{49}}
\@writefile{lof}{\contentsline {figure}{\numberline {4.10}{\ignorespaces Champ magn\IeC {\'e}tique produit par un sol\IeC {\'e}no\IeC {\"\i }de\relax }}{49}}
\newlabel{magnsolenoide}{{4.10}{49}}
\newlabel{magnmatiere}{{4.2.4}{49}}
\@writefile{toc}{\contentsline {subsection}{\numberline {4.2.4}Le magn\IeC {\'e}tisme dans la mati\IeC {\`e}re}{49}}
\citation{RF79}
\citation{RF79}
\citation{HN00}
\citation{PL36}
\@writefile{toc}{\contentsline {subsection}{\numberline {4.2.5}Application}{51}}
\@writefile{toc}{\contentsline {section}{\numberline {4.3}La loi de Laplace}{51}}
\@writefile{toc}{\contentsline {subsection}{\numberline {4.3.1}D\IeC {\'e}finition}{51}}
\@writefile{toc}{\contentsline {subsection}{\numberline {4.3.2}Applications}{51}}
\@writefile{lof}{\contentsline {figure}{\numberline {4.11}{\ignorespaces La loi de Laplace\relax }}{52}}
\newlabel{filoerstedschema}{{4.11}{52}}
\@writefile{lof}{\contentsline {figure}{\numberline {4.12}{\ignorespaces Un cadre dans un champ magn\IeC {\'e}tique\relax }}{52}}
\newlabel{cadre}{{4.12}{52}}
\citation{HAL04}
\@writefile{lof}{\contentsline {figure}{\numberline {4.13}{\ignorespaces Un galvanom\IeC {\`e}tre\relax }}{53}}
\newlabel{galvanometre}{{4.13}{53}}
\@writefile{toc}{\contentsline {subsubsection}{Galvanom\IeC {\`e}tre}{53}}
\@writefile{lof}{\contentsline {figure}{\numberline {4.14}{\ignorespaces Moteurs \IeC {\'e}lectriques\relax }}{53}}
\newlabel{moteur}{{4.14}{53}}
\@writefile{toc}{\contentsline {subsubsection}{Moteur \IeC {\'e}lectrique}{53}}
\@writefile{toc}{\contentsline {section}{\numberline {4.4}La loi de Lorentz}{54}}
\@writefile{toc}{\contentsline {subsection}{\numberline {4.4.1}D\IeC {\'e}finition}{54}}
\@writefile{toc}{\contentsline {subsection}{\numberline {4.4.2}Applications}{55}}
\@writefile{toc}{\contentsline {subsubsection}{T\IeC {\'e}l\IeC {\'e}vision}{55}}
\@writefile{lof}{\contentsline {figure}{\numberline {4.15}{\ignorespaces Les bobines de Helmholtz\relax }}{55}}
\newlabel{Helmholtz}{{4.15}{55}}
\@writefile{lof}{\contentsline {figure}{\numberline {4.16}{\ignorespaces Le canon \IeC {\`a} \IeC {\'e}lectron\relax }}{55}}
\newlabel{canon}{{4.16}{55}}
\@writefile{lof}{\contentsline {figure}{\numberline {4.17}{\ignorespaces Principe de fonctionnement du cyclotron\relax }}{56}}
\newlabel{cyclotron}{{4.17}{56}}
\@writefile{toc}{\contentsline {subsubsection}{Acc\IeC {\'e}l\IeC {\'e}rateur de particules : le cyclotron}{56}}
\@writefile{lof}{\contentsline {figure}{\numberline {4.18}{\ignorespaces Le cyclotron des Arts et M\IeC {\'e}tiers\relax }}{57}}
\newlabel{cyclotronartsmetiers}{{4.18}{57}}
\@writefile{lof}{\contentsline {figure}{\numberline {4.19}{\ignorespaces Les deux D d'un cyclotron\relax }}{57}}
\newlabel{cyclotrongrosplan}{{4.19}{57}}
\@writefile{toc}{\contentsline {subsubsection}{Spectrographe de masse}{57}}
\@writefile{lof}{\contentsline {figure}{\numberline {4.20}{\ignorespaces Spectrographe de masse\relax }}{57}}
\newlabel{spectro}{{4.20}{57}}
\newlabel{RF3}{58}
\@writefile{lof}{\contentsline {figure}{\numberline {4.21}{\ignorespaces R\IeC {\'e}sum\IeC {\'e} de magn\IeC {\'e}tisme\relax }}{58}}
\newlabel{\IeC {\'e}lectromagn\IeC {\'e}tisme}{{5}{59}}
\@writefile{toc}{\contentsline {chapter}{\numberline {5}\IeC {\'E}lectromagn\IeC {\'e}tisme}{59}}
\@writefile{lof}{\addvspace {10\p@ }}
\@writefile{lot}{\addvspace {10\p@ }}
\@writefile{toc}{\contentsline {section}{\numberline {5.1}Nature de la lumi\IeC {\`e}re}{59}}
\@writefile{lof}{\contentsline {figure}{\numberline {5.1}{\ignorespaces Onde \IeC {\'e}lectromagn\IeC {\'e}tique}}{59}}
\newlabel{ondeelectromagnetique}{{5.1}{59}}
\citation{JB05}
\@writefile{toc}{\contentsline {section}{\numberline {5.2}Applications}{60}}
\@writefile{lof}{\contentsline {figure}{\numberline {5.2}{\ignorespaces Le spectre des ondes \IeC {\'e}lectromagn\IeC {\'e}tiques\relax }}{60}}
\newlabel{ondesem}{{5.2}{60}}
\citation{JB05}
\newlabel{tableauem}{{5.1}{62}}
\@writefile{lot}{\contentsline {table}{\numberline {5.1}{\ignorespaces Le spectre des applications \IeC {\'e}lectromagn\IeC {\'e}tiques\relax }}{62}}
\@writefile{toc}{\contentsline {chapter}{\numberline {A}Unit\IeC {\'e}s internationales}{67}}
\@writefile{lof}{\addvspace {10\p@ }}
\@writefile{lot}{\addvspace {10\p@ }}
\newlabel{SI}{{A}{67}}
\@writefile{toc}{\contentsline {section}{\numberline {A.1}Introduction}{67}}
\@writefile{toc}{\contentsline {section}{\numberline {A.2}Les unit\IeC {\'e}s choisies}{67}}
\@writefile{lot}{\contentsline {table}{\numberline {A.1}{\ignorespaces unit\IeC {\'e}s SI}}{67}}
\newlabel{AL}{{A.2}{67}}
\@writefile{toc}{\contentsline {section}{\numberline {A.3}Exemple}{68}}
\@writefile{toc}{\contentsline {section}{\numberline {A.4}Conversions}{68}}
\@writefile{lot}{\contentsline {table}{\numberline {A.2}{\ignorespaces Conversions}}{68}}
\newlabel{grandeurs}{{A.2}{68}}
\@writefile{toc}{\contentsline {section}{\numberline {A.5}Multiples et sous-multiples}{68}}
\@writefile{lot}{\contentsline {table}{\numberline {A.3}{\ignorespaces Multiples}}{68}}
\newlabel{prefixes}{{A.3}{68}}
\@writefile{toc}{\contentsline {section}{\numberline {A.6}Notation scientifique}{68}}
\newlabel{notationscientifique}{{A.6}{68}}
\@writefile{toc}{\contentsline {section}{\numberline {A.7}Valeurs importantes}{69}}
\@writefile{lot}{\contentsline {table}{\numberline {A.4}{\ignorespaces Valeurs importantes\relax }}{69}}
\newlabel{valeurs}{{A.4}{69}}
\citation{CB82}
\citation{EB49}
\@writefile{toc}{\contentsline {chapter}{\numberline {B}Petite histoire de l'\IeC {\'e}lectricit\IeC {\'e}}{71}}
\@writefile{lof}{\addvspace {10\p@ }}
\@writefile{lot}{\addvspace {10\p@ }}
\@writefile{toc}{\contentsline {section}{\numberline {B.1}Introduction}{71}}
\@writefile{toc}{\contentsline {section}{\numberline {B.2}Le galvanisme}{71}}
\citation{entry-1}
\citation{EB49}
\citation{entry-2}
\citation{PT90}
\@writefile{lof}{\contentsline {figure}{\numberline {B.1}{\ignorespaces Exp\IeC {\'e}riences de Galvani}}{73}}
\@writefile{toc}{\contentsline {section}{\numberline {B.3}Frankenstein}{73}}
\citation{PT90}
\citation{PT90}
\citation{PT90}
\citation{PT90}
\citation{JR87}
\@writefile{toc}{\contentsline {section}{\numberline {B.4}La pile de Volta}{74}}
\citation{EB49}
\citation{RL87}
\citation{entry-1}
\citation{CB82}
\citation{entry-1}
\citation{JR87}
\citation{ES}
\citation{CB82}
\@writefile{toc}{\contentsline {section}{\numberline {B.5}Courant et tension : Amp\IeC {\`e}re}{76}}
\citation{EB49}
\@writefile{lof}{\contentsline {figure}{\numberline {B.2}{\ignorespaces Propagation par influence.\relax }}{77}}
\citation{CB82}
\citation{CB82}
\citation{RL87}
\citation{CB82}
\citation{CB82}
\citation{EB49}
\citation{CB82}
\citation{RL87}
\@writefile{toc}{\contentsline {section}{\numberline {B.6}Ohm et la notion de r\IeC {\'e}sistance}{79}}
\@writefile{toc}{\contentsline {section}{\numberline {B.7}Conclusion}{79}}
\citation{entry-3}
\newlabel{Pile}{{C}{81}}
\@writefile{toc}{\contentsline {chapter}{\numberline {C}La pile \IeC {\'e}lectrique}{81}}
\@writefile{lof}{\addvspace {10\p@ }}
\@writefile{lot}{\addvspace {10\p@ }}
\@writefile{lof}{\contentsline {figure}{\numberline {C.1}{\ignorespaces Principe de fonctionnement de la pile de Daniell\relax }}{83}}
\newlabel{pileDaniell}{{C.1}{83}}
\@writefile{lof}{\contentsline {figure}{\numberline {C.2}{\ignorespaces Pile s\IeC {\`e}che\relax }}{84}}
\newlabel{pileseche}{{C.2}{84}}
\@writefile{toc}{\contentsline {chapter}{\numberline {D}La notion de tension}{85}}
\@writefile{lof}{\addvspace {10\p@ }}
\@writefile{lot}{\addvspace {10\p@ }}
\newlabel{tension}{{D}{85}}
\@writefile{toc}{\contentsline {section}{\numberline {D.1}Analogie gravitationnelle}{85}}
\newlabel{potentiel}{{D.2}{85}}
\@writefile{toc}{\contentsline {section}{\numberline {D.2}Tension et potentiel \IeC {\'e}lectrique}{85}}
\@writefile{lof}{\contentsline {figure}{\numberline {D.1}{\ignorespaces \IeC {\'E}nergie potentielle et potentiel \IeC {\'e}lectrique\relax }}{86}}
\newlabel{potE}{{D.1}{86}}
\@writefile{toc}{\contentsline {chapter}{\numberline {E}Circuits en s\IeC {\'e}rie et en parall\IeC {\`e}le}{87}}
\@writefile{lof}{\addvspace {10\p@ }}
\@writefile{lot}{\addvspace {10\p@ }}
\newlabel{resistparallser}{{E}{87}}
\@writefile{toc}{\contentsline {section}{\numberline {E.1}Deux r\IeC {\'e}sistances en s\IeC {\'e}rie}{87}}
\@writefile{lof}{\contentsline {figure}{\numberline {E.1}{\ignorespaces Circuit de deux r\IeC {\'e}sistances en s\IeC {\'e}rie\relax }}{87}}
\newlabel{serie}{{E.1}{87}}
\@writefile{toc}{\contentsline {section}{\numberline {E.2}Deux r\IeC {\'e}sistances en parall\IeC {\`e}les}{87}}
\@writefile{lof}{\contentsline {figure}{\numberline {E.2}{\ignorespaces Circuit de deux r\IeC {\'e}sistances en parall\IeC {\`e}le\relax }}{88}}
\newlabel{parallele}{{E.2}{88}}
\@writefile{toc}{\contentsline {section}{\numberline {E.3}Circuit quelconque}{88}}
\@writefile{toc}{\contentsline {chapter}{\numberline {F}Vitesse des \IeC {\'e}lectrons dans un fil conducteur}{89}}
\@writefile{lof}{\addvspace {10\p@ }}
\@writefile{lot}{\addvspace {10\p@ }}
\@writefile{lof}{\contentsline {figure}{\numberline {F.1}{\ignorespaces Vitesses de propagation\relax }}{89}}
\newlabel{signal}{{F.1}{89}}
\@writefile{lof}{\contentsline {figure}{\numberline {G.1}{\ignorespaces Ligne \IeC {\`a} haute tension}}{91}}
\newlabel{lignehautetension}{{G.1}{91}}
\@writefile{toc}{\contentsline {chapter}{\numberline {G}Ligne \IeC {\`a} haute tension}{91}}
\@writefile{lof}{\addvspace {10\p@ }}
\@writefile{lot}{\addvspace {10\p@ }}
\newlabel{ligne \IeC {\`a} haute tension}{{G}{91}}
\@writefile{lof}{\contentsline {figure}{\numberline {G.2}{\ignorespaces Isolateur}}{92}}
\newlabel{isolateur}{{G.2}{92}}
\@writefile{toc}{\contentsline {chapter}{\numberline {H}Le cyclotron en \IeC {\'e}quations}{95}}
\@writefile{lof}{\addvspace {10\p@ }}
\@writefile{lot}{\addvspace {10\p@ }}
\newlabel{cyclotronequations}{{H}{95}}
\@writefile{toc}{\contentsline {chapter}{\numberline {I}Exercices}{97}}
\@writefile{lof}{\addvspace {10\p@ }}
\@writefile{lot}{\addvspace {10\p@ }}
\newlabel{exo}{{I}{97}}
\@writefile{toc}{\contentsline {section}{\numberline {I.1}Probl\IeC {\`e}mes}{97}}
\@writefile{toc}{\contentsline {subsection}{\numberline {I.1.1}Relatifs \IeC {\`a} la loi de Coulomb}{97}}
\@writefile{toc}{\contentsline {subsection}{\numberline {I.1.2}Relatifs au champ \IeC {\'e}lectrique}{98}}
\@writefile{toc}{\contentsline {subsection}{\numberline {I.1.3}Relatifs \IeC {\`a} la s\IeC {\'e}curit\IeC {\'e} \IeC {\'e}lectrique}{98}}
\newlabel{Resistances}{{22}{98}}
\@writefile{lot}{\contentsline {table}{\numberline {I.1}{\ignorespaces R\IeC {\'e}sistances diverses\relax }}{99}}
\newlabel{resistancesdiverses}{{I.1}{99}}
\@writefile{toc}{\contentsline {subsection}{\numberline {I.1.4}Relatifs aux loi d'Ohm et de Pouillet, \IeC {\`a} la puissance et \IeC {\`a} l'\IeC {\'e}nergie}{99}}
\@writefile{lot}{\contentsline {table}{\numberline {I.2}{\ignorespaces Puissances diverses\relax }}{99}}
\newlabel{puissancesdiverses}{{I.2}{99}}
\@writefile{lof}{\contentsline {figure}{\numberline {I.1}{\ignorespaces Une batterie\relax }}{100}}
\newlabel{baterie}{{I.1}{100}}
\newlabel{batterie}{{39}{100}}
\newlabel{batteriesuite}{{40}{100}}
\newlabel{exohautetension}{{46}{100}}
\@writefile{toc}{\contentsline {subsection}{\numberline {I.1.5}Relatifs au magn\IeC {\'e}tisme}{100}}
\newlabel{acce}{{59}{101}}
\newlabel{exotv}{{60}{102}}
\newlabel{selecteurvitesse}{{61}{102}}
\newlabel{solutions}{{I.2}{102}}
\@writefile{toc}{\contentsline {section}{\numberline {I.2}Solutions}{102}}
\@writefile{lof}{\contentsline {figure}{\numberline {I.2}{\ignorespaces Champ \IeC {\`a} \unit  {33}{\ensuremath  {\SI@fstyle  {c}}\ensuremath  {\SI@fstyle  {m}}}\relax }}{105}}
\newlabel{champ33cm}{{I.2}{105}}
\@writefile{lof}{\contentsline {figure}{\numberline {I.3}{\ignorespaces Force et champ\relax }}{105}}
\newlabel{champforce}{{I.3}{105}}
\@writefile{lof}{\contentsline {figure}{\numberline {I.4}{\ignorespaces Champ entre deux charges\relax }}{105}}
\newlabel{champ2charges}{{I.4}{105}}
\@writefile{lof}{\contentsline {figure}{\numberline {I.5}{\ignorespaces Proton en suspension\relax }}{106}}
\newlabel{protonsuspension}{{I.5}{106}}
\@writefile{lof}{\contentsline {figure}{\numberline {I.6}{\ignorespaces Proton acc\IeC {\'e}l\IeC {\'e}r\IeC {\'e}\relax }}{106}}
\newlabel{protonaccelere}{{I.6}{106}}
\@writefile{lof}{\contentsline {figure}{\numberline {I.7}{\ignorespaces Une charge et l'autre\relax }}{107}}
\newlabel{lunlautre}{{I.7}{107}}
\@writefile{lof}{\contentsline {figure}{\numberline {I.8}{\ignorespaces Champ produit par trois charges\relax }}{107}}
\newlabel{champtroischarges}{{I.8}{107}}
\@writefile{lot}{\contentsline {table}{\numberline {I.3}{\ignorespaces R\IeC {\'e}sistances diverses\relax }}{108}}
\newlabel{resistancesdiversessol}{{I.3}{108}}
\@writefile{lot}{\contentsline {table}{\numberline {I.4}{\ignorespaces Courants divers\relax }}{109}}
\newlabel{resistancesdiversessolcourant}{{I.4}{109}}
\@writefile{lot}{\contentsline {table}{\numberline {I.5}{\ignorespaces Puissances diverses\relax }}{109}}
\newlabel{puissancesdiversessol}{{I.5}{109}}
\@writefile{lof}{\contentsline {figure}{\numberline {I.9}{\ignorespaces Fil droit orient\IeC {\'e} est-ouest\relax }}{113}}
\newlabel{fildroitestouest}{{I.9}{113}}
\@writefile{lof}{\contentsline {figure}{\numberline {I.10}{\ignorespaces Fils sur des pyl\IeC {\^o}nes\relax }}{113}}
\newlabel{pylones}{{I.10}{113}}
\@writefile{lof}{\contentsline {figure}{\numberline {I.11}{\ignorespaces Deux fils verticaux\relax }}{114}}
\newlabel{deuxfilsverticaux}{{I.11}{114}}
\@writefile{lof}{\contentsline {figure}{\numberline {I.12}{\ignorespaces Un fil et une spire\relax }}{114}}
\newlabel{filspire}{{I.12}{114}}
\@writefile{lof}{\contentsline {figure}{\numberline {I.13}{\ignorespaces Un avion charg\IeC {\'e} (3 dim)\relax }}{114}}
\newlabel{avion}{{I.13}{114}}
\@writefile{lof}{\contentsline {figure}{\numberline {I.14}{\ignorespaces \IeC {\'E}clair sur une voiture\relax }}{115}}
\newlabel{eclairvoiture}{{I.14}{115}}
\@writefile{lof}{\contentsline {figure}{\numberline {I.15}{\ignorespaces D\IeC {\'e}viation magn\IeC {\'e}tique\relax }}{115}}
\newlabel{deviationmagnetique}{{I.15}{115}}
\newlabel{rayoncyclotron}{{I.1}{116}}
\@writefile{lof}{\contentsline {figure}{\numberline {I.16}{\ignorespaces D\IeC {\'e}viation magn\IeC {\'e}tique sur un \IeC {\'e}cran\relax }}{116}}
\newlabel{deviationmagnetiquesurecran}{{I.16}{116}}
\bibstyle{apalike-fr}
\bibdata{Bibliographies/BiblioCours}
\bibcite{entry-1}{{1}{1961}{{ent}}{{}}}
\bibcite{entry-2}{{2}{1979}{{ent}}{{}}}
\bibcite{entry-0}{{3}{1988}{{ent}}{{}}}
\bibcite{FB92}{{4}{1992}{{Balibar}}{{}}}
\bibcite{EB49}{{5}{1949}{{Bauer}}{{}}}
\bibcite{HB99}{{6}{1999}{{Benson \emph  {et~al.}}}{{}}}
\bibcite{CB82}{{7}{1982}{{Blondel}}{{}}}
\bibcite{JB05}{{8}{2005}{{Boudenot}}{{}}}
\bibcite{CdC84}{{9}{1884}{{Coulomb}}{{}}}
\bibcite{MF69}{{10}{1869}{{Faraday}}{{}}}
\bibcite{RF79}{{11}{1979}{{Feynman}}{{}}}
\bibcite{BF06}{{12}{2006}{{Franklin}}{{}}}
\bibcite{CG94}{{13}{1994}{{Gary}}{{}}}
\bibcite{entry-3}{{14}{1989}{{Inconnu}}{{}}}
\bibcite{PL36}{{15}{1836}{{Laplace}}{{}}}
\bibcite{RL87}{{16}{1987}{{Loqueneux}}{{}}}
\bibcite{HAL04}{{17}{1904}{{Lorentz}}{{}}}
\bibcite{HN00}{{18}{2008}{{Nataf et Sommeria}}{{}}}
\bibcite{GO27}{{19}{1827}{{Ohm}}{{}}}
\bibcite{JR87}{{20}{1987}{{Rosmorduc}}{{}}}
\bibcite{ES}{{21}{voir}{{Segr{\'e}}}{{}}}
\bibcite{NT19}{{22}{1919}{{Tesla}}{{}}}
\bibcite{PT90}{{23}{1990}{{Thuillier}}{{}}}
