%!PS-Adobe-2.0
%%Creator: inkscape 0.41.1
%%Pages: 1
%%Orientation: Portrait
%%BoundingBox: 21 769 135 832
%%HiResBoundingBox: 21.275710 769.28109 134.31545 831.85780
%%EndComments
%%Page: 1 1
0 842 translate
0.80000000 -0.80000000 scale
gsave [1.0000000 0.0000000 0.0000000 1.0000000 0.0000000 0.0000000] concat
0.0000000 0.0000000 0.0000000 setrgbcolor
[] 0 setdash
0.37325650 setlinewidth
0 setlinejoin
0 setlinecap
newpath
27.302556 60.281845 moveto
167.70769 60.281852 lineto
stroke
0.0000000 0.0000000 0.0000000 setrgbcolor
[] 0 setdash
1.0000000 setlinewidth
0 setlinejoin
0 setlinecap
newpath
56.031115 89.212950 moveto
129.27440 34.280484 lineto
stroke
gsave [0.32000000 -0.24000001 0.24000001 0.32000000 56.031115 89.212950] concat
0.0000000 0.0000000 0.0000000 setrgbcolor
[] 0 setdash
1.2500000 setlinewidth
0 setlinejoin
0 setlinecap
newpath
0.0000000 5.6500000 moveto
0.0000000 -5.6500000 lineto
stroke
grestore
gsave [-0.47999999 0.36000001 -0.36000001 -0.47999999 131.67440 32.480484] concat
0.0000000 0.0000000 0.0000000 setrgbcolor
newpath
8.7185878 4.0337352 moveto
-2.2072895 0.016013256 lineto
8.7185884 -4.0017078 lineto
6.9730900 -1.6296469 6.9831476 1.6157441 8.7185878 4.0337352 curveto
closepath
eofill
grestore
0.0000000 0.0000000 0.0000000 setrgbcolor
[] 0 setdash
1.2921926 setlinewidth
0 setlinejoin
0 setlinecap
newpath
37.202292 75.846050 moveto
160.37146 42.154138 lineto
stroke
gsave [0.49856104 -0.13637727 0.13637727 0.49856104 37.202292 75.846050] concat
0.0000000 0.0000000 0.0000000 setrgbcolor
[] 0 setdash
1.2500000 setlinewidth
0 setlinejoin
0 setlinecap
newpath
0.0000000 5.6500000 moveto
0.0000000 -5.6500000 lineto
stroke
grestore
gsave [-0.74784155 0.20456590 -0.20456590 -0.74784155 164.11067 41.131308] concat
0.0000000 0.0000000 0.0000000 setrgbcolor
newpath
8.7185878 4.0337352 moveto
-2.2072895 0.016013256 lineto
8.7185884 -4.0017078 lineto
6.9730900 -1.6296469 6.9831476 1.6157441 8.7185878 4.0337352 curveto
closepath
eofill
grestore
0.0000000 0.0000000 0.0000000 setrgbcolor
[] 0 setdash
1.0000000 setlinewidth
0 setlinejoin
0 setlinecap
newpath
94.483845 60.281851 moveto
94.483845 13.039935 lineto
stroke
gsave [2.4492127e-17 -0.40000000 0.40000000 2.4492127e-17 94.483845 60.281851] concat
0.0000000 0.0000000 0.0000000 setrgbcolor
[] 0 setdash
1.2500000 setlinewidth
0 setlinejoin
0 setlinecap
newpath
0.0000000 5.6500000 moveto
0.0000000 -5.6500000 lineto
stroke
grestore
gsave [-3.6738191e-17 0.60000000 -0.60000000 -3.6738191e-17 94.483845 10.039935] concat
0.0000000 0.0000000 0.0000000 setrgbcolor
newpath
8.7185878 4.0337352 moveto
-2.2072895 0.016013256 lineto
8.7185884 -4.0017078 lineto
6.9730900 -1.6296469 6.9831476 1.6157441 8.7185878 4.0337352 curveto
closepath
eofill
grestore
gsave [1.0000000 0.0000000 0.0000000 1.0000000 72.693950 15.014870] concat
0.0000000 0.0000000 0.0000000 setrgbcolor
newpath
35.347120 30.589050 moveto
35.347114 31.253114 35.054146 31.746278 34.468214 32.068542 curveto
34.002715 32.322449 33.405384 32.449402 32.676222 32.449402 curveto
29.233839 32.449402 lineto
29.282667 32.268738 lineto
29.728630 32.262228 30.018344 32.229676 30.151808 32.171082 curveto
30.405713 32.060405 30.532666 31.811382 30.532667 31.424011 curveto
30.532667 26.448425 lineto
30.532666 26.002468 30.151807 25.779487 29.390089 25.779480 curveto
29.390089 25.554871 lineto
30.203890 25.499539 31.214631 25.471870 32.422316 25.471863 curveto
33.034291 25.471870 33.584421 25.584174 34.072706 25.808777 curveto
34.687935 26.095242 34.995552 26.498887 34.995558 27.019714 curveto
34.995552 27.892115 34.500761 28.401554 33.511183 28.548035 curveto
34.142688 28.684757 34.596789 28.896346 34.873487 29.182800 curveto
35.189237 29.501814 35.347114 29.970563 35.347120 30.589050 curveto
34.072706 27.239441 moveto
34.072701 26.236843 33.576283 25.735541 32.583448 25.735535 curveto
31.372511 25.735535 lineto
31.372511 28.499207 lineto
32.285597 28.499207 lineto
32.858510 28.499210 33.270293 28.435734 33.520948 28.308777 curveto
33.888782 28.123234 34.072701 27.766789 34.072706 27.239441 curveto
34.394972 30.549988 moveto
34.394967 29.990094 34.264759 29.550642 34.004347 29.231628 curveto
33.717884 28.886580 33.301218 28.714054 32.754347 28.714050 curveto
31.372511 28.714050 lineto
31.372511 31.472839 lineto
31.372509 31.974142 31.758251 32.224793 32.529737 32.224792 curveto
33.047312 32.224793 33.481882 32.076681 33.833448 31.780457 curveto
34.207792 31.467958 34.394967 31.057802 34.394972 30.549988 curveto
fill
0.0000000 0.0000000 0.0000000 setrgbcolor
[] 0 setdash
0.35433072 setlinewidth
0 setlinejoin
0 setlinecap
newpath
27.466233 23.110883 moveto
35.706103 23.110883 35.706103 23.110883 35.706103 23.110883 curveto
stroke
gsave [-0.21259843 0.0000000 0.0000000 -0.21259843 36.769095 23.110883] concat
0.0000000 0.0000000 0.0000000 setrgbcolor
newpath
8.7185878 4.0337352 moveto
-2.2072895 0.016013256 lineto
8.7185884 -4.0017078 lineto
6.9730900 -1.6296469 6.9831476 1.6157441 8.7185878 4.0337352 curveto
closepath
eofill
grestore
grestore
gsave [1.0000000 0.0000000 0.0000000 1.0000000 36.255390 -5.1270280] concat
0.0000000 0.0000000 0.0000000 setrgbcolor
newpath
53.677490 29.109592 moveto
53.501709 29.109592 lineto
53.501704 28.461812 53.215246 28.137919 52.642334 28.137913 curveto
50.440186 28.137913 lineto
50.440186 30.759983 lineto
52.261475 30.759983 lineto
52.456783 30.759987 52.611406 30.683490 52.725342 30.530491 curveto
52.822994 30.397032 52.871822 30.226133 52.871826 30.017796 curveto
53.008545 30.017796 lineto
53.008545 31.922092 lineto
52.871826 31.922092 lineto
52.871822 31.388242 52.668372 31.121315 52.261475 31.121311 curveto
50.440186 31.121311 lineto
50.440186 33.772678 lineto
50.440184 34.208877 50.734780 34.426975 51.323975 34.426975 curveto
51.323975 34.646702 lineto
48.770264 34.646702 lineto
48.770264 34.426975 lineto
49.310628 34.426975 49.580810 34.189345 49.580811 33.714085 curveto
49.580811 28.450413 lineto
49.580810 28.095602 49.310628 27.919821 48.770264 27.923069 curveto
48.770264 27.713108 lineto
53.560303 27.713108 lineto
53.677490 29.109592 lineto
fill
0.0000000 0.0000000 0.0000000 setrgbcolor
[] 0 setdash
0.35433072 setlinewidth
0 setlinejoin
0 setlinecap
newpath
46.326380 25.308182 moveto
54.566250 25.308182 54.566250 25.308182 54.566250 25.308182 curveto
stroke
gsave [-0.21259843 0.0000000 0.0000000 -0.21259843 55.629242 25.308182] concat
0.0000000 0.0000000 0.0000000 setrgbcolor
newpath
8.7185878 4.0337352 moveto
-2.2072895 0.016013256 lineto
8.7185884 -4.0017078 lineto
6.9730900 -1.6296469 6.9831476 1.6157441 8.7185878 4.0337352 curveto
closepath
eofill
grestore
grestore
gsave [1.0000000 0.0000000 0.0000000 1.0000000 -3.6621640 -15.014870] concat
0.0000000 0.0000000 0.0000000 setrgbcolor
newpath
151.96504 53.067451 moveto
151.94551 53.243233 lineto
151.77949 53.243237 151.61510 53.319734 151.45235 53.472725 curveto
151.31237 53.602937 151.20495 53.754304 151.13008 53.926826 curveto
149.52364 57.584053 lineto
149.25996 57.584053 lineto
147.63399 53.829170 lineto
147.46146 53.438549 147.17500 53.243237 146.77461 53.243233 curveto
146.77461 53.067451 lineto
149.00117 53.067451 lineto
149.00117 53.243233 lineto
148.52591 53.243237 148.28828 53.331128 148.28828 53.506905 curveto
148.28828 53.558992 148.69030 54.548574 149.49434 56.475655 curveto
149.51712 56.527739 149.54154 56.553781 149.56758 56.553780 curveto
149.60339 56.553781 149.63594 56.521229 149.66524 56.456123 curveto
150.72969 54.083076 lineto
150.79805 53.930085 150.83223 53.796622 150.83223 53.682686 curveto
150.83223 53.376700 150.57669 53.223706 150.06563 53.223701 curveto
150.11934 53.067451 lineto
151.96504 53.067451 lineto
fill
0.0000000 0.0000000 0.0000000 setrgbcolor
[] 0 setdash
0.35433072 setlinewidth
0 setlinejoin
0 setlinecap
newpath
145.02165 49.844683 moveto
153.26152 49.844683 153.26152 49.844683 153.26152 49.844683 curveto
stroke
gsave [-0.21259843 0.0000000 0.0000000 -0.21259843 154.32451 49.844683] concat
0.0000000 0.0000000 0.0000000 setrgbcolor
newpath
8.7185878 4.0337352 moveto
-2.2072895 0.016013256 lineto
8.7185884 -4.0017078 lineto
6.9730900 -1.6296469 6.9831476 1.6157441 8.7185878 4.0337352 curveto
closepath
eofill
grestore
grestore
0.0000000 0.0000000 0.0000000 setrgbcolor
newpath
135.07027 22.105112 moveto
135.07026 22.160457 135.06538 22.220679 135.05562 22.285776 curveto
134.70079 22.328100 134.50711 22.355770 134.47456 22.368784 curveto
134.30203 22.437150 134.21577 22.596655 134.21577 22.847300 curveto
134.21577 28.970346 lineto
134.00093 28.970346 lineto
128.75679 23.091440 lineto
128.75679 28.150034 lineto
128.75679 28.573211 129.03511 28.784800 129.59175 28.784800 curveto
129.66662 28.784800 129.73986 28.779917 129.81148 28.770151 curveto
129.81148 28.970346 lineto
127.60933 28.970346 lineto
127.55074 28.770151 lineto
128.08784 28.770151 128.35640 28.635060 128.35640 28.364878 curveto
128.35640 22.813120 lineto
128.35640 22.650366 128.25874 22.516902 128.06343 22.412729 curveto
127.91369 22.331356 127.74279 22.279272 127.55074 22.256479 curveto
127.58003 22.046518 lineto
129.13277 22.046518 lineto
133.78609 27.495737 lineto
133.78609 22.847300 lineto
133.78608 22.648738 133.68517 22.498999 133.48335 22.398081 curveto
133.32059 22.316707 133.13178 22.279272 132.91695 22.285776 curveto
132.91695 22.046518 lineto
135.05562 22.046518 lineto
135.06538 22.085588 135.07026 22.105119 135.07027 22.105112 curveto
fill
0.0000000 0.0000000 0.0000000 setrgbcolor
newpath
51.216511 89.022537 moveto
51.216506 89.588945 51.019566 90.026770 50.625690 90.336014 curveto
50.267614 90.619217 49.797237 90.760818 49.214558 90.760818 curveto
49.038774 90.760818 48.775102 90.728266 48.423542 90.663162 curveto
48.075233 90.598058 47.811562 90.565506 47.632526 90.565506 curveto
47.547890 90.565506 47.474648 90.596431 47.412800 90.658279 curveto
47.256550 90.658279 lineto
46.978230 88.944412 lineto
47.163776 88.880936 lineto
47.284218 89.375729 47.520221 89.769608 47.871784 90.062576 curveto
48.226600 90.355545 48.654660 90.502030 49.155964 90.502029 curveto
49.540075 90.502030 49.854203 90.375077 50.098347 90.121170 curveto
50.345739 89.867265 50.469437 89.546627 50.469440 89.159256 curveto
50.469437 88.771888 50.169958 88.363360 49.571003 87.933670 curveto
49.017615 87.546303 48.462603 87.158934 47.905964 86.771561 curveto
47.307005 86.267008 47.007526 85.729899 47.007526 85.160233 curveto
47.007526 84.684978 47.253294 84.307374 47.744831 84.027420 curveto
48.154986 83.793052 48.617225 83.675865 49.131550 83.675858 curveto
49.258500 83.675865 49.439164 83.708417 49.673542 83.773514 curveto
49.911169 83.835370 50.088578 83.866294 50.205769 83.866287 curveto
50.306676 83.866294 50.384801 83.822349 50.440144 83.734451 curveto
50.625690 83.734451 lineto
50.938190 85.794998 lineto
50.718464 85.794998 lineto
50.565465 85.189535 50.373408 84.754965 50.142292 84.491287 curveto
49.842810 84.156007 49.411495 83.988364 48.848347 83.988358 curveto
48.535845 83.988364 48.285194 84.086020 48.096394 84.281326 curveto
47.910845 84.476645 47.818072 84.732179 47.818073 85.047928 curveto
47.818072 85.438558 48.112668 85.838948 48.701862 86.249100 curveto
49.245479 86.623453 49.790726 86.997801 50.337605 87.372147 curveto
50.923538 87.873451 51.216506 88.423581 51.216511 89.022537 curveto
fill
0.0000000 0.0000000 0.0000000 setrgbcolor
newpath
167.89307 67.425545 moveto
167.69775 69.071053 lineto
162.19971 69.071053 lineto
162.19971 68.890388 lineto
162.97770 68.880623 163.36670 68.659269 163.36670 68.226326 curveto
163.36670 62.962654 lineto
163.36670 62.708754 163.29997 62.537856 163.16650 62.449959 curveto
163.02327 62.355564 162.74007 62.308364 162.31689 62.308357 curveto
162.31689 62.137459 lineto
167.47803 62.137459 lineto
167.53174 63.636482 lineto
167.35107 63.636482 lineto
167.27294 62.884535 167.03043 62.508559 166.62354 62.508553 curveto
164.25049 62.508553 lineto
164.25049 65.262459 lineto
166.14014 65.262459 lineto
166.44287 65.262463 166.63818 64.977632 166.72607 64.407967 curveto
166.88721 64.407967 lineto
166.88721 66.517342 lineto
166.72607 66.517342 lineto
166.61865 65.908621 166.42334 65.604259 166.14014 65.604256 curveto
164.25049 65.604256 lineto
164.25049 68.138435 lineto
164.25049 68.499764 164.38883 68.680428 164.66553 68.680428 curveto
166.73096 68.680428 lineto
167.21923 68.680428 167.54150 68.257251 167.69775 67.410896 curveto
167.89307 67.425545 lineto
fill
0.0000000 0.0000000 0.0000000 setrgbcolor
newpath
33.767488 54.581139 moveto
33.767481 55.652105 33.443588 56.539148 32.795809 57.242271 curveto
32.128486 57.964928 31.264229 58.326256 30.203035 58.326256 curveto
29.161366 58.326256 28.308502 58.034915 27.644442 57.452232 curveto
26.944571 56.840255 26.594637 56.023198 26.594637 55.001060 curveto
26.594637 53.930101 26.915275 53.043058 27.556551 52.339928 curveto
28.220612 51.617278 29.083241 51.255950 30.144442 51.255943 curveto
31.186104 51.255950 32.042223 51.547291 32.712801 52.129967 curveto
33.415919 52.741951 33.767481 53.559008 33.767488 54.581139 curveto
32.781160 54.942467 moveto
32.781154 54.063565 32.559800 53.298591 32.117098 52.647545 curveto
31.612536 51.905364 30.940336 51.534270 30.100496 51.534264 curveto
29.260650 51.534270 28.622630 51.863046 28.186434 52.520592 curveto
27.815339 53.083748 27.629792 53.808031 27.629793 54.693443 curveto
27.629792 55.565842 27.846263 56.319422 28.279207 56.954185 curveto
28.773997 57.676842 29.438059 58.038170 30.271395 58.038170 curveto
31.117744 58.038170 31.762275 57.724043 32.204988 57.095787 curveto
32.589097 56.545659 32.781154 55.827886 32.781160 54.942467 curveto
fill
0.0000000 0.0000000 0.0000000 setrgbcolor
[] 0 setdash
0.35433072 setlinewidth
0 setlinejoin
0 setlinecap
newpath
124.51359 60.281850 moveto
124.51359 60.281850 124.69669 55.521037 122.31629 52.225089 curveto
stroke
0.0000000 0.0000000 0.0000000 setrgbcolor
newpath
131.49115 57.176365 moveto
130.35345 57.176365 lineto
130.35345 59.183201 lineto
129.67963 59.183201 lineto
129.67963 57.176365 lineto
126.82318 57.176365 lineto
126.82318 56.868748 lineto
130.10931 52.142185 lineto
130.35345 52.142185 lineto
130.35345 56.561131 lineto
131.49115 56.561131 lineto
131.49115 57.176365 lineto
129.67963 53.279881 moveto
127.43842 56.561131 lineto
129.67963 56.561131 lineto
129.67963 53.279881 lineto
fill
0.0000000 0.0000000 0.0000000 setrgbcolor
newpath
136.26654 55.657810 moveto
136.26654 56.448829 136.09889 57.197526 135.76361 57.903904 curveto
135.34694 58.786066 134.78542 59.227146 134.07904 59.227146 curveto
133.34662 59.227146 132.77696 58.792576 132.37006 57.923435 curveto
132.05105 57.243099 131.89154 56.487891 131.89154 55.657810 curveto
131.89154 54.866799 132.05918 54.118102 132.39447 53.411716 curveto
132.81114 52.532817 133.37266 52.093364 134.07904 52.093357 curveto
134.81146 52.093364 135.37949 52.526306 135.78314 53.392185 curveto
136.10540 54.075784 136.26654 54.830992 136.26654 55.657810 curveto
135.54877 55.877537 moveto
135.54876 53.537048 135.05885 52.366801 134.07904 52.366795 curveto
133.09922 52.366801 132.60931 53.392191 132.60931 55.442966 curveto
132.60931 57.780207 133.09922 58.948826 134.07904 58.948826 curveto
135.05885 58.948826 135.54876 57.925064 135.54877 55.877537 curveto
fill
0.0000000 0.0000000 0.0000000 setrgbcolor
newpath
140.63666 53.939060 moveto
140.63665 54.365497 140.48529 54.730080 140.18256 55.032810 curveto
139.87982 55.335548 139.51361 55.486915 139.08392 55.486912 curveto
138.65749 55.486915 138.29291 55.335548 137.99017 55.032810 curveto
137.68744 54.730080 137.53607 54.365497 137.53607 53.939060 curveto
137.53607 53.509378 137.68744 53.143168 137.99017 52.840427 curveto
138.29291 52.537700 138.65749 52.386333 139.08392 52.386326 curveto
139.51361 52.386333 139.87982 52.537700 140.18256 52.840427 curveto
140.48529 53.143168 140.63665 53.509378 140.63666 53.939060 curveto
140.08002 53.948826 moveto
140.08001 53.675394 139.98236 53.442647 139.78705 53.250584 curveto
139.59499 53.055277 139.36061 52.957621 139.08392 52.957615 curveto
138.81048 52.957621 138.57611 53.055277 138.38080 53.250584 curveto
138.18874 53.442647 138.09271 53.675394 138.09271 53.948826 curveto
138.09271 54.225524 138.18874 54.461526 138.38080 54.656834 curveto
138.57611 54.848895 138.81048 54.944924 139.08392 54.944920 curveto
139.36061 54.944924 139.59499 54.848895 139.78705 54.656834 curveto
139.98236 54.461526 140.08001 54.225524 140.08002 53.948826 curveto
fill
gsave [0.86602500 0.50000000 -0.50000000 0.86602500 58.492230 -11.072440] concat
0.0000000 0.0000000 0.0000000 setrgbcolor
newpath
80.018289 43.435894 moveto
80.018289 44.244500 74.070934 44.900760 66.742943 44.900760 curveto
59.414952 44.900760 53.467597 44.244500 53.467597 43.435894 curveto
53.467597 42.627288 59.414952 41.971028 66.742943 41.971028 curveto
74.070934 41.971028 80.018289 42.627288 80.018289 43.435894 curveto
closepath
fill
0.0000000 0.0000000 0.0000000 setrgbcolor
[] 0 setdash
0.35433072 setlinewidth
0 setlinejoin
0 setlinecap
newpath
80.018289 43.435894 moveto
80.018289 44.244500 74.070934 44.900760 66.742943 44.900760 curveto
59.414952 44.900760 53.467597 44.244500 53.467597 43.435894 curveto
53.467597 42.627288 59.414952 41.971028 66.742943 41.971028 curveto
74.070934 41.971028 80.018289 42.627288 80.018289 43.435894 curveto
closepath
stroke
grestore
gsave [0.97029500 -0.24192200 0.24192200 0.97029500 17.109190 31.427030] concat
0.0000000 0.0000000 0.0000000 setrgbcolor
newpath
74.341934 46.274071 moveto
74.341934 47.234290 70.240310 48.013599 65.186523 48.013599 curveto
60.132737 48.013599 56.031113 47.234290 56.031113 46.274071 curveto
56.031113 45.313851 60.132737 44.534543 65.186523 44.534543 curveto
70.240310 44.534543 74.341934 45.313851 74.341934 46.274071 curveto
closepath
fill
0.0000000 0.0000000 0.0000000 setrgbcolor
[] 0 setdash
0.35433072 setlinewidth
0 setlinejoin
0 setlinecap
newpath
74.341934 46.274071 moveto
74.341934 47.234290 70.240310 48.013599 65.186523 48.013599 curveto
60.132737 48.013599 56.031113 47.234290 56.031113 46.274071 curveto
56.031113 45.313851 60.132737 44.534543 65.186523 44.534543 curveto
70.240310 44.534543 74.341934 45.313851 74.341934 46.274071 curveto
closepath
stroke
grestore
gsave [1.0000000 0.0000000 0.0000000 1.0000000 26.367580 27.283120] concat
0.0000000 0.0000000 0.0000000 setrgbcolor
newpath
58.594629 33.273388 moveto
58.594629 34.637910 57.979385 35.745349 57.221317 35.745349 curveto
56.463249 35.745349 55.848006 34.637910 55.848006 33.273388 curveto
55.848006 31.908865 56.463249 30.801427 57.221317 30.801427 curveto
57.979385 30.801427 58.594629 31.908865 58.594629 33.273388 curveto
closepath
fill
0.0000000 0.0000000 0.0000000 setrgbcolor
[] 0 setdash
0.35433072 setlinewidth
0 setlinejoin
0 setlinecap
newpath
58.594629 33.273388 moveto
58.594629 34.637910 57.979385 35.745349 57.221317 35.745349 curveto
56.463249 35.745349 55.848006 34.637910 55.848006 33.273388 curveto
55.848006 31.908865 56.463249 30.801427 57.221317 30.801427 curveto
57.979385 30.801427 58.594629 31.908865 58.594629 33.273388 curveto
closepath
stroke
grestore
gsave [1.0000000 0.0000000 0.0000000 1.0000000 60.242600 34.058130] concat
0.0000000 0.0000000 0.0000000 setrgbcolor
newpath
37.170969 23.385546 moveto
37.170969 24.244689 36.309628 24.941966 35.248333 24.941966 curveto
34.187038 24.941966 33.325697 24.244689 33.325697 23.385546 curveto
33.325697 22.526402 34.187038 21.829126 35.248333 21.829126 curveto
36.309628 21.829126 37.170969 22.526402 37.170969 23.385546 curveto
closepath
fill
0.0000000 0.0000000 0.0000000 setrgbcolor
[] 0 setdash
0.35433072 setlinewidth
0 setlinejoin
0 setlinecap
newpath
37.170969 23.385546 moveto
37.170969 24.244689 36.309628 24.941966 35.248333 24.941966 curveto
34.187038 24.941966 33.325697 24.244689 33.325697 23.385546 curveto
33.325697 22.526402 34.187038 21.829126 35.248333 21.829126 curveto
36.309628 21.829126 37.170969 22.526402 37.170969 23.385546 curveto
closepath
stroke
grestore
gsave [1.0000000 0.0000000 0.0000000 1.0000000 57.862200 33.691910] concat
0.0000000 0.0000000 0.0000000 setrgbcolor
[] 0 setdash
0.35433072 setlinewidth
0 setlinejoin
0 setlinecap
newpath
44.678406 24.209532 moveto
44.678406 25.826744 43.776048 27.139263 42.664215 27.139263 curveto
41.552382 27.139263 40.650025 25.826744 40.650025 24.209532 curveto
40.650025 22.592320 41.552382 21.279800 42.664215 21.279800 curveto
43.776048 21.279800 44.678406 22.592320 44.678406 24.209532 curveto
closepath
stroke
grestore
gsave [1.0489090 0.53669800 -0.63024900 0.89321500 73.008530 34.967390] concat
0.0000000 0.0000000 0.0000000 setrgbcolor
newpath
24.353394 17.800745 moveto
24.353394 18.306124 22.753760 18.716286 20.782784 18.716286 curveto
18.811807 18.716286 17.212173 18.306124 17.212173 17.800745 curveto
17.212173 17.295366 18.811807 16.885204 20.782784 16.885204 curveto
22.753760 16.885204 24.353394 17.295366 24.353394 17.800745 curveto
closepath
fill
0.0000000 0.0000000 0.0000000 setrgbcolor
[] 0 setdash
0.35433072 setlinewidth
0 setlinejoin
0 setlinecap
newpath
24.353394 17.800745 moveto
24.353394 18.306124 22.753760 18.716286 20.782784 18.716286 curveto
18.811807 18.716286 17.212173 18.306124 17.212173 17.800745 curveto
17.212173 17.295366 18.811807 16.885204 20.782784 16.885204 curveto
22.753760 16.885204 24.353394 17.295366 24.353394 17.800745 curveto
closepath
stroke
grestore
0.0000000 0.0000000 0.0000000 setrgbcolor
newpath
91.104828 50.967762 moveto
91.104828 48.790028 lineto
91.104824 48.767244 91.070645 48.685864 91.002289 48.545887 curveto
90.735359 47.989250 90.321947 47.710930 89.762054 47.710926 curveto
89.355152 47.710930 89.001962 47.873691 88.702484 48.199207 curveto
88.438811 48.485669 88.306976 48.993481 88.306976 49.722645 curveto
88.306976 50.197907 88.440439 50.630849 88.707367 51.021473 curveto
89.006845 51.460927 89.384448 51.680653 89.840179 51.680653 curveto
90.051765 51.680653 90.473315 51.443023 91.104828 50.967762 curveto
92.555023 54.175770 moveto
92.540375 54.410145 lineto
89.967133 54.410145 lineto
89.986664 54.175770 lineto
90.406583 54.172512 90.647468 54.159492 90.709320 54.136707 curveto
90.859056 54.081367 90.990892 53.900703 91.104828 53.594715 curveto
91.104828 51.260731 lineto
90.652351 51.622059 90.387052 51.825510 90.308929 51.871082 curveto
90.009448 52.053374 89.685555 52.144520 89.337250 52.144520 curveto
88.839202 52.144520 88.416025 51.910145 88.067719 51.441395 curveto
87.745453 51.011708 87.584320 50.538076 87.584320 50.020496 curveto
87.584320 49.278312 87.795908 48.677726 88.219086 48.218739 curveto
88.678069 47.720696 89.205412 47.471673 89.801117 47.471668 curveto
90.198250 47.471673 90.697924 47.600253 91.300140 47.857410 curveto
91.410814 47.743482 91.500332 47.616529 91.568695 47.476551 curveto
91.793304 47.476551 lineto
91.793304 53.677723 lineto
91.793300 54.009752 92.047206 54.175768 92.555023 54.175770 curveto
fill
grestore
showpage
