%!PS-Adobe-2.0 EPSF-2.0
%%Title: Boucle.eps
%%Creator: fig2dev Version 3.2 Patchlevel 3d
%%CreationDate: Fri Aug  8 23:33:25 2003
%%For: prof@portable (Vincent Guyot)
%%BoundingBox: 0 0 158 131
%%Magnification: 1.0000
%%EndComments
/$F2psDict 200 dict def
$F2psDict begin
$F2psDict /mtrx matrix put
/col-1 {0 setgray} bind def
/col0 {0.000 0.000 0.000 srgb} bind def
/col1 {0.000 0.000 1.000 srgb} bind def
/col2 {0.000 1.000 0.000 srgb} bind def
/col3 {0.000 1.000 1.000 srgb} bind def
/col4 {1.000 0.000 0.000 srgb} bind def
/col5 {1.000 0.000 1.000 srgb} bind def
/col6 {1.000 1.000 0.000 srgb} bind def
/col7 {1.000 1.000 1.000 srgb} bind def
/col8 {0.000 0.000 0.560 srgb} bind def
/col9 {0.000 0.000 0.690 srgb} bind def
/col10 {0.000 0.000 0.820 srgb} bind def
/col11 {0.530 0.810 1.000 srgb} bind def
/col12 {0.000 0.560 0.000 srgb} bind def
/col13 {0.000 0.690 0.000 srgb} bind def
/col14 {0.000 0.820 0.000 srgb} bind def
/col15 {0.000 0.560 0.560 srgb} bind def
/col16 {0.000 0.690 0.690 srgb} bind def
/col17 {0.000 0.820 0.820 srgb} bind def
/col18 {0.560 0.000 0.000 srgb} bind def
/col19 {0.690 0.000 0.000 srgb} bind def
/col20 {0.820 0.000 0.000 srgb} bind def
/col21 {0.560 0.000 0.560 srgb} bind def
/col22 {0.690 0.000 0.690 srgb} bind def
/col23 {0.820 0.000 0.820 srgb} bind def
/col24 {0.500 0.190 0.000 srgb} bind def
/col25 {0.630 0.250 0.000 srgb} bind def
/col26 {0.750 0.380 0.000 srgb} bind def
/col27 {1.000 0.500 0.500 srgb} bind def
/col28 {1.000 0.630 0.630 srgb} bind def
/col29 {1.000 0.750 0.750 srgb} bind def
/col30 {1.000 0.880 0.880 srgb} bind def
/col31 {1.000 0.840 0.000 srgb} bind def

end
save
newpath 0 131 moveto 0 0 lineto 158 0 lineto 158 131 lineto closepath clip newpath
-8.1 149.2 translate
1 -1 scale

/cp {closepath} bind def
/ef {eofill} bind def
/gr {grestore} bind def
/gs {gsave} bind def
/sa {save} bind def
/rs {restore} bind def
/l {lineto} bind def
/m {moveto} bind def
/rm {rmoveto} bind def
/n {newpath} bind def
/s {stroke} bind def
/sh {show} bind def
/slc {setlinecap} bind def
/slj {setlinejoin} bind def
/slw {setlinewidth} bind def
/srgb {setrgbcolor} bind def
/rot {rotate} bind def
/sc {scale} bind def
/sd {setdash} bind def
/ff {findfont} bind def
/sf {setfont} bind def
/scf {scalefont} bind def
/sw {stringwidth} bind def
/tr {translate} bind def
/tnt {dup dup currentrgbcolor
  4 -2 roll dup 1 exch sub 3 -1 roll mul add
  4 -2 roll dup 1 exch sub 3 -1 roll mul add
  4 -2 roll dup 1 exch sub 3 -1 roll mul add srgb}
  bind def
/shd {dup dup currentrgbcolor 4 -2 roll mul 4 -2 roll mul
  4 -2 roll mul srgb} bind def
/reencdict 12 dict def /ReEncode { reencdict begin
/newcodesandnames exch def /newfontname exch def /basefontname exch def
/basefontdict basefontname findfont def /newfont basefontdict maxlength dict def
basefontdict { exch dup /FID ne { dup /Encoding eq
{ exch dup length array copy newfont 3 1 roll put }
{ exch newfont 3 1 roll put } ifelse } { pop pop } ifelse } forall
newfont /FontName newfontname put newcodesandnames aload pop
128 1 255 { newfont /Encoding get exch /.notdef put } for
newcodesandnames length 2 idiv { newfont /Encoding get 3 1 roll put } repeat
newfontname newfont definefont pop end } def
/isovec [
8#055 /minus 8#200 /grave 8#201 /acute 8#202 /circumflex 8#203 /tilde
8#204 /macron 8#205 /breve 8#206 /dotaccent 8#207 /dieresis
8#210 /ring 8#211 /cedilla 8#212 /hungarumlaut 8#213 /ogonek 8#214 /caron
8#220 /dotlessi 8#230 /oe 8#231 /OE
8#240 /space 8#241 /exclamdown 8#242 /cent 8#243 /sterling
8#244 /currency 8#245 /yen 8#246 /brokenbar 8#247 /section 8#250 /dieresis
8#251 /copyright 8#252 /ordfeminine 8#253 /guillemotleft 8#254 /logicalnot
8#255 /hyphen 8#256 /registered 8#257 /macron 8#260 /degree 8#261 /plusminus
8#262 /twosuperior 8#263 /threesuperior 8#264 /acute 8#265 /mu 8#266 /paragraph
8#267 /periodcentered 8#270 /cedilla 8#271 /onesuperior 8#272 /ordmasculine
8#273 /guillemotright 8#274 /onequarter 8#275 /onehalf
8#276 /threequarters 8#277 /questiondown 8#300 /Agrave 8#301 /Aacute
8#302 /Acircumflex 8#303 /Atilde 8#304 /Adieresis 8#305 /Aring
8#306 /AE 8#307 /Ccedilla 8#310 /Egrave 8#311 /Eacute
8#312 /Ecircumflex 8#313 /Edieresis 8#314 /Igrave 8#315 /Iacute
8#316 /Icircumflex 8#317 /Idieresis 8#320 /Eth 8#321 /Ntilde 8#322 /Ograve
8#323 /Oacute 8#324 /Ocircumflex 8#325 /Otilde 8#326 /Odieresis 8#327 /multiply
8#330 /Oslash 8#331 /Ugrave 8#332 /Uacute 8#333 /Ucircumflex
8#334 /Udieresis 8#335 /Yacute 8#336 /Thorn 8#337 /germandbls 8#340 /agrave
8#341 /aacute 8#342 /acircumflex 8#343 /atilde 8#344 /adieresis 8#345 /aring
8#346 /ae 8#347 /ccedilla 8#350 /egrave 8#351 /eacute
8#352 /ecircumflex 8#353 /edieresis 8#354 /igrave 8#355 /iacute
8#356 /icircumflex 8#357 /idieresis 8#360 /eth 8#361 /ntilde 8#362 /ograve
8#363 /oacute 8#364 /ocircumflex 8#365 /otilde 8#366 /odieresis 8#367 /divide
8#370 /oslash 8#371 /ugrave 8#372 /uacute 8#373 /ucircumflex
8#374 /udieresis 8#375 /yacute 8#376 /thorn 8#377 /ydieresis] def
/Times-Roman /Times-Roman-iso isovec ReEncode
 /DrawEllipse {
	/endangle exch def
	/startangle exch def
	/yrad exch def
	/xrad exch def
	/y exch def
	/x exch def
	/savematrix mtrx currentmatrix def
	x y tr xrad yrad sc 0 0 1 startangle endangle arc
	closepath
	savematrix setmatrix
	} def

/$F2psBegin {$F2psDict begin /$F2psEnteredState save def} def
/$F2psEnd {$F2psEnteredState restore end} def

$F2psBegin
10 setmiterlimit
 0.06299 0.06299 sc
%
% Fig objects follow
%
7.500 slw
% Ellipse
n 1381 744 1242 432 0 360 DrawEllipse gs col0 s gr

% Ellipse
n 1356 722 1074 313 0 360 DrawEllipse gs col0 s gr

% Ellipse
n 1337 684 778 216 0 360 DrawEllipse gs col0 s gr

% Ellipse
n 1337 639 463 126 0 360 DrawEllipse gs col0 s gr

% Ellipse
n 1385 1732 1242 432 0 360 DrawEllipse gs col0 s gr

% Ellipse
n 1360 1754 1074 313 0 360 DrawEllipse gs col0 s gr

% Ellipse
n 1341 1792 778 216 0 360 DrawEllipse gs col0 s gr

% Ellipse
n 1341 1837 463 126 0 360 DrawEllipse gs col0 s gr

30.000 slw
% Ellipse
n 1349 1242 270 675 0 360 DrawEllipse gs col0 s gr

% Polyline
7.500 slw
n 141 1238 m
 2616 1238 l gs col0 s gr 
% Polyline
n 1619 1312 m
 1619 1152 l gs col0 s gr 
% Polyline
30.000 slw
gs  clippath
1658 1098 m 1568 1098 l 1568 1235 l 1613 1123 l 1658 1235 l cp
eoclip
n 1613 1331 m
 1613 1113 l gs col0 s gr gr

% arrowhead
7.500 slw
n 1658 1235 m 1613 1123 l 1568 1235 l 1613 1213 l 1658 1235 l 
 cp gs 0.00 setgray ef gr  col0 s
% Polyline
30.000 slw
gs  clippath
1036 1372 m 1126 1372 l 1126 1234 l 1081 1347 l 1036 1234 l cp
eoclip
n 1081 1139 m
 1081 1357 l gs col0 s gr gr

% arrowhead
7.500 slw
n 1036 1234 m 1081 1347 l 1126 1234 l 1081 1257 l 1036 1234 l 
 cp gs 0.00 setgray ef gr  col0 s
% Polyline
gs  clippath
431 1219 m 431 1264 l 578 1264 l 466 1242 l 578 1219 l cp
eoclip
n 664 1242 m
 446 1242 l gs col0 s gr gr

% arrowhead
n 578 1219 m 466 1242 l 578 1264 l 556 1242 l 578 1219 l 
 cp gs 0.00 setgray ef gr  col0 s
% Polyline
gs  clippath
1252 1148 m 1252 1193 l 1399 1193 l 1287 1171 l 1399 1148 l cp
eoclip
n 1485 1171 m
 1267 1171 l gs col0 s gr gr

% arrowhead
n 1399 1148 m 1287 1171 l 1399 1193 l 1377 1171 l 1399 1148 l 
 cp gs 0.00 setgray ef gr  col0 s
% Polyline
gs  clippath
1233 1283 m 1233 1328 l 1380 1328 l 1268 1306 l 1380 1283 l cp
eoclip
n 1466 1306 m
 1248 1306 l gs col0 s gr gr

% arrowhead
n 1380 1283 m 1268 1306 l 1380 1328 l 1358 1306 l 1380 1283 l 
 cp gs 0.00 setgray ef gr  col0 s
% Polyline
gs  clippath
1201 1552 m 1201 1597 l 1348 1597 l 1236 1575 l 1348 1552 l cp
eoclip
n 1434 1575 m
 1216 1575 l gs col0 s gr gr

% arrowhead
n 1348 1552 m 1236 1575 l 1348 1597 l 1326 1575 l 1348 1552 l 
 cp gs 0.00 setgray ef gr  col0 s
% Polyline
gs  clippath
1207 744 m 1207 789 l 1354 789 l 1242 767 l 1354 744 l cp
eoclip
n 1440 767 m
 1222 767 l gs col0 s gr gr

% arrowhead
n 1354 744 m 1242 767 l 1354 789 l 1332 767 l 1354 744 l 
 cp gs 0.00 setgray ef gr  col0 s
% Polyline
gs  clippath
420 856 m 405 898 l 543 949 l 446 890 l 559 907 l cp
eoclip
n 632 958 m
 427 883 l gs col0 s gr gr

% arrowhead
n 559 907 m 446 890 l 543 949 l 530 920 l 559 907 l 
 cp gs 0.00 setgray ef gr  col0 s
% Polyline
gs  clippath
839 545 m 824 503 l 685 554 l 799 537 l 701 596 l cp
eoclip
n 613 605 m
 818 530 l gs col0 s gr gr

% arrowhead
n 701 596 m 799 537 l 685 554 l 714 567 l 701 596 l 
 cp gs 0.00 setgray ef gr  col0 s
% Polyline
gs  clippath
2061 620 m 2076 578 l 1938 527 l 2036 587 l 1922 569 l cp
eoclip
n 1850 519 m
 2055 594 l gs col0 s gr gr

% arrowhead
n 1922 569 m 2036 587 l 1938 527 l 1951 556 l 1922 569 l 
 cp gs 0.00 setgray ef gr  col0 s
% Polyline
gs  clippath
612 2099 m 627 2057 l 489 2006 l 587 2066 l 473 2048 l cp
eoclip
n 401 1998 m
 606 2073 l gs col0 s gr gr

% arrowhead
n 473 2048 m 587 2066 l 489 2006 l 502 2035 l 473 2048 l 
 cp gs 0.00 setgray ef gr  col0 s
% Polyline
gs  clippath
837 1984 m 852 1942 l 714 1891 l 812 1951 l 698 1933 l cp
eoclip
n 626 1883 m
 831 1958 l gs col0 s gr gr

% arrowhead
n 698 1933 m 812 1951 l 714 1891 l 727 1920 l 698 1933 l 
 cp gs 0.00 setgray ef gr  col0 s
% Polyline
gs  clippath
2057 1900 m 2042 1858 l 1903 1909 l 2017 1892 l 1919 1951 l cp
eoclip
n 1831 1960 m
 2036 1885 l gs col0 s gr gr

% arrowhead
n 1919 1951 m 2017 1892 l 1903 1909 l 1932 1922 l 1919 1951 l 
 cp gs 0.00 setgray ef gr  col0 s
% Polyline
gs  clippath
2422 1996 m 2407 1954 l 2268 2005 l 2382 1988 l 2284 2047 l cp
eoclip
n 2196 2056 m
 2401 1981 l gs col0 s gr gr

% arrowhead
n 2284 2047 m 2382 1988 l 2268 2005 l 2297 2018 l 2284 2047 l 
 cp gs 0.00 setgray ef gr  col0 s
% Polyline
gs  clippath
2061 1484 m 2046 1526 l 2184 1577 l 2087 1518 l 2200 1535 l cp
eoclip
n 2273 1586 m
 2068 1511 l gs col0 s gr gr

% arrowhead
n 2200 1535 m 2087 1518 l 2184 1577 l 2171 1548 l 2200 1535 l 
 cp gs 0.00 setgray ef gr  col0 s
% Polyline
gs  clippath
405 1578 m 420 1620 l 559 1569 l 446 1587 l 543 1527 l cp
eoclip
n 632 1519 m
 427 1594 l gs col0 s gr gr

% arrowhead
n 543 1527 m 446 1587 l 559 1569 l 530 1556 l 543 1527 l 
 cp gs 0.00 setgray ef gr  col0 s
/Times-Roman-iso ff 180.00 scf sf
322 2320 m
gs 1 -1 sc (Lignes de champ magn\351tique) col0 sh gr
/Times-Roman-iso ff 180.00 scf sf
1544 708 m
gs 1 -1 sc (Boucle) col0 sh gr
% Polyline
n 1074 961 m 1191 961 l 1191 1012 l 1074 1012 l
 cp gs col7 1.00 shd ef gr gs col7 s gr 
% Polyline
n 1062 773 m 1179 773 l 1179 824 l 1062 824 l
 cp gs col7 1.00 shd ef gr gs col7 s gr 
% Polyline
n 1058 1331 m 1175 1331 l 1175 1382 l 1058 1382 l
 cp gs col7 1.00 shd ef gr gs col7 s gr 
% Polyline
n 1101 1605 m 1218 1605 l 1218 1656 l 1101 1656 l
 cp gs col7 1.00 shd ef gr gs col7 s gr 
$F2psEnd
rs
