%!PS-Adobe-2.0 EPSF-2.0
%%Title: cadre.eps
%%Creator: fig2dev Version 3.2 Patchlevel 3d
%%CreationDate: Sat Aug  9 22:33:37 2003
%%For: prof@portable (Vincent Guyot)
%%BoundingBox: 0 0 129 132
%%Magnification: 1.0000
%%EndComments
/$F2psDict 200 dict def
$F2psDict begin
$F2psDict /mtrx matrix put
/col-1 {0 setgray} bind def
/col0 {0.000 0.000 0.000 srgb} bind def
/col1 {0.000 0.000 1.000 srgb} bind def
/col2 {0.000 1.000 0.000 srgb} bind def
/col3 {0.000 1.000 1.000 srgb} bind def
/col4 {1.000 0.000 0.000 srgb} bind def
/col5 {1.000 0.000 1.000 srgb} bind def
/col6 {1.000 1.000 0.000 srgb} bind def
/col7 {1.000 1.000 1.000 srgb} bind def
/col8 {0.000 0.000 0.560 srgb} bind def
/col9 {0.000 0.000 0.690 srgb} bind def
/col10 {0.000 0.000 0.820 srgb} bind def
/col11 {0.530 0.810 1.000 srgb} bind def
/col12 {0.000 0.560 0.000 srgb} bind def
/col13 {0.000 0.690 0.000 srgb} bind def
/col14 {0.000 0.820 0.000 srgb} bind def
/col15 {0.000 0.560 0.560 srgb} bind def
/col16 {0.000 0.690 0.690 srgb} bind def
/col17 {0.000 0.820 0.820 srgb} bind def
/col18 {0.560 0.000 0.000 srgb} bind def
/col19 {0.690 0.000 0.000 srgb} bind def
/col20 {0.820 0.000 0.000 srgb} bind def
/col21 {0.560 0.000 0.560 srgb} bind def
/col22 {0.690 0.000 0.690 srgb} bind def
/col23 {0.820 0.000 0.820 srgb} bind def
/col24 {0.500 0.190 0.000 srgb} bind def
/col25 {0.630 0.250 0.000 srgb} bind def
/col26 {0.750 0.380 0.000 srgb} bind def
/col27 {1.000 0.500 0.500 srgb} bind def
/col28 {1.000 0.630 0.630 srgb} bind def
/col29 {1.000 0.750 0.750 srgb} bind def
/col30 {1.000 0.880 0.880 srgb} bind def
/col31 {1.000 0.840 0.000 srgb} bind def

end
save
newpath 0 132 moveto 0 0 lineto 129 0 lineto 129 132 lineto closepath clip newpath
-4.4 142.4 translate
1 -1 scale

/cp {closepath} bind def
/ef {eofill} bind def
/gr {grestore} bind def
/gs {gsave} bind def
/sa {save} bind def
/rs {restore} bind def
/l {lineto} bind def
/m {moveto} bind def
/rm {rmoveto} bind def
/n {newpath} bind def
/s {stroke} bind def
/sh {show} bind def
/slc {setlinecap} bind def
/slj {setlinejoin} bind def
/slw {setlinewidth} bind def
/srgb {setrgbcolor} bind def
/rot {rotate} bind def
/sc {scale} bind def
/sd {setdash} bind def
/ff {findfont} bind def
/sf {setfont} bind def
/scf {scalefont} bind def
/sw {stringwidth} bind def
/tr {translate} bind def
/tnt {dup dup currentrgbcolor
  4 -2 roll dup 1 exch sub 3 -1 roll mul add
  4 -2 roll dup 1 exch sub 3 -1 roll mul add
  4 -2 roll dup 1 exch sub 3 -1 roll mul add srgb}
  bind def
/shd {dup dup currentrgbcolor 4 -2 roll mul 4 -2 roll mul
  4 -2 roll mul srgb} bind def
 /DrawEllipse {
	/endangle exch def
	/startangle exch def
	/yrad exch def
	/xrad exch def
	/y exch def
	/x exch def
	/savematrix mtrx currentmatrix def
	x y tr xrad yrad sc 0 0 1 startangle endangle arc
	closepath
	savematrix setmatrix
	} def

/$F2psBegin {$F2psDict begin /$F2psEnteredState save def} def
/$F2psEnd {$F2psEnteredState restore end} def

$F2psBegin
10 setmiterlimit
 0.06299 0.06299 sc
%
% Fig objects follow
%
% Polyline
7.500 slw
gs  clippath
1539 2004 m 1570 1971 l 1462 1870 l 1529 1964 l 1431 1903 l cp
eoclip
n 869 1348 m
 1544 1978 l gs col0 s gr gr

% arrowhead
n 1431 1903 m 1529 1964 l 1462 1870 l 1463 1902 l 1431 1903 l 
 cp gs 0.00 setgray ef gr  col0 s
% Polyline
n 959 1438 m 824 1483 l
 734 1393 l gs col0 s gr 
% Ellipse
n 847 1417 17 17 0 360 DrawEllipse gs 0.00 setgray ef gr gs col0 s gr

% Arc
gs  clippath
1382 1499 m 1329 1470 l 1262 1595 l 1342 1511 l 1315 1624 l cp
eoclip
n 1094.3 1416.7 267.4 126.0 17.7 arcn
gs col0 s gr
 gr

% arrowhead
n 1315 1624 m 1342 1511 l 1262 1595 l 1299 1590 l 1315 1624 l 
 cp gs 0.00 setgray ef gr  col0 s
% Ellipse
n 269 1536 80 80 0 360 DrawEllipse gs col0 s gr

% Ellipse
n 269 1536 24 24 0 360 DrawEllipse gs 0.00 setgray ef gr gs col0 s gr

% Ellipse
n 1454 1191 80 80 0 360 DrawEllipse gs col0 s gr

% Polyline
n 810 274 m 810 859 l 270 1039 l 270 2209 l 1454 1776 l 1454 651 l
 945 814 l
 945 274 l gs col0 s gr 
% Polyline
gs  clippath
2114 1378 m 2114 1333 l 1966 1333 l 2079 1356 l 1966 1378 l cp
eoclip
n 884 1356 m
 2099 1356 l gs col0 s gr gr

% arrowhead
n 1966 1378 m 2079 1356 l 1966 1333 l 1989 1356 l 1966 1378 l 
 cp gs 0.00 setgray ef gr  col0 s
% Polyline
 [60] 0 sd
n 877 178 m
 877 2248 l gs col0 s gr  [] 0 sd
% Polyline
gs  clippath
786 539 m 831 539 l 831 391 l 809 504 l 786 391 l cp
eoclip
n 809 456 m
 809 524 l gs col0 s gr gr

% arrowhead
n 786 391 m 809 504 l 831 391 l 809 414 l 786 391 l 
 cp gs 0.00 setgray ef gr  col0 s
% Polyline
gs  clippath
966 590 m 921 590 l 921 737 l 944 625 l 966 737 l cp
eoclip
n 944 673 m
 944 605 l gs col0 s gr gr

% arrowhead
n 966 737 m 944 625 l 921 737 l 944 715 l 966 737 l 
 cp gs 0.00 setgray ef gr  col0 s
% Polyline
gs  clippath
246 2031 m 291 2031 l 291 1883 l 269 1996 l 246 1883 l cp
eoclip
n 269 1948 m
 269 2016 l gs col0 s gr gr

% arrowhead
n 246 1883 m 269 1996 l 291 1883 l 269 1906 l 246 1883 l 
 cp gs 0.00 setgray ef gr  col0 s
% Polyline
gs  clippath
1476 733 m 1431 733 l 1431 880 l 1454 768 l 1476 880 l cp
eoclip
n 1454 816 m
 1454 748 l gs col0 s gr gr

% arrowhead
n 1476 880 m 1454 768 l 1431 880 l 1454 858 l 1476 880 l 
 cp gs 0.00 setgray ef gr  col0 s
% Polyline
gs  clippath
759 2054 m 744 2011 l 605 2061 l 719 2045 l 620 2104 l cp
eoclip
n 674 2061 m
 738 2038 l gs col0 s gr gr

% arrowhead
n 620 2104 m 719 2045 l 605 2061 l 634 2075 l 620 2104 l 
 cp gs 0.00 setgray ef gr  col0 s
% Polyline
gs  clippath
386 979 m 401 1022 l 540 972 l 427 989 l 525 929 l cp
eoclip
n 472 973 m
 408 996 l gs col0 s gr gr

% arrowhead
n 525 929 m 427 989 l 540 972 l 511 958 l 525 929 l 
 cp gs 0.00 setgray ef gr  col0 s
% Polyline
gs  clippath
1686 1828 m 1686 1783 l 1634 1783 l 1664 1806 l 1634 1828 l cp
eoclip
n 1559 1806 m
 1671 1806 l gs col0 s gr gr

% arrowhead
n 1634 1828 m 1664 1806 l 1634 1783 l  col0 s
% Polyline
gs  clippath
1941 1168 m 1941 1123 l 1889 1123 l 1919 1146 l 1889 1168 l cp
eoclip
n 1814 1146 m
 1926 1146 l gs col0 s gr gr

% arrowhead
n 1889 1168 m 1919 1146 l 1889 1123 l  col0 s
% Polyline
n 1409 1258 m
 1514 1138 l gs col0 s gr 
% Polyline
n 1387 1153 m
 1522 1243 l gs col0 s gr 
% Polyline
gs  clippath
1664 973 m 1664 928 l 1612 928 l 1642 951 l 1612 973 l cp
eoclip
n 1537 951 m
 1649 951 l gs col0 s gr gr

% arrowhead
n 1612 973 m 1642 951 l 1612 928 l  col0 s
% Polyline
gs  clippath
209 1385 m 209 1340 l 157 1340 l 187 1363 l 157 1385 l cp
eoclip
n 82 1363 m
 194 1363 l gs col0 s gr gr

% arrowhead
n 157 1385 m 187 1363 l 157 1340 l  col0 s
/Times-Roman ff 180.00 scf sf
922 2248 m
gs 1 -1 sc (Axe de rotation) col0 sh gr
/Times-Roman ff 180.00 scf sf
457 898 m
gs 1 -1 sc (I) col0 sh gr
/Times-Roman ff 180.00 scf sf
1814 1303 m
gs 1 -1 sc (B) col0 sh gr
/Times-Roman ff 180.00 scf sf
1567 1963 m
gs 1 -1 sc (S) col0 sh gr
/Times-Roman ff 180.00 scf sf
82 1521 m
gs 1 -1 sc (F) col0 sh gr
/Times-Roman ff 180.00 scf sf
1537 1108 m
gs 1 -1 sc (F) col0 sh gr
/Times-Roman ff 180.00 scf sf
1349 1618 m
gs 1 -1 sc (rotation) col0 sh gr
$F2psEnd
rs
