%!PS-Adobe-2.0 EPSF-2.0
%%Title: Canon.eps
%%Creator: fig2dev Version 3.2 Patchlevel 3d
%%CreationDate: Tue Aug 12 21:42:32 2003
%%For: prof@portable (Vincent Guyot)
%%BoundingBox: 0 0 141 187
%%Magnification: 1.0000
%%EndComments
/$F2psDict 200 dict def
$F2psDict begin
$F2psDict /mtrx matrix put
/col-1 {0 setgray} bind def
/col0 {0.000 0.000 0.000 srgb} bind def
/col1 {0.000 0.000 1.000 srgb} bind def
/col2 {0.000 1.000 0.000 srgb} bind def
/col3 {0.000 1.000 1.000 srgb} bind def
/col4 {1.000 0.000 0.000 srgb} bind def
/col5 {1.000 0.000 1.000 srgb} bind def
/col6 {1.000 1.000 0.000 srgb} bind def
/col7 {1.000 1.000 1.000 srgb} bind def
/col8 {0.000 0.000 0.560 srgb} bind def
/col9 {0.000 0.000 0.690 srgb} bind def
/col10 {0.000 0.000 0.820 srgb} bind def
/col11 {0.530 0.810 1.000 srgb} bind def
/col12 {0.000 0.560 0.000 srgb} bind def
/col13 {0.000 0.690 0.000 srgb} bind def
/col14 {0.000 0.820 0.000 srgb} bind def
/col15 {0.000 0.560 0.560 srgb} bind def
/col16 {0.000 0.690 0.690 srgb} bind def
/col17 {0.000 0.820 0.820 srgb} bind def
/col18 {0.560 0.000 0.000 srgb} bind def
/col19 {0.690 0.000 0.000 srgb} bind def
/col20 {0.820 0.000 0.000 srgb} bind def
/col21 {0.560 0.000 0.560 srgb} bind def
/col22 {0.690 0.000 0.690 srgb} bind def
/col23 {0.820 0.000 0.820 srgb} bind def
/col24 {0.500 0.190 0.000 srgb} bind def
/col25 {0.630 0.250 0.000 srgb} bind def
/col26 {0.750 0.380 0.000 srgb} bind def
/col27 {1.000 0.500 0.500 srgb} bind def
/col28 {1.000 0.630 0.630 srgb} bind def
/col29 {1.000 0.750 0.750 srgb} bind def
/col30 {1.000 0.880 0.880 srgb} bind def
/col31 {1.000 0.840 0.000 srgb} bind def

end
save
newpath 0 187 moveto 0 0 lineto 141 0 lineto 141 187 lineto closepath clip newpath
-4.3 189.0 translate
1 -1 scale

/cp {closepath} bind def
/ef {eofill} bind def
/gr {grestore} bind def
/gs {gsave} bind def
/sa {save} bind def
/rs {restore} bind def
/l {lineto} bind def
/m {moveto} bind def
/rm {rmoveto} bind def
/n {newpath} bind def
/s {stroke} bind def
/sh {show} bind def
/slc {setlinecap} bind def
/slj {setlinejoin} bind def
/slw {setlinewidth} bind def
/srgb {setrgbcolor} bind def
/rot {rotate} bind def
/sc {scale} bind def
/sd {setdash} bind def
/ff {findfont} bind def
/sf {setfont} bind def
/scf {scalefont} bind def
/sw {stringwidth} bind def
/tr {translate} bind def
/tnt {dup dup currentrgbcolor
  4 -2 roll dup 1 exch sub 3 -1 roll mul add
  4 -2 roll dup 1 exch sub 3 -1 roll mul add
  4 -2 roll dup 1 exch sub 3 -1 roll mul add srgb}
  bind def
/shd {dup dup currentrgbcolor 4 -2 roll mul 4 -2 roll mul
  4 -2 roll mul srgb} bind def
/reencdict 12 dict def /ReEncode { reencdict begin
/newcodesandnames exch def /newfontname exch def /basefontname exch def
/basefontdict basefontname findfont def /newfont basefontdict maxlength dict def
basefontdict { exch dup /FID ne { dup /Encoding eq
{ exch dup length array copy newfont 3 1 roll put }
{ exch newfont 3 1 roll put } ifelse } { pop pop } ifelse } forall
newfont /FontName newfontname put newcodesandnames aload pop
128 1 255 { newfont /Encoding get exch /.notdef put } for
newcodesandnames length 2 idiv { newfont /Encoding get 3 1 roll put } repeat
newfontname newfont definefont pop end } def
/isovec [
8#055 /minus 8#200 /grave 8#201 /acute 8#202 /circumflex 8#203 /tilde
8#204 /macron 8#205 /breve 8#206 /dotaccent 8#207 /dieresis
8#210 /ring 8#211 /cedilla 8#212 /hungarumlaut 8#213 /ogonek 8#214 /caron
8#220 /dotlessi 8#230 /oe 8#231 /OE
8#240 /space 8#241 /exclamdown 8#242 /cent 8#243 /sterling
8#244 /currency 8#245 /yen 8#246 /brokenbar 8#247 /section 8#250 /dieresis
8#251 /copyright 8#252 /ordfeminine 8#253 /guillemotleft 8#254 /logicalnot
8#255 /hyphen 8#256 /registered 8#257 /macron 8#260 /degree 8#261 /plusminus
8#262 /twosuperior 8#263 /threesuperior 8#264 /acute 8#265 /mu 8#266 /paragraph
8#267 /periodcentered 8#270 /cedilla 8#271 /onesuperior 8#272 /ordmasculine
8#273 /guillemotright 8#274 /onequarter 8#275 /onehalf
8#276 /threequarters 8#277 /questiondown 8#300 /Agrave 8#301 /Aacute
8#302 /Acircumflex 8#303 /Atilde 8#304 /Adieresis 8#305 /Aring
8#306 /AE 8#307 /Ccedilla 8#310 /Egrave 8#311 /Eacute
8#312 /Ecircumflex 8#313 /Edieresis 8#314 /Igrave 8#315 /Iacute
8#316 /Icircumflex 8#317 /Idieresis 8#320 /Eth 8#321 /Ntilde 8#322 /Ograve
8#323 /Oacute 8#324 /Ocircumflex 8#325 /Otilde 8#326 /Odieresis 8#327 /multiply
8#330 /Oslash 8#331 /Ugrave 8#332 /Uacute 8#333 /Ucircumflex
8#334 /Udieresis 8#335 /Yacute 8#336 /Thorn 8#337 /germandbls 8#340 /agrave
8#341 /aacute 8#342 /acircumflex 8#343 /atilde 8#344 /adieresis 8#345 /aring
8#346 /ae 8#347 /ccedilla 8#350 /egrave 8#351 /eacute
8#352 /ecircumflex 8#353 /edieresis 8#354 /igrave 8#355 /iacute
8#356 /icircumflex 8#357 /idieresis 8#360 /eth 8#361 /ntilde 8#362 /ograve
8#363 /oacute 8#364 /ocircumflex 8#365 /otilde 8#366 /odieresis 8#367 /divide
8#370 /oslash 8#371 /ugrave 8#372 /uacute 8#373 /ucircumflex
8#374 /udieresis 8#375 /yacute 8#376 /thorn 8#377 /ydieresis] def
/Times-Roman /Times-Roman-iso isovec ReEncode
 /DrawEllipse {
	/endangle exch def
	/startangle exch def
	/yrad exch def
	/xrad exch def
	/y exch def
	/x exch def
	/savematrix mtrx currentmatrix def
	x y tr xrad yrad sc 0 0 1 startangle endangle arc
	closepath
	savematrix setmatrix
	} def

/$F2psBegin {$F2psDict begin /$F2psEnteredState save def} def
/$F2psEnd {$F2psEnteredState restore end} def

$F2psBegin
10 setmiterlimit
 0.06299 0.06299 sc
%
% Fig objects follow
%
/Times-Roman-iso ff 180.00 scf sf
1373 1346 m
gs 1 -1 sc (e) col0 sh gr
/Times-Roman-iso ff 180.00 scf sf
1442 1269 m
gs 1 -1 sc (-) col0 sh gr
% Polyline
7.500 slw
n 782 1142 m
 854 1142 l gs col0 s gr 
% Polyline
n 813 1110 m
 813 1182 l gs col0 s gr 
% Polyline
n 741 1254 m
 813 1254 l gs col0 s gr 
% Polyline
n 772 1222 m
 772 1294 l gs col0 s gr 
% Polyline
n 710 1366 m
 782 1366 l gs col0 s gr 
% Polyline
n 741 1334 m
 741 1406 l gs col0 s gr 
% Polyline
n 670 1488 m
 742 1488 l gs col0 s gr 
% Polyline
n 701 1456 m
 701 1528 l gs col0 s gr 
% Polyline
n 812 1010 m
 884 1010 l gs col0 s gr 
% Polyline
n 843 978 m
 843 1050 l gs col0 s gr 
% Polyline
n 843 898 m
 915 898 l gs col0 s gr 
% Polyline
n 874 866 m
 874 938 l gs col0 s gr 
% Polyline
n 873 786 m
 945 786 l gs col0 s gr 
% Polyline
n 904 754 m
 904 826 l gs col0 s gr 
% Polyline
n 914 664 m
 986 664 l gs col0 s gr 
% Polyline
n 945 632 m
 945 704 l gs col0 s gr 
% Polyline
n 955 583 m
 1027 583 l gs col0 s gr 
% Polyline
n 986 551 m
 986 623 l gs col0 s gr 
% Polyline
n 1046 583 m
 1118 583 l gs col0 s gr 
% Polyline
n 1077 551 m
 1077 623 l gs col0 s gr 
% Polyline
n 1443 583 m
 1515 583 l gs col0 s gr 
% Polyline
n 1474 551 m
 1474 623 l gs col0 s gr 
% Polyline
n 1544 583 m
 1616 583 l gs col0 s gr 
% Polyline
n 1575 551 m
 1575 623 l gs col0 s gr 
% Polyline
n 1605 634 m
 1677 634 l gs col0 s gr 
% Polyline
n 1636 602 m
 1636 674 l gs col0 s gr 
% Polyline
n 1636 725 m
 1708 725 l gs col0 s gr 
% Polyline
n 1667 693 m
 1667 765 l gs col0 s gr 
% Polyline
n 1666 837 m
 1738 837 l gs col0 s gr 
% Polyline
n 1697 805 m
 1697 877 l gs col0 s gr 
% Polyline
n 1697 939 m
 1769 939 l gs col0 s gr 
% Polyline
n 1728 907 m
 1728 979 l gs col0 s gr 
% Polyline
n 1738 1071 m
 1810 1071 l gs col0 s gr 
% Polyline
n 1769 1039 m
 1769 1111 l gs col0 s gr 
% Polyline
n 1778 1193 m
 1850 1193 l gs col0 s gr 
% Polyline
n 1809 1161 m
 1809 1233 l gs col0 s gr 
% Polyline
n 1809 1305 m
 1881 1305 l gs col0 s gr 
% Polyline
n 1840 1273 m
 1840 1345 l gs col0 s gr 
% Polyline
n 1839 1407 m
 1911 1407 l gs col0 s gr 
% Polyline
n 1870 1375 m
 1870 1447 l gs col0 s gr 
% Polyline
n 1870 1509 m
 1942 1509 l gs col0 s gr 
% Polyline
n 1901 1477 m
 1901 1549 l gs col0 s gr 
% Ellipse
n 1300 1321 24 24 0 360 DrawEllipse gs 0.00 setgray ef gr gs col0 s gr

% Polyline
n 630 1545 m 930 525 l
 1170 525 l gs col0 s gr 
% Polyline
n 1980 1545 m 1680 525 l
 1440 525 l gs col0 s gr 
% Polyline
n 1800 915 m 2280 915 l 2280 2805 l
 1440 2805 l gs col0 s gr 
% Polyline
n 580 1666 m 420 1665 l 420 2805 l
 1110 2805 l gs col0 s gr 
% Polyline
n 811 2231 m
 1257 2231 l gs col0 s gr 
% Polyline
n 1797 2231 m
 1360 2231 l gs col0 s gr 
% Polyline
n 1360 2137 m
 1360 2326 l gs col0 s gr 
% Polyline
n 1248 2034 m
 1248 2428 l gs col0 s gr 
% Polyline
n 1103 2626 m 1446 2626 l 1446 2951 l 1103 2951 l
 cp gs col0 s gr 
% Polyline
gs  clippath
1231 35 m 1186 38 l 1196 185 l 1211 72 l 1241 182 l cp
eoclip
n 1304 1329 m
 1210 52 l gs col0 s gr gr

% arrowhead
n 1241 182 m 1211 72 l 1196 185 l 1217 161 l 1241 182 l 
 cp gs 0.00 setgray ef gr  col0 s
% Polyline
gs  clippath
507 1461 m 550 1447 l 504 1307 l 518 1421 l 461 1320 l cp
eoclip
n 327 832 m
 524 1440 l gs col0 s gr gr

% arrowhead
n 461 1320 m 518 1421 l 504 1307 l 490 1335 l 461 1320 l 
 cp gs 0.00 setgray ef gr  col0 s
% Polyline
gs  clippath
767 1072 m 787 1032 l 655 966 l 746 1037 l 635 1006 l cp
eoclip
n 318 823 m
 764 1046 l gs col0 s gr gr

% arrowhead
n 635 1006 m 746 1037 l 655 966 l 665 996 l 635 1006 l 
 cp gs 0.00 setgray ef gr  col0 s
% Polyline
n 546 1535 m 636 1895 l 1941 1895 l
 2050 1548 l gs col0 s gr 
% Polyline
n 599 1650 m
 671 1650 l gs col0 s gr 
% Polyline
n 629 1752 m
 701 1752 l gs col0 s gr 
% Polyline
n 670 1854 m
 742 1854 l gs col0 s gr 
% Polyline
n 680 1935 m
 752 1935 l gs col0 s gr 
% Polyline
n 843 1935 m
 915 1935 l gs col0 s gr 
% Polyline
n 985 1935 m
 1057 1935 l gs col0 s gr 
% Polyline
n 1107 1935 m
 1179 1935 l gs col0 s gr 
% Polyline
n 1239 1935 m
 1311 1935 l gs col0 s gr 
% Polyline
n 1382 1935 m
 1454 1935 l gs col0 s gr 
% Polyline
n 1524 1935 m
 1596 1935 l gs col0 s gr 
% Polyline
n 1646 1935 m
 1718 1935 l gs col0 s gr 
% Polyline
n 1839 1945 m
 1911 1945 l gs col0 s gr 
% Polyline
n 1860 1843 m
 1932 1843 l gs col0 s gr 
% Polyline
n 1880 1732 m
 1952 1732 l gs col0 s gr 
% Polyline
n 1910 1630 m
 1982 1630 l gs col0 s gr 
% Polyline
2 slj
n 811 2240 m 811 2238 l 811 2234 l 810 2227 l 810 2215 l 809 2199 l
 809 2179 l 808 2154 l 807 2126 l 806 2094 l 804 2060 l
 803 2023 l 802 1985 l 801 1946 l 800 1906 l 800 1866 l
 799 1826 l 799 1786 l 799 1746 l 799 1707 l 800 1667 l
 801 1629 l 802 1590 l 804 1553 l 807 1518 l 810 1485 l
 813 1463 l 816 1443 l 819 1426 l 822 1412 l 825 1401 l
 828 1392 l 831 1385 l 833 1380 l 836 1377 l 838 1376 l
 840 1376 l 842 1378 l 844 1380 l 846 1383 l 848 1387 l
 849 1391 l 851 1396 l 853 1401 l 855 1406 l 856 1411 l
 858 1415 l 860 1420 l 863 1424 l 865 1428 l 868 1431 l
 870 1434 l 873 1436 l 877 1438 l 880 1439 l 884 1440 l
 888 1440 l 892 1440 l 896 1440 l 900 1440 l 910 1441 l
 918 1443 l 923 1445 l 925 1446 l 926 1447 l 926 1448 l
 926 1449 l 927 1451 l 928 1455 l 932 1461 l 938 1471 l
 945 1485 l 954 1504 l 962 1520 l 968 1533 l 974 1542 l
 979 1549 l 983 1556 l 987 1565 l 991 1579 l 992 1598 l
 990 1620 l 985 1638 l 978 1652 l 970 1664 l 963 1672 l
 956 1679 l 949 1684 l 942 1688 l 934 1693 l 926 1698 l
 918 1703 l 908 1708 l 900 1710 l 894 1708 l 891 1705 l
 888 1701 l 887 1697 l 886 1694 l 885 1691 l 885 1687 l
 885 1684 l 886 1679 l 887 1673 l 888 1665 l 891 1653 l
 894 1638 l 900 1620 l 907 1600 l 914 1582 l 921 1565 l
 926 1552 l 931 1540 l 934 1531 l 938 1522 l 941 1514 l
 945 1505 l 950 1495 l 957 1483 l 966 1469 l 977 1454 l
 990 1440 l 1001 1430 l 1011 1423 l 1020 1419 l 1027 1416 l
 1032 1415 l 1036 1415 l 1040 1416 l 1043 1418 l 1045 1419 l
 1048 1421 l 1052 1423 l 1056 1425 l 1061 1428 l 1067 1431 l
 1074 1435 l 1080 1440 l 1088 1452 l 1091 1463 l 1090 1469 l
 1088 1474 l 1084 1479 l 1082 1488 l 1080 1505 l 1080 1530 l
 1080 1552 l 1081 1572 l 1083 1587 l 1085 1599 l 1088 1609 l
 1090 1618 l 1091 1628 l 1091 1640 l 1087 1653 l 1080 1665 l
 1074 1669 l 1067 1671 l 1060 1672 l 1053 1671 l 1046 1670 l
 1040 1669 l 1034 1667 l 1028 1665 l 1022 1663 l 1016 1660 l
 1010 1656 l 1004 1652 l 999 1646 l 995 1639 l 991 1630 l
 990 1620 l 992 1604 l 997 1590 l 1002 1577 l 1007 1567 l
 1012 1559 l 1016 1552 l 1021 1546 l 1028 1538 l 1036 1528 l
 1048 1515 l 1062 1501 l 1080 1485 l 1099 1471 l 1115 1461 l
 1128 1454 l 1138 1449 l 1145 1446 l 1151 1444 l 1157 1442 l
 1164 1441 l 1173 1439 l 1185 1438 l 1199 1438 l 1215 1440 l
 1227 1444 l 1236 1450 l 1242 1455 l 1246 1460 l 1248 1463 l
 1249 1467 l 1249 1470 l 1249 1473 l 1249 1478 l 1249 1483 l
 1251 1491 l 1253 1502 l 1257 1515 l 1260 1530 l 1264 1552 l
 1267 1571 l 1270 1585 l 1272 1594 l 1275 1601 l 1277 1608 l
 1278 1617 l 1276 1630 l 1271 1646 l 1260 1665 l 1247 1679 l
 1234 1689 l 1221 1696 l 1209 1701 l 1199 1704 l 1189 1706 l
 1179 1708 l 1169 1709 l 1158 1711 l 1146 1712 l 1134 1712 l
 1125 1710 l 1119 1704 l 1120 1696 l 1123 1688 l 1129 1682 l
 1136 1676 l 1144 1670 l 1151 1662 l 1158 1652 l 1165 1637 l
 1170 1620 l 1173 1603 l 1173 1590 l 1170 1582 l 1165 1577 l
 1159 1575 l 1153 1573 l 1149 1568 l 1149 1560 l 1156 1547 l
 1170 1530 l 1184 1517 l 1199 1506 l 1213 1496 l 1225 1488 l
 1235 1481 l 1244 1475 l 1253 1470 l 1261 1465 l 1270 1460 l
 1282 1455 l 1295 1450 l 1312 1445 l 1330 1442 l 1350 1440 l
 1371 1442 l 1387 1447 l 1398 1453 l 1404 1459 l 1408 1464 l
 1410 1470 l 1412 1476 l 1414 1483 l 1418 1492 l 1424 1502 l
 1432 1515 l 1440 1530 l 1447 1547 l 1452 1560 l 1454 1568 l
 1455 1573 l 1455 1575 l 1455 1577 l 1454 1582 l 1452 1590 l
 1447 1603 l 1440 1620 l 1430 1637 l 1420 1652 l 1411 1664 l
 1405 1673 l 1399 1680 l 1393 1687 l 1385 1694 l 1376 1701 l
 1364 1707 l 1350 1710 l 1340 1708 l 1332 1703 l 1326 1697 l
 1323 1691 l 1321 1686 l 1320 1680 l 1319 1674 l 1318 1667 l
 1316 1658 l 1313 1648 l 1309 1635 l 1305 1620 l 1302 1607 l
 1300 1597 l 1297 1588 l 1295 1583 l 1292 1579 l 1289 1577 l
 1286 1575 l 1284 1573 l 1282 1571 l 1282 1567 l 1283 1562 l
 1287 1553 l 1294 1543 l 1305 1530 l 1319 1517 l 1334 1506 l
 1348 1497 l 1360 1490 l 1370 1485 l 1379 1481 l 1388 1477 l
 1396 1474 l 1405 1471 l 1417 1466 l 1430 1461 l 1447 1454 l
 1465 1447 l 1485 1440 l 1503 1434 l 1517 1430 l 1528 1427 l
 1535 1425 l 1539 1424 l 1540 1422 l 1541 1421 l 1542 1421 l
 1543 1420 l 1546 1421 l 1550 1423 l 1557 1426 l 1565 1432 l
 1575 1440 l 1587 1455 l 1596 1470 l 1602 1482 l 1606 1492 l
 1609 1500 l 1611 1508 l 1613 1519 l 1616 1534 l 1619 1553 l
 1620 1575 l 1619 1593 l 1617 1607 l 1615 1616 l 1612 1622 l
 1611 1626 l 1609 1628 l 1607 1629 l 1604 1632 l 1600 1637 l
 1594 1644 l 1585 1654 l 1575 1665 l 1564 1676 l 1553 1684 l
 1544 1691 l 1537 1697 l 1531 1702 l 1526 1706 l 1521 1710 l
 1516 1713 l 1510 1716 l 1502 1717 l 1493 1715 l 1485 1710 l
 1478 1698 l 1474 1685 l 1473 1672 l 1473 1661 l 1474 1650 l
 1475 1639 l 1477 1627 l 1479 1612 l 1481 1594 l 1485 1575 l
 1490 1559 l 1494 1550 l 1496 1546 l 1496 1549 l 1496 1551 l
 1498 1552 l 1504 1549 l 1514 1542 l 1530 1530 l 1546 1519 l
 1560 1508 l 1571 1499 l 1579 1492 l 1585 1486 l 1590 1481 l
 1595 1476 l 1601 1471 l 1611 1465 l 1625 1457 l 1643 1448 l
 1665 1440 l 1674 1437 l 1683 1434 l 1691 1432 l 1699 1428 l
 1705 1425 l 1712 1421 l 1717 1416 l 1722 1411 l 1727 1406 l
 1730 1400 l 1734 1393 l 1737 1387 l 1739 1380 l 1742 1373 l
 1744 1367 l 1746 1360 l 1749 1354 l 1751 1349 l 1754 1345 l
 1756 1342 l 1759 1340 l 1763 1340 l 1767 1342 l 1771 1347 l
 1775 1354 l 1780 1364 l 1785 1377 l 1790 1395 l 1795 1415 l
 1800 1440 l 1804 1470 l 1808 1503 l 1811 1538 l 1813 1574 l
 1815 1611 l 1816 1649 l 1816 1687 l 1816 1725 l 1816 1764 l
 1815 1803 l 1815 1842 l 1813 1882 l 1812 1921 l 1811 1959 l
 1809 1997 l 1807 2033 l 1806 2068 l 1804 2100 l 1803 2129 l
 1801 2155 l 1800 2177 l 1799 2195 l 1798 2209 l 1798 2219 l
 1797 2226 l 1797 2229 l
 1797 2231 l gs col0 s gr 
/Times-Roman-iso ff 180.00 scf sf
811 2454 m
gs 1 -1 sc (Basse tension) col0 sh gr
/Times-Roman-iso ff 180.00 scf sf
1523 2993 m
gs 1 -1 sc (tension) col0 sh gr
/Times-Roman-iso ff 180.00 scf sf
597 3001 m
gs 1 -1 sc (Haute) col0 sh gr
/Times-Roman-iso ff 180.00 scf sf
1154 2838 m
gs 1 -1 sc (HT) col0 sh gr
/Times-Roman-iso ff 180.00 scf sf
558 343 m
gs 1 -1 sc (Electron) col0 sh gr
/Times-Roman-iso ff 180.00 scf sf
1296 343 m
gs 1 -1 sc (acc\351l\351r\351) col0 sh gr
/Times-Roman-iso ff 180.00 scf sf
69 746 m
gs 1 -1 sc (Electrodes) col0 sh gr
/Times-Roman-iso ff 180.00 scf sf
928 1835 m
gs 1 -1 sc (Filament) col0 sh gr
$F2psEnd
rs
