%!PS-Adobe-2.0
%%Creator: inkscape 0.41.1
%%Pages: 1
%%Orientation: Portrait
%%BoundingBox: 19 800 65 830
%%HiResBoundingBox: 19.822565 800.11949 64.302850 829.86590
%%EndComments
%%Page: 1 1
0 842 translate
0.80000000 -0.80000000 scale
gsave [1.0000000 0.0000000 0.0000000 1.0000000 0.0000000 0.0000000] concat
0.0000000 0.0000000 0.0000000 setrgbcolor
[] 0 setdash
0.35433072 setlinewidth
0 setlinejoin
0 setlinecap
newpath
52.918277 38.034195 moveto
52.918277 44.149277 47.955311 49.112243 41.840229 49.112243 curveto
35.725147 49.112243 30.762181 44.149277 30.762181 38.034195 curveto
30.762181 31.919113 35.725147 26.956147 41.840229 26.956147 curveto
47.955311 26.956147 52.918277 31.919113 52.918277 38.034195 curveto
closepath
stroke
0.0000000 0.0000000 0.0000000 setrgbcolor
[] 0 setdash
0.35433072 setlinewidth
0 setlinejoin
0 setlinecap
newpath
41.840229 46.365618 moveto
41.840229 28.787229 41.840229 29.336554 41.840229 29.336554 curveto
41.840229 29.336554 lineto
stroke
0.0000000 0.0000000 0.0000000 setrgbcolor
[] 0 setdash
0.35433072 setlinewidth
0 setlinejoin
0 setlinecap
newpath
50.813481 38.034195 moveto
33.235092 38.034195 33.784417 38.034195 33.784417 38.034195 curveto
33.784417 38.034195 lineto
stroke
0.0000000 0.0000000 0.0000000 setrgbcolor
newpath
28.298714 20.938005 moveto
28.298714 18.760271 lineto
28.298710 18.737488 28.264530 18.656108 28.196175 18.516130 curveto
27.929244 17.959494 27.515833 17.681174 26.955940 17.681170 curveto
26.549037 17.681174 26.195848 17.843934 25.896370 18.169451 curveto
25.632697 18.455913 25.500861 18.963725 25.500862 19.692888 curveto
25.500861 20.168151 25.634325 20.601093 25.901253 20.991716 curveto
26.200730 21.431170 26.578334 21.650896 27.034065 21.650896 curveto
27.245651 21.650896 27.667200 21.413266 28.298714 20.938005 curveto
29.748909 24.146013 moveto
29.734261 24.380388 lineto
27.161018 24.380388 lineto
27.180550 24.146013 lineto
27.600469 24.142756 27.841354 24.129735 27.903206 24.106951 curveto
28.052942 24.051610 28.184778 23.870946 28.298714 23.564959 curveto
28.298714 21.230974 lineto
27.846237 21.592303 27.580937 21.795753 27.502815 21.841326 curveto
27.203334 22.023617 26.879441 22.114763 26.531136 22.114763 curveto
26.033087 22.114763 25.609911 21.880388 25.261604 21.411638 curveto
24.939338 20.981952 24.778206 20.508319 24.778206 19.990740 curveto
24.778206 19.248555 24.989794 18.647970 25.412971 18.188982 curveto
25.871955 17.690939 26.399298 17.441916 26.995003 17.441912 curveto
27.392135 17.441916 27.891809 17.570497 28.494026 17.827654 curveto
28.604699 17.713726 28.694218 17.586773 28.762581 17.446795 curveto
28.987190 17.446795 lineto
28.987190 23.647966 lineto
28.987186 23.979996 29.241092 24.146011 29.748909 24.146013 curveto
fill
0.0000000 0.0000000 0.0000000 setrgbcolor
newpath
34.724495 17.837420 moveto
30.671761 17.837420 lineto
30.671761 17.378435 lineto
34.724495 17.378435 lineto
34.724495 17.837420 lineto
34.724495 19.678240 moveto
30.671761 19.678240 lineto
30.671761 19.214373 lineto
34.724495 19.214373 lineto
34.724495 19.678240 lineto
fill
0.0000000 0.0000000 0.0000000 setrgbcolor
newpath
40.163948 20.620623 moveto
40.163943 20.682473 40.020714 21.146340 39.734261 22.012224 curveto
35.647346 22.012224 lineto
35.554573 21.724138 lineto
37.729050 19.969583 38.816288 18.374533 38.816292 16.938982 curveto
38.816288 16.099144 38.435429 15.679223 37.673714 15.679216 curveto
36.827358 15.679223 36.182827 16.077985 35.740120 16.875505 curveto
35.525276 16.782732 lineto
35.701057 16.297712 36.000536 15.889183 36.423714 15.557146 curveto
36.869676 15.205590 37.341680 15.029809 37.839729 15.029802 curveto
38.298711 15.029809 38.684452 15.169783 38.996956 15.449724 curveto
39.322473 15.742699 39.485233 16.115420 39.485237 16.567888 curveto
39.485233 18.016460 38.503789 19.613138 36.540901 21.357927 curveto
39.211800 21.357927 lineto
39.390832 21.357928 39.561730 21.219582 39.724495 20.942888 curveto
39.887251 20.666197 39.962120 20.527851 39.949104 20.527849 curveto
39.975141 20.527851 40.012576 20.542499 40.061409 20.571795 curveto
40.110232 20.597838 40.144412 20.614114 40.163948 20.620623 curveto
fill
0.0000000 0.0000000 0.0000000 setrgbcolor
newpath
fill
0.0000000 0.0000000 0.0000000 setrgbcolor
newpath
48.904182 21.377459 moveto
48.832563 21.549985 48.687706 21.720883 48.469612 21.890154 curveto
48.241743 22.062680 48.038293 22.148943 47.859261 22.148943 curveto
47.615116 22.148943 47.457238 22.033383 47.385628 21.802263 curveto
47.346561 21.675310 47.331913 21.458839 47.341682 21.152849 curveto
46.732955 21.758318 46.070521 22.061052 45.354378 22.061052 curveto
45.194871 22.061052 45.053270 22.035011 44.929573 21.982927 curveto
45.001186 22.813005 45.036993 23.338720 45.036995 23.560076 curveto
45.036993 23.768407 45.006069 23.968602 44.944221 24.160662 curveto
44.856330 24.427586 44.732632 24.561050 44.573128 24.561052 curveto
44.446174 24.561050 44.338752 24.419448 44.250862 24.136248 curveto
44.185757 23.918147 44.153205 23.726090 44.153206 23.560076 curveto
44.153205 23.306168 44.174364 22.931820 44.216682 22.437029 curveto
44.262255 21.929216 44.286669 21.553240 44.289925 21.309099 curveto
44.289924 21.100767 44.294807 20.685728 44.304573 20.063982 curveto
44.311083 19.546406 44.314338 19.131368 44.314339 18.818865 curveto
44.314338 18.506368 44.275275 18.275249 44.197151 18.125505 curveto
44.083218 17.917176 43.876513 17.813010 43.577034 17.813005 curveto
43.557503 17.612810 lineto
45.012581 17.354021 lineto
45.012581 20.532732 lineto
45.012579 20.812681 45.102098 21.050311 45.281136 21.245623 curveto
45.463425 21.450701 45.692917 21.553240 45.969612 21.553240 curveto
46.249557 21.553240 46.706914 21.322121 47.341682 20.859880 curveto
47.341682 18.174334 lineto
47.341679 17.926942 47.027551 17.786968 46.399300 17.754412 curveto
46.399300 17.593279 lineto
48.039925 17.290545 lineto
48.039925 21.104021 lineto
48.039920 21.383970 48.139204 21.523943 48.337776 21.523943 curveto
48.383344 21.523943 48.451704 21.466977 48.542854 21.353045 curveto
48.640506 21.226092 48.713748 21.156105 48.762581 21.143084 curveto
48.904182 21.377459 lineto
fill
0.0000000 0.0000000 0.0000000 setrgbcolor
newpath
55.920784 20.283709 moveto
55.705934 20.905454 55.395062 21.418149 54.988167 21.821795 curveto
53.992069 21.981300 53.352421 22.061052 53.069221 22.061052 curveto
52.118698 22.061052 51.313035 21.761573 50.652229 21.162615 curveto
49.971890 20.544127 49.631721 19.764505 49.631721 18.823748 curveto
49.631721 17.782085 49.968635 16.898297 50.642464 16.172380 curveto
51.335821 15.430200 52.201706 15.059106 53.240120 15.059099 curveto
53.920454 15.059106 54.530805 15.184432 55.071175 15.435076 curveto
55.243695 15.513207 55.354372 15.552270 55.403206 15.552263 curveto
55.468304 15.552270 55.517132 15.527856 55.549690 15.479021 curveto
55.701057 15.488787 lineto
55.769417 16.963396 lineto
55.588753 16.963396 lineto
55.448773 16.442568 55.155804 16.032412 54.709846 15.732927 curveto
54.286665 15.446476 53.796756 15.303247 53.240120 15.303240 curveto
52.419804 15.303247 51.755743 15.638533 51.247932 16.309099 curveto
50.785692 16.921083 50.554572 17.650249 50.554573 18.496599 curveto
50.554572 19.378763 50.803595 20.140481 51.301643 20.781755 curveto
51.842006 21.478371 52.541875 21.826678 53.401253 21.826677 curveto
53.879764 21.826678 54.342003 21.670428 54.787971 21.357927 curveto
55.224164 21.051939 55.535036 20.674335 55.720589 20.225115 curveto
55.920784 20.283709 lineto
fill
0.0000000 0.0000000 0.0000000 setrgbcolor
[] 0 setdash
0.35433072 setlinewidth
0 setlinejoin
0 setlinecap
newpath
53.101387 37.942640 moveto
80.201397 37.942640 80.201397 37.942640 80.201397 37.942640 curveto
stroke
gsave [-0.38976379 0.0000000 0.0000000 -0.38976379 82.150216 37.942640] concat
0.0000000 0.0000000 0.0000000 setrgbcolor
newpath
8.7185878 4.0337352 moveto
-2.2072895 0.016013256 lineto
8.7185884 -4.0017078 lineto
6.9730900 -1.6296469 6.9831476 1.6157441 8.7185878 4.0337352 curveto
closepath
eofill
grestore
0.0000000 0.0000000 0.0000000 setrgbcolor
[] 0 setdash
0.35433072 setlinewidth
0 setlinejoin
0 setlinecap
newpath
70.130445 26.589930 moveto
77.454775 26.589930 77.454775 26.589930 77.454775 26.589930 curveto
stroke
gsave [-0.21259843 0.0000000 0.0000000 -0.21259843 78.517767 26.589930] concat
0.0000000 0.0000000 0.0000000 setrgbcolor
newpath
8.7185878 4.0337352 moveto
-2.2072895 0.016013256 lineto
8.7185884 -4.0017078 lineto
6.9730900 -1.6296469 6.9831476 1.6157441 8.7185878 4.0337352 curveto
closepath
eofill
grestore
0.0000000 0.0000000 0.0000000 setrgbcolor
newpath
76.932236 30.208233 moveto
76.756454 30.208233 lineto
76.756450 29.560453 76.469992 29.236560 75.897079 29.236553 curveto
73.694931 29.236553 lineto
73.694931 31.858624 lineto
75.516220 31.858624 lineto
75.711529 31.858627 75.866151 31.782130 75.980087 31.629131 curveto
76.077739 31.495672 76.126567 31.324774 76.126572 31.116436 curveto
76.263290 31.116436 lineto
76.263290 33.020733 lineto
76.126572 33.020733 lineto
76.126567 32.486882 75.923117 32.219955 75.516220 32.219952 curveto
73.694931 32.219952 lineto
73.694931 34.871319 lineto
73.694929 35.307517 73.989525 35.525616 74.578720 35.525616 curveto
74.578720 35.745342 lineto
72.025009 35.745342 lineto
72.025009 35.525616 lineto
72.565373 35.525616 72.835555 35.287986 72.835556 34.812725 curveto
72.835556 29.549053 lineto
72.835555 29.194242 72.565373 29.018461 72.025009 29.021709 curveto
72.025009 28.811749 lineto
76.815048 28.811749 lineto
76.932236 30.208233 lineto
fill
0.0000000 0.0000000 0.0000000 setrgbcolor
[] 0 setdash
0.28046009 setlinewidth
0 setlinejoin
0 setlinecap
newpath
52.852109 40.139938 moveto
69.830399 40.139938 69.830399 40.139938 69.830399 40.139938 curveto
stroke
gsave [-0.30850610 0.0000000 0.0000000 -0.30850610 71.372929 40.139938] concat
0.0000000 0.0000000 0.0000000 setrgbcolor
newpath
8.7185878 4.0337352 moveto
-2.2072895 0.016013256 lineto
8.7185884 -4.0017078 lineto
6.9730900 -1.6296469 6.9831476 1.6157441 8.7185878 4.0337352 curveto
closepath
eofill
grestore
0.0000000 0.0000000 0.0000000 setrgbcolor
newpath
65.215778 50.567318 moveto
65.020466 52.212826 lineto
59.522419 52.212826 lineto
59.522419 52.032162 lineto
60.300413 52.022396 60.689410 51.801042 60.689411 51.368099 curveto
60.689411 46.104427 lineto
60.689410 45.850527 60.622678 45.679629 60.489216 45.591732 curveto
60.345986 45.497338 60.062783 45.450137 59.639606 45.450130 curveto
59.639606 45.279232 lineto
64.800739 45.279232 lineto
64.854450 46.778255 lineto
64.673786 46.778255 lineto
64.595656 46.026309 64.353143 45.650332 63.946247 45.650326 curveto
61.573200 45.650326 lineto
61.573200 48.404232 lineto
63.462849 48.404232 lineto
63.765579 48.404236 63.960891 48.119405 64.048786 47.549740 curveto
64.209919 47.549740 lineto
64.209919 49.659115 lineto
64.048786 49.659115 lineto
63.941360 49.050394 63.746048 48.746032 63.462849 48.746029 curveto
61.573200 48.746029 lineto
61.573200 51.280209 lineto
61.573198 51.641537 61.711544 51.822201 61.988239 51.822201 curveto
64.053669 51.822201 lineto
64.541945 51.822201 64.864211 51.399025 65.020466 50.552670 curveto
65.215778 50.567318 lineto
fill
0.0000000 0.0000000 0.0000000 setrgbcolor
[] 0 setdash
0.35433072 setlinewidth
0 setlinejoin
0 setlinecap
newpath
58.411522 43.069670 moveto
65.735852 43.069670 65.735852 43.069670 65.735852 43.069670 curveto
stroke
gsave [-0.21259843 0.0000000 0.0000000 -0.21259843 66.798844 43.069670] concat
0.0000000 0.0000000 0.0000000 setrgbcolor
newpath
8.7185878 4.0337352 moveto
-2.2072895 0.016013256 lineto
8.7185884 -4.0017078 lineto
6.9730900 -1.6296469 6.9831476 1.6157441 8.7185878 4.0337352 curveto
closepath
eofill
grestore
grestore
showpage
