%!PS-Adobe-2.0
%%Creator: inkscape 0.41.1
%%Pages: 1
%%Orientation: Portrait
%%BoundingBox: 19 783 167 831
%%HiResBoundingBox: 19.672173 783.21441 166.22466 830.53779
%%EndComments
%%Page: 1 1
0 842 translate
0.80000000 -0.80000000 scale
gsave [1.0000000 0.0000000 0.0000000 1.0000000 0.0000000 0.0000000] concat
gsave [1.0000000 0.0000000 0.0000000 1.0000000 0.0000000 0.54932500] concat
0.0000000 0.0000000 0.0000000 setrgbcolor
[] 0 setdash
0.35433072 setlinewidth
0 setlinejoin
0 setlinecap
newpath
52.918277 38.034195 moveto
52.918277 44.149277 47.955311 49.112243 41.840229 49.112243 curveto
35.725147 49.112243 30.762181 44.149277 30.762181 38.034195 curveto
30.762181 31.919113 35.725147 26.956147 41.840229 26.956147 curveto
47.955311 26.956147 52.918277 31.919113 52.918277 38.034195 curveto
closepath
stroke
0.0000000 0.0000000 0.0000000 setrgbcolor
[] 0 setdash
0.35433072 setlinewidth
0 setlinejoin
0 setlinecap
newpath
50.813481 38.034195 moveto
33.235092 38.034195 33.784417 38.034195 33.784417 38.034195 curveto
33.784417 38.034195 lineto
stroke
grestore
0.0000000 0.0000000 0.0000000 setrgbcolor
newpath
32.090216 24.788116 moveto
31.992559 24.939484 lineto
31.338256 24.919950 30.740926 24.776721 30.200567 24.509796 curveto
29.979208 24.402373 29.543010 24.127308 28.891973 23.684601 curveto
28.361371 23.323272 27.874718 23.070994 27.432013 22.927765 curveto
26.540083 22.638052 25.866256 22.265331 25.410528 21.809601 curveto
24.863653 21.259472 24.590216 20.554720 24.590216 19.695343 curveto
24.590216 18.621129 24.925502 17.734085 25.596075 17.034210 curveto
26.276412 16.321326 27.152062 15.964881 28.223028 15.964874 curveto
29.277711 15.964881 30.148478 16.251339 30.835333 16.824249 curveto
31.567748 17.436234 31.933958 18.258173 31.933966 19.290070 curveto
31.933958 20.178744 31.694701 20.951855 31.216192 21.609406 curveto
30.718139 22.286489 30.044312 22.725942 29.194708 22.927765 curveto
29.390016 23.015655 29.588583 23.165395 29.790411 23.376984 curveto
29.962932 23.562530 30.135457 23.746449 30.307989 23.928741 curveto
30.848347 24.436552 31.442422 24.723010 32.090216 24.788116 curveto
30.918341 19.670929 moveto
30.918334 18.788772 30.688842 18.017288 30.229864 17.356476 curveto
29.709026 16.611039 29.025433 16.238318 28.179083 16.238312 curveto
27.319705 16.238318 26.665409 16.537797 26.216192 17.136749 curveto
25.819056 17.670609 25.620488 18.383499 25.620489 19.275421 curveto
25.620488 20.151075 25.851608 20.925814 26.313848 21.599640 curveto
26.834680 22.364614 27.515017 22.747101 28.354864 22.747101 curveto
29.214234 22.747101 29.868531 22.441112 30.317755 21.829132 curveto
30.718139 21.285514 30.918334 20.566114 30.918341 19.670929 curveto
fill
0.0000000 0.0000000 0.0000000 setrgbcolor
newpath
fill
0.0000000 0.0000000 0.0000000 setrgbcolor
newpath
40.224981 18.752960 moveto
36.172247 18.752960 lineto
36.172247 18.293976 lineto
40.224981 18.293976 lineto
40.224981 18.752960 lineto
40.224981 20.593781 moveto
36.172247 20.593781 lineto
36.172247 20.129913 lineto
40.224981 20.129913 lineto
40.224981 20.593781 lineto
fill
0.0000000 0.0000000 0.0000000 setrgbcolor
newpath
44.228888 20.129913 moveto
41.074591 20.129913 lineto
41.074591 19.519562 lineto
44.228888 19.519562 lineto
44.228888 20.129913 lineto
fill
0.0000000 0.0000000 0.0000000 setrgbcolor
newpath
48.882208 20.598663 moveto
48.882204 21.301790 48.620160 21.897492 48.096075 22.385773 curveto
47.585004 22.861033 46.974653 23.098663 46.265020 23.098663 curveto
45.939498 23.098663 45.641647 23.041697 45.371466 22.927765 curveto
45.016648 22.781281 44.839239 22.569692 44.839239 22.292999 curveto
44.839239 22.179068 44.876674 22.083039 44.951544 22.004913 curveto
45.029668 21.926789 45.125697 21.887727 45.239630 21.887726 curveto
45.291712 21.887727 45.382858 21.959341 45.513067 22.102570 curveto
45.682337 22.294628 45.820683 22.429719 45.928106 22.507843 curveto
46.123417 22.654328 46.328495 22.727570 46.543341 22.727570 curveto
46.943729 22.727570 47.316450 22.467153 47.661505 21.946320 curveto
47.974001 21.474316 48.130251 21.026725 48.130255 20.603546 curveto
48.130251 20.157585 47.957725 19.745802 47.612677 19.368195 curveto
47.261111 18.977574 46.863976 18.782261 46.421270 18.782257 curveto
46.232467 18.782261 46.015995 18.857131 45.771856 19.006866 curveto
45.683965 19.062209 45.475631 19.211948 45.146856 19.456085 curveto
45.708380 16.003937 lineto
48.130255 16.003937 lineto
48.279991 16.003944 48.372764 15.916053 48.408575 15.740265 curveto
48.594122 15.798859 lineto
48.286505 16.702179 lineto
45.986700 16.702179 lineto
45.674200 18.596710 lineto
45.983443 18.368850 46.398482 18.254918 46.919317 18.254913 curveto
47.518273 18.254918 48.003298 18.500686 48.374395 18.992218 curveto
48.712933 19.441440 48.882204 19.976921 48.882208 20.598663 curveto
fill
0.0000000 0.0000000 0.0000000 setrgbcolor
newpath
54.072638 19.402374 moveto
54.072633 20.193393 53.904990 20.942090 53.569708 21.648468 curveto
53.153037 22.530630 52.591514 22.971710 51.885138 22.971710 curveto
51.152714 22.971710 50.583053 22.537140 50.176153 21.667999 curveto
49.857142 20.987663 49.697637 20.232455 49.697638 19.402374 curveto
49.697637 18.611363 49.865280 17.862666 50.200567 17.156281 curveto
50.617233 16.277381 51.178755 15.837928 51.885138 15.837921 curveto
52.617556 15.837928 53.185589 16.270871 53.589239 17.136749 curveto
53.911500 17.820348 54.072633 18.575556 54.072638 19.402374 curveto
53.354864 19.622101 moveto
53.354860 17.281612 52.864952 16.111365 51.885138 16.111359 curveto
50.905318 16.111365 50.415410 17.136755 50.415411 19.187531 curveto
50.415410 21.524772 50.905318 22.693390 51.885138 22.693390 curveto
52.864952 22.693390 53.354860 21.669628 53.354864 19.622101 curveto
fill
0.0000000 0.0000000 0.0000000 setrgbcolor
newpath
fill
0.0000000 0.0000000 0.0000000 setrgbcolor
newpath
63.174200 22.292999 moveto
63.102580 22.465526 62.957724 22.636424 62.739630 22.805695 curveto
62.511761 22.978221 62.308310 23.064484 62.129278 23.064484 curveto
61.885134 23.064484 61.727256 22.948924 61.655645 22.717804 curveto
61.616579 22.590851 61.601931 22.374380 61.611700 22.068390 curveto
61.002973 22.673859 60.340539 22.976593 59.624395 22.976593 curveto
59.464889 22.976593 59.323287 22.950551 59.199591 22.898468 curveto
59.271204 23.728545 59.307011 24.254261 59.307013 24.475616 curveto
59.307011 24.683948 59.276087 24.884143 59.214239 25.076202 curveto
59.126347 25.343127 59.002649 25.476590 58.843145 25.476593 curveto
58.716191 25.476590 58.608770 25.334989 58.520880 25.051788 curveto
58.455775 24.833687 58.423223 24.641630 58.423223 24.475616 curveto
58.423223 24.221709 58.444382 23.847360 58.486700 23.352570 curveto
58.532272 22.844757 58.556686 22.468781 58.559942 22.224640 curveto
58.559942 22.016307 58.564824 21.601269 58.574591 20.979523 curveto
58.581100 20.461947 58.584356 20.046908 58.584356 19.734406 curveto
58.584356 19.421909 58.545293 19.190789 58.467169 19.041046 curveto
58.353236 18.832717 58.146530 18.728550 57.847052 18.728546 curveto
57.827520 18.528351 lineto
59.282598 18.269562 lineto
59.282598 21.448273 lineto
59.282597 21.728222 59.372115 21.965852 59.551153 22.161163 curveto
59.733443 22.366242 59.962935 22.468781 60.239630 22.468781 curveto
60.519575 22.468781 60.976931 22.237661 61.611700 21.775421 curveto
61.611700 19.089874 lineto
61.611696 18.842483 61.297569 18.702509 60.669317 18.669952 curveto
60.669317 18.508820 lineto
62.309942 18.206085 lineto
62.309942 22.019562 lineto
62.309938 22.299510 62.409222 22.439484 62.607794 22.439484 curveto
62.653362 22.439484 62.721721 22.382518 62.812872 22.268585 curveto
62.910523 22.141633 62.983765 22.071646 63.032598 22.058624 curveto
63.174200 22.292999 lineto
fill
0.0000000 0.0000000 0.0000000 setrgbcolor
newpath
70.190802 21.199249 moveto
69.975952 21.820995 69.665080 22.333690 69.258184 22.737335 curveto
68.262086 22.896840 67.622438 22.976593 67.339239 22.976593 curveto
66.388716 22.976593 65.583052 22.677114 64.922247 22.078156 curveto
64.241908 21.459667 63.901739 20.680046 63.901739 19.739288 curveto
63.901739 18.697626 64.238653 17.813838 64.912481 17.087921 curveto
65.605839 16.345740 66.471723 15.974647 67.510138 15.974640 curveto
68.190472 15.974647 68.800823 16.099972 69.341192 16.350616 curveto
69.513712 16.428748 69.624389 16.467810 69.673223 16.467804 curveto
69.738322 16.467810 69.787150 16.443396 69.819708 16.394562 curveto
69.971075 16.404327 lineto
70.039434 17.878937 lineto
69.858770 17.878937 lineto
69.718790 17.358109 69.425822 16.947953 68.979864 16.648468 curveto
68.556682 16.362016 68.066774 16.218787 67.510138 16.218781 curveto
66.689822 16.218787 66.025760 16.554073 65.517950 17.224640 curveto
65.055709 17.836624 64.824590 18.565790 64.824591 19.412140 curveto
64.824590 20.294304 65.073613 21.056022 65.571661 21.697296 curveto
66.112023 22.393911 66.811892 22.742218 67.671270 22.742218 curveto
68.149782 22.742218 68.612021 22.585968 69.057989 22.273468 curveto
69.494181 21.967479 69.805053 21.589876 69.990606 21.140656 curveto
70.190802 21.199249 lineto
fill
0.0000000 0.0000000 0.0000000 setrgbcolor
[] 0 setdash
0.35433072 setlinewidth
0 setlinejoin
0 setlinecap
newpath
114.80886 35.196017 moveto
87.708840 35.196017 87.708840 35.196017 87.708840 35.196017 curveto
stroke
gsave [0.38976379 -4.7730721e-17 4.7730721e-17 0.38976379 85.760021 35.196017] concat
0.0000000 0.0000000 0.0000000 setrgbcolor
newpath
8.7185878 4.0337352 moveto
-2.2072895 0.016013256 lineto
8.7185884 -4.0017078 lineto
6.9730900 -1.6296469 6.9831476 1.6157441 8.7185878 4.0337352 curveto
closepath
eofill
grestore
0.0000000 0.0000000 0.0000000 setrgbcolor
[] 0 setdash
0.28046009 setlinewidth
0 setlinejoin
0 setlinecap
newpath
115.05813 40.506155 moveto
98.079840 40.506155 98.079840 40.506155 98.079840 40.506155 curveto
stroke
gsave [0.30850610 -3.7779853e-17 3.7779853e-17 0.30850610 96.537310 40.506155] concat
0.0000000 0.0000000 0.0000000 setrgbcolor
newpath
8.7185878 4.0337352 moveto
-2.2072895 0.016013256 lineto
8.7185884 -4.0017078 lineto
6.9730900 -1.6296469 6.9831476 1.6157441 8.7185878 4.0337352 curveto
closepath
eofill
grestore
gsave [1.0000000 0.0000000 0.0000000 1.0000000 33.508800 -20.691230] concat
0.0000000 0.0000000 0.0000000 setrgbcolor
newpath
65.215778 50.567318 moveto
65.020466 52.212826 lineto
59.522419 52.212826 lineto
59.522419 52.032162 lineto
60.300413 52.022396 60.689410 51.801042 60.689411 51.368099 curveto
60.689411 46.104427 lineto
60.689410 45.850527 60.622678 45.679629 60.489216 45.591732 curveto
60.345986 45.497338 60.062783 45.450137 59.639606 45.450130 curveto
59.639606 45.279232 lineto
64.800739 45.279232 lineto
64.854450 46.778255 lineto
64.673786 46.778255 lineto
64.595656 46.026309 64.353143 45.650332 63.946247 45.650326 curveto
61.573200 45.650326 lineto
61.573200 48.404232 lineto
63.462849 48.404232 lineto
63.765579 48.404236 63.960891 48.119405 64.048786 47.549740 curveto
64.209919 47.549740 lineto
64.209919 49.659115 lineto
64.048786 49.659115 lineto
63.941360 49.050394 63.746048 48.746032 63.462849 48.746029 curveto
61.573200 48.746029 lineto
61.573200 51.280209 lineto
61.573198 51.641537 61.711544 51.822201 61.988239 51.822201 curveto
64.053669 51.822201 lineto
64.541945 51.822201 64.864211 51.399025 65.020466 50.552670 curveto
65.215778 50.567318 lineto
fill
0.0000000 0.0000000 0.0000000 setrgbcolor
[] 0 setdash
0.35433072 setlinewidth
0 setlinejoin
0 setlinecap
newpath
58.411522 43.069670 moveto
65.735852 43.069670 65.735852 43.069670 65.735852 43.069670 curveto
stroke
gsave [-0.21259843 0.0000000 0.0000000 -0.21259843 66.798844 43.069670] concat
0.0000000 0.0000000 0.0000000 setrgbcolor
newpath
8.7185878 4.0337352 moveto
-2.2072895 0.016013256 lineto
8.7185884 -4.0017078 lineto
6.9730900 -1.6296469 6.9831476 1.6157441 8.7185878 4.0337352 curveto
closepath
eofill
grestore
grestore
gsave [1.0000000 0.0000000 0.0000000 1.0000000 0.0000000 -0.54932500] concat
gsave [1.0000000 0.0000000 0.0000000 1.0000000 144.65550 1.0986490] concat
0.0000000 0.0000000 0.0000000 setrgbcolor
[] 0 setdash
0.35433072 setlinewidth
0 setlinejoin
0 setlinecap
newpath
52.918277 38.034195 moveto
52.918277 44.149277 47.955311 49.112243 41.840229 49.112243 curveto
35.725147 49.112243 30.762181 44.149277 30.762181 38.034195 curveto
30.762181 31.919113 35.725147 26.956147 41.840229 26.956147 curveto
47.955311 26.956147 52.918277 31.919113 52.918277 38.034195 curveto
closepath
stroke
grestore
0.0000000 0.0000000 0.0000000 setrgbcolor
[] 0 setdash
0.35433072 setlinewidth
0 setlinejoin
0 setlinecap
newpath
186.49572 47.464267 moveto
186.49572 29.885878 186.49572 30.435203 186.49572 30.435203 curveto
186.49572 30.435203 lineto
stroke
0.0000000 0.0000000 0.0000000 setrgbcolor
[] 0 setdash
0.35433072 setlinewidth
0 setlinejoin
0 setlinecap
newpath
195.46897 39.132844 moveto
177.89059 39.132844 178.43991 39.132844 178.43991 39.132844 curveto
178.43991 39.132844 lineto
stroke
grestore
0.0000000 0.0000000 0.0000000 setrgbcolor
newpath
173.44977 23.140144 moveto
173.35211 23.291512 lineto
172.69781 23.271978 172.10048 23.128749 171.56012 22.861824 curveto
171.33876 22.754401 170.90256 22.479336 170.25153 22.036629 curveto
169.72092 21.675300 169.23427 21.423022 168.79156 21.279793 curveto
167.89964 20.990080 167.22581 20.617359 166.77008 20.161629 curveto
166.22321 19.611500 165.94977 18.906748 165.94977 18.047371 curveto
165.94977 16.973156 166.28505 16.086113 166.95563 15.386238 curveto
167.63596 14.673354 168.51161 14.316909 169.58258 14.316902 curveto
170.63726 14.316909 171.50803 14.603367 172.19489 15.176277 curveto
172.92730 15.788262 173.29351 16.610201 173.29352 17.642097 curveto
173.29351 18.530772 173.05425 19.303883 172.57574 19.961433 curveto
172.07769 20.638517 171.40386 21.077970 170.55426 21.279793 curveto
170.74957 21.367683 170.94814 21.517423 171.14996 21.729012 curveto
171.32248 21.914558 171.49501 22.098477 171.66754 22.280769 curveto
172.20790 22.788580 172.80197 23.075038 173.44977 23.140144 curveto
172.27789 18.022957 moveto
172.27789 17.140800 172.04839 16.369316 171.58942 15.708504 curveto
171.06858 14.963067 170.38498 14.590346 169.53864 14.590340 curveto
168.67926 14.590346 168.02496 14.889825 167.57574 15.488777 curveto
167.17861 16.022637 166.98004 16.735526 166.98004 17.627449 curveto
166.98004 18.503103 167.21116 19.277842 167.67340 19.951668 curveto
168.19423 20.716642 168.87457 21.099129 169.71442 21.099129 curveto
170.57379 21.099129 171.22808 20.793140 171.67731 20.181160 curveto
172.07769 19.637542 172.27789 18.918142 172.27789 18.022957 curveto
fill
0.0000000 0.0000000 0.0000000 setrgbcolor
newpath
fill
0.0000000 0.0000000 0.0000000 setrgbcolor
newpath
181.58453 17.104988 moveto
177.53180 17.104988 lineto
177.53180 16.646004 lineto
181.58453 16.646004 lineto
181.58453 17.104988 lineto
181.58453 18.945808 moveto
177.53180 18.945808 lineto
177.53180 18.481941 lineto
181.58453 18.481941 lineto
181.58453 18.945808 lineto
fill
0.0000000 0.0000000 0.0000000 setrgbcolor
newpath
186.88727 19.272957 moveto
185.74957 19.272957 lineto
185.74957 21.279793 lineto
185.07574 21.279793 lineto
185.07574 19.272957 lineto
182.21930 19.272957 lineto
182.21930 18.965340 lineto
185.50543 14.238777 lineto
185.74957 14.238777 lineto
185.74957 18.657722 lineto
186.88727 18.657722 lineto
186.88727 19.272957 lineto
185.07574 15.376472 moveto
182.83453 18.657722 lineto
185.07574 18.657722 lineto
185.07574 15.376472 lineto
fill
0.0000000 0.0000000 0.0000000 setrgbcolor
newpath
191.66266 17.754402 moveto
191.66265 18.545421 191.49501 19.294118 191.15973 20.000496 curveto
190.74306 20.882658 190.18154 21.323738 189.47516 21.323738 curveto
188.74273 21.323738 188.17307 20.889168 187.76617 20.020027 curveto
187.44716 19.339691 187.28766 18.584483 187.28766 17.754402 curveto
187.28766 16.963391 187.45530 16.214694 187.79059 15.508308 curveto
188.20725 14.629409 188.76878 14.189956 189.47516 14.189949 curveto
190.20758 14.189956 190.77561 14.622898 191.17926 15.488777 curveto
191.50152 16.172376 191.66265 16.927584 191.66266 17.754402 curveto
190.94489 17.974129 moveto
190.94488 15.633640 190.45497 14.463393 189.47516 14.463387 curveto
188.49534 14.463393 188.00543 15.488783 188.00543 17.539558 curveto
188.00543 19.876799 188.49534 21.045418 189.47516 21.045418 curveto
190.45497 21.045418 190.94488 20.021656 190.94489 17.974129 curveto
fill
0.0000000 0.0000000 0.0000000 setrgbcolor
newpath
fill
0.0000000 0.0000000 0.0000000 setrgbcolor
newpath
200.76422 20.645027 moveto
200.69260 20.817554 200.54774 20.988452 200.32965 21.157722 curveto
200.10178 21.330248 199.89833 21.416511 199.71930 21.416512 curveto
199.47515 21.416511 199.31728 21.300952 199.24567 21.069832 curveto
199.20660 20.942879 199.19195 20.726408 199.20172 20.420418 curveto
198.59299 21.025887 197.93056 21.328621 197.21442 21.328621 curveto
197.05491 21.328621 196.91331 21.302579 196.78961 21.250496 curveto
196.86122 22.080573 196.89703 22.606289 196.89703 22.827644 curveto
196.89703 23.035976 196.86611 23.236171 196.80426 23.428230 curveto
196.71637 23.695155 196.59267 23.828618 196.43317 23.828621 curveto
196.30621 23.828618 196.19879 23.687017 196.11090 23.403816 curveto
196.04580 23.185715 196.01324 22.993658 196.01324 22.827644 curveto
196.01324 22.573737 196.03440 22.199388 196.07672 21.704597 curveto
196.12229 21.196785 196.14671 20.820809 196.14996 20.576668 curveto
196.14996 20.368335 196.15485 19.953297 196.16461 19.331551 curveto
196.17112 18.813975 196.17438 18.398936 196.17438 18.086433 curveto
196.17438 17.773937 196.13531 17.542817 196.05719 17.393074 curveto
195.94326 17.184745 195.73655 17.080578 195.43707 17.080574 curveto
195.41754 16.880379 lineto
196.87262 16.621590 lineto
196.87262 19.800301 lineto
196.87262 20.080250 196.96214 20.317880 197.14117 20.513191 curveto
197.32346 20.718270 197.55296 20.820809 197.82965 20.820808 curveto
198.10960 20.820809 198.56695 20.589689 199.20172 20.127449 curveto
199.20172 17.441902 lineto
199.20172 17.194510 198.88759 17.054537 198.25934 17.021980 curveto
198.25934 16.860847 lineto
199.89996 16.558113 lineto
199.89996 20.371590 lineto
199.89996 20.651538 199.99924 20.791512 200.19781 20.791512 curveto
200.24338 20.791512 200.31174 20.734546 200.40289 20.620613 curveto
200.50054 20.493661 200.57379 20.423674 200.62262 20.410652 curveto
200.76422 20.645027 lineto
fill
0.0000000 0.0000000 0.0000000 setrgbcolor
newpath
207.78082 19.551277 moveto
207.56597 20.173023 207.25510 20.685718 206.84821 21.089363 curveto
205.85211 21.248868 205.21246 21.328621 204.92926 21.328621 curveto
203.97874 21.328621 203.17307 21.029142 202.51227 20.430183 curveto
201.83193 19.811695 201.49176 19.032074 201.49176 18.091316 curveto
201.49176 17.049654 201.82867 16.165866 202.50250 15.439949 curveto
203.19586 14.697768 204.06174 14.326675 205.10016 14.326668 curveto
205.78049 14.326675 206.39084 14.452000 206.93121 14.702644 curveto
207.10373 14.780776 207.21441 14.819838 207.26324 14.819832 curveto
207.32834 14.819838 207.37717 14.795424 207.40973 14.746590 curveto
207.56110 14.756355 lineto
207.62946 16.230965 lineto
207.44879 16.230965 lineto
207.30881 15.710137 207.01584 15.299981 206.56989 15.000496 curveto
206.14670 14.714044 205.65679 14.570815 205.10016 14.570808 curveto
204.27984 14.570815 203.61578 14.906101 203.10797 15.576668 curveto
202.64573 16.188652 202.41461 16.917818 202.41461 17.764168 curveto
202.41461 18.646332 202.66363 19.408050 203.16168 20.049324 curveto
203.70204 20.745939 204.40191 21.094246 205.26129 21.094246 curveto
205.73980 21.094246 206.20204 20.937996 206.64801 20.625496 curveto
207.08420 20.319507 207.39507 19.941903 207.58063 19.492683 curveto
207.78082 19.551277 lineto
fill
0.0000000 0.0000000 0.0000000 setrgbcolor
newpath
35.909672 24.071875 moveto
33.070805 24.071875 lineto
33.070805 23.522558 lineto
35.909672 23.522558 lineto
35.909672 24.071875 lineto
fill
0.0000000 0.0000000 0.0000000 setrgbcolor
newpath
178.27411 22.743244 moveto
176.65692 22.743244 lineto
176.65692 24.360432 lineto
176.24384 24.360432 lineto
176.24384 22.743244 lineto
174.62665 22.743244 lineto
174.62665 22.330158 lineto
176.24384 22.330158 lineto
176.24384 20.712971 lineto
176.65692 20.712971 lineto
176.65692 22.330158 lineto
178.27411 22.330158 lineto
178.27411 22.743244 lineto
fill
0.0000000 0.0000000 0.0000000 setrgbcolor
[] 0 setdash
0.34679440 setlinewidth
0 setlinejoin
0 setlinecap
newpath
114.08388 60.281851 moveto
43.572300 60.281851 43.572300 60.281851 43.572300 60.281851 curveto
stroke
gsave [-0.20807664 2.5481197e-17 -2.5481197e-17 -0.20807664 112.41927 60.281851] concat
0.0000000 0.0000000 0.0000000 setrgbcolor
newpath
0.0000000 0.0000000 moveto
5.0000000 -5.0000000 lineto
-12.500000 0.0000000 lineto
5.0000000 5.0000000 lineto
0.0000000 0.0000000 lineto
closepath
eofill
0.0000000 0.0000000 0.0000000 setrgbcolor
[] 0 setdash
1.2500000 setlinewidth
0 setlinejoin
0 setlinecap
newpath
0.0000000 0.0000000 moveto
5.0000000 -5.0000000 lineto
-12.500000 0.0000000 lineto
5.0000000 5.0000000 lineto
0.0000000 0.0000000 lineto
closepath
stroke
0.0000000 0.0000000 0.0000000 setrgbcolor
[] 0 setdash
1.5000000 setlinewidth
0 setlinejoin
0 setlinecap
newpath
-14.759949 -7.0000000 moveto
-14.759949 65.000000 lineto
stroke
grestore
gsave [0.20807664 -2.5481197e-17 -2.5481197e-17 -0.20807664 45.236913 60.281851] concat
0.0000000 0.0000000 0.0000000 setrgbcolor
newpath
0.0000000 0.0000000 moveto
5.0000000 -5.0000000 lineto
-12.500000 0.0000000 lineto
5.0000000 5.0000000 lineto
0.0000000 0.0000000 lineto
closepath
eofill
0.0000000 0.0000000 0.0000000 setrgbcolor
[] 0 setdash
1.2500000 setlinewidth
0 setlinejoin
0 setlinecap
newpath
0.0000000 0.0000000 moveto
5.0000000 -5.0000000 lineto
-12.500000 0.0000000 lineto
5.0000000 5.0000000 lineto
0.0000000 0.0000000 lineto
closepath
stroke
0.0000000 0.0000000 0.0000000 setrgbcolor
[] 0 setdash
1.5000000 setlinewidth
0 setlinejoin
0 setlinecap
newpath
-14.759949 -7.0000000 moveto
-14.759949 65.000000 lineto
stroke
grestore
0.0000000 0.0000000 0.0000000 setrgbcolor
[] 0 setdash
0.48949903 setlinewidth
0 setlinejoin
0 setlinecap
newpath
184.59198 73.099426 moveto
44.110194 73.099426 44.110194 73.099426 44.110194 73.099426 curveto
stroke
gsave [-0.29369942 3.5966618e-17 -3.5966618e-17 -0.29369942 182.24238 73.099426] concat
0.0000000 0.0000000 0.0000000 setrgbcolor
newpath
0.0000000 0.0000000 moveto
5.0000000 -5.0000000 lineto
-12.500000 0.0000000 lineto
5.0000000 5.0000000 lineto
0.0000000 0.0000000 lineto
closepath
eofill
0.0000000 0.0000000 0.0000000 setrgbcolor
[] 0 setdash
1.2500000 setlinewidth
0 setlinejoin
0 setlinecap
newpath
0.0000000 0.0000000 moveto
5.0000000 -5.0000000 lineto
-12.500000 0.0000000 lineto
5.0000000 5.0000000 lineto
0.0000000 0.0000000 lineto
closepath
stroke
0.0000000 0.0000000 0.0000000 setrgbcolor
[] 0 setdash
1.5000000 setlinewidth
0 setlinejoin
0 setlinecap
newpath
-14.759949 -7.0000000 moveto
-14.759949 65.000000 lineto
stroke
grestore
gsave [0.29369942 -3.5966618e-17 -3.5966618e-17 -0.29369942 46.459789 73.099426] concat
0.0000000 0.0000000 0.0000000 setrgbcolor
newpath
0.0000000 0.0000000 moveto
5.0000000 -5.0000000 lineto
-12.500000 0.0000000 lineto
5.0000000 5.0000000 lineto
0.0000000 0.0000000 lineto
closepath
eofill
0.0000000 0.0000000 0.0000000 setrgbcolor
[] 0 setdash
1.2500000 setlinewidth
0 setlinejoin
0 setlinecap
newpath
0.0000000 0.0000000 moveto
5.0000000 -5.0000000 lineto
-12.500000 0.0000000 lineto
5.0000000 5.0000000 lineto
0.0000000 0.0000000 lineto
closepath
stroke
0.0000000 0.0000000 0.0000000 setrgbcolor
[] 0 setdash
1.5000000 setlinewidth
0 setlinejoin
0 setlinecap
newpath
-14.759949 -7.0000000 moveto
-14.759949 65.000000 lineto
stroke
grestore
gsave [1.0000000 0.0000000 0.0000000 1.0000000 42.298000 0.36621900] concat
0.0000000 0.0000000 0.0000000 setrgbcolor
newpath
65.215778 50.567318 moveto
65.020466 52.212826 lineto
59.522419 52.212826 lineto
59.522419 52.032162 lineto
60.300413 52.022396 60.689410 51.801042 60.689411 51.368099 curveto
60.689411 46.104427 lineto
60.689410 45.850527 60.622678 45.679629 60.489216 45.591732 curveto
60.345986 45.497338 60.062783 45.450137 59.639606 45.450130 curveto
59.639606 45.279232 lineto
64.800739 45.279232 lineto
64.854450 46.778255 lineto
64.673786 46.778255 lineto
64.595656 46.026309 64.353143 45.650332 63.946247 45.650326 curveto
61.573200 45.650326 lineto
61.573200 48.404232 lineto
63.462849 48.404232 lineto
63.765579 48.404236 63.960891 48.119405 64.048786 47.549740 curveto
64.209919 47.549740 lineto
64.209919 49.659115 lineto
64.048786 49.659115 lineto
63.941360 49.050394 63.746048 48.746032 63.462849 48.746029 curveto
61.573200 48.746029 lineto
61.573200 51.280209 lineto
61.573198 51.641537 61.711544 51.822201 61.988239 51.822201 curveto
64.053669 51.822201 lineto
64.541945 51.822201 64.864211 51.399025 65.020466 50.552670 curveto
65.215778 50.567318 lineto
fill
0.0000000 0.0000000 0.0000000 setrgbcolor
[] 0 setdash
0.35433072 setlinewidth
0 setlinejoin
0 setlinecap
newpath
58.411522 43.069670 moveto
65.735852 43.069670 65.735852 43.069670 65.735852 43.069670 curveto
stroke
gsave [-0.21259843 0.0000000 0.0000000 -0.21259843 66.798844 43.069670] concat
0.0000000 0.0000000 0.0000000 setrgbcolor
newpath
8.7185878 4.0337352 moveto
-2.2072895 0.016013256 lineto
8.7185884 -4.0017078 lineto
6.9730900 -1.6296469 6.9831476 1.6157441 8.7185878 4.0337352 curveto
closepath
eofill
grestore
grestore
0.0000000 0.0000000 0.0000000 setrgbcolor
newpath
103.47660 31.762417 moveto
100.63773 31.762417 lineto
100.63773 31.213100 lineto
103.47660 31.213100 lineto
103.47660 31.762417 lineto
fill
0.0000000 0.0000000 0.0000000 setrgbcolor
newpath
111.98894 52.589886 moveto
110.37175 52.589886 lineto
110.37175 54.207073 lineto
109.95866 54.207073 lineto
109.95866 52.589886 lineto
108.34148 52.589886 lineto
108.34148 52.176800 lineto
109.95866 52.176800 lineto
109.95866 50.559612 lineto
110.37175 50.559612 lineto
110.37175 52.176800 lineto
111.98894 52.176800 lineto
111.98894 52.589886 lineto
fill
0.0000000 0.0000000 0.0000000 setrgbcolor
[] 0 setdash
0.44823322 setlinewidth
0 setlinejoin
0 setlinecap
newpath
114.70250 37.759532 moveto
71.335447 37.759532 71.335447 37.759532 71.335447 37.759532 curveto
stroke
gsave [0.49305654 -6.0380017e-17 6.0380017e-17 0.49305654 68.870164 37.759532] concat
0.0000000 0.0000000 0.0000000 setrgbcolor
newpath
8.7185878 4.0337352 moveto
-2.2072895 0.016013256 lineto
8.7185884 -4.0017078 lineto
6.9730900 -1.6296469 6.9831476 1.6157441 8.7185878 4.0337352 curveto
closepath
eofill
grestore
gsave [1.0000000 0.0000000 0.0000000 1.0000000 2.5635110 -1.8310830] concat
0.0000000 0.0000000 0.0000000 setrgbcolor
newpath
65.215778 50.567318 moveto
65.020466 52.212826 lineto
59.522419 52.212826 lineto
59.522419 52.032162 lineto
60.300413 52.022396 60.689410 51.801042 60.689411 51.368099 curveto
60.689411 46.104427 lineto
60.689410 45.850527 60.622678 45.679629 60.489216 45.591732 curveto
60.345986 45.497338 60.062783 45.450137 59.639606 45.450130 curveto
59.639606 45.279232 lineto
64.800739 45.279232 lineto
64.854450 46.778255 lineto
64.673786 46.778255 lineto
64.595656 46.026309 64.353143 45.650332 63.946247 45.650326 curveto
61.573200 45.650326 lineto
61.573200 48.404232 lineto
63.462849 48.404232 lineto
63.765579 48.404236 63.960891 48.119405 64.048786 47.549740 curveto
64.209919 47.549740 lineto
64.209919 49.659115 lineto
64.048786 49.659115 lineto
63.941360 49.050394 63.746048 48.746032 63.462849 48.746029 curveto
61.573200 48.746029 lineto
61.573200 51.280209 lineto
61.573198 51.641537 61.711544 51.822201 61.988239 51.822201 curveto
64.053669 51.822201 lineto
64.541945 51.822201 64.864211 51.399025 65.020466 50.552670 curveto
65.215778 50.567318 lineto
fill
0.0000000 0.0000000 0.0000000 setrgbcolor
[] 0 setdash
0.35433072 setlinewidth
0 setlinejoin
0 setlinecap
newpath
58.411522 43.069670 moveto
65.735852 43.069670 65.735852 43.069670 65.735852 43.069670 curveto
stroke
gsave [-0.21259843 0.0000000 0.0000000 -0.21259843 66.798844 43.069670] concat
0.0000000 0.0000000 0.0000000 setrgbcolor
newpath
8.7185878 4.0337352 moveto
-2.2072895 0.016013256 lineto
8.7185884 -4.0017078 lineto
6.9730900 -1.6296469 6.9831476 1.6157441 8.7185878 4.0337352 curveto
closepath
eofill
grestore
grestore
0.0000000 0.0000000 0.0000000 setrgbcolor
newpath
71.280319 52.184082 moveto
71.019575 52.699707 70.660688 52.957520 70.203659 52.957520 curveto
69.931197 52.957520 69.702681 52.874024 69.518112 52.707031 curveto
69.324752 52.531250 69.228073 52.308594 69.228073 52.039062 curveto
69.228073 49.283691 lineto
68.801804 49.283691 lineto
68.735886 49.068359 lineto
69.055221 48.948246 69.288131 48.768071 69.434616 48.527832 curveto
69.543014 48.352055 69.639693 48.067876 69.724655 47.675293 curveto
69.878464 47.675293 lineto
69.878464 48.936523 lineto
71.280319 48.936523 lineto
71.095749 49.283691 lineto
69.878464 49.283691 lineto
69.878464 51.770996 lineto
69.878463 51.923341 69.957564 52.087403 70.115768 52.263184 curveto
70.273970 52.438965 70.429243 52.526856 70.581589 52.526855 curveto
70.684126 52.526856 70.811567 52.446290 70.963913 52.285156 curveto
71.119184 52.121095 71.196821 52.039063 71.196823 52.039062 curveto
71.255414 52.039063 71.283246 52.087403 71.280319 52.184082 curveto
fill
0.0000000 0.0000000 0.0000000 setrgbcolor
newpath
75.964890 50.953613 moveto
75.964885 51.562990 75.770061 52.058106 75.380417 52.438965 curveto
74.993695 52.819824 74.494184 53.010254 73.881882 53.010254 curveto
73.328169 53.010254 72.849166 52.815430 72.444870 52.425781 curveto
72.043503 52.033204 71.842819 51.561525 71.842819 51.010742 curveto
71.842819 50.380862 72.027389 49.868167 72.396530 49.472656 curveto
72.768599 49.077152 73.268111 48.879399 73.895065 48.879395 curveto
74.492719 48.879399 74.986371 49.075687 75.376022 49.468262 curveto
75.768596 49.860843 75.964885 50.355960 75.964890 50.953613 curveto
75.169479 51.340332 moveto
75.169476 50.760256 75.078656 50.275393 74.897018 49.885742 curveto
74.653852 49.364261 74.275922 49.103519 73.763229 49.103516 curveto
73.303267 49.103519 72.985396 49.288090 72.809616 49.657227 curveto
72.686568 49.915042 72.625045 50.303225 72.625046 50.821777 curveto
72.625045 51.296388 72.740767 51.724122 72.972214 52.104980 curveto
73.241744 52.547364 73.599165 52.768555 74.044479 52.768555 curveto
74.794476 52.768555 75.169476 52.292481 75.169479 51.340332 curveto
fill
0.0000000 0.0000000 0.0000000 setrgbcolor
newpath
78.856491 52.184082 moveto
78.595747 52.699707 78.236860 52.957520 77.779831 52.957520 curveto
77.507369 52.957520 77.278853 52.874024 77.094284 52.707031 curveto
76.900924 52.531250 76.804244 52.308594 76.804245 52.039062 curveto
76.804245 49.283691 lineto
76.377975 49.283691 lineto
76.312057 49.068359 lineto
76.631393 48.948246 76.864303 48.768071 77.010788 48.527832 curveto
77.119186 48.352055 77.215865 48.067876 77.300827 47.675293 curveto
77.454636 47.675293 lineto
77.454636 48.936523 lineto
78.856491 48.936523 lineto
78.671921 49.283691 lineto
77.454636 49.283691 lineto
77.454636 51.770996 lineto
77.454634 51.923341 77.533736 52.087403 77.691940 52.263184 curveto
77.850142 52.438965 78.005415 52.526856 78.157761 52.526855 curveto
78.260298 52.526856 78.387739 52.446290 78.540085 52.285156 curveto
78.695356 52.121095 78.772992 52.039063 78.772995 52.039062 curveto
78.831586 52.039063 78.859418 52.087403 78.856491 52.184082 curveto
fill
0.0000000 0.0000000 0.0000000 setrgbcolor
newpath
83.378464 52.518066 moveto
83.085491 52.731934 82.936077 52.841797 82.930222 52.847656 curveto
82.739789 52.964844 82.564007 53.023437 82.402878 53.023438 curveto
82.150922 53.023437 81.978071 52.831543 81.884323 52.447754 curveto
81.529829 52.705567 81.333540 52.844727 81.295456 52.865234 curveto
81.102095 52.973633 80.879439 53.027832 80.627487 53.027832 curveto
80.378463 53.027832 80.167525 52.942871 79.994675 52.772949 curveto
79.824752 52.600098 79.739792 52.390626 79.739792 52.144531 curveto
79.739792 51.836915 79.861373 51.584962 80.104538 51.388672 curveto
80.248092 51.274416 80.504439 51.141115 80.873581 50.988770 curveto
81.866745 50.580078 lineto
81.866745 49.925293 lineto
81.866742 49.693851 81.783246 49.499027 81.616257 49.340820 curveto
81.452192 49.182621 81.252974 49.103519 81.018600 49.103516 curveto
80.646529 49.103519 80.460494 49.301273 80.460495 49.696777 curveto
80.460494 49.723148 80.466353 49.758304 80.478073 49.802246 curveto
80.489791 49.846195 80.495650 49.879886 80.495651 49.903320 curveto
80.495650 50.011722 80.413619 50.108401 80.249557 50.193359 curveto
80.106002 50.269534 79.974166 50.307620 79.854050 50.307617 curveto
79.804245 50.307620 79.779342 50.266604 79.779343 50.184570 curveto
79.779342 49.794925 79.943405 49.475589 80.271530 49.226562 curveto
80.570357 48.998051 80.921919 48.883793 81.326218 48.883789 curveto
81.730512 48.883793 82.026410 48.958500 82.213913 49.107910 curveto
82.421918 49.271976 82.525922 49.550296 82.525925 49.942871 curveto
82.525925 52.206055 lineto
82.525922 52.458008 82.612347 52.583985 82.785202 52.583984 curveto
82.893597 52.583985 83.088421 52.501954 83.369675 52.337891 curveto
83.378464 52.518066 lineto
81.871140 52.153320 moveto
81.866745 50.834961 lineto
80.974655 51.226074 lineto
80.573287 51.401857 80.372603 51.684572 80.372604 52.074219 curveto
80.372603 52.241212 80.426803 52.374512 80.535202 52.474121 curveto
80.643599 52.573731 80.781294 52.623535 80.948288 52.623535 curveto
81.121138 52.623535 81.288130 52.575196 81.449265 52.478516 curveto
81.519575 52.434571 81.660200 52.326173 81.871140 52.153320 curveto
fill
0.0000000 0.0000000 0.0000000 setrgbcolor
newpath
85.505417 52.759766 moveto
85.479050 52.957520 lineto
83.580612 52.957520 lineto
83.563034 52.922363 lineto
83.589401 52.786133 lineto
83.773971 52.786133 83.921920 52.711426 84.033249 52.562012 curveto
84.135787 52.427247 84.187057 52.264649 84.187057 52.074219 curveto
84.187057 47.385254 lineto
84.187057 47.279791 84.131393 47.191900 84.020065 47.121582 curveto
83.926315 47.062994 83.822311 47.033697 83.708054 47.033691 curveto
83.708053 47.033697 83.634811 47.048346 83.488327 47.077637 curveto
83.488327 47.062994 83.489792 47.041022 83.492722 47.011719 curveto
83.495651 46.982428 83.497116 46.958990 83.497116 46.941406 curveto
83.497116 46.900397 83.539596 46.865240 83.624557 46.835938 curveto
83.853073 46.765631 84.189986 46.633795 84.635300 46.440430 curveto
84.828659 46.440430 lineto
84.828659 52.289551 lineto
84.828658 52.576661 85.054243 52.733399 85.505417 52.759766 curveto
fill
0.0000000 0.0000000 0.0000000 setrgbcolor
newpath
67.825676 69.981705 moveto
64.978996 69.981705 lineto
64.978996 69.810806 lineto
65.669099 69.810806 66.014151 69.532486 66.014153 68.975845 curveto
66.014153 63.819595 lineto
65.838370 63.923768 65.664216 64.027935 65.491692 64.132095 curveto
65.283357 64.249289 65.099438 64.329041 64.939934 64.371353 curveto
64.847160 64.156509 lineto
65.501456 63.830995 66.062979 63.433860 66.531731 62.965103 curveto
66.824699 62.965103 lineto
66.824699 68.975845 lineto
66.824697 69.311132 66.910960 69.538997 67.083488 69.659439 curveto
67.223459 69.760351 67.470855 69.810806 67.825676 69.810806 curveto
67.825676 69.981705 lineto
fill
0.0000000 0.0000000 0.0000000 setrgbcolor
newpath
73.260246 66.461197 moveto
73.260242 67.252215 73.092598 68.000912 72.757317 68.707291 curveto
72.340646 69.589453 71.779123 70.030533 71.072746 70.030533 curveto
70.340323 70.030533 69.770662 69.595963 69.363762 68.726822 curveto
69.044751 68.046485 68.885246 67.291278 68.885246 66.461197 curveto
68.885246 65.670186 69.052889 64.921488 69.388176 64.215103 curveto
69.804841 63.336204 70.366364 62.896751 71.072746 62.896744 curveto
71.805165 62.896751 72.373198 63.329693 72.776848 64.195572 curveto
73.099109 64.879171 73.260242 65.634378 73.260246 66.461197 curveto
72.542473 66.680923 moveto
72.542469 64.340434 72.052560 63.170188 71.072746 63.170181 curveto
70.092927 63.170188 69.603019 64.195578 69.603020 66.246353 curveto
69.603019 68.583594 70.092927 69.752213 71.072746 69.752213 curveto
72.052560 69.752213 72.542469 68.728451 72.542473 66.680923 curveto
fill
0.0000000 0.0000000 0.0000000 setrgbcolor
newpath
fill
0.0000000 0.0000000 0.0000000 setrgbcolor
newpath
81.004387 68.785416 moveto
80.600738 69.644791 79.961090 70.074478 79.085442 70.074478 curveto
78.522289 70.074478 78.045402 69.848241 77.654778 69.395767 curveto
77.280428 68.962826 77.093254 68.459896 77.093254 67.886978 curveto
77.093254 67.170835 77.340650 66.580015 77.835442 66.114517 curveto
78.320466 65.658792 78.924307 65.430928 79.646965 65.430923 curveto
79.861806 65.430928 80.112457 65.497660 80.398918 65.631119 curveto
80.727691 65.777607 80.892078 65.935485 80.892082 66.104752 curveto
80.892078 66.414000 80.745594 66.568622 80.452629 66.568619 curveto
80.270334 66.568622 80.151519 66.495380 80.096184 66.348892 curveto
80.044097 66.212177 79.993642 66.075459 79.944817 65.938736 curveto
79.837392 65.789001 79.630686 65.714131 79.324699 65.714127 curveto
78.833161 65.714131 78.449047 65.937112 78.172356 66.383072 curveto
77.941235 66.760679 77.825675 67.211525 77.825676 67.735611 curveto
77.825675 68.171811 77.978670 68.578711 78.284660 68.956314 curveto
78.610180 69.356705 78.984528 69.556900 79.407707 69.556900 curveto
80.016428 69.556900 80.481923 69.281836 80.804192 68.731705 curveto
80.937651 68.728451 81.004383 68.746354 81.004387 68.785416 curveto
fill
0.0000000 0.0000000 0.0000000 setrgbcolor
newpath
89.671379 69.986588 moveto
87.508293 69.986588 lineto
87.508293 69.766861 lineto
87.950995 69.766861 88.172349 69.547135 88.172356 69.107681 curveto
88.172356 66.886002 lineto
88.172349 66.609312 88.105617 66.366799 87.972160 66.158463 curveto
87.815904 65.917581 87.605943 65.797139 87.342278 65.797134 curveto
86.938626 65.797139 86.458484 66.000589 85.901848 66.407486 curveto
85.901848 69.346939 lineto
85.901843 69.613867 86.162260 69.747330 86.683098 69.747330 curveto
86.707512 69.986588 lineto
84.549309 69.986588 lineto
84.549309 69.766861 lineto
84.988758 69.766861 85.208485 69.547135 85.208488 69.107681 curveto
85.208488 66.886002 lineto
85.208485 66.606057 85.151519 66.365172 85.037590 66.163345 curveto
84.897613 65.919209 84.697418 65.797139 84.437004 65.797134 curveto
84.026845 65.797139 83.523916 66.016865 82.928215 66.456314 curveto
82.928215 69.244400 lineto
82.928214 69.563411 83.173982 69.737564 83.665520 69.766861 curveto
83.636223 69.986588 lineto
81.570793 69.986588 lineto
81.551262 69.947525 lineto
81.580559 69.796158 lineto
81.782381 69.796158 81.945142 69.713150 82.068840 69.547134 curveto
82.182772 69.394140 82.239738 69.213476 82.239738 69.005142 curveto
82.239738 66.314713 lineto
82.239738 66.197529 82.138826 66.104755 81.937004 66.036392 curveto
81.910962 66.026631 81.757967 65.990823 81.478020 65.928970 curveto
81.478020 65.806900 lineto
81.510572 65.771097 81.551262 65.745055 81.600090 65.728775 curveto
81.857251 65.640889 82.241365 65.483011 82.752434 65.255142 curveto
82.928215 65.386978 lineto
82.928215 66.265884 lineto
83.868968 65.660420 84.518381 65.357686 84.876457 65.357681 curveto
85.094553 65.357686 85.298003 65.458597 85.486809 65.660416 curveto
85.646310 65.832946 85.761870 66.034769 85.833488 66.265884 curveto
86.774238 65.660420 87.423652 65.357686 87.781731 65.357681 curveto
88.130031 65.357686 88.408351 65.518819 88.616692 65.841080 curveto
88.798976 66.121031 88.890122 66.443297 88.890129 66.807877 curveto
88.890129 69.346939 lineto
88.890122 69.613867 89.140773 69.747330 89.642082 69.747330 curveto
89.671379 69.986588 lineto
fill
0.0000000 0.0000000 0.0000000 setrgbcolor
newpath
138.95221 69.693634 moveto
138.95220 69.755484 138.80898 70.219351 138.52252 71.085236 curveto
134.43561 71.085236 lineto
134.34283 70.797150 lineto
136.51731 69.042594 137.60455 67.447544 137.60455 66.011993 curveto
137.60455 65.172156 137.22369 64.752234 136.46198 64.752228 curveto
135.61562 64.752234 134.97109 65.150997 134.52838 65.948517 curveto
134.31354 65.855743 lineto
134.48932 65.370723 134.78880 64.962195 135.21198 64.630157 curveto
135.65794 64.278602 136.12994 64.102821 136.62799 64.102814 curveto
137.08697 64.102821 137.47271 64.242795 137.78522 64.522736 curveto
138.11073 64.815711 138.27349 65.188432 138.27350 65.640900 curveto
138.27349 67.089471 137.29205 68.686149 135.32916 70.430939 curveto
138.00006 70.430939 lineto
138.17909 70.430939 138.34999 70.292593 138.51276 70.015900 curveto
138.67551 69.739208 138.75038 69.600862 138.73737 69.600861 curveto
138.76340 69.600862 138.80084 69.615511 138.84967 69.644806 curveto
138.89849 69.670849 138.93267 69.687125 138.95221 69.693634 curveto
fill
0.0000000 0.0000000 0.0000000 setrgbcolor
newpath
144.13776 67.559845 moveto
144.13775 68.350863 143.97011 69.099560 143.63483 69.805939 curveto
143.21816 70.688101 142.65663 71.129181 141.95026 71.129181 curveto
141.21783 71.129181 140.64817 70.694611 140.24127 69.825470 curveto
139.92226 69.145133 139.76276 68.389926 139.76276 67.559845 curveto
139.76276 66.768834 139.93040 66.020136 140.26569 65.313751 curveto
140.68235 64.434852 141.24387 63.995399 141.95026 63.995392 curveto
142.68267 63.995399 143.25071 64.428341 143.65436 65.294220 curveto
143.97662 65.977819 144.13775 66.733026 144.13776 67.559845 curveto
143.41998 67.779572 moveto
143.41998 65.439082 142.93007 64.268836 141.95026 64.268829 curveto
140.97044 64.268836 140.48053 65.294226 140.48053 67.345001 curveto
140.48053 69.682242 140.97044 70.850861 141.95026 70.850861 curveto
142.93007 70.850861 143.41998 69.827099 143.41998 67.779572 curveto
fill
0.0000000 0.0000000 0.0000000 setrgbcolor
newpath
fill
0.0000000 0.0000000 0.0000000 setrgbcolor
newpath
151.88190 69.884064 moveto
151.47825 70.743439 150.83860 71.173126 149.96295 71.173126 curveto
149.39980 71.173126 148.92291 70.946889 148.53229 70.494415 curveto
148.15794 70.061474 147.97076 69.558544 147.97076 68.985626 curveto
147.97076 68.269483 148.21816 67.678663 148.71295 67.213165 curveto
149.19798 66.757440 149.80182 66.529576 150.52448 66.529572 curveto
150.73932 66.529576 150.98997 66.596308 151.27643 66.729767 curveto
151.60520 66.876255 151.76959 67.034133 151.76959 67.203400 curveto
151.76959 67.512648 151.62310 67.667270 151.33014 67.667267 curveto
151.14784 67.667270 151.02903 67.594028 150.97369 67.447540 curveto
150.92161 67.310825 150.87115 67.174107 150.82233 67.037384 curveto
150.71490 66.887649 150.50820 66.812779 150.20221 66.812775 curveto
149.71067 66.812779 149.32656 67.035760 149.04987 67.481720 curveto
148.81875 67.859327 148.70319 68.310173 148.70319 68.834259 curveto
148.70319 69.270459 148.85618 69.677359 149.16217 70.054962 curveto
149.48769 70.455353 149.86204 70.655549 150.28522 70.655548 curveto
150.89394 70.655549 151.35943 70.380484 151.68170 69.830353 curveto
151.81516 69.827099 151.88189 69.845002 151.88190 69.884064 curveto
fill
0.0000000 0.0000000 0.0000000 setrgbcolor
newpath
160.54889 71.085236 moveto
158.38580 71.085236 lineto
158.38580 70.865509 lineto
158.82851 70.865509 159.04986 70.645783 159.04987 70.206329 curveto
159.04987 67.984650 lineto
159.04986 67.707960 158.98313 67.465448 158.84967 67.257111 curveto
158.69341 67.016229 158.48345 66.895787 158.21979 66.895782 curveto
157.81614 66.895787 157.33599 67.099237 156.77936 67.506134 curveto
156.77936 70.445587 lineto
156.77935 70.712515 157.03977 70.845978 157.56061 70.845978 curveto
157.58502 71.085236 lineto
155.42682 71.085236 lineto
155.42682 70.865509 lineto
155.86627 70.865509 156.08599 70.645783 156.08600 70.206329 curveto
156.08600 67.984650 lineto
156.08599 67.704705 156.02903 67.463820 155.91510 67.261993 curveto
155.77512 67.017857 155.57493 66.895787 155.31451 66.895782 curveto
154.90436 66.895787 154.40143 67.115513 153.80573 67.554962 curveto
153.80573 70.343048 lineto
153.80572 70.662059 154.05149 70.836212 154.54303 70.865509 curveto
154.51373 71.085236 lineto
152.44830 71.085236 lineto
152.42877 71.046173 lineto
152.45807 70.894806 lineto
152.65989 70.894806 152.82265 70.811798 152.94635 70.645782 curveto
153.06028 70.492788 153.11725 70.312124 153.11725 70.103790 curveto
153.11725 67.413361 lineto
153.11725 67.296177 153.01634 67.203404 152.81451 67.135040 curveto
152.78847 67.125279 152.63548 67.089471 152.35553 67.027618 curveto
152.35553 66.905548 lineto
152.38808 66.869745 152.42877 66.843703 152.47760 66.827423 curveto
152.73476 66.739537 153.11888 66.581659 153.62994 66.353790 curveto
153.80573 66.485626 lineto
153.80573 67.364532 lineto
154.74648 66.759068 155.39589 66.456334 155.75397 66.456329 curveto
155.97206 66.456334 156.17551 66.557245 156.36432 66.759064 curveto
156.52382 66.931594 156.63938 67.133417 156.71100 67.364532 curveto
157.65175 66.759068 158.30116 66.456334 158.65924 66.456329 curveto
159.00754 66.456334 159.28586 66.617467 159.49420 66.939728 curveto
159.67649 67.219680 159.76763 67.541945 159.76764 67.906525 curveto
159.76764 70.445587 lineto
159.76763 70.712515 160.01828 70.845978 160.51959 70.845978 curveto
160.54889 71.085236 lineto
fill
grestore
showpage
