%!PS-Adobe-2.0
%%Creator: inkscape 0.41.1
%%Pages: 1
%%Orientation: Portrait
%%BoundingBox: 15 800 150 831
%%HiResBoundingBox: 15.570547 800.26279 149.70452 830.09833
%%EndComments
%%Page: 1 1
0 842 translate
0.80000000 -0.80000000 scale
gsave [1.0000000 0.0000000 0.0000000 1.0000000 0.0000000 0.0000000] concat
0.0000000 0.0000000 0.0000000 setrgbcolor
[] 0 setdash
0.35433072 setlinewidth
0 setlinejoin
0 setlinecap
newpath
52.918277 38.034195 moveto
52.918277 44.149277 47.955311 49.112243 41.840229 49.112243 curveto
35.725147 49.112243 30.762181 44.149277 30.762181 38.034195 curveto
30.762181 31.919113 35.725147 26.956147 41.840229 26.956147 curveto
47.955311 26.956147 52.918277 31.919113 52.918277 38.034195 curveto
closepath
stroke
0.0000000 0.0000000 0.0000000 setrgbcolor
[] 0 setdash
0.35433072 setlinewidth
0 setlinejoin
0 setlinecap
newpath
41.840229 46.365618 moveto
41.840229 28.787229 41.840229 29.336554 41.840229 29.336554 curveto
41.840229 29.336554 lineto
stroke
0.0000000 0.0000000 0.0000000 setrgbcolor
[] 0 setdash
0.35433072 setlinewidth
0 setlinejoin
0 setlinecap
newpath
50.813481 38.034195 moveto
33.235092 38.034195 33.784417 38.034195 33.784417 38.034195 curveto
33.784417 38.034195 lineto
stroke
0.0000000 0.0000000 0.0000000 setrgbcolor
newpath
26.963184 23.689468 moveto
26.865528 23.840836 lineto
26.211224 23.821302 25.613894 23.678073 25.073536 23.411148 curveto
24.852176 23.303725 24.415979 23.028660 23.764942 22.585953 curveto
23.234339 22.224624 22.747686 21.972346 22.304981 21.829117 curveto
21.413052 21.539404 20.739225 21.166683 20.283497 20.710953 curveto
19.736622 20.160824 19.463184 19.456072 19.463184 18.596695 curveto
19.463184 17.522481 19.798470 16.635437 20.469044 15.935562 curveto
21.149381 15.222678 22.025031 14.866233 23.095997 14.866226 curveto
24.150680 14.866233 25.021447 15.152691 25.708302 15.725601 curveto
26.440716 16.337586 26.806927 17.159525 26.806934 18.191422 curveto
26.806927 19.080096 26.567669 19.853207 26.089161 20.510757 curveto
25.591108 21.187841 24.917280 21.627294 24.067677 21.829117 curveto
24.262984 21.917007 24.461552 22.066747 24.663380 22.278336 curveto
24.835900 22.463882 25.008426 22.647801 25.180958 22.830093 curveto
25.721316 23.337904 26.315391 23.624362 26.963184 23.689468 curveto
25.791309 18.572281 moveto
25.791303 17.690124 25.561811 16.918640 25.102833 16.257828 curveto
24.581994 15.512391 23.898401 15.139670 23.052052 15.139664 curveto
22.192674 15.139670 21.538378 15.439149 21.089161 16.038101 curveto
20.692024 16.571961 20.493457 17.284851 20.493458 18.176773 curveto
20.493457 19.052427 20.724576 19.827166 21.186817 20.500992 curveto
21.707648 21.265966 22.387986 21.648453 23.227833 21.648453 curveto
24.087203 21.648453 24.741499 21.342464 25.190723 20.730484 curveto
25.591108 20.186866 25.791303 19.467466 25.791309 18.572281 curveto
fill
0.0000000 0.0000000 0.0000000 setrgbcolor
newpath
32.090137 17.654312 moveto
28.037403 17.654312 lineto
28.037403 17.195328 lineto
32.090137 17.195328 lineto
32.090137 17.654312 lineto
32.090137 19.495132 moveto
28.037403 19.495132 lineto
28.037403 19.031265 lineto
32.090137 19.031265 lineto
32.090137 19.495132 lineto
fill
0.0000000 0.0000000 0.0000000 setrgbcolor
newpath
37.392872 19.822281 moveto
36.255177 19.822281 lineto
36.255177 21.829117 lineto
35.581348 21.829117 lineto
35.581348 19.822281 lineto
32.724903 19.822281 lineto
32.724903 19.514664 lineto
36.011036 14.788101 lineto
36.255177 14.788101 lineto
36.255177 19.207047 lineto
37.392872 19.207047 lineto
37.392872 19.822281 lineto
35.581348 15.925797 moveto
33.340137 19.207047 lineto
35.581348 19.207047 lineto
35.581348 15.925797 lineto
fill
0.0000000 0.0000000 0.0000000 setrgbcolor
newpath
42.168262 18.303726 moveto
42.168258 19.094745 42.000615 19.843442 41.665333 20.549820 curveto
41.248662 21.431982 40.687139 21.873062 39.980762 21.873062 curveto
39.248339 21.873062 38.678678 21.438492 38.271778 20.569351 curveto
37.952767 19.889015 37.793262 19.133807 37.793262 18.303726 curveto
37.793262 17.512715 37.960905 16.764018 38.296192 16.057632 curveto
38.712858 15.178733 39.274380 14.739280 39.980762 14.739273 curveto
40.713181 14.739280 41.281214 15.172222 41.684864 16.038101 curveto
42.007125 16.721700 42.168258 17.476908 42.168262 18.303726 curveto
41.450489 18.523453 moveto
41.450485 16.182964 40.960577 15.012717 39.980762 15.012711 curveto
39.000943 15.012717 38.511035 16.038107 38.511036 18.088882 curveto
38.511035 20.426123 39.000943 21.594742 39.980762 21.594742 curveto
40.960577 21.594742 41.450485 20.570980 41.450489 18.523453 curveto
fill
0.0000000 0.0000000 0.0000000 setrgbcolor
newpath
47.715137 18.303726 moveto
47.715133 19.094745 47.547490 19.843442 47.212208 20.549820 curveto
46.795537 21.431982 46.234014 21.873062 45.527637 21.873062 curveto
44.795214 21.873062 44.225553 21.438492 43.818653 20.569351 curveto
43.499642 19.889015 43.340137 19.133807 43.340137 18.303726 curveto
43.340137 17.512715 43.507780 16.764018 43.843067 16.057632 curveto
44.259733 15.178733 44.821255 14.739280 45.527637 14.739273 curveto
46.260056 14.739280 46.828089 15.172222 47.231739 16.038101 curveto
47.554000 16.721700 47.715133 17.476908 47.715137 18.303726 curveto
46.997364 18.523453 moveto
46.997360 16.182964 46.507452 15.012717 45.527637 15.012711 curveto
44.547818 15.012717 44.057910 16.038107 44.057911 18.088882 curveto
44.057910 20.426123 44.547818 21.594742 45.527637 21.594742 curveto
46.507452 21.594742 46.997360 20.570980 46.997364 18.523453 curveto
fill
0.0000000 0.0000000 0.0000000 setrgbcolor
newpath
fill
0.0000000 0.0000000 0.0000000 setrgbcolor
newpath
56.816700 21.194351 moveto
56.745080 21.366878 56.600224 21.537776 56.382130 21.707047 curveto
56.154260 21.879572 55.950810 21.965835 55.771778 21.965836 curveto
55.527633 21.965835 55.369756 21.850276 55.298145 21.619156 curveto
55.259079 21.492203 55.244431 21.275732 55.254200 20.969742 curveto
54.645473 21.575211 53.983039 21.877945 53.266895 21.877945 curveto
53.107388 21.877945 52.965787 21.851903 52.842091 21.799820 curveto
52.913704 22.629897 52.949511 23.155613 52.949512 23.376968 curveto
52.949511 23.585300 52.918587 23.785495 52.856739 23.977554 curveto
52.768847 24.244479 52.645149 24.377942 52.485645 24.377945 curveto
52.358691 24.377942 52.251270 24.236341 52.163380 23.953140 curveto
52.098275 23.735039 52.065723 23.542982 52.065723 23.376968 curveto
52.065723 23.123061 52.086882 22.748712 52.129200 22.253922 curveto
52.174772 21.746109 52.199186 21.370133 52.202442 21.125992 curveto
52.202441 20.917659 52.207324 20.502621 52.217091 19.880875 curveto
52.223600 19.363299 52.226856 18.948260 52.226856 18.635757 curveto
52.226856 18.323261 52.187793 18.092141 52.109669 17.942398 curveto
51.995736 17.734069 51.789030 17.629902 51.489552 17.629898 curveto
51.470020 17.429703 lineto
52.925098 17.170914 lineto
52.925098 20.349625 lineto
52.925097 20.629574 53.014615 20.867204 53.193653 21.062515 curveto
53.375943 21.267594 53.605435 21.370133 53.882130 21.370132 curveto
54.162075 21.370133 54.619431 21.139013 55.254200 20.676773 curveto
55.254200 17.991226 lineto
55.254196 17.743834 54.940069 17.603861 54.311817 17.571304 curveto
54.311817 17.410172 lineto
55.952442 17.107437 lineto
55.952442 20.920914 lineto
55.952438 21.200862 56.051721 21.340836 56.250294 21.340836 curveto
56.295862 21.340836 56.364221 21.283870 56.455372 21.169937 curveto
56.553023 21.042985 56.626265 20.972998 56.675098 20.959976 curveto
56.816700 21.194351 lineto
fill
0.0000000 0.0000000 0.0000000 setrgbcolor
newpath
63.833302 20.100601 moveto
63.618452 20.722347 63.307579 21.235042 62.900684 21.638687 curveto
61.904586 21.798192 61.264938 21.877945 60.981739 21.877945 curveto
60.031216 21.877945 59.225552 21.578466 58.564747 20.979507 curveto
57.884408 20.361019 57.544239 19.581398 57.544239 18.640640 curveto
57.544239 17.598978 57.881153 16.715190 58.554981 15.989273 curveto
59.248339 15.247092 60.114223 14.875999 61.152637 14.875992 curveto
61.832972 14.875999 62.443323 15.001324 62.983692 15.251968 curveto
63.156212 15.330100 63.266889 15.369162 63.315723 15.369156 curveto
63.380822 15.369162 63.429650 15.344748 63.462208 15.295914 curveto
63.613575 15.305679 lineto
63.681934 16.780289 lineto
63.501270 16.780289 lineto
63.361290 16.259461 63.068322 15.849305 62.622364 15.549820 curveto
62.199182 15.263368 61.709274 15.120139 61.152637 15.120132 curveto
60.332322 15.120139 59.668260 15.455425 59.160450 16.125992 curveto
58.698209 16.737976 58.467089 17.467142 58.467091 18.313492 curveto
58.467089 19.195656 58.716113 19.957374 59.214161 20.598648 curveto
59.754523 21.295263 60.454392 21.643570 61.313770 21.643570 curveto
61.792281 21.643570 62.254521 21.487320 62.700489 21.174820 curveto
63.136681 20.868831 63.447553 20.491228 63.633106 20.042007 curveto
63.833302 20.100601 lineto
fill
0.0000000 0.0000000 0.0000000 setrgbcolor
[] 0 setdash
0.35433072 setlinewidth
0 setlinejoin
0 setlinecap
newpath
159.85348 38.125748 moveto
186.95349 38.125748 186.95349 38.125748 186.95349 38.125748 curveto
stroke
gsave [-0.38976379 0.0000000 0.0000000 -0.38976379 188.90231 38.125748] concat
0.0000000 0.0000000 0.0000000 setrgbcolor
newpath
8.7185878 4.0337352 moveto
-2.2072895 0.016013256 lineto
8.7185884 -4.0017078 lineto
6.9730900 -1.6296469 6.9831476 1.6157441 8.7185878 4.0337352 curveto
closepath
eofill
grestore
0.0000000 0.0000000 0.0000000 setrgbcolor
newpath
174.85118 33.184292 moveto
174.65587 34.829800 lineto
169.15782 34.829800 lineto
169.15782 34.649136 lineto
169.93582 34.639370 170.32481 34.418016 170.32481 33.985073 curveto
170.32481 28.721401 lineto
170.32481 28.467501 170.25808 28.296603 170.12462 28.208706 curveto
169.98139 28.114312 169.69819 28.067111 169.27501 28.067104 curveto
169.27501 27.896206 lineto
174.43614 27.896206 lineto
174.48985 29.395229 lineto
174.30919 29.395229 lineto
174.23106 28.643282 173.98855 28.267306 173.58165 28.267300 curveto
171.20860 28.267300 lineto
171.20860 31.021206 lineto
173.09825 31.021206 lineto
173.40098 31.021210 173.59629 30.736379 173.68419 30.166714 curveto
173.84532 30.166714 lineto
173.84532 32.276089 lineto
173.68419 32.276089 lineto
173.57676 31.667368 173.38145 31.363006 173.09825 31.363003 curveto
171.20860 31.363003 lineto
171.20860 33.897182 lineto
171.20860 34.258511 171.34695 34.439175 171.62364 34.439175 curveto
173.68907 34.439175 lineto
174.17735 34.439175 174.49961 34.015998 174.65587 33.169643 curveto
174.85118 33.184292 lineto
fill
0.0000000 0.0000000 0.0000000 setrgbcolor
[] 0 setdash
0.35433072 setlinewidth
0 setlinejoin
0 setlinecap
newpath
167.36091 26.040606 moveto
174.68524 26.040606 174.68524 26.040606 174.68524 26.040606 curveto
stroke
gsave [-0.21259843 0.0000000 0.0000000 -0.21259843 175.74823 26.040606] concat
0.0000000 0.0000000 0.0000000 setrgbcolor
newpath
8.7185878 4.0337352 moveto
-2.2072895 0.016013256 lineto
8.7185884 -4.0017078 lineto
6.9730900 -1.6296469 6.9831476 1.6157441 8.7185878 4.0337352 curveto
closepath
eofill
grestore
0.0000000 0.0000000 0.0000000 setrgbcolor
[] 0 setdash
0.34965876 setlinewidth
0 setlinejoin
0 setlinecap
newpath
158.57635 51.858865 moveto
43.208899 51.858865 43.208899 51.858865 43.208899 51.858865 curveto
stroke
gsave [-0.20979525 2.5691660e-17 -2.5691660e-17 -0.20979525 156.89799 51.858865] concat
0.0000000 0.0000000 0.0000000 setrgbcolor
newpath
0.0000000 0.0000000 moveto
5.0000000 -5.0000000 lineto
-12.500000 0.0000000 lineto
5.0000000 5.0000000 lineto
0.0000000 0.0000000 lineto
closepath
eofill
0.0000000 0.0000000 0.0000000 setrgbcolor
[] 0 setdash
1.2500000 setlinewidth
0 setlinejoin
0 setlinecap
newpath
0.0000000 0.0000000 moveto
5.0000000 -5.0000000 lineto
-12.500000 0.0000000 lineto
5.0000000 5.0000000 lineto
0.0000000 0.0000000 lineto
closepath
stroke
0.0000000 0.0000000 0.0000000 setrgbcolor
[] 0 setdash
1.5000000 setlinewidth
0 setlinejoin
0 setlinecap
newpath
-14.759949 -7.0000000 moveto
-14.759949 65.000000 lineto
stroke
grestore
gsave [0.20979525 -2.5691660e-17 -2.5691660e-17 -0.20979525 44.887261 51.858865] concat
0.0000000 0.0000000 0.0000000 setrgbcolor
newpath
0.0000000 0.0000000 moveto
5.0000000 -5.0000000 lineto
-12.500000 0.0000000 lineto
5.0000000 5.0000000 lineto
0.0000000 0.0000000 lineto
closepath
eofill
0.0000000 0.0000000 0.0000000 setrgbcolor
[] 0 setdash
1.2500000 setlinewidth
0 setlinejoin
0 setlinecap
newpath
0.0000000 0.0000000 moveto
5.0000000 -5.0000000 lineto
-12.500000 0.0000000 lineto
5.0000000 5.0000000 lineto
0.0000000 0.0000000 lineto
closepath
stroke
0.0000000 0.0000000 0.0000000 setrgbcolor
[] 0 setdash
1.5000000 setlinewidth
0 setlinejoin
0 setlinecap
newpath
-14.759949 -7.0000000 moveto
-14.759949 65.000000 lineto
stroke
grestore
0.0000000 0.0000000 0.0000000 setrgbcolor
newpath
95.287010 46.797791 moveto
95.287006 47.679953 95.046121 48.309836 94.564354 48.687439 curveto
94.134663 49.025981 93.465719 49.195251 92.557518 49.195251 curveto
92.293845 49.195251 92.054587 49.149679 91.839745 49.058533 curveto
91.559796 48.934835 91.419822 48.757426 91.419823 48.526306 curveto
91.419822 48.418885 91.457257 48.329367 91.532127 48.257751 curveto
91.606997 48.182883 91.699770 48.145448 91.810448 48.145447 curveto
92.035056 48.145448 92.271058 48.254497 92.518456 48.472595 curveto
92.769105 48.690695 93.018128 48.799744 93.265526 48.799744 curveto
94.141174 48.799744 94.578999 48.186138 94.579002 46.958923 curveto
94.578999 46.623639 94.495991 46.307884 94.329979 46.011658 curveto
94.134663 45.663354 93.880757 45.489200 93.568260 45.489197 curveto
93.239482 45.489200 92.892803 45.581974 92.528221 45.767517 curveto
92.435448 45.518494 lineto
92.718649 45.440372 93.057190 45.222274 93.451073 44.864197 curveto
93.877502 44.476832 94.090718 44.154566 94.090721 43.897400 curveto
94.090718 43.597926 93.976786 43.339137 93.748924 43.121033 curveto
93.521057 42.902940 93.257386 42.793891 92.957909 42.793884 curveto
92.599834 42.793891 92.119691 43.080349 91.517479 43.653259 curveto
91.366112 43.589783 lineto
91.694887 43.088487 91.974835 42.740180 92.205956 42.544861 curveto
92.551006 42.261665 92.964417 42.120063 93.446190 42.120056 curveto
93.859598 42.120063 94.214416 42.250271 94.510643 42.510681 curveto
94.823139 42.784125 94.979389 43.124294 94.979393 43.531189 curveto
94.979389 43.879501 94.871967 44.169215 94.657127 44.400330 curveto
94.513895 44.556584 94.253478 44.735620 93.875877 44.937439 curveto
94.318582 44.966740 94.671772 45.178328 94.935448 45.572205 curveto
95.169819 45.923770 95.287006 46.332299 95.287010 46.797791 curveto
fill
0.0000000 0.0000000 0.0000000 setrgbcolor
newpath
99.798729 46.797791 moveto
99.798725 47.679953 99.557839 48.309836 99.076073 48.687439 curveto
98.646382 49.025981 97.977437 49.195251 97.069237 49.195251 curveto
96.805564 49.195251 96.566306 49.149679 96.351463 49.058533 curveto
96.071515 48.934835 95.931541 48.757426 95.931541 48.526306 curveto
95.931541 48.418885 95.968976 48.329367 96.043846 48.257751 curveto
96.118715 48.182883 96.211489 48.145448 96.322166 48.145447 curveto
96.546775 48.145448 96.782777 48.254497 97.030174 48.472595 curveto
97.280824 48.690695 97.529847 48.799744 97.777245 48.799744 curveto
98.652892 48.799744 99.090718 48.186138 99.090721 46.958923 curveto
99.090718 46.623639 99.007710 46.307884 98.841698 46.011658 curveto
98.646382 45.663354 98.392476 45.489200 98.079979 45.489197 curveto
97.751201 45.489200 97.404521 45.581974 97.039940 45.767517 curveto
96.947166 45.518494 lineto
97.230368 45.440372 97.568909 45.222274 97.962791 44.864197 curveto
98.389221 44.476832 98.602437 44.154566 98.602440 43.897400 curveto
98.602437 43.597926 98.488505 43.339137 98.260643 43.121033 curveto
98.032776 42.902940 97.769104 42.793891 97.469627 42.793884 curveto
97.111553 42.793891 96.631410 43.080349 96.029198 43.653259 curveto
95.877831 43.589783 lineto
96.206606 43.088487 96.486553 42.740180 96.717674 42.544861 curveto
97.062725 42.261665 97.476136 42.120063 97.957909 42.120056 curveto
98.371317 42.120063 98.726135 42.250271 99.022362 42.510681 curveto
99.334858 42.784125 99.491108 43.124294 99.491112 43.531189 curveto
99.491108 43.879501 99.383686 44.169215 99.168846 44.400330 curveto
99.025613 44.556584 98.765197 44.735620 98.387596 44.937439 curveto
98.830301 44.966740 99.183491 45.178328 99.447166 45.572205 curveto
99.681537 45.923770 99.798725 46.332299 99.798729 46.797791 curveto
fill
0.0000000 0.0000000 0.0000000 setrgbcolor
newpath
fill
0.0000000 0.0000000 0.0000000 setrgbcolor
newpath
106.99599 47.911072 moveto
106.59235 48.770447 105.95270 49.200134 105.07705 49.200134 curveto
104.51390 49.200134 104.03701 48.973897 103.64639 48.521423 curveto
103.27204 48.088482 103.08486 47.585552 103.08486 47.012634 curveto
103.08486 46.296491 103.33226 45.705672 103.82705 45.240173 curveto
104.31207 44.784449 104.91591 44.556584 105.63857 44.556580 curveto
105.85341 44.556584 106.10406 44.623316 106.39053 44.756775 curveto
106.71930 44.903263 106.88369 45.061141 106.88369 45.230408 curveto
106.88369 45.539656 106.73720 45.694278 106.44424 45.694275 curveto
106.26194 45.694278 106.14313 45.621036 106.08779 45.474548 curveto
106.03571 45.337833 105.98525 45.201115 105.93642 45.064392 curveto
105.82900 44.914657 105.62229 44.839787 105.31631 44.839783 curveto
104.82477 44.839787 104.44065 45.062769 104.16396 45.508728 curveto
103.93284 45.886335 103.81728 46.337181 103.81728 46.861267 curveto
103.81728 47.297467 103.97028 47.704367 104.27627 48.081970 curveto
104.60179 48.482361 104.97614 48.682557 105.39931 48.682556 curveto
106.00804 48.682557 106.47353 48.407492 106.79580 47.857361 curveto
106.92926 47.854107 106.99599 47.872011 106.99599 47.911072 curveto
fill
0.0000000 0.0000000 0.0000000 setrgbcolor
newpath
115.66299 49.112244 moveto
113.49990 49.112244 lineto
113.49990 48.892517 lineto
113.94260 48.892517 114.16396 48.672791 114.16396 48.233337 curveto
114.16396 46.011658 lineto
114.16396 45.734968 114.09722 45.492456 113.96377 45.284119 curveto
113.80751 45.043237 113.59755 44.922795 113.33389 44.922791 curveto
112.93023 44.922795 112.45009 45.126245 111.89346 45.533142 curveto
111.89346 48.472595 lineto
111.89345 48.739523 112.15387 48.872986 112.67471 48.872986 curveto
112.69912 49.112244 lineto
110.54092 49.112244 lineto
110.54092 48.892517 lineto
110.98037 48.892517 111.20009 48.672791 111.20010 48.233337 curveto
111.20010 46.011658 lineto
111.20009 45.731713 111.14313 45.490828 111.02920 45.289001 curveto
110.88922 45.044865 110.68903 44.922795 110.42861 44.922791 curveto
110.01845 44.922795 109.51552 45.142521 108.91982 45.581970 curveto
108.91982 48.370056 lineto
108.91982 48.689067 109.16559 48.863220 109.65713 48.892517 curveto
109.62783 49.112244 lineto
107.56240 49.112244 lineto
107.54287 49.073181 lineto
107.57217 48.921814 lineto
107.77399 48.921814 107.93675 48.838806 108.06045 48.672791 curveto
108.17438 48.519796 108.23135 48.339132 108.23135 48.130798 curveto
108.23135 45.440369 lineto
108.23135 45.323185 108.13043 45.230412 107.92861 45.162048 curveto
107.90257 45.152287 107.74958 45.116479 107.46963 45.054626 curveto
107.46963 44.932556 lineto
107.50218 44.896753 107.54287 44.870711 107.59170 44.854431 curveto
107.84886 44.766545 108.23297 44.608667 108.74404 44.380798 curveto
108.91982 44.512634 lineto
108.91982 45.391541 lineto
109.86058 44.786076 110.50999 44.483342 110.86806 44.483337 curveto
111.08616 44.483342 111.28961 44.584253 111.47842 44.786072 curveto
111.63792 44.958602 111.75348 45.160425 111.82510 45.391541 curveto
112.76585 44.786076 113.41526 44.483342 113.77334 44.483337 curveto
114.12164 44.483342 114.39996 44.644475 114.60830 44.966736 curveto
114.79058 45.246688 114.88173 45.568953 114.88174 45.933533 curveto
114.88174 48.472595 lineto
114.88173 48.739523 115.13238 48.872986 115.63369 48.872986 curveto
115.66299 49.112244 lineto
fill
grestore
showpage
