%!PS-Adobe-2.0
%%Creator: inkscape 0.41.1
%%Pages: 1
%%Orientation: Portrait
%%BoundingBox: 5 724 137 820
%%HiResBoundingBox: 5.4247413 724.37611 136.96020 819.88062
%%EndComments
%%Page: 1 1
0 842 translate
0.80000000 -0.80000000 scale
gsave [1.0000000 0.0000000 0.0000000 1.0000000 0.0000000 0.0000000] concat
gsave [1.0000000 0.0000000 0.0000000 1.0000000 -144.10620 -0.36621700] concat
gsave [1.0000000 0.0000000 0.0000000 1.0000000 144.65550 1.0986490] concat
0.0000000 0.0000000 0.0000000 setrgbcolor
[] 0 setdash
0.35433072 setlinewidth
0 setlinejoin
0 setlinecap
newpath
52.918277 38.034195 moveto
52.918277 44.149277 47.955311 49.112243 41.840229 49.112243 curveto
35.725147 49.112243 30.762181 44.149277 30.762181 38.034195 curveto
30.762181 31.919113 35.725147 26.956147 41.840229 26.956147 curveto
47.955311 26.956147 52.918277 31.919113 52.918277 38.034195 curveto
closepath
stroke
grestore
0.0000000 0.0000000 0.0000000 setrgbcolor
[] 0 setdash
0.35433072 setlinewidth
0 setlinejoin
0 setlinecap
newpath
186.49572 47.464267 moveto
186.49572 29.885878 186.49572 30.435203 186.49572 30.435203 curveto
186.49572 30.435203 lineto
stroke
0.0000000 0.0000000 0.0000000 setrgbcolor
[] 0 setdash
0.35433072 setlinewidth
0 setlinejoin
0 setlinecap
newpath
195.46897 39.132844 moveto
177.89059 39.132844 178.43991 39.132844 178.43991 39.132844 curveto
178.43991 39.132844 lineto
stroke
grestore
gsave [1.0000000 0.0000000 0.0000000 1.0000000 -26.550690 -0.33692000] concat
gsave [1.0000000 0.0000000 0.0000000 1.0000000 144.65550 1.0986490] concat
0.0000000 0.0000000 0.0000000 setrgbcolor
[] 0 setdash
0.35433072 setlinewidth
0 setlinejoin
0 setlinecap
newpath
52.918277 38.034195 moveto
52.918277 44.149277 47.955311 49.112243 41.840229 49.112243 curveto
35.725147 49.112243 30.762181 44.149277 30.762181 38.034195 curveto
30.762181 31.919113 35.725147 26.956147 41.840229 26.956147 curveto
47.955311 26.956147 52.918277 31.919113 52.918277 38.034195 curveto
closepath
stroke
grestore
0.0000000 0.0000000 0.0000000 setrgbcolor
[] 0 setdash
0.35433072 setlinewidth
0 setlinejoin
0 setlinecap
newpath
186.49572 47.464267 moveto
186.49572 29.885878 186.49572 30.435203 186.49572 30.435203 curveto
186.49572 30.435203 lineto
stroke
0.0000000 0.0000000 0.0000000 setrgbcolor
[] 0 setdash
0.35433072 setlinewidth
0 setlinejoin
0 setlinecap
newpath
195.46897 39.132844 moveto
177.89059 39.132844 178.43991 39.132844 178.43991 39.132844 curveto
178.43991 39.132844 lineto
stroke
grestore
gsave [1.0000000 0.0000000 0.0000000 1.0000000 -48.157490 58.045300] concat
gsave [1.0000000 0.0000000 0.0000000 1.0000000 144.65550 1.0986490] concat
0.0000000 0.0000000 0.0000000 setrgbcolor
[] 0 setdash
0.35433072 setlinewidth
0 setlinejoin
0 setlinecap
newpath
52.918277 38.034195 moveto
52.918277 44.149277 47.955311 49.112243 41.840229 49.112243 curveto
35.725147 49.112243 30.762181 44.149277 30.762181 38.034195 curveto
30.762181 31.919113 35.725147 26.956147 41.840229 26.956147 curveto
47.955311 26.956147 52.918277 31.919113 52.918277 38.034195 curveto
closepath
stroke
grestore
0.0000000 0.0000000 0.0000000 setrgbcolor
[] 0 setdash
0.35433072 setlinewidth
0 setlinejoin
0 setlinecap
newpath
186.49572 47.464267 moveto
186.49572 29.885878 186.49572 30.435203 186.49572 30.435203 curveto
186.49572 30.435203 lineto
stroke
0.0000000 0.0000000 0.0000000 setrgbcolor
[] 0 setdash
0.35433072 setlinewidth
0 setlinejoin
0 setlinecap
newpath
195.46897 39.132844 moveto
177.89059 39.132844 178.43991 39.132844 178.43991 39.132844 curveto
178.43991 39.132844 lineto
stroke
grestore
0.0000000 0.0000000 0.0000000 setrgbcolor
[0.35433072 1.4173229] 0.0000000 setdash
0.35433072 setlinewidth
0 setlinejoin
0 setlinecap
newpath
61.707470 99.650118 moveto
137.88049 97.269711 lineto
stroke
0.0000000 0.0000000 0.0000000 setrgbcolor
[0.35433072 1.4173229] 0.0000000 setdash
0.35433072 setlinewidth
0 setlinejoin
0 setlinecap
newpath
61.158145 99.467010 moveto
42.298002 38.675081 lineto
stroke
0.0000000 0.0000000 0.0000000 setrgbcolor
[0.35433072 1.4173229] 0.0000000 setdash
0.35433072 setlinewidth
0 setlinejoin
0 setlinecap
newpath
61.158141 99.100794 moveto
159.67037 38.858189 lineto
stroke
0.0000000 0.0000000 0.0000000 setrgbcolor
[] 0 setdash
0.35433072 setlinewidth
0 setlinejoin
0 setlinecap
newpath
61.158145 99.283901 moveto
51.453409 105.69269 lineto
stroke
gsave [0.32524407 -0.21478386 0.21478386 0.32524407 49.827189 106.76661] concat
0.0000000 0.0000000 0.0000000 setrgbcolor
newpath
8.7185878 4.0337352 moveto
-2.2072895 0.016013256 lineto
8.7185884 -4.0017078 lineto
6.9730900 -1.6296469 6.9831476 1.6157441 8.7185878 4.0337352 curveto
closepath
eofill
grestore
0.0000000 0.0000000 0.0000000 setrgbcolor
[] 0 setdash
0.35433072 setlinewidth
0 setlinejoin
0 setlinecap
newpath
61.158145 99.283904 moveto
69.398015 126.75013 lineto
stroke
gsave [-0.11199783 -0.37332600 0.37332600 -0.11199783 69.958004 128.61676] concat
0.0000000 0.0000000 0.0000000 setrgbcolor
newpath
8.7185878 4.0337352 moveto
-2.2072895 0.016013256 lineto
8.7185884 -4.0017078 lineto
6.9730900 -1.6296469 6.9831476 1.6157441 8.7185878 4.0337352 curveto
closepath
eofill
grestore
0.0000000 0.0000000 0.0000000 setrgbcolor
[] 0 setdash
0.35433072 setlinewidth
0 setlinejoin
0 setlinecap
newpath
61.158145 99.283904 moveto
30.395964 100.38254 lineto
stroke
gsave [0.38951546 -0.013911098 0.013911098 0.38951546 28.448387 100.45210] concat
0.0000000 0.0000000 0.0000000 setrgbcolor
newpath
8.7185878 4.0337352 moveto
-2.2072895 0.016013256 lineto
8.7185884 -4.0017078 lineto
6.9730900 -1.6296469 6.9831476 1.6157441 8.7185878 4.0337352 curveto
closepath
eofill
grestore
0.0000000 0.0000000 0.0000000 setrgbcolor
[0.35433072 1.4173229] 0.0000000 setdash
0.35433072 setlinewidth
0 setlinejoin
0 setlinecap
newpath
37.354077 130.22919 moveto
28.015561 100.74877 lineto
stroke
0.0000000 0.0000000 0.0000000 setrgbcolor
[0.35433072 1.4173229] 0.0000000 setdash
0.35433072 setlinewidth
0 setlinejoin
0 setlinecap
newpath
37.170969 130.59541 moveto
70.130450 129.31365 lineto
stroke
0.0000000 0.0000000 0.0000000 setrgbcolor
[1.4173229 1.4173229] 0.0000000 setdash
0.35433072 setlinewidth
0 setlinejoin
0 setlinecap
newpath
61.158145 99.283902 moveto
39.002051 128.39811 lineto
stroke
gsave [0.23603733 -0.31016478 0.31016478 0.23603733 37.821864 129.94893] concat
0.0000000 0.0000000 0.0000000 setrgbcolor
newpath
8.7185878 4.0337352 moveto
-2.2072895 0.016013256 lineto
8.7185884 -4.0017078 lineto
6.9730900 -1.6296469 6.9831476 1.6157441 8.7185878 4.0337352 curveto
closepath
eofill
grestore
0.0000000 0.0000000 0.0000000 setrgbcolor
[1.4173229 1.4173229] 0.0000000 setdash
0.35433072 setlinewidth
0 setlinejoin
0 setlinecap
newpath
37.170968 130.41230 moveto
27.466232 136.82109 lineto
stroke
gsave [0.32524406 -0.21478388 0.21478388 0.32524406 25.840012 137.89501] concat
0.0000000 0.0000000 0.0000000 setrgbcolor
newpath
8.7185878 4.0337352 moveto
-2.2072895 0.016013256 lineto
8.7185884 -4.0017078 lineto
6.9730900 -1.6296469 6.9831476 1.6157441 8.7185878 4.0337352 curveto
closepath
eofill
grestore
0.0000000 0.0000000 0.0000000 setrgbcolor
[] 0 setdash
1.0000000 setlinewidth
0 setlinejoin
0 setlinecap
newpath
60.975037 99.467010 moveto
28.931099 134.07446 lineto
stroke
gsave [0.40764484 -0.44025639 0.44025639 0.40764484 26.892875 136.27574] concat
0.0000000 0.0000000 0.0000000 setrgbcolor
newpath
8.7185878 4.0337352 moveto
-2.2072895 0.016013256 lineto
8.7185884 -4.0017078 lineto
6.9730900 -1.6296469 6.9831476 1.6157441 8.7185878 4.0337352 curveto
closepath
eofill
grestore
gsave [1.0000000 0.0000000 0.0000000 1.0000000 -51.453430 73.243290] concat
0.0000000 0.0000000 0.0000000 setrgbcolor
newpath
65.215778 50.567318 moveto
65.020466 52.212826 lineto
59.522419 52.212826 lineto
59.522419 52.032162 lineto
60.300413 52.022396 60.689410 51.801042 60.689411 51.368099 curveto
60.689411 46.104427 lineto
60.689410 45.850527 60.622678 45.679629 60.489216 45.591732 curveto
60.345986 45.497338 60.062783 45.450137 59.639606 45.450130 curveto
59.639606 45.279232 lineto
64.800739 45.279232 lineto
64.854450 46.778255 lineto
64.673786 46.778255 lineto
64.595656 46.026309 64.353143 45.650332 63.946247 45.650326 curveto
61.573200 45.650326 lineto
61.573200 48.404232 lineto
63.462849 48.404232 lineto
63.765579 48.404236 63.960891 48.119405 64.048786 47.549740 curveto
64.209919 47.549740 lineto
64.209919 49.659115 lineto
64.048786 49.659115 lineto
63.941360 49.050394 63.746048 48.746032 63.462849 48.746029 curveto
61.573200 48.746029 lineto
61.573200 51.280209 lineto
61.573198 51.641537 61.711544 51.822201 61.988239 51.822201 curveto
64.053669 51.822201 lineto
64.541945 51.822201 64.864211 51.399025 65.020466 50.552670 curveto
65.215778 50.567318 lineto
fill
0.0000000 0.0000000 0.0000000 setrgbcolor
[] 0 setdash
0.35433072 setlinewidth
0 setlinejoin
0 setlinecap
newpath
58.411522 43.069670 moveto
65.735852 43.069670 65.735852 43.069670 65.735852 43.069670 curveto
stroke
gsave [-0.21259843 0.0000000 0.0000000 -0.21259843 66.798844 43.069670] concat
0.0000000 0.0000000 0.0000000 setrgbcolor
newpath
8.7185878 4.0337352 moveto
-2.2072895 0.016013256 lineto
8.7185884 -4.0017078 lineto
6.9730900 -1.6296469 6.9831476 1.6157441 8.7185878 4.0337352 curveto
closepath
eofill
grestore
grestore
0.0000000 0.0000000 0.0000000 setrgbcolor
newpath
17.263403 126.70913 moveto
17.002658 127.22475 16.643772 127.48257 16.186743 127.48257 curveto
15.914281 127.48257 15.685765 127.39907 15.501196 127.23208 curveto
15.307836 127.05630 15.211156 126.83364 15.211157 126.56411 curveto
15.211157 123.80874 lineto
14.784887 123.80874 lineto
14.718969 123.59341 lineto
15.038305 123.47329 15.271215 123.29312 15.417700 123.05288 curveto
15.526097 122.87710 15.622777 122.59292 15.707739 122.20034 curveto
15.861547 122.20034 lineto
15.861547 123.46157 lineto
17.263403 123.46157 lineto
17.078833 123.80874 lineto
15.861547 123.80874 lineto
15.861547 126.29604 lineto
15.861546 126.44839 15.940648 126.61245 16.098852 126.78823 curveto
16.257054 126.96401 16.412327 127.05190 16.564672 127.05190 curveto
16.667210 127.05190 16.794651 126.97134 16.946997 126.81020 curveto
17.102268 126.64614 17.179904 126.56411 17.179907 126.56411 curveto
17.238498 126.56411 17.266330 126.61245 17.263403 126.70913 curveto
fill
0.0000000 0.0000000 0.0000000 setrgbcolor
newpath
21.947973 125.47866 moveto
21.947969 126.08804 21.753145 126.58315 21.363501 126.96401 curveto
20.976779 127.34487 20.477267 127.53530 19.864965 127.53530 curveto
19.311253 127.53530 18.832250 127.34048 18.427954 126.95083 curveto
18.026586 126.55825 17.825903 126.08657 17.825903 125.53579 curveto
17.825903 124.90591 18.010473 124.39321 18.379614 123.99770 curveto
18.751683 123.60220 19.251194 123.40445 19.878149 123.40444 curveto
20.475803 123.40445 20.969454 123.60073 21.359106 123.99331 curveto
21.751680 124.38589 21.947969 124.88101 21.947973 125.47866 curveto
21.152563 125.86538 moveto
21.152560 125.28530 21.061739 124.80044 20.880102 124.41079 curveto
20.636935 123.88931 20.259006 123.62857 19.746313 123.62856 curveto
19.286351 123.62857 18.968480 123.81314 18.792700 124.18227 curveto
18.669652 124.44009 18.608129 124.82827 18.608130 125.34682 curveto
18.608129 125.82144 18.723851 126.24917 18.955297 126.63003 curveto
19.224827 127.07241 19.582249 127.29360 20.027563 127.29360 curveto
20.777560 127.29360 21.152560 126.81753 21.152563 125.86538 curveto
fill
0.0000000 0.0000000 0.0000000 setrgbcolor
newpath
24.839575 126.70913 moveto
24.578830 127.22475 24.219944 127.48257 23.762915 127.48257 curveto
23.490452 127.48257 23.261937 127.39907 23.077368 127.23208 curveto
22.884008 127.05630 22.787328 126.83364 22.787329 126.56411 curveto
22.787329 123.80874 lineto
22.361059 123.80874 lineto
22.295141 123.59341 lineto
22.614477 123.47329 22.847387 123.29312 22.993872 123.05288 curveto
23.102269 122.87710 23.198949 122.59292 23.283911 122.20034 curveto
23.437719 122.20034 lineto
23.437719 123.46157 lineto
24.839575 123.46157 lineto
24.655005 123.80874 lineto
23.437719 123.80874 lineto
23.437719 126.29604 lineto
23.437718 126.44839 23.516820 126.61245 23.675024 126.78823 curveto
23.833226 126.96401 23.988499 127.05190 24.140844 127.05190 curveto
24.243381 127.05190 24.370823 126.97134 24.523169 126.81020 curveto
24.678440 126.64614 24.756076 126.56411 24.756079 126.56411 curveto
24.814670 126.56411 24.842502 126.61245 24.839575 126.70913 curveto
fill
0.0000000 0.0000000 0.0000000 setrgbcolor
newpath
29.361547 127.04311 moveto
29.068575 127.25698 28.919161 127.36684 28.913305 127.37270 curveto
28.722872 127.48989 28.547091 127.54848 28.385962 127.54848 curveto
28.134006 127.54848 27.961154 127.35659 27.867407 126.97280 curveto
27.512912 127.23061 27.316624 127.36977 27.278540 127.39028 curveto
27.085179 127.49868 26.862523 127.55288 26.610571 127.55288 curveto
26.361546 127.55288 26.150609 127.46792 25.977758 127.29800 curveto
25.807836 127.12515 25.722875 126.91567 25.722876 126.66958 curveto
25.722875 126.36196 25.844457 126.11001 26.087622 125.91372 curveto
26.231175 125.79946 26.487523 125.66616 26.856665 125.51382 curveto
27.849829 125.10513 lineto
27.849829 124.45034 lineto
27.849826 124.21890 27.766330 124.02407 27.599340 123.86587 curveto
27.435276 123.70767 27.236057 123.62857 27.001684 123.62856 curveto
26.629613 123.62857 26.443578 123.82632 26.443579 124.22182 curveto
26.443578 124.24820 26.449437 124.28335 26.461157 124.32729 curveto
26.472874 124.37124 26.478734 124.40493 26.478735 124.42837 curveto
26.478734 124.53677 26.396703 124.63345 26.232641 124.71841 curveto
26.089086 124.79458 25.957250 124.83267 25.837133 124.83266 curveto
25.787328 124.83267 25.762426 124.79165 25.762426 124.70962 curveto
25.762426 124.31997 25.926488 124.00064 26.254614 123.75161 curveto
26.553441 123.52310 26.905003 123.40884 27.309301 123.40884 curveto
27.713596 123.40884 28.009494 123.48355 28.196997 123.63296 curveto
28.405001 123.79702 28.509005 124.07534 28.509008 124.46792 curveto
28.509008 126.73110 lineto
28.509005 126.98306 28.595431 127.10903 28.768286 127.10903 curveto
28.876681 127.10903 29.071505 127.02700 29.352758 126.86294 curveto
29.361547 127.04311 lineto
27.854223 126.67837 moveto
27.849829 125.36001 lineto
26.957739 125.75112 lineto
26.556370 125.92690 26.355687 126.20962 26.355688 126.59927 curveto
26.355687 126.76626 26.409886 126.89956 26.518286 126.99917 curveto
26.626683 127.09878 26.764378 127.14858 26.931372 127.14858 curveto
27.104222 127.14858 27.271214 127.10024 27.432348 127.00356 curveto
27.502659 126.95962 27.643283 126.85122 27.854223 126.67837 curveto
fill
0.0000000 0.0000000 0.0000000 setrgbcolor
newpath
31.488501 127.28481 moveto
31.462133 127.48257 lineto
29.563696 127.48257 lineto
29.546118 127.44741 lineto
29.572485 127.31118 lineto
29.757055 127.31118 29.905004 127.23647 30.016333 127.08706 curveto
30.118871 126.95229 30.170140 126.78970 30.170141 126.59927 curveto
30.170141 121.91030 lineto
30.170140 121.80484 30.114476 121.71695 30.003149 121.64663 curveto
29.909398 121.58804 29.805395 121.55874 29.691137 121.55874 curveto
29.691137 121.55874 29.617895 121.57339 29.471411 121.60268 curveto
29.471411 121.58804 29.472875 121.56607 29.475805 121.53677 curveto
29.478735 121.50748 29.480200 121.48404 29.480200 121.46645 curveto
29.480200 121.42544 29.522680 121.39029 29.607641 121.36098 curveto
29.836156 121.29068 30.173070 121.15884 30.618383 120.96548 curveto
30.811743 120.96548 lineto
30.811743 126.81460 lineto
30.811741 127.10171 31.037327 127.25845 31.488501 127.28481 curveto
fill
gsave [1.0000000 0.0000000 0.0000000 1.0000000 -22.705440 43.762860] concat
0.0000000 0.0000000 0.0000000 setrgbcolor
newpath
65.215778 50.567318 moveto
65.020466 52.212826 lineto
59.522419 52.212826 lineto
59.522419 52.032162 lineto
60.300413 52.022396 60.689410 51.801042 60.689411 51.368099 curveto
60.689411 46.104427 lineto
60.689410 45.850527 60.622678 45.679629 60.489216 45.591732 curveto
60.345986 45.497338 60.062783 45.450137 59.639606 45.450130 curveto
59.639606 45.279232 lineto
64.800739 45.279232 lineto
64.854450 46.778255 lineto
64.673786 46.778255 lineto
64.595656 46.026309 64.353143 45.650332 63.946247 45.650326 curveto
61.573200 45.650326 lineto
61.573200 48.404232 lineto
63.462849 48.404232 lineto
63.765579 48.404236 63.960891 48.119405 64.048786 47.549740 curveto
64.209919 47.549740 lineto
64.209919 49.659115 lineto
64.048786 49.659115 lineto
63.941360 49.050394 63.746048 48.746032 63.462849 48.746029 curveto
61.573200 48.746029 lineto
61.573200 51.280209 lineto
61.573198 51.641537 61.711544 51.822201 61.988239 51.822201 curveto
64.053669 51.822201 lineto
64.541945 51.822201 64.864211 51.399025 65.020466 50.552670 curveto
65.215778 50.567318 lineto
fill
0.0000000 0.0000000 0.0000000 setrgbcolor
[] 0 setdash
0.35433072 setlinewidth
0 setlinejoin
0 setlinecap
newpath
58.411522 43.069670 moveto
65.735852 43.069670 65.735852 43.069670 65.735852 43.069670 curveto
stroke
gsave [-0.21259843 0.0000000 0.0000000 -0.21259843 66.798844 43.069670] concat
0.0000000 0.0000000 0.0000000 setrgbcolor
newpath
8.7185878 4.0337352 moveto
-2.2072895 0.016013256 lineto
8.7185884 -4.0017078 lineto
6.9730900 -1.6296469 6.9831476 1.6157441 8.7185878 4.0337352 curveto
closepath
eofill
grestore
grestore
gsave [1.0000000 0.0000000 0.0000000 1.0000000 12.817560 69.947340] concat
0.0000000 0.0000000 0.0000000 setrgbcolor
newpath
65.215778 50.567318 moveto
65.020466 52.212826 lineto
59.522419 52.212826 lineto
59.522419 52.032162 lineto
60.300413 52.022396 60.689410 51.801042 60.689411 51.368099 curveto
60.689411 46.104427 lineto
60.689410 45.850527 60.622678 45.679629 60.489216 45.591732 curveto
60.345986 45.497338 60.062783 45.450137 59.639606 45.450130 curveto
59.639606 45.279232 lineto
64.800739 45.279232 lineto
64.854450 46.778255 lineto
64.673786 46.778255 lineto
64.595656 46.026309 64.353143 45.650332 63.946247 45.650326 curveto
61.573200 45.650326 lineto
61.573200 48.404232 lineto
63.462849 48.404232 lineto
63.765579 48.404236 63.960891 48.119405 64.048786 47.549740 curveto
64.209919 47.549740 lineto
64.209919 49.659115 lineto
64.048786 49.659115 lineto
63.941360 49.050394 63.746048 48.746032 63.462849 48.746029 curveto
61.573200 48.746029 lineto
61.573200 51.280209 lineto
61.573198 51.641537 61.711544 51.822201 61.988239 51.822201 curveto
64.053669 51.822201 lineto
64.541945 51.822201 64.864211 51.399025 65.020466 50.552670 curveto
65.215778 50.567318 lineto
fill
0.0000000 0.0000000 0.0000000 setrgbcolor
[] 0 setdash
0.35433072 setlinewidth
0 setlinejoin
0 setlinecap
newpath
58.411522 43.069670 moveto
65.735852 43.069670 65.735852 43.069670 65.735852 43.069670 curveto
stroke
gsave [-0.21259843 0.0000000 0.0000000 -0.21259843 66.798844 43.069670] concat
0.0000000 0.0000000 0.0000000 setrgbcolor
newpath
8.7185878 4.0337352 moveto
-2.2072895 0.016013256 lineto
8.7185884 -4.0017078 lineto
6.9730900 -1.6296469 6.9831476 1.6157441 8.7185878 4.0337352 curveto
closepath
eofill
grestore
grestore
gsave [1.0000000 0.0000000 0.0000000 1.0000000 -23.254770 58.411520] concat
0.0000000 0.0000000 0.0000000 setrgbcolor
newpath
65.215778 50.567318 moveto
65.020466 52.212826 lineto
59.522419 52.212826 lineto
59.522419 52.032162 lineto
60.300413 52.022396 60.689410 51.801042 60.689411 51.368099 curveto
60.689411 46.104427 lineto
60.689410 45.850527 60.622678 45.679629 60.489216 45.591732 curveto
60.345986 45.497338 60.062783 45.450137 59.639606 45.450130 curveto
59.639606 45.279232 lineto
64.800739 45.279232 lineto
64.854450 46.778255 lineto
64.673786 46.778255 lineto
64.595656 46.026309 64.353143 45.650332 63.946247 45.650326 curveto
61.573200 45.650326 lineto
61.573200 48.404232 lineto
63.462849 48.404232 lineto
63.765579 48.404236 63.960891 48.119405 64.048786 47.549740 curveto
64.209919 47.549740 lineto
64.209919 49.659115 lineto
64.048786 49.659115 lineto
63.941360 49.050394 63.746048 48.746032 63.462849 48.746029 curveto
61.573200 48.746029 lineto
61.573200 51.280209 lineto
61.573198 51.641537 61.711544 51.822201 61.988239 51.822201 curveto
64.053669 51.822201 lineto
64.541945 51.822201 64.864211 51.399025 65.020466 50.552670 curveto
65.215778 50.567318 lineto
fill
0.0000000 0.0000000 0.0000000 setrgbcolor
[] 0 setdash
0.35433072 setlinewidth
0 setlinejoin
0 setlinecap
newpath
58.411522 43.069670 moveto
65.735852 43.069670 65.735852 43.069670 65.735852 43.069670 curveto
stroke
gsave [-0.21259843 0.0000000 0.0000000 -0.21259843 66.798844 43.069670] concat
0.0000000 0.0000000 0.0000000 setrgbcolor
newpath
8.7185878 4.0337352 moveto
-2.2072895 0.016013256 lineto
8.7185884 -4.0017078 lineto
6.9730900 -1.6296469 6.9831476 1.6157441 8.7185878 4.0337352 curveto
closepath
eofill
grestore
grestore
gsave [1.0000000 0.0000000 0.0000000 1.0000000 -25.452070 92.652760] concat
0.0000000 0.0000000 0.0000000 setrgbcolor
newpath
65.215778 50.567318 moveto
65.020466 52.212826 lineto
59.522419 52.212826 lineto
59.522419 52.032162 lineto
60.300413 52.022396 60.689410 51.801042 60.689411 51.368099 curveto
60.689411 46.104427 lineto
60.689410 45.850527 60.622678 45.679629 60.489216 45.591732 curveto
60.345986 45.497338 60.062783 45.450137 59.639606 45.450130 curveto
59.639606 45.279232 lineto
64.800739 45.279232 lineto
64.854450 46.778255 lineto
64.673786 46.778255 lineto
64.595656 46.026309 64.353143 45.650332 63.946247 45.650326 curveto
61.573200 45.650326 lineto
61.573200 48.404232 lineto
63.462849 48.404232 lineto
63.765579 48.404236 63.960891 48.119405 64.048786 47.549740 curveto
64.209919 47.549740 lineto
64.209919 49.659115 lineto
64.048786 49.659115 lineto
63.941360 49.050394 63.746048 48.746032 63.462849 48.746029 curveto
61.573200 48.746029 lineto
61.573200 51.280209 lineto
61.573198 51.641537 61.711544 51.822201 61.988239 51.822201 curveto
64.053669 51.822201 lineto
64.541945 51.822201 64.864211 51.399025 65.020466 50.552670 curveto
65.215778 50.567318 lineto
fill
0.0000000 0.0000000 0.0000000 setrgbcolor
[] 0 setdash
0.35433072 setlinewidth
0 setlinejoin
0 setlinecap
newpath
58.411522 43.069670 moveto
65.735852 43.069670 65.735852 43.069670 65.735852 43.069670 curveto
stroke
gsave [-0.21259843 0.0000000 0.0000000 -0.21259843 66.798844 43.069670] concat
0.0000000 0.0000000 0.0000000 setrgbcolor
newpath
8.7185878 4.0337352 moveto
-2.2072895 0.016013256 lineto
8.7185884 -4.0017078 lineto
6.9730900 -1.6296469 6.9831476 1.6157441 8.7185878 4.0337352 curveto
closepath
eofill
grestore
grestore
gsave [1.0000000 0.0000000 0.0000000 1.0000000 -11.718950 76.539240] concat
0.0000000 0.0000000 0.0000000 setrgbcolor
newpath
65.215778 50.567318 moveto
65.020466 52.212826 lineto
59.522419 52.212826 lineto
59.522419 52.032162 lineto
60.300413 52.022396 60.689410 51.801042 60.689411 51.368099 curveto
60.689411 46.104427 lineto
60.689410 45.850527 60.622678 45.679629 60.489216 45.591732 curveto
60.345986 45.497338 60.062783 45.450137 59.639606 45.450130 curveto
59.639606 45.279232 lineto
64.800739 45.279232 lineto
64.854450 46.778255 lineto
64.673786 46.778255 lineto
64.595656 46.026309 64.353143 45.650332 63.946247 45.650326 curveto
61.573200 45.650326 lineto
61.573200 48.404232 lineto
63.462849 48.404232 lineto
63.765579 48.404236 63.960891 48.119405 64.048786 47.549740 curveto
64.209919 47.549740 lineto
64.209919 49.659115 lineto
64.048786 49.659115 lineto
63.941360 49.050394 63.746048 48.746032 63.462849 48.746029 curveto
61.573200 48.746029 lineto
61.573200 51.280209 lineto
61.573198 51.641537 61.711544 51.822201 61.988239 51.822201 curveto
64.053669 51.822201 lineto
64.541945 51.822201 64.864211 51.399025 65.020466 50.552670 curveto
65.215778 50.567318 lineto
fill
0.0000000 0.0000000 0.0000000 setrgbcolor
[] 0 setdash
0.35433072 setlinewidth
0 setlinejoin
0 setlinecap
newpath
58.411522 43.069670 moveto
65.735852 43.069670 65.735852 43.069670 65.735852 43.069670 curveto
stroke
gsave [-0.21259843 0.0000000 0.0000000 -0.21259843 66.798844 43.069670] concat
0.0000000 0.0000000 0.0000000 setrgbcolor
newpath
8.7185878 4.0337352 moveto
-2.2072895 0.016013256 lineto
8.7185884 -4.0017078 lineto
6.9730900 -1.6296469 6.9831476 1.6157441 8.7185878 4.0337352 curveto
closepath
eofill
grestore
grestore
0.0000000 0.0000000 0.0000000 setrgbcolor
newpath
60.159542 38.699512 moveto
60.159542 36.521778 lineto
60.159539 36.498995 60.125359 36.417615 60.057003 36.277637 curveto
59.790073 35.721001 59.376662 35.442681 58.816769 35.442677 curveto
58.409866 35.442681 58.056676 35.605441 57.757198 35.930958 curveto
57.493526 36.217420 57.361690 36.725232 57.361691 37.454395 curveto
57.361690 37.929658 57.495153 38.362600 57.762081 38.753223 curveto
58.061559 39.192677 58.439163 39.412403 58.894894 39.412403 curveto
59.106480 39.412403 59.528029 39.174773 60.159542 38.699512 curveto
61.609737 41.907520 moveto
61.595089 42.141895 lineto
59.021847 42.141895 lineto
59.041378 41.907520 lineto
59.461297 41.904263 59.702182 41.891242 59.764034 41.868458 curveto
59.913771 41.813117 60.045606 41.632453 60.159542 41.326466 curveto
60.159542 38.992481 lineto
59.707065 39.353810 59.441766 39.557260 59.363644 39.602833 curveto
59.064162 39.785124 58.740269 39.876270 58.391964 39.876270 curveto
57.893916 39.876270 57.470739 39.641895 57.122433 39.173145 curveto
56.800167 38.743459 56.639034 38.269826 56.639034 37.752247 curveto
56.639034 37.010062 56.850623 36.409477 57.273800 35.950489 curveto
57.732783 35.452446 58.260126 35.203423 58.855831 35.203419 curveto
59.252964 35.203423 59.752638 35.332004 60.354855 35.589161 curveto
60.465528 35.475233 60.555046 35.348280 60.623409 35.208302 curveto
60.848019 35.208302 lineto
60.848019 41.409473 lineto
60.848014 41.741503 61.101920 41.907518 61.609737 41.907520 curveto
fill
0.0000000 0.0000000 0.0000000 setrgbcolor
newpath
137.06499 36.502213 moveto
137.06499 34.324478 lineto
137.06498 34.301695 137.03080 34.220315 136.96245 34.080338 curveto
136.69552 33.523701 136.28211 33.245381 135.72221 33.245377 curveto
135.31531 33.245381 134.96212 33.408141 134.66264 33.733658 curveto
134.39897 34.020120 134.26713 34.527932 134.26714 35.257095 curveto
134.26713 35.732358 134.40060 36.165300 134.66753 36.555923 curveto
134.96700 36.995377 135.34461 37.215104 135.80034 37.215103 curveto
136.01192 37.215104 136.43347 36.977474 137.06499 36.502213 curveto
138.51518 39.710220 moveto
138.50053 39.944595 lineto
135.92729 39.944595 lineto
135.94682 39.710220 lineto
136.36674 39.706963 136.60763 39.693942 136.66948 39.671158 curveto
136.81922 39.615817 136.95105 39.435153 137.06499 39.129166 curveto
137.06499 36.795181 lineto
136.61251 37.156510 136.34721 37.359960 136.26909 37.405533 curveto
135.96961 37.587824 135.64571 37.678970 135.29741 37.678970 curveto
134.79936 37.678970 134.37618 37.444595 134.02788 36.975845 curveto
133.70561 36.546159 133.54448 36.072527 133.54448 35.554947 curveto
133.54448 34.812762 133.75607 34.212177 134.17924 33.753189 curveto
134.63823 33.255147 135.16557 33.006123 135.76128 33.006119 curveto
136.15841 33.006123 136.65808 33.134704 137.26030 33.391861 curveto
137.37097 33.277933 137.46049 33.150980 137.52885 33.011002 curveto
137.75346 33.011002 lineto
137.75346 39.212173 lineto
137.75346 39.544203 138.00737 39.710218 138.51518 39.710220 curveto
fill
0.0000000 0.0000000 0.0000000 setrgbcolor
newpath
137.98053 78.800209 moveto
137.98053 76.622475 lineto
137.98053 76.599691 137.94635 76.518311 137.87799 76.378334 curveto
137.61106 75.821697 137.19765 75.543377 136.63776 75.543373 curveto
136.23085 75.543377 135.87766 75.706138 135.57819 76.031654 curveto
135.31451 76.318116 135.18268 76.825928 135.18268 77.555092 curveto
135.18268 78.030354 135.31614 78.463296 135.58307 78.853920 curveto
135.88255 79.293374 136.26015 79.513100 136.71588 79.513100 curveto
136.92747 79.513100 137.34902 79.275470 137.98053 78.800209 curveto
139.43073 82.008217 moveto
139.41608 82.242592 lineto
136.84283 82.242592 lineto
136.86237 82.008217 lineto
137.28228 82.004960 137.52317 81.991939 137.58502 81.969154 curveto
137.73476 81.913814 137.86659 81.733150 137.98053 81.427162 curveto
137.98053 79.093178 lineto
137.52805 79.454506 137.26275 79.657957 137.18463 79.703529 curveto
136.88515 79.885821 136.56126 79.976967 136.21295 79.976967 curveto
135.71490 79.976967 135.29173 79.742592 134.94342 79.273842 curveto
134.62115 78.844155 134.46002 78.370523 134.46002 77.852943 curveto
134.46002 77.110759 134.67161 76.510173 135.09479 76.051186 curveto
135.55377 75.553143 136.08111 75.304120 136.67682 75.304115 curveto
137.07395 75.304120 137.57363 75.432700 138.17584 75.689857 curveto
138.28652 75.575929 138.37603 75.448976 138.44440 75.308998 curveto
138.66901 75.308998 lineto
138.66901 81.510170 lineto
138.66900 81.842199 138.92291 82.008215 139.43073 82.008217 curveto
fill
0.0000000 0.0000000 0.0000000 setrgbcolor
newpath
66.005341 45.445690 moveto
63.443329 45.445690 lineto
63.443329 45.291882 lineto
64.064421 45.291882 64.374968 45.041394 64.374969 44.540417 curveto
64.374969 39.899792 lineto
64.216765 39.993547 64.060027 40.087297 63.904755 40.181042 curveto
63.717254 40.286516 63.551727 40.358293 63.408173 40.396374 curveto
63.324677 40.203014 lineto
63.913543 39.910051 64.418913 39.552630 64.840790 39.130749 curveto
65.104462 39.130749 lineto
65.104462 44.540417 lineto
65.104459 44.842175 65.182096 45.047253 65.337372 45.155651 curveto
65.463346 45.246472 65.686002 45.291882 66.005341 45.291882 curveto
66.005341 45.445690 lineto
fill
0.0000000 0.0000000 0.0000000 setrgbcolor
newpath
143.58754 42.549671 moveto
143.58754 42.605336 143.45863 43.022816 143.20082 43.802113 curveto
139.52260 43.802113 lineto
139.43910 43.542835 lineto
141.39613 41.963736 142.37465 40.528190 142.37465 39.236195 curveto
142.37465 38.480341 142.03187 38.102411 141.34633 38.102406 curveto
140.58461 38.102411 140.00453 38.461298 139.60609 39.179066 curveto
139.41273 39.095570 lineto
139.57094 38.659051 139.84047 38.291376 140.22133 37.992542 curveto
140.62269 37.676142 141.04750 37.517939 141.49574 37.517933 curveto
141.90883 37.517939 142.25599 37.643916 142.53725 37.895863 curveto
142.83021 38.159540 142.97670 38.494989 142.97670 38.902210 curveto
142.97670 40.205925 142.09340 41.642935 140.32680 43.213245 curveto
142.73061 43.213245 lineto
142.89174 43.213246 143.04554 43.088734 143.19203 42.839710 curveto
143.33851 42.590688 143.40589 42.466176 143.39418 42.466175 curveto
143.41761 42.466176 143.45130 42.479360 143.49525 42.505726 curveto
143.53920 42.529165 143.56996 42.543813 143.58754 42.549671 curveto
fill
0.0000000 0.0000000 0.0000000 setrgbcolor
newpath
144.29800 82.918457 moveto
144.29800 83.712404 144.08120 84.279298 143.64761 84.619141 curveto
143.26089 84.923828 142.65884 85.076172 141.84146 85.076172 curveto
141.60416 85.076172 141.38882 85.035156 141.19547 84.953125 curveto
140.94351 84.841797 140.81754 84.682129 140.81754 84.474121 curveto
140.81754 84.377442 140.85123 84.296876 140.91861 84.232422 curveto
140.98599 84.165040 141.06949 84.131349 141.16910 84.131348 curveto
141.37125 84.131349 141.58365 84.229493 141.80630 84.425781 curveto
142.03189 84.622071 142.25601 84.720215 142.47867 84.720215 curveto
143.26675 84.720215 143.66079 84.167970 143.66080 83.063477 curveto
143.66079 82.761721 143.58609 82.477542 143.43668 82.210938 curveto
143.26089 81.897464 143.03238 81.740726 142.75113 81.740723 curveto
142.45523 81.740726 142.14322 81.824222 141.81509 81.991211 curveto
141.73160 81.767090 lineto
141.98648 81.696781 142.29117 81.500492 142.64566 81.178223 curveto
143.02945 80.829594 143.22134 80.539555 143.22134 80.308105 curveto
143.22134 80.038579 143.11880 79.805669 142.91373 79.609375 curveto
142.70865 79.413092 142.47134 79.314947 142.20181 79.314941 curveto
141.87955 79.314947 141.44742 79.572759 140.90543 80.088379 curveto
140.76920 80.031250 lineto
141.06509 79.580084 141.31705 79.266607 141.52505 79.090820 curveto
141.83560 78.835944 142.20767 78.708502 142.64127 78.708496 curveto
143.01333 78.708502 143.33267 78.825690 143.59927 79.060059 curveto
143.88052 79.306158 144.02115 79.612310 144.02115 79.978516 curveto
144.02115 80.291997 143.92447 80.552739 143.73111 80.760742 curveto
143.60220 80.901371 143.36783 81.062504 143.02798 81.244141 curveto
143.42642 81.270512 143.74429 81.460941 143.98160 81.815430 curveto
144.19253 82.131839 144.29800 82.499514 144.29800 82.918457 curveto
fill
0.0000000 0.0000000 0.0000000 setrgbcolor
newpath
81.386429 125.83019 moveto
78.824417 125.83019 lineto
78.824417 125.67638 lineto
79.445510 125.67638 79.756056 125.42590 79.756058 124.92492 curveto
79.756058 120.28429 lineto
79.597853 120.37805 79.441115 120.47180 79.285843 120.56554 curveto
79.098342 120.67102 78.932815 120.74280 78.789261 120.78088 curveto
78.705765 120.58752 lineto
79.294631 120.29455 79.800001 119.93713 80.221878 119.51525 curveto
80.485550 119.51525 lineto
80.485550 124.92492 lineto
80.485548 125.22668 80.563184 125.43176 80.718460 125.54015 curveto
80.844434 125.63097 81.067090 125.67638 81.386429 125.67638 curveto
81.386429 125.83019 lineto
fill
0.0000000 0.0000000 0.0000000 setrgbcolor
newpath
46.906399 111.76458 moveto
46.906394 111.82025 46.777488 112.23773 46.519680 113.01702 curveto
42.841457 113.01702 lineto
42.757961 112.75774 lineto
44.714990 111.17864 45.693505 109.74310 45.693508 108.45110 curveto
45.693505 107.69525 45.350732 107.31732 44.665188 107.31731 curveto
43.903468 107.31732 43.323390 107.67621 42.924953 108.39397 curveto
42.731594 108.31048 lineto
42.889797 107.87396 43.159328 107.50628 43.540188 107.20745 curveto
43.941554 106.89105 44.366358 106.73285 44.814602 106.73284 curveto
45.227685 106.73285 45.574853 106.85882 45.856106 107.11077 curveto
46.149071 107.37445 46.295555 107.70990 46.295559 108.11712 curveto
46.295555 109.42083 45.412255 110.85784 43.645657 112.42815 curveto
46.049465 112.42815 lineto
46.210594 112.42815 46.364403 112.30364 46.510891 112.05462 curveto
46.657371 111.80560 46.724754 111.68109 46.713039 111.68108 curveto
46.736473 111.68109 46.770164 111.69427 46.814114 111.72063 curveto
46.858055 111.74407 46.888816 111.75872 46.906399 111.76458 curveto
fill
0.0000000 0.0000000 0.0000000 setrgbcolor
newpath
46.518215 96.468468 moveto
46.518211 97.262414 46.301415 97.829308 45.867825 98.169151 curveto
45.481103 98.473839 44.879053 98.626182 44.061672 98.626183 curveto
43.824366 98.626182 43.609035 98.585167 43.415676 98.503136 curveto
43.163722 98.391808 43.037746 98.232140 43.037746 98.024132 curveto
43.037746 97.927453 43.071437 97.846886 43.138821 97.782433 curveto
43.206203 97.715051 43.289699 97.681359 43.389309 97.681358 curveto
43.591456 97.681359 43.803859 97.779504 44.026516 97.975792 curveto
44.252100 98.172081 44.476221 98.270226 44.698879 98.270226 curveto
45.486962 98.270226 45.881005 97.717980 45.881008 96.613487 curveto
45.881005 96.311732 45.806298 96.027552 45.656887 95.760948 curveto
45.481103 95.447475 45.252588 95.290737 44.971340 95.290733 curveto
44.675440 95.290737 44.363428 95.374233 44.035305 95.541222 curveto
43.951809 95.317101 lineto
44.206690 95.246791 44.511377 95.050502 44.865871 94.728233 curveto
45.249658 94.379605 45.441552 94.089566 45.441555 93.858116 curveto
45.441552 93.588590 45.339013 93.355680 45.133938 93.159386 curveto
44.928857 92.963102 44.691553 92.864958 44.422024 92.864952 curveto
44.099757 92.864958 43.667628 93.122770 43.125637 93.638390 curveto
42.989407 93.581261 lineto
43.285304 93.130094 43.537257 92.816618 43.745266 92.640831 curveto
44.055811 92.385954 44.427881 92.258513 44.861477 92.258507 curveto
45.233545 92.258513 45.552880 92.375700 45.819485 92.610069 curveto
46.100731 92.856169 46.241356 93.162321 46.241360 93.528526 curveto
46.241356 93.842008 46.144677 94.102750 45.951321 94.310753 curveto
45.822411 94.451382 45.588036 94.612515 45.248196 94.794151 curveto
45.646630 94.820522 45.964501 95.010952 46.201809 95.365440 curveto
46.412743 95.681849 46.518211 96.049525 46.518215 96.468468 curveto
fill
0.0000000 0.0000000 0.0000000 setrgbcolor
newpath
57.216145 131.14035 moveto
54.654133 131.14035 lineto
54.654133 130.98654 lineto
55.275225 130.98654 55.585772 130.73605 55.585773 130.23508 curveto
55.585773 125.59445 lineto
55.427569 125.68821 55.270831 125.78196 55.115559 125.87570 curveto
54.928058 125.98118 54.762531 126.05295 54.618977 126.09103 curveto
54.535480 125.89767 lineto
55.124347 125.60471 55.629717 125.24729 56.051594 124.82541 curveto
56.315266 124.82541 lineto
56.315266 130.23508 lineto
56.315263 130.53684 56.392900 130.74191 56.548176 130.85031 curveto
56.674150 130.94113 56.896806 130.98654 57.216145 130.98654 curveto
57.216145 131.14035 lineto
fill
0.0000000 0.0000000 0.0000000 setrgbcolor
newpath
61.768879 128.21359 moveto
60.151691 128.21359 lineto
60.151691 129.83078 lineto
59.738605 129.83078 lineto
59.738605 128.21359 lineto
58.121418 128.21359 lineto
58.121418 127.80051 lineto
59.738605 127.80051 lineto
59.738605 126.18332 lineto
60.151691 126.18332 lineto
60.151691 127.80051 lineto
61.768879 127.80051 lineto
61.768879 128.21359 lineto
fill
0.0000000 0.0000000 0.0000000 setrgbcolor
newpath
65.904133 129.06174 moveto
65.904129 129.85568 65.687332 130.42258 65.253742 130.76242 curveto
64.867021 131.06711 64.264970 131.21945 63.447590 131.21945 curveto
63.210284 131.21945 62.994952 131.17844 62.801594 131.09641 curveto
62.549640 130.98508 62.423664 130.82541 62.423664 130.61740 curveto
62.423664 130.52072 62.457355 130.44016 62.524738 130.37570 curveto
62.592121 130.30832 62.675617 130.27463 62.775227 130.27463 curveto
62.977374 130.27463 63.189776 130.37277 63.412434 130.56906 curveto
63.638018 130.76535 63.862139 130.86350 64.084797 130.86349 curveto
64.872880 130.86350 65.266923 130.31125 65.266926 129.20676 curveto
65.266923 128.90500 65.192216 128.62082 65.042805 128.35422 curveto
64.867021 128.04074 64.638505 127.88401 64.357258 127.88400 curveto
64.061357 127.88401 63.749346 127.96750 63.421223 128.13449 curveto
63.337727 127.91037 lineto
63.592608 127.84006 63.897295 127.64377 64.251789 127.32150 curveto
64.635576 126.97287 64.827470 126.68284 64.827473 126.45139 curveto
64.827470 126.18186 64.724931 125.94895 64.519855 125.75266 curveto
64.314775 125.55637 64.077471 125.45823 63.807941 125.45822 curveto
63.485674 125.45823 63.053546 125.71604 62.511555 126.23166 curveto
62.375324 126.17453 lineto
62.671222 125.72336 62.923175 125.40989 63.131184 125.23410 curveto
63.441729 124.97922 63.813799 124.85178 64.247395 124.85178 curveto
64.619462 124.85178 64.938798 124.96897 65.205402 125.20334 curveto
65.486649 125.44944 65.627274 125.75559 65.627277 126.12180 curveto
65.627274 126.43528 65.530594 126.69602 65.337238 126.90402 curveto
65.208329 127.04465 64.973954 127.20578 64.634113 127.38742 curveto
65.032548 127.41379 65.350419 127.60422 65.587727 127.95871 curveto
65.798660 128.27512 65.904129 128.64279 65.904133 129.06174 curveto
fill
0.0000000 0.0000000 0.0000000 setrgbcolor
newpath
44.525993 145.63960 moveto
44.525989 145.69527 44.397083 146.11275 44.139275 146.89204 curveto
40.461052 146.89204 lineto
40.377556 146.63277 lineto
42.334585 145.05367 43.313100 143.61812 43.313103 142.32613 curveto
43.313100 141.57027 42.970326 141.19234 42.284782 141.19234 curveto
41.523062 141.19234 40.942985 141.55123 40.544548 142.26900 curveto
40.351189 142.18550 lineto
40.509391 141.74898 40.778922 141.38131 41.159782 141.08247 curveto
41.561148 140.76607 41.985952 140.60787 42.434196 140.60786 curveto
42.847280 140.60787 43.194447 140.73385 43.475700 140.98579 curveto
43.768665 141.24947 43.915150 141.58492 43.915154 141.99214 curveto
43.915150 143.29586 43.031850 144.73287 41.265251 146.30318 curveto
43.669060 146.30318 lineto
43.830189 146.30318 43.983997 146.17867 44.130486 145.92964 curveto
44.276966 145.68062 44.344348 145.55611 44.332634 145.55611 curveto
44.356067 145.55611 44.389759 145.56929 44.433708 145.59566 curveto
44.477649 145.61910 44.508411 145.63374 44.525993 145.63960 curveto
fill
grestore
showpage
