%!PS-Adobe-2.0 EPSF-2.0
%%Title: ChampCas4.eps
%%Creator: fig2dev Version 3.2 Patchlevel 3d
%%CreationDate: Wed Jul  2 09:46:21 2003
%%For: prof@portable (Vincent Guyot)
%%BoundingBox: 0 0 143 37
%%Magnification: 1.0000
%%EndComments
/$F2psDict 200 dict def
$F2psDict begin
$F2psDict /mtrx matrix put
/col-1 {0 setgray} bind def
/col0 {0.000 0.000 0.000 srgb} bind def
/col1 {0.000 0.000 1.000 srgb} bind def
/col2 {0.000 1.000 0.000 srgb} bind def
/col3 {0.000 1.000 1.000 srgb} bind def
/col4 {1.000 0.000 0.000 srgb} bind def
/col5 {1.000 0.000 1.000 srgb} bind def
/col6 {1.000 1.000 0.000 srgb} bind def
/col7 {1.000 1.000 1.000 srgb} bind def
/col8 {0.000 0.000 0.560 srgb} bind def
/col9 {0.000 0.000 0.690 srgb} bind def
/col10 {0.000 0.000 0.820 srgb} bind def
/col11 {0.530 0.810 1.000 srgb} bind def
/col12 {0.000 0.560 0.000 srgb} bind def
/col13 {0.000 0.690 0.000 srgb} bind def
/col14 {0.000 0.820 0.000 srgb} bind def
/col15 {0.000 0.560 0.560 srgb} bind def
/col16 {0.000 0.690 0.690 srgb} bind def
/col17 {0.000 0.820 0.820 srgb} bind def
/col18 {0.560 0.000 0.000 srgb} bind def
/col19 {0.690 0.000 0.000 srgb} bind def
/col20 {0.820 0.000 0.000 srgb} bind def
/col21 {0.560 0.000 0.560 srgb} bind def
/col22 {0.690 0.000 0.690 srgb} bind def
/col23 {0.820 0.000 0.820 srgb} bind def
/col24 {0.500 0.190 0.000 srgb} bind def
/col25 {0.630 0.250 0.000 srgb} bind def
/col26 {0.750 0.380 0.000 srgb} bind def
/col27 {1.000 0.500 0.500 srgb} bind def
/col28 {1.000 0.630 0.630 srgb} bind def
/col29 {1.000 0.750 0.750 srgb} bind def
/col30 {1.000 0.880 0.880 srgb} bind def
/col31 {1.000 0.840 0.000 srgb} bind def

end
save
newpath 0 37 moveto 0 0 lineto 143 0 lineto 143 37 lineto closepath clip newpath
-8.0 42.8 translate
1 -1 scale

/cp {closepath} bind def
/ef {eofill} bind def
/gr {grestore} bind def
/gs {gsave} bind def
/sa {save} bind def
/rs {restore} bind def
/l {lineto} bind def
/m {moveto} bind def
/rm {rmoveto} bind def
/n {newpath} bind def
/s {stroke} bind def
/sh {show} bind def
/slc {setlinecap} bind def
/slj {setlinejoin} bind def
/slw {setlinewidth} bind def
/srgb {setrgbcolor} bind def
/rot {rotate} bind def
/sc {scale} bind def
/sd {setdash} bind def
/ff {findfont} bind def
/sf {setfont} bind def
/scf {scalefont} bind def
/sw {stringwidth} bind def
/tr {translate} bind def
/tnt {dup dup currentrgbcolor
  4 -2 roll dup 1 exch sub 3 -1 roll mul add
  4 -2 roll dup 1 exch sub 3 -1 roll mul add
  4 -2 roll dup 1 exch sub 3 -1 roll mul add srgb}
  bind def
/shd {dup dup currentrgbcolor 4 -2 roll mul 4 -2 roll mul
  4 -2 roll mul srgb} bind def
 /DrawEllipse {
	/endangle exch def
	/startangle exch def
	/yrad exch def
	/xrad exch def
	/y exch def
	/x exch def
	/savematrix mtrx currentmatrix def
	x y tr xrad yrad sc 0 0 1 startangle endangle arc
	closepath
	savematrix setmatrix
	} def

/$F2psBegin {$F2psDict begin /$F2psEnteredState save def} def
/$F2psEnd {$F2psEnteredState restore end} def

$F2psBegin
10 setmiterlimit
 0.06299 0.06299 sc
%
% Fig objects follow
%
7.500 slw
% Ellipse
n 225 405 90 90 0 360 DrawEllipse gs col0 s gr

% Polyline
n 180 405 m
 270 405 l gs col0 s gr 
% Polyline
gs  clippath
1815 157 m 1815 112 l 1763 112 l 1793 135 l 1763 157 l cp
eoclip
n 1710 135 m
 1800 135 l gs col0 s gr gr

% arrowhead
n 1763 157 m 1793 135 l 1763 112 l  col0 s
/Times-Roman ff 180.00 scf sf
1710 315 m
gs 1 -1 sc (E) col0 sh gr
% Polyline
gs  clippath
1810 522 m 1810 477 l 1758 477 l 1788 500 l 1758 522 l cp
eoclip
n 1705 500 m
 1795 500 l gs col0 s gr gr

% arrowhead
n 1758 522 m 1788 500 l 1758 477 l  col0 s
/Times-Roman ff 180.00 scf sf
1705 680 m
gs 1 -1 sc (F) col0 sh gr
% Ellipse
n 1530 405 90 90 0 360 DrawEllipse gs col0 s gr

% Polyline
n 1485 405 m
 1575 405 l gs col0 s gr 
% Polyline
n 225 360 m
 225 450 l gs col0 s gr 
% Polyline
gs  clippath
2025 385 m 2025 325 l 1873 325 l 1993 355 l 1873 385 l cp
eoclip
n 1605 355 m
 2010 355 l gs col0 s gr gr

% arrowhead
n 1873 385 m 1993 355 l 1873 325 l  col0 s
% Polyline
n 1530 355 m
 1530 445 l gs col0 s gr 
% Polyline
gs  clippath
2400 455 m 2400 395 l 2248 395 l 2368 425 l 2248 455 l cp
eoclip
n 1620 425 m
 2385 425 l gs col0 s gr gr

% arrowhead
n 2248 455 m 2368 425 l 2248 395 l  col0 s
/Times-Roman ff 180.00 scf sf
1485 675 m
gs 1 -1 sc (P) col0 sh gr
/Times-Roman ff 180.00 scf sf
1485 225 m
gs 1 -1 sc (q) col0 sh gr
$F2psEnd
rs
