%!PS-Adobe-2.0 EPSF-2.0
%%Title: ChargeNegative.eps
%%Creator: fig2dev Version 3.2 Patchlevel 3d
%%CreationDate: Thu Jul  3 00:36:55 2003
%%For: prof@portable (Vincent Guyot)
%%BoundingBox: 0 0 85 75
%%Magnification: 1.0000
%%EndComments
/$F2psDict 200 dict def
$F2psDict begin
$F2psDict /mtrx matrix put
/col-1 {0 setgray} bind def
/col0 {0.000 0.000 0.000 srgb} bind def
/col1 {0.000 0.000 1.000 srgb} bind def
/col2 {0.000 1.000 0.000 srgb} bind def
/col3 {0.000 1.000 1.000 srgb} bind def
/col4 {1.000 0.000 0.000 srgb} bind def
/col5 {1.000 0.000 1.000 srgb} bind def
/col6 {1.000 1.000 0.000 srgb} bind def
/col7 {1.000 1.000 1.000 srgb} bind def
/col8 {0.000 0.000 0.560 srgb} bind def
/col9 {0.000 0.000 0.690 srgb} bind def
/col10 {0.000 0.000 0.820 srgb} bind def
/col11 {0.530 0.810 1.000 srgb} bind def
/col12 {0.000 0.560 0.000 srgb} bind def
/col13 {0.000 0.690 0.000 srgb} bind def
/col14 {0.000 0.820 0.000 srgb} bind def
/col15 {0.000 0.560 0.560 srgb} bind def
/col16 {0.000 0.690 0.690 srgb} bind def
/col17 {0.000 0.820 0.820 srgb} bind def
/col18 {0.560 0.000 0.000 srgb} bind def
/col19 {0.690 0.000 0.000 srgb} bind def
/col20 {0.820 0.000 0.000 srgb} bind def
/col21 {0.560 0.000 0.560 srgb} bind def
/col22 {0.690 0.000 0.690 srgb} bind def
/col23 {0.820 0.000 0.820 srgb} bind def
/col24 {0.500 0.190 0.000 srgb} bind def
/col25 {0.630 0.250 0.000 srgb} bind def
/col26 {0.750 0.380 0.000 srgb} bind def
/col27 {1.000 0.500 0.500 srgb} bind def
/col28 {1.000 0.630 0.630 srgb} bind def
/col29 {1.000 0.750 0.750 srgb} bind def
/col30 {1.000 0.880 0.880 srgb} bind def
/col31 {1.000 0.840 0.000 srgb} bind def

end
save
newpath 0 75 moveto 0 0 lineto 85 0 lineto 85 75 lineto closepath clip newpath
-6.8 79.2 translate
1 -1 scale

/cp {closepath} bind def
/ef {eofill} bind def
/gr {grestore} bind def
/gs {gsave} bind def
/sa {save} bind def
/rs {restore} bind def
/l {lineto} bind def
/m {moveto} bind def
/rm {rmoveto} bind def
/n {newpath} bind def
/s {stroke} bind def
/sh {show} bind def
/slc {setlinecap} bind def
/slj {setlinejoin} bind def
/slw {setlinewidth} bind def
/srgb {setrgbcolor} bind def
/rot {rotate} bind def
/sc {scale} bind def
/sd {setdash} bind def
/ff {findfont} bind def
/sf {setfont} bind def
/scf {scalefont} bind def
/sw {stringwidth} bind def
/tr {translate} bind def
/tnt {dup dup currentrgbcolor
  4 -2 roll dup 1 exch sub 3 -1 roll mul add
  4 -2 roll dup 1 exch sub 3 -1 roll mul add
  4 -2 roll dup 1 exch sub 3 -1 roll mul add srgb}
  bind def
/shd {dup dup currentrgbcolor 4 -2 roll mul 4 -2 roll mul
  4 -2 roll mul srgb} bind def
 /DrawEllipse {
	/endangle exch def
	/startangle exch def
	/yrad exch def
	/xrad exch def
	/y exch def
	/x exch def
	/savematrix mtrx currentmatrix def
	x y tr xrad yrad sc 0 0 1 startangle endangle arc
	closepath
	savematrix setmatrix
	} def

/$F2psBegin {$F2psDict begin /$F2psEnteredState save def} def
/$F2psEnd {$F2psEnteredState restore end} def

$F2psBegin
10 setmiterlimit
 0.06299 0.06299 sc
%
% Fig objects follow
%
% Polyline
7.500 slw
gs  clippath
1342 419 m 1342 374 l 1290 374 l 1320 397 l 1290 419 l cp
eoclip
n 1237 397 m
 1327 397 l gs col0 s gr gr

% arrowhead
n 1290 419 m 1320 397 l 1290 374 l  col0 s
/Times-Roman ff 180.00 scf sf
1237 577 m
gs 1 -1 sc (E) col0 sh gr
% Polyline
 [60] 0 sd
n 765 634 m
 1432 154 l gs col0 s gr  [] 0 sd
% Polyline
 [60] 0 sd
n 773 630 m
 1380 945 l gs col0 s gr  [] 0 sd
% Polyline
 [60] 0 sd
n 773 630 m
 1357 630 l gs col0 s gr  [] 0 sd
% Polyline
 [60] 0 sd
n 773 630 m
 772 1245 l gs col0 s gr  [] 0 sd
% Polyline
 [60] 0 sd
n 773 630 m
 487 1155 l gs col0 s gr  [] 0 sd
% Polyline
 [60] 0 sd
n 773 630 m
 232 1005 l gs col0 s gr  [] 0 sd
% Polyline
 [60] 0 sd
n 773 630 m
 120 630 l gs col0 s gr  [] 0 sd
% Polyline
 [60] 0 sd
n 773 630 m
 172 187 l gs col0 s gr  [] 0 sd
% Polyline
 [60] 0 sd
n 773 630 m
 465 112 l gs col0 s gr  [] 0 sd
% Polyline
 [60] 0 sd
n 773 630 m
 772 82 l gs col0 s gr  [] 0 sd
% Polyline
 [60] 0 sd
n 773 630 m
 1132 1155 l gs col0 s gr  [] 0 sd
% Polyline
n 765 585 m
 765 675 l gs col0 s gr 
% Polyline
 [60] 0 sd
n 773 630 m
 1072 105 l gs col0 s gr  [] 0 sd
% Polyline
gs  clippath
564 513 m 599 464 l 477 375 l 557 470 l 442 423 l cp
eoclip
n 292 277 m
 570 480 l gs col0 s gr gr

% arrowhead
n 442 423 m 557 470 l 477 375 l  col0 s
% Polyline
gs  clippath
937 471 m 972 520 l 1095 431 l 980 477 l 1060 382 l cp
eoclip
n 1282 262 m
 967 487 l gs col0 s gr gr

% arrowhead
n 1060 382 m 980 477 l 1095 431 l  col0 s
% Polyline
gs  clippath
802 787 m 742 787 l 742 939 l 772 819 l 802 939 l cp
eoclip
n 772 1132 m
 772 802 l gs col0 s gr gr

% arrowhead
n 802 939 m 772 819 l 742 939 l  col0 s
% Polyline
gs  clippath
893 750 m 843 784 l 928 910 l 886 794 l 978 876 l cp
eoclip
n 1080 1080 m
 877 780 l gs col0 s gr gr

% arrowhead
n 978 876 m 886 794 l 928 910 l  col0 s
% Polyline
gs  clippath
516 848 m 482 798 l 357 884 l 473 841 l 391 934 l cp
eoclip
n 217 1020 m
 487 832 l gs col0 s gr gr

% arrowhead
n 391 934 m 473 841 l 357 884 l  col0 s
% Ellipse
n 765 630 90 90 0 360 DrawEllipse gs col7 1.00 shd ef gr gs col0 s gr

% Polyline
n 720 630 m
 810 630 l gs col0 s gr 
$F2psEnd
rs
