%!PS-Adobe-3.0 EPSF-3.0
%%Creator: inkscape 0.44.1
%%Pages: 1
%%Orientation: Portrait
%%BoundingBox: 37 714 228 808
%%HiResBoundingBox: 37.756139 714.92788 227.52896 807.23389
%%DocumentMedia: plain 596 842 0 () ()
%%EndComments
%%Page: 1 1
0 842 translate
0.8 -0.8 scale
gsave [1 0 0 1 0 0] concat
0 0 0 setrgbcolor
[] 0 setdash
0.35433072 setlinewidth
0 setlinejoin
1 setlinecap
newpath
47.381882 100.67336 moveto
47.711977 90.333763 56.371441 82.210105 66.711042 82.5402 curveto
77.050644 82.870295 85.174302 91.529758 84.844207 101.86936 curveto
84.514112 112.20896 75.854649 120.33262 65.515047 120.00252 curveto
55.385519 119.67914 47.372339 111.40605 47.372339 101.27136 curveto
stroke
0 0 0 setrgbcolor
[] 0 setdash
0.35433072 setlinewidth
0 setlinejoin
1 setlinecap
newpath
251.12387 84.612953 moveto
283.50682 84.612953 lineto
283.9097 84.612953 284.23404 84.937292 284.23404 85.340169 curveto
284.23404 117.72312 lineto
284.23404 118.126 283.9097 118.45034 283.50682 118.45034 curveto
251.12387 118.45034 lineto
250.72099 118.45034 250.39665 118.126 250.39665 117.72312 curveto
250.39665 85.340169 lineto
250.39665 84.937292 250.72099 84.612953 251.12387 84.612953 curveto
closepath
stroke
0 0 0 setrgbcolor
[] 0 setdash
0.35433072 setlinewidth
0 setlinejoin
0 setlinecap
newpath
66.633621 82.530656 moveto
66.633621 46.090395 lineto
266.53448 46.090395 lineto
266.53448 84.092382 lineto
stroke
0 0 0 setrgbcolor
[] 0 setdash
0.35433072 setlinewidth
0 setlinejoin
0 setlinecap
newpath
66.633621 120.01207 moveto
66.633621 156.45233 lineto
266.53448 156.45233 lineto
266.53448 118.45034 lineto
stroke
gsave
0 0 0 setrgbcolor
newpath
68.755085 102.34514 moveto
68.556511 102.34189 68.39375 102.39397 68.266804 102.50139 curveto
68.130079 102.61532 68.06172 102.76832 68.061726 102.96037 curveto
68.061726 104.8549 lineto
67.215366 105.2911 66.320185 105.5092 65.376179 105.5092 curveto
64.41589 105.5092 63.618365 105.20647 62.983601 104.601 curveto
62.335814 103.98577 62.011921 103.20126 62.011921 102.24748 curveto
62.011921 101.15048 62.330931 100.24716 62.968952 99.537521 curveto
63.629758 98.801851 64.502153 98.434013 65.58614 98.434006 curveto
66.152542 98.434013 66.671747 98.521903 67.143757 98.697678 curveto
67.339064 98.772554 67.503452 98.809989 67.636921 98.809982 curveto
67.744337 98.809989 67.8306 98.78232 67.89571 98.726974 curveto
67.983601 98.726974 lineto
68.130085 100.52385 lineto
67.944538 100.52385 lineto
67.856642 99.937917 67.607618 99.480561 67.197468 99.151779 curveto
66.797072 98.832775 66.295771 98.67327 65.693562 98.673264 curveto
64.798376 98.67327 64.100135 99.03297 63.598835 99.752365 curveto
63.156125 100.38388 62.934772 101.16676 62.934772 102.101 curveto
62.934772 102.94084 63.164263 103.66187 63.623249 104.26408 curveto
64.127804 104.91838 64.788611 105.24553 65.605671 105.24553 curveto
66.351109 105.24553 66.904494 105.09416 67.265827 104.79143 curveto
67.265827 103.02873 lineto
67.265822 102.57301 66.967971 102.34514 66.372272 102.34514 curveto
66.372272 102.14983 lineto
68.755085 102.14983 lineto
68.755085 102.34514 lineto
fill
grestore
gsave
0 0 0 setrgbcolor
newpath
269.36505 103.70744 moveto
269.1502 104.32919 268.83933 104.84188 268.43243 105.24553 curveto
267.43634 105.40503 266.79669 105.48479 266.51349 105.48479 curveto
265.56297 105.48479 264.7573 105.18531 264.0965 104.58635 curveto
263.41616 103.96786 263.07599 103.18824 263.07599 102.24748 curveto
263.07599 101.20582 263.4129 100.32203 264.08673 99.596115 curveto
264.78009 98.853934 265.64597 98.482841 266.68439 98.482834 curveto
267.36472 98.482841 267.97507 98.608166 268.51544 98.85881 curveto
268.68796 98.936942 268.79864 98.976004 268.84747 98.975998 curveto
268.91257 98.976004 268.9614 98.95159 268.99396 98.902756 curveto
269.14532 98.912521 lineto
269.21368 100.38713 lineto
269.03302 100.38713 lineto
268.89304 99.866303 268.60007 99.456147 268.15411 99.156662 curveto
267.73093 98.87021 267.24102 98.726981 266.68439 98.726974 curveto
265.86407 98.726981 265.20001 99.062267 264.6922 99.732834 curveto
264.22996 100.34482 263.99884 101.07398 263.99884 101.92033 curveto
263.99884 102.8025 264.24786 103.56422 264.74591 104.20549 curveto
265.28627 104.90211 265.98614 105.25041 266.84552 105.25041 curveto
267.32403 105.25041 267.78627 105.09416 268.23224 104.78166 curveto
268.66843 104.47567 268.9793 104.09807 269.16486 103.64885 curveto
269.36505 103.70744 lineto
fill
grestore
0 0 0 setrgbcolor
[] 0 setdash
0.35433072 setlinewidth
0 setlinejoin
0 setlinecap
newpath
95.78583 65.351676 moveto
95.78583 139.79392 95.78583 140.3145 95.78583 140.3145 curveto
stroke
gsave [2.1695782e-17 0.35433072 -0.35433072 2.1695782e-17 95.78583 65.351676] concat
1 1 1 setrgbcolor
[] 0 setdash
1.15 setlinewidth
0 setlinejoin
2 setlinecap
newpath
0 0 moveto
2 0 lineto
stroke
gsave
0 0 0 setrgbcolor
newpath
0 0 moveto
13 4 lineto
9 0 lineto
13 -4 lineto
0 0 lineto
closepath
eofill
grestore
0 0 0 setrgbcolor
[] 0 setdash
1 setlinewidth
0 setlinejoin
2 setlinecap
newpath
0 -4 moveto
0 40 lineto
stroke
grestore
gsave [2.1695782e-17 0.35433072 -0.35433072 2.1695782e-17 95.78583 140.3145] concat
1 1 1 setrgbcolor
[] 0 setdash
1.15 setlinewidth
0 setlinejoin
2 setlinecap
newpath
0 0 moveto
-2 0 lineto
stroke
gsave
0 0 0 setrgbcolor
newpath
0 0 moveto
-13 4 lineto
-9 0 lineto
-13 -4 lineto
0 0 lineto
closepath
eofill
grestore
0 0 0 setrgbcolor
[] 0 setdash
1 setlinewidth
0 setlinejoin
2 setlinecap
newpath
0 -4 moveto
0 40 lineto
stroke
grestore
gsave
0 0 0 setrgbcolor
newpath
106.61736 99.04248 moveto
106.61247 99.291504 lineto
106.60271 99.30127 lineto
106.24463 99.356615 106.03141 99.402188 105.96306 99.437988 curveto
105.79704 99.525885 105.71403 99.714687 105.71404 100.00439 curveto
105.71404 103.8667 lineto
105.71403 104.55029 105.41618 105.09554 104.82048 105.50244 curveto
104.29313 105.86051 103.67139 106.03955 102.95525 106.03955 curveto
102.14795 106.03955 101.47901 105.81006 100.94841 105.35107 curveto
100.38851 104.8693 100.10857 104.23128 100.10857 103.43701 curveto
100.10857 99.760254 lineto
100.10857 99.421719 99.843266 99.258959 99.312668 99.271973 curveto
99.376144 99.032715 lineto
101.76384 99.032715 lineto
101.73454 99.271973 lineto
101.16162 99.324063 100.87517 99.507982 100.87517 99.82373 curveto
100.87517 103.62256 lineto
100.87517 104.11084 101.15186 104.56169 101.70525 104.9751 curveto
102.21957 105.35921 102.72901 105.55127 103.23357 105.55127 curveto
103.78695 105.55127 104.2557 105.39502 104.63982 105.08252 curveto
105.04997 104.74723 105.25504 104.31104 105.25505 103.77393 curveto
105.25505 100.18994 lineto
105.25504 99.568203 104.97998 99.262214 104.42986 99.271973 curveto
104.36638 99.032715 lineto
106.61736 99.04248 lineto
fill
grestore
0 0 0 setrgbcolor
[] 0 setdash
0.35433072 setlinewidth
0 setlinejoin
0 setlinecap
newpath
233.21404 140.83508 moveto
233.21404 66.392831 233.21404 65.872251 233.21404 65.872251 curveto
stroke
gsave [2.1695782e-17 -0.35433072 0.35433072 2.1695782e-17 233.21404 140.83508] concat
1 1 1 setrgbcolor
[] 0 setdash
1.15 setlinewidth
0 setlinejoin
2 setlinecap
newpath
0 0 moveto
2 0 lineto
stroke
gsave
0 0 0 setrgbcolor
newpath
0 0 moveto
13 4 lineto
9 0 lineto
13 -4 lineto
0 0 lineto
closepath
eofill
grestore
0 0 0 setrgbcolor
[] 0 setdash
1 setlinewidth
0 setlinejoin
2 setlinecap
newpath
0 -4 moveto
0 40 lineto
stroke
grestore
gsave [2.1695782e-17 -0.35433072 0.35433072 2.1695782e-17 233.21404 65.872251] concat
1 1 1 setrgbcolor
[] 0 setdash
1.15 setlinewidth
0 setlinejoin
2 setlinecap
newpath
0 0 moveto
-2 0 lineto
stroke
gsave
0 0 0 setrgbcolor
newpath
0 0 moveto
-13 4 lineto
-9 0 lineto
-13 -4 lineto
0 0 lineto
closepath
eofill
grestore
0 0 0 setrgbcolor
[] 0 setdash
1 setlinewidth
0 setlinejoin
2 setlinecap
newpath
0 -4 moveto
0 40 lineto
stroke
grestore
gsave
0 0 0 setrgbcolor
newpath
228.43195 98.001328 moveto
228.42706 98.250351 lineto
228.4173 98.260117 lineto
228.05922 98.315462 227.846 98.361035 227.77765 98.396835 curveto
227.61163 98.484732 227.52862 98.673534 227.52863 98.963242 curveto
227.52863 102.82555 lineto
227.52862 103.50914 227.23077 104.05439 226.63507 104.46129 curveto
226.10772 104.81936 225.48598 104.9984 224.76984 104.9984 curveto
223.96254 104.9984 223.2936 104.76891 222.763 104.30992 curveto
222.2031 103.82815 221.92316 103.19013 221.92316 102.39586 curveto
221.92316 98.719101 lineto
221.92316 98.380566 221.65786 98.217806 221.12726 98.23082 curveto
221.19073 97.991562 lineto
223.57843 97.991562 lineto
223.54913 98.23082 lineto
222.97621 98.28291 222.68976 98.466829 222.68976 98.782578 curveto
222.68976 102.58141 lineto
222.68976 103.06969 222.96645 103.52053 223.51984 103.93394 curveto
224.03416 104.31806 224.5436 104.51012 225.04816 104.51012 curveto
225.60154 104.51012 226.07029 104.35387 226.45441 104.04137 curveto
226.86456 103.70608 227.06964 103.26988 227.06964 102.73277 curveto
227.06964 99.148788 lineto
227.06964 98.52705 226.79457 98.221061 226.24445 98.23082 curveto
226.18097 97.991562 lineto
228.43195 98.001328 lineto
fill
grestore
0 0 0 setrgbcolor
[] 0 setdash
1 setlinewidth
0 setlinejoin
0 setlinecap
newpath
135.34954 45.56982 moveto
162.94003 45.56982 lineto
stroke
gsave [-0.4 0 0 -0.4 158.94003 45.56982] concat
gsave
0 0 0 setrgbcolor
newpath
0 0 moveto
5 -5 lineto
-12.5 0 lineto
5 5 lineto
0 0 lineto
closepath
eofill
grestore
0 0 0 setrgbcolor
[] 0 setdash
1.25 setlinewidth
0 setlinejoin
0 setlinecap
newpath
0 0 moveto
5 -5 lineto
-12.5 0 lineto
5 5 lineto
0 0 lineto
closepath
stroke
grestore
gsave
0 0 0 setrgbcolor
newpath
149.84419 49.739201 moveto
149.17362 49.739207 148.83833 50.017527 148.83833 50.574162 curveto
148.83833 55.491154 lineto
148.83833 55.826441 148.92622 56.055933 149.10201 56.17963 curveto
149.24523 56.280542 149.491 56.32937 149.83931 56.326115 curveto
149.83931 56.497013 lineto
146.99263 56.497013 lineto
146.99263 56.326115 lineto
147.68273 56.326115 148.02779 56.047795 148.02779 55.491154 curveto
148.02779 50.574162 lineto
148.02779 50.238881 147.94152 50.009389 147.769 49.885685 curveto
147.62577 49.78478 147.37837 49.735952 147.02681 49.739201 curveto
147.02681 49.568302 lineto
149.84419 49.568302 lineto
149.84419 49.739201 lineto
fill
grestore
0 0 0 setrgbcolor
[] 0 setdash
1 setlinewidth
0 setlinejoin
0 setlinecap
newpath
166.29291 156.45233 moveto
138.70242 156.45233 lineto
stroke
gsave [0.4 -4.8984254e-17 4.8984254e-17 0.4 142.70242 156.45233] concat
gsave
0 0 0 setrgbcolor
newpath
0 0 moveto
5 -5 lineto
-12.5 0 lineto
5 5 lineto
0 0 lineto
closepath
eofill
grestore
0 0 0 setrgbcolor
[] 0 setdash
1.25 setlinewidth
0 setlinejoin
0 setlinecap
newpath
0 0 moveto
5 -5 lineto
-12.5 0 lineto
5 5 lineto
0 0 lineto
closepath
stroke
grestore
gsave
0 0 0 setrgbcolor
newpath
152.44707 145.00446 moveto
151.77649 145.00446 151.44121 145.28278 151.44121 145.83942 curveto
151.44121 150.75641 lineto
151.44121 151.0917 151.5291 151.32119 151.70488 151.44489 curveto
151.84811 151.5458 152.09387 151.59463 152.44218 151.59137 curveto
152.44218 151.76227 lineto
149.5955 151.76227 lineto
149.5955 151.59137 lineto
150.28561 151.59137 150.63066 151.31305 150.63066 150.75641 curveto
150.63066 145.83942 lineto
150.63066 145.50414 150.5444 145.27464 150.37187 145.15094 curveto
150.22864 145.05004 149.98125 145.00121 149.62968 145.00446 curveto
149.62968 144.83356 lineto
152.44707 144.83356 lineto
152.44707 145.00446 lineto
fill
grestore
grestore
showpage
%%EOF
