%!PS-Adobe-3.0 EPSF-3.0
%%Creator: inkscape 0.44.1
%%Pages: 1
%%Orientation: Portrait
%%BoundingBox: 37 714 228 808
%%HiResBoundingBox: 37.756139 714.92788 227.17932 807.23389
%%DocumentMedia: plain 596 842 0 () ()
%%EndComments
%%Page: 1 1
0 842 translate
0.8 -0.8 scale
gsave [1 0 0 1 0 0] concat
0 0 0 setrgbcolor
[] 0 setdash
0.35433072 setlinewidth
0 setlinejoin
1 setlinecap
newpath
47.381882 100.67336 moveto
47.711977 90.333763 56.371441 82.210105 66.711042 82.5402 curveto
77.050644 82.870295 85.174302 91.529758 84.844207 101.86936 curveto
84.514112 112.20896 75.854649 120.33262 65.515047 120.00252 curveto
55.385519 119.67914 47.372339 111.40605 47.372339 101.27136 curveto
stroke
0 0 0 setrgbcolor
[] 0 setdash
0.35433072 setlinewidth
0 setlinejoin
0 setlinecap
newpath
66.633621 120.01207 moveto
66.633621 156.45233 lineto
211.87409 156.45233 lineto
266.53448 156.45233 lineto
266.53448 118.45034 lineto
266.53448 84.092382 lineto
266.53448 46.090395 lineto
210.31236 46.090395 lineto
66.633621 46.090395 lineto
66.633621 82.530656 lineto
stroke
gsave
0 0 0 setrgbcolor
newpath
68.755085 102.34514 moveto
68.556511 102.34189 68.39375 102.39397 68.266804 102.50139 curveto
68.130079 102.61532 68.06172 102.76832 68.061726 102.96037 curveto
68.061726 104.8549 lineto
67.215366 105.2911 66.320185 105.5092 65.376179 105.5092 curveto
64.41589 105.5092 63.618365 105.20647 62.983601 104.601 curveto
62.335814 103.98577 62.011921 103.20126 62.011921 102.24748 curveto
62.011921 101.15048 62.330931 100.24716 62.968952 99.537521 curveto
63.629758 98.801851 64.502153 98.434013 65.58614 98.434006 curveto
66.152542 98.434013 66.671747 98.521903 67.143757 98.697678 curveto
67.339064 98.772554 67.503452 98.809989 67.636921 98.809982 curveto
67.744337 98.809989 67.8306 98.78232 67.89571 98.726974 curveto
67.983601 98.726974 lineto
68.130085 100.52385 lineto
67.944538 100.52385 lineto
67.856642 99.937917 67.607618 99.480561 67.197468 99.151779 curveto
66.797072 98.832775 66.295771 98.67327 65.693562 98.673264 curveto
64.798376 98.67327 64.100135 99.03297 63.598835 99.752365 curveto
63.156125 100.38388 62.934772 101.16676 62.934772 102.101 curveto
62.934772 102.94084 63.164263 103.66187 63.623249 104.26408 curveto
64.127804 104.91838 64.788611 105.24553 65.605671 105.24553 curveto
66.351109 105.24553 66.904494 105.09416 67.265827 104.79143 curveto
67.265827 103.02873 lineto
67.265822 102.57301 66.967971 102.34514 66.372272 102.34514 curveto
66.372272 102.14983 lineto
68.755085 102.14983 lineto
68.755085 102.34514 lineto
fill
grestore
0 0 0 setrgbcolor
[] 0 setdash
0.35433072 setlinewidth
0 setlinejoin
0 setlinecap
newpath
95.78583 65.351676 moveto
95.78583 139.79392 95.78583 140.3145 95.78583 140.3145 curveto
stroke
gsave [2.1695782e-17 0.35433072 -0.35433072 2.1695782e-17 95.78583 65.351676] concat
1 1 1 setrgbcolor
[] 0 setdash
1.15 setlinewidth
0 setlinejoin
2 setlinecap
newpath
0 0 moveto
2 0 lineto
stroke
gsave
0 0 0 setrgbcolor
newpath
0 0 moveto
13 4 lineto
9 0 lineto
13 -4 lineto
0 0 lineto
closepath
eofill
grestore
0 0 0 setrgbcolor
[] 0 setdash
1 setlinewidth
0 setlinejoin
2 setlinecap
newpath
0 -4 moveto
0 40 lineto
stroke
grestore
gsave [2.1695782e-17 0.35433072 -0.35433072 2.1695782e-17 95.78583 140.3145] concat
1 1 1 setrgbcolor
[] 0 setdash
1.15 setlinewidth
0 setlinejoin
2 setlinecap
newpath
0 0 moveto
-2 0 lineto
stroke
gsave
0 0 0 setrgbcolor
newpath
0 0 moveto
-13 4 lineto
-9 0 lineto
-13 -4 lineto
0 0 lineto
closepath
eofill
grestore
0 0 0 setrgbcolor
[] 0 setdash
1 setlinewidth
0 setlinejoin
2 setlinecap
newpath
0 -4 moveto
0 40 lineto
stroke
grestore
gsave
0 0 0 setrgbcolor
newpath
106.61736 99.04248 moveto
106.61247 99.291504 lineto
106.60271 99.30127 lineto
106.24463 99.356615 106.03141 99.402188 105.96306 99.437988 curveto
105.79704 99.525885 105.71403 99.714687 105.71404 100.00439 curveto
105.71404 103.8667 lineto
105.71403 104.55029 105.41618 105.09554 104.82048 105.50244 curveto
104.29313 105.86051 103.67139 106.03955 102.95525 106.03955 curveto
102.14795 106.03955 101.47901 105.81006 100.94841 105.35107 curveto
100.38851 104.8693 100.10857 104.23128 100.10857 103.43701 curveto
100.10857 99.760254 lineto
100.10857 99.421719 99.843266 99.258959 99.312668 99.271973 curveto
99.376144 99.032715 lineto
101.76384 99.032715 lineto
101.73454 99.271973 lineto
101.16162 99.324063 100.87517 99.507982 100.87517 99.82373 curveto
100.87517 103.62256 lineto
100.87517 104.11084 101.15186 104.56169 101.70525 104.9751 curveto
102.21957 105.35921 102.72901 105.55127 103.23357 105.55127 curveto
103.78695 105.55127 104.2557 105.39502 104.63982 105.08252 curveto
105.04997 104.74723 105.25504 104.31104 105.25505 103.77393 curveto
105.25505 100.18994 lineto
105.25504 99.568203 104.97998 99.262214 104.42986 99.271973 curveto
104.36638 99.032715 lineto
106.61736 99.04248 lineto
fill
grestore
0 0 0 setrgbcolor
[] 0 setdash
1 setlinewidth
0 setlinejoin
0 setlinecap
newpath
135.34954 45.56982 moveto
162.94003 45.56982 lineto
stroke
gsave [-0.4 0 0 -0.4 158.94003 45.56982] concat
gsave
0 0 0 setrgbcolor
newpath
0 0 moveto
5 -5 lineto
-12.5 0 lineto
5 5 lineto
0 0 lineto
closepath
eofill
grestore
0 0 0 setrgbcolor
[] 0 setdash
1.25 setlinewidth
0 setlinejoin
0 setlinecap
newpath
0 0 moveto
5 -5 lineto
-12.5 0 lineto
5 5 lineto
0 0 lineto
closepath
stroke
grestore
gsave
0 0 0 setrgbcolor
newpath
149.84419 49.739201 moveto
149.17362 49.739207 148.83833 50.017527 148.83833 50.574162 curveto
148.83833 55.491154 lineto
148.83833 55.826441 148.92622 56.055933 149.10201 56.17963 curveto
149.24523 56.280542 149.491 56.32937 149.83931 56.326115 curveto
149.83931 56.497013 lineto
146.99263 56.497013 lineto
146.99263 56.326115 lineto
147.68273 56.326115 148.02779 56.047795 148.02779 55.491154 curveto
148.02779 50.574162 lineto
148.02779 50.238881 147.94152 50.009389 147.769 49.885685 curveto
147.62577 49.78478 147.37837 49.735952 147.02681 49.739201 curveto
147.02681 49.568302 lineto
149.84419 49.568302 lineto
149.84419 49.739201 lineto
fill
grestore
0 0 0 setrgbcolor
[] 0 setdash
1 setlinewidth
0 setlinejoin
0 setlinecap
newpath
166.29291 156.45233 moveto
138.70242 156.45233 lineto
stroke
gsave [0.4 -4.8984254e-17 4.8984254e-17 0.4 142.70242 156.45233] concat
gsave
0 0 0 setrgbcolor
newpath
0 0 moveto
5 -5 lineto
-12.5 0 lineto
5 5 lineto
0 0 lineto
closepath
eofill
grestore
0 0 0 setrgbcolor
[] 0 setdash
1.25 setlinewidth
0 setlinejoin
0 setlinecap
newpath
0 0 moveto
5 -5 lineto
-12.5 0 lineto
5 5 lineto
0 0 lineto
closepath
stroke
grestore
gsave
0 0 0 setrgbcolor
newpath
152.44707 145.00446 moveto
151.77649 145.00446 151.44121 145.28278 151.44121 145.83942 curveto
151.44121 150.75641 lineto
151.44121 151.0917 151.5291 151.32119 151.70488 151.44489 curveto
151.84811 151.5458 152.09387 151.59463 152.44218 151.59137 curveto
152.44218 151.76227 lineto
149.5955 151.76227 lineto
149.5955 151.59137 lineto
150.28561 151.59137 150.63066 151.31305 150.63066 150.75641 curveto
150.63066 145.83942 lineto
150.63066 145.50414 150.5444 145.27464 150.37187 145.15094 curveto
150.22864 145.05004 149.98125 145.00121 149.62968 145.00446 curveto
149.62968 144.83356 lineto
152.44707 144.83356 lineto
152.44707 145.00446 lineto
fill
grestore
gsave
1 1 1 setrgbcolor
newpath
250.08272 81.48951 moveto
282.46567 81.48951 lineto
282.86855 81.48951 283.19289 81.813848 283.19289 82.216726 curveto
283.19289 114.59968 lineto
283.19289 115.00256 282.86855 115.3269 282.46567 115.3269 curveto
250.08272 115.3269 lineto
249.67984 115.3269 249.3555 115.00256 249.3555 114.59968 curveto
249.3555 82.216726 lineto
249.3555 81.813848 249.67984 81.48951 250.08272 81.48951 curveto
closepath
eofill
grestore
0 0 0 setrgbcolor
[] 0 setdash
0.35433072 setlinewidth
0 setlinejoin
1 setlinecap
newpath
250.08272 81.48951 moveto
282.46567 81.48951 lineto
282.86855 81.48951 283.19289 81.813848 283.19289 82.216726 curveto
283.19289 114.59968 lineto
283.19289 115.00256 282.86855 115.3269 282.46567 115.3269 curveto
250.08272 115.3269 lineto
249.67984 115.3269 249.3555 115.00256 249.3555 114.59968 curveto
249.3555 82.216726 lineto
249.3555 81.813848 249.67984 81.48951 250.08272 81.48951 curveto
closepath
stroke
gsave [1 0 0 1 -5.205755 -28.11106] concat
gsave
0 0 0 setrgbcolor
newpath
270.19958 126.94147 moveto
269.98473 127.56321 269.67386 128.07591 269.26697 128.47955 curveto
268.27087 128.63906 267.63122 128.71881 267.34802 128.71881 curveto
266.3975 128.71881 265.59184 128.41933 264.93103 127.82037 curveto
264.25069 127.20189 263.91052 126.42226 263.91052 125.48151 curveto
263.91052 124.43984 264.24744 123.55606 264.92126 122.83014 curveto
265.61462 122.08796 266.48051 121.71686 267.51892 121.71686 curveto
268.19925 121.71686 268.80961 121.84219 269.34998 122.09283 curveto
269.5225 122.17097 269.63317 122.21003 269.68201 122.21002 curveto
269.7471 122.21003 269.79593 122.18561 269.82849 122.13678 curveto
269.97986 122.14655 lineto
270.04822 123.62115 lineto
269.86755 123.62115 lineto
269.72757 123.10033 269.43461 122.69017 268.98865 122.39069 curveto
268.56547 122.10423 268.07556 121.96101 267.51892 121.961 curveto
266.69861 121.96101 266.03454 122.29629 265.52673 122.96686 curveto
265.06449 123.57884 264.83337 124.30801 264.83337 125.15436 curveto
264.83337 126.03652 265.0824 126.79824 265.58044 127.43951 curveto
266.12081 128.13613 266.82068 128.48444 267.68005 128.48444 curveto
268.15856 128.48444 268.6208 128.32819 269.06677 128.01569 curveto
269.50296 127.7097 269.81384 127.33209 269.99939 126.88287 curveto
270.19958 126.94147 lineto
fill
grestore
gsave
0 0 0 setrgbcolor
newpath
276.6861 131.25343 moveto
276.68609 131.3091 276.55719 131.72658 276.29938 132.50587 curveto
272.62115 132.50587 lineto
272.53766 132.2466 lineto
274.49469 130.6675 275.4732 129.23195 275.47321 127.93996 curveto
275.4732 127.1841 275.13043 126.80617 274.44489 126.80617 curveto
273.68317 126.80617 273.10309 127.16506 272.70465 127.88283 curveto
272.51129 127.79933 lineto
272.66949 127.36281 272.93903 126.99514 273.31989 126.6963 curveto
273.72125 126.3799 274.14606 126.2217 274.5943 126.22169 curveto
275.00738 126.2217 275.35455 126.34768 275.6358 126.59962 curveto
275.92877 126.8633 276.07525 127.19875 276.07526 127.60597 curveto
276.07525 128.90969 275.19195 130.3467 273.42535 131.91701 curveto
275.82916 131.91701 lineto
275.99029 131.91701 276.1441 131.7925 276.29059 131.54347 curveto
276.43707 131.29445 276.50445 131.16994 276.49274 131.16994 curveto
276.51617 131.16994 276.54986 131.18312 276.59381 131.20949 curveto
276.63775 131.23293 276.66851 131.24758 276.6861 131.25343 curveto
fill
grestore
grestore
0 0 0 setrgbcolor
[] 0 setdash
0.65282232 setlinewidth
0 setlinejoin
0 setlinecap
newpath
266.6492 129.61469 moveto
266.6492 140.31201 lineto
stroke
gsave [-1.5989007e-17 -0.26112893 0.26112893 -1.5989007e-17 266.6492 137.70072] concat
gsave
0 0 0 setrgbcolor
newpath
0 0 moveto
5 -5 lineto
-12.5 0 lineto
5 5 lineto
0 0 lineto
closepath
eofill
grestore
0 0 0 setrgbcolor
[] 0 setdash
1.25 setlinewidth
0 setlinejoin
0 setlinecap
newpath
0 0 moveto
5 -5 lineto
-12.5 0 lineto
5 5 lineto
0 0 lineto
closepath
stroke
grestore
gsave [1 0 0 1 -15.09668 -10.4115] concat
gsave
0 0 0 setrgbcolor
newpath
299.07083 149.99416 moveto
299.07083 150.04982 298.94192 150.4673 298.68411 151.2466 curveto
295.00589 151.2466 lineto
294.92239 150.98732 lineto
296.87942 149.40822 297.85794 147.97267 297.85794 146.68068 curveto
297.85794 145.92483 297.51516 145.5469 296.82962 145.54689 curveto
296.0679 145.5469 295.48782 145.90578 295.08939 146.62355 curveto
294.89603 146.54005 lineto
295.05423 146.10354 295.32376 145.73586 295.70462 145.43703 curveto
296.10599 145.12063 296.53079 144.96242 296.97903 144.96242 curveto
297.39212 144.96242 297.73929 145.0884 298.02054 145.34035 curveto
298.3135 145.60402 298.45999 145.93947 298.45999 146.34669 curveto
298.45999 147.65041 297.57669 149.08742 295.81009 150.65773 curveto
298.2139 150.65773 lineto
298.37503 150.65773 298.52884 150.53322 298.67532 150.28419 curveto
298.8218 150.03517 298.88919 149.91066 298.87747 149.91066 curveto
298.90091 149.91066 298.9346 149.92384 298.97855 149.95021 curveto
299.02249 149.97365 299.05325 149.9883 299.07083 149.99416 curveto
fill
grestore
gsave
0 0 0 setrgbcolor
newpath
292.48181 139.27814 moveto
291.81124 139.27814 291.47595 139.55646 291.47595 140.1131 curveto
291.47595 145.03009 lineto
291.47595 145.36538 291.56384 145.59487 291.73962 145.71857 curveto
291.88285 145.81948 292.12862 145.86831 292.47693 145.86505 curveto
292.47693 146.03595 lineto
289.63025 146.03595 lineto
289.63025 145.86505 lineto
290.32035 145.86505 290.6654 145.58673 290.66541 145.03009 curveto
290.66541 140.1131 lineto
290.6654 139.77782 290.57914 139.54833 290.40662 139.42462 curveto
290.26339 139.32372 290.01599 139.27489 289.66443 139.27814 curveto
289.66443 139.10724 lineto
292.48181 139.10724 lineto
292.48181 139.27814 lineto
fill
grestore
grestore
0 0 0 setrgbcolor
[] 0 setdash
0.35433072 setlinewidth
0 setlinejoin
0 setlinecap
newpath
201.98316 46.090397 moveto
201.98316 155.93176 lineto
201.98316 155.93176 lineto
stroke
gsave
1 1 1 setrgbcolor
newpath
185.0108 82.010071 moveto
217.39376 82.010071 lineto
217.79663 82.010071 218.12097 82.334409 218.12097 82.737287 curveto
218.12097 115.12024 lineto
218.12097 115.52312 217.79663 115.84746 217.39376 115.84746 curveto
185.0108 115.84746 lineto
184.60792 115.84746 184.28358 115.52312 184.28358 115.12024 curveto
184.28358 82.737287 lineto
184.28358 82.334409 184.60792 82.010071 185.0108 82.010071 curveto
closepath
eofill
grestore
0 0 0 setrgbcolor
[] 0 setdash
0.35433072 setlinewidth
0 setlinejoin
1 setlinecap
newpath
185.0108 82.010071 moveto
217.39376 82.010071 lineto
217.79663 82.010071 218.12097 82.334409 218.12097 82.737287 curveto
218.12097 115.12024 lineto
218.12097 115.52312 217.79663 115.84746 217.39376 115.84746 curveto
185.0108 115.84746 lineto
184.60792 115.84746 184.28358 115.52312 184.28358 115.12024 curveto
184.28358 82.737287 lineto
184.28358 82.334409 184.60792 82.010071 185.0108 82.010071 curveto
closepath
stroke
gsave [1 0 0 1 -65.07189 23.9465] concat
gsave
0 0 0 setrgbcolor
newpath
266.76218 75.075813 moveto
266.54733 75.697559 266.23645 76.210254 265.82956 76.613899 curveto
264.83346 76.773404 264.19381 76.853157 263.91061 76.853157 curveto
262.96009 76.853157 262.15443 76.553678 261.49362 75.95472 curveto
260.81328 75.336231 260.47311 74.55661 260.47311 73.615852 curveto
260.47311 72.57419 260.81003 71.690402 261.48386 70.964485 curveto
262.17721 70.222304 263.0431 69.851211 264.08151 69.851204 curveto
264.76185 69.851211 265.3722 69.976536 265.91257 70.22718 curveto
266.08509 70.305312 266.19576 70.344374 266.2446 70.344368 curveto
266.3097 70.344374 266.35852 70.31996 266.39108 70.271126 curveto
266.54245 70.280891 lineto
266.61081 71.755501 lineto
266.43015 71.755501 lineto
266.29017 71.234673 265.9972 70.824517 265.55124 70.525032 curveto
265.12806 70.23858 264.63815 70.095351 264.08151 70.095345 curveto
263.2612 70.095351 262.59714 70.430637 262.08932 71.101204 curveto
261.62708 71.713188 261.39596 72.442354 261.39597 73.288704 curveto
261.39596 74.170868 261.64499 74.932586 262.14304 75.57386 curveto
262.6834 76.270475 263.38327 76.618782 264.24265 76.618782 curveto
264.72116 76.618782 265.1834 76.462532 265.62936 76.150032 curveto
266.06556 75.844043 266.37643 75.46644 266.56198 75.01722 curveto
266.76218 75.075813 lineto
fill
grestore
gsave
0 0 0 setrgbcolor
newpath
271.29544 80.964539 moveto
268.73343 80.964539 lineto
268.73343 80.81073 lineto
269.35452 80.81073 269.66507 80.560242 269.66507 80.059265 curveto
269.66507 75.41864 lineto
269.50687 75.512396 269.35013 75.606145 269.19485 75.69989 curveto
269.00735 75.805364 268.84183 75.877141 268.69827 75.915222 curveto
268.61478 75.721863 lineto
269.20364 75.4289 269.70901 75.071478 270.13089 74.649597 curveto
270.39456 74.649597 lineto
270.39456 80.059265 lineto
270.39456 80.361024 270.4722 80.566101 270.62747 80.6745 curveto
270.75345 80.76532 270.9761 80.81073 271.29544 80.81073 curveto
271.29544 80.964539 lineto
fill
grestore
grestore
gsave [-1 0 0 1 272.9065 -1.041151] concat
0 0 0 setrgbcolor
[] 0 setdash
0.35433072 setlinewidth
0 setlinejoin
0 setlinecap
newpath
95.78583 65.351676 moveto
95.78583 139.79392 95.78583 140.3145 95.78583 140.3145 curveto
stroke
gsave [2.1695782e-17 0.35433072 -0.35433072 2.1695782e-17 95.78583 65.351676] concat
1 1 1 setrgbcolor
[] 0 setdash
1.15 setlinewidth
0 setlinejoin
2 setlinecap
newpath
0 0 moveto
2 0 lineto
stroke
gsave
0 0 0 setrgbcolor
newpath
0 0 moveto
13 4 lineto
9 0 lineto
13 -4 lineto
0 0 lineto
closepath
eofill
grestore
0 0 0 setrgbcolor
[] 0 setdash
1 setlinewidth
0 setlinejoin
2 setlinecap
newpath
0 -4 moveto
0 40 lineto
stroke
grestore
gsave [2.1695782e-17 0.35433072 -0.35433072 2.1695782e-17 95.78583 140.3145] concat
1 1 1 setrgbcolor
[] 0 setdash
1.15 setlinewidth
0 setlinejoin
2 setlinecap
newpath
0 0 moveto
-2 0 lineto
stroke
gsave
0 0 0 setrgbcolor
newpath
0 0 moveto
-13 4 lineto
-9 0 lineto
-13 -4 lineto
0 0 lineto
closepath
eofill
grestore
0 0 0 setrgbcolor
[] 0 setdash
1 setlinewidth
0 setlinejoin
2 setlinecap
newpath
0 -4 moveto
0 40 lineto
stroke
grestore
gsave
0 0 0 setrgbcolor
newpath
106.61736 99.04248 moveto
106.61247 99.291504 lineto
106.60271 99.30127 lineto
106.24463 99.356615 106.03141 99.402188 105.96306 99.437988 curveto
105.79704 99.525885 105.71403 99.714687 105.71404 100.00439 curveto
105.71404 103.8667 lineto
105.71403 104.55029 105.41618 105.09554 104.82048 105.50244 curveto
104.29313 105.86051 103.67139 106.03955 102.95525 106.03955 curveto
102.14795 106.03955 101.47901 105.81006 100.94841 105.35107 curveto
100.38851 104.8693 100.10857 104.23128 100.10857 103.43701 curveto
100.10857 99.760254 lineto
100.10857 99.421719 99.843266 99.258959 99.312668 99.271973 curveto
99.376144 99.032715 lineto
101.76384 99.032715 lineto
101.73454 99.271973 lineto
101.16162 99.324063 100.87517 99.507982 100.87517 99.82373 curveto
100.87517 103.62256 lineto
100.87517 104.11084 101.15186 104.56169 101.70525 104.9751 curveto
102.21957 105.35921 102.72901 105.55127 103.23357 105.55127 curveto
103.78695 105.55127 104.2557 105.39502 104.63982 105.08252 curveto
105.04997 104.74723 105.25504 104.31104 105.25505 103.77393 curveto
105.25505 100.18994 lineto
105.25504 99.568203 104.97998 99.262214 104.42986 99.271973 curveto
104.36638 99.032715 lineto
106.61736 99.04248 lineto
fill
grestore
grestore
gsave [-1 0 0 1 338.499 -0.520576] concat
0 0 0 setrgbcolor
[] 0 setdash
0.35433072 setlinewidth
0 setlinejoin
0 setlinecap
newpath
95.78583 65.351676 moveto
95.78583 139.79392 95.78583 140.3145 95.78583 140.3145 curveto
stroke
gsave [2.1695782e-17 0.35433072 -0.35433072 2.1695782e-17 95.78583 65.351676] concat
1 1 1 setrgbcolor
[] 0 setdash
1.15 setlinewidth
0 setlinejoin
2 setlinecap
newpath
0 0 moveto
2 0 lineto
stroke
gsave
0 0 0 setrgbcolor
newpath
0 0 moveto
13 4 lineto
9 0 lineto
13 -4 lineto
0 0 lineto
closepath
eofill
grestore
0 0 0 setrgbcolor
[] 0 setdash
1 setlinewidth
0 setlinejoin
2 setlinecap
newpath
0 -4 moveto
0 40 lineto
stroke
grestore
gsave [2.1695782e-17 0.35433072 -0.35433072 2.1695782e-17 95.78583 140.3145] concat
1 1 1 setrgbcolor
[] 0 setdash
1.15 setlinewidth
0 setlinejoin
2 setlinecap
newpath
0 0 moveto
-2 0 lineto
stroke
gsave
0 0 0 setrgbcolor
newpath
0 0 moveto
-13 4 lineto
-9 0 lineto
-13 -4 lineto
0 0 lineto
closepath
eofill
grestore
0 0 0 setrgbcolor
[] 0 setdash
1 setlinewidth
0 setlinejoin
2 setlinecap
newpath
0 -4 moveto
0 40 lineto
stroke
grestore
gsave
0 0 0 setrgbcolor
newpath
106.61736 99.04248 moveto
106.61247 99.291504 lineto
106.60271 99.30127 lineto
106.24463 99.356615 106.03141 99.402188 105.96306 99.437988 curveto
105.79704 99.525885 105.71403 99.714687 105.71404 100.00439 curveto
105.71404 103.8667 lineto
105.71403 104.55029 105.41618 105.09554 104.82048 105.50244 curveto
104.29313 105.86051 103.67139 106.03955 102.95525 106.03955 curveto
102.14795 106.03955 101.47901 105.81006 100.94841 105.35107 curveto
100.38851 104.8693 100.10857 104.23128 100.10857 103.43701 curveto
100.10857 99.760254 lineto
100.10857 99.421719 99.843266 99.258959 99.312668 99.271973 curveto
99.376144 99.032715 lineto
101.76384 99.032715 lineto
101.73454 99.271973 lineto
101.16162 99.324063 100.87517 99.507982 100.87517 99.82373 curveto
100.87517 103.62256 lineto
100.87517 104.11084 101.15186 104.56169 101.70525 104.9751 curveto
102.21957 105.35921 102.72901 105.55127 103.23357 105.55127 curveto
103.78695 105.55127 104.2557 105.39502 104.63982 105.08252 curveto
105.04997 104.74723 105.25504 104.31104 105.25505 103.77393 curveto
105.25505 100.18994 lineto
105.25504 99.568203 104.97998 99.262214 104.42986 99.271973 curveto
104.36638 99.032715 lineto
106.61736 99.04248 lineto
fill
grestore
grestore
0 0 0 setrgbcolor
[] 0 setdash
0.65282232 setlinewidth
0 setlinejoin
0 setlinecap
newpath
266.6492 54.651869 moveto
266.6492 65.349189 lineto
stroke
gsave [-1.5989007e-17 -0.26112893 0.26112893 -1.5989007e-17 266.6492 62.7379] concat
gsave
0 0 0 setrgbcolor
newpath
0 0 moveto
5 -5 lineto
-12.5 0 lineto
5 5 lineto
0 0 lineto
closepath
eofill
grestore
0 0 0 setrgbcolor
[] 0 setdash
1.25 setlinewidth
0 setlinejoin
0 setlinecap
newpath
0 0 moveto
5 -5 lineto
-12.5 0 lineto
5 5 lineto
0 0 lineto
closepath
stroke
grestore
0 0 0 setrgbcolor
[] 0 setdash
0.65282232 setlinewidth
0 setlinejoin
0 setlinecap
newpath
202.09788 128.57354 moveto
202.09788 139.27086 lineto
stroke
gsave [-1.5989007e-17 -0.26112893 0.26112893 -1.5989007e-17 202.09788 136.65957] concat
gsave
0 0 0 setrgbcolor
newpath
0 0 moveto
5 -5 lineto
-12.5 0 lineto
5 5 lineto
0 0 lineto
closepath
eofill
grestore
0 0 0 setrgbcolor
[] 0 setdash
1.25 setlinewidth
0 setlinejoin
0 setlinecap
newpath
0 0 moveto
5 -5 lineto
-12.5 0 lineto
5 5 lineto
0 0 lineto
closepath
stroke
grestore
0 0 0 setrgbcolor
[] 0 setdash
0.65282232 setlinewidth
0 setlinejoin
0 setlinecap
newpath
202.09788 53.610718 moveto
202.09788 64.308038 lineto
stroke
gsave [-1.5989007e-17 -0.26112893 0.26112893 -1.5989007e-17 202.09788 61.696749] concat
gsave
0 0 0 setrgbcolor
newpath
0 0 moveto
5 -5 lineto
-12.5 0 lineto
5 5 lineto
0 0 lineto
closepath
eofill
grestore
0 0 0 setrgbcolor
[] 0 setdash
1.25 setlinewidth
0 setlinejoin
0 setlinecap
newpath
0 0 moveto
5 -5 lineto
-12.5 0 lineto
5 5 lineto
0 0 lineto
closepath
stroke
grestore
gsave
0 0 0 setrgbcolor
newpath
220.27905 68.991318 moveto
217.71704 68.991318 lineto
217.71704 68.837509 lineto
218.33813 68.837509 218.64868 68.587021 218.64868 68.086044 curveto
218.64868 63.445419 lineto
218.49048 63.539175 218.33374 63.632925 218.17847 63.726669 curveto
217.99097 63.832143 217.82544 63.90392 217.68188 63.942001 curveto
217.59839 63.748642 lineto
218.18725 63.455679 218.69263 63.098257 219.1145 62.676376 curveto
219.37817 62.676376 lineto
219.37817 68.086044 lineto
219.37817 68.387803 219.45581 68.592881 219.61108 68.701279 curveto
219.73706 68.792099 219.95971 68.837509 220.27905 68.837509 curveto
220.27905 68.991318 lineto
fill
grestore
gsave
0 0 0 setrgbcolor
newpath
214.91611 56.506687 moveto
214.24553 56.506694 213.91025 56.785014 213.91025 57.341648 curveto
213.91025 62.25864 lineto
213.91025 62.593927 213.99814 62.823419 214.17392 62.947117 curveto
214.31715 63.048029 214.56291 63.096857 214.91122 63.093601 curveto
214.91122 63.2645 lineto
212.06454 63.2645 lineto
212.06454 63.093601 lineto
212.75465 63.093601 213.0997 62.815281 213.0997 62.25864 curveto
213.0997 57.341648 lineto
213.0997 57.006368 213.01344 56.776876 212.84091 56.653172 curveto
212.69768 56.552267 212.45029 56.503439 212.09872 56.506687 curveto
212.09872 56.335789 lineto
214.91611 56.335789 lineto
214.91611 56.506687 lineto
fill
grestore
gsave [1 0 0 1 -0.520575 72.35995] concat
gsave
0 0 0 setrgbcolor
newpath
220.27905 68.991318 moveto
217.71704 68.991318 lineto
217.71704 68.837509 lineto
218.33813 68.837509 218.64868 68.587021 218.64868 68.086044 curveto
218.64868 63.445419 lineto
218.49048 63.539175 218.33374 63.632925 218.17847 63.726669 curveto
217.99097 63.832143 217.82544 63.90392 217.68188 63.942001 curveto
217.59839 63.748642 lineto
218.18725 63.455679 218.69263 63.098257 219.1145 62.676376 curveto
219.37817 62.676376 lineto
219.37817 68.086044 lineto
219.37817 68.387803 219.45581 68.592881 219.61108 68.701279 curveto
219.73706 68.792099 219.95971 68.837509 220.27905 68.837509 curveto
220.27905 68.991318 lineto
fill
grestore
gsave
0 0 0 setrgbcolor
newpath
214.91611 56.506687 moveto
214.24553 56.506694 213.91025 56.785014 213.91025 57.341648 curveto
213.91025 62.25864 lineto
213.91025 62.593927 213.99814 62.823419 214.17392 62.947117 curveto
214.31715 63.048029 214.56291 63.096857 214.91122 63.093601 curveto
214.91122 63.2645 lineto
212.06454 63.2645 lineto
212.06454 63.093601 lineto
212.75465 63.093601 213.0997 62.815281 213.0997 62.25864 curveto
213.0997 57.341648 lineto
213.0997 57.006368 213.01344 56.776876 212.84091 56.653172 curveto
212.69768 56.552267 212.45029 56.503439 212.09872 56.506687 curveto
212.09872 56.335789 lineto
214.91611 56.335789 lineto
214.91611 56.506687 lineto
fill
grestore
grestore
gsave [1 0 0 1 -16.13783 -84.85375] concat
gsave
0 0 0 setrgbcolor
newpath
299.07083 149.99416 moveto
299.07083 150.04982 298.94192 150.4673 298.68411 151.2466 curveto
295.00589 151.2466 lineto
294.92239 150.98732 lineto
296.87942 149.40822 297.85794 147.97267 297.85794 146.68068 curveto
297.85794 145.92483 297.51516 145.5469 296.82962 145.54689 curveto
296.0679 145.5469 295.48782 145.90578 295.08939 146.62355 curveto
294.89603 146.54005 lineto
295.05423 146.10354 295.32376 145.73586 295.70462 145.43703 curveto
296.10599 145.12063 296.53079 144.96242 296.97903 144.96242 curveto
297.39212 144.96242 297.73929 145.0884 298.02054 145.34035 curveto
298.3135 145.60402 298.45999 145.93947 298.45999 146.34669 curveto
298.45999 147.65041 297.57669 149.08742 295.81009 150.65773 curveto
298.2139 150.65773 lineto
298.37503 150.65773 298.52884 150.53322 298.67532 150.28419 curveto
298.8218 150.03517 298.88919 149.91066 298.87747 149.91066 curveto
298.90091 149.91066 298.9346 149.92384 298.97855 149.95021 curveto
299.02249 149.97365 299.05325 149.9883 299.07083 149.99416 curveto
fill
grestore
gsave
0 0 0 setrgbcolor
newpath
292.48181 139.27814 moveto
291.81124 139.27814 291.47595 139.55646 291.47595 140.1131 curveto
291.47595 145.03009 lineto
291.47595 145.36538 291.56384 145.59487 291.73962 145.71857 curveto
291.88285 145.81948 292.12862 145.86831 292.47693 145.86505 curveto
292.47693 146.03595 lineto
289.63025 146.03595 lineto
289.63025 145.86505 lineto
290.32035 145.86505 290.6654 145.58673 290.66541 145.03009 curveto
290.66541 140.1131 lineto
290.6654 139.77782 290.57914 139.54833 290.40662 139.42462 curveto
290.26339 139.32372 290.01599 139.27489 289.66443 139.27814 curveto
289.66443 139.10724 lineto
292.48181 139.10724 lineto
292.48181 139.27814 lineto
fill
grestore
grestore
grestore
showpage
%%EOF
