%!PS-Adobe-3.0 EPSF-3.0
%%Creator: inkscape 0.44.1
%%Pages: 1
%%Orientation: Portrait
%%BoundingBox: 37 714 227 808
%%HiResBoundingBox: 37.756139 714.92788 226.69603 807.23389
%%DocumentMedia: plain 596 842 0 () ()
%%EndComments
%%Page: 1 1
0 842 translate
0.8 -0.8 scale
gsave [1 0 0 1 0 0] concat
0 0 0 setrgbcolor
[] 0 setdash
0.35433072 setlinewidth
0 setlinejoin
1 setlinecap
newpath
47.381882 100.67336 moveto
47.711977 90.333763 56.371441 82.210105 66.711042 82.5402 curveto
77.050644 82.870295 85.174302 91.529758 84.844207 101.86936 curveto
84.514112 112.20896 75.854649 120.33262 65.515047 120.00252 curveto
55.385519 119.67914 47.372339 111.40605 47.372339 101.27136 curveto
stroke
0 0 0 setrgbcolor
[] 0 setdash
0.35433072 setlinewidth
0 setlinejoin
0 setlinecap
newpath
66.633621 120.01207 moveto
66.633621 156.45233 lineto
266.53448 156.45233 lineto
266.53448 118.45034 lineto
266.53448 84.092382 lineto
266.53448 46.090395 lineto
66.633621 46.090395 lineto
66.633621 82.530656 lineto
stroke
gsave
0 0 0 setrgbcolor
newpath
68.755085 102.34514 moveto
68.556511 102.34189 68.39375 102.39397 68.266804 102.50139 curveto
68.130079 102.61532 68.06172 102.76832 68.061726 102.96037 curveto
68.061726 104.8549 lineto
67.215366 105.2911 66.320185 105.5092 65.376179 105.5092 curveto
64.41589 105.5092 63.618365 105.20647 62.983601 104.601 curveto
62.335814 103.98577 62.011921 103.20126 62.011921 102.24748 curveto
62.011921 101.15048 62.330931 100.24716 62.968952 99.537521 curveto
63.629758 98.801851 64.502153 98.434013 65.58614 98.434006 curveto
66.152542 98.434013 66.671747 98.521903 67.143757 98.697678 curveto
67.339064 98.772554 67.503452 98.809989 67.636921 98.809982 curveto
67.744337 98.809989 67.8306 98.78232 67.89571 98.726974 curveto
67.983601 98.726974 lineto
68.130085 100.52385 lineto
67.944538 100.52385 lineto
67.856642 99.937917 67.607618 99.480561 67.197468 99.151779 curveto
66.797072 98.832775 66.295771 98.67327 65.693562 98.673264 curveto
64.798376 98.67327 64.100135 99.03297 63.598835 99.752365 curveto
63.156125 100.38388 62.934772 101.16676 62.934772 102.101 curveto
62.934772 102.94084 63.164263 103.66187 63.623249 104.26408 curveto
64.127804 104.91838 64.788611 105.24553 65.605671 105.24553 curveto
66.351109 105.24553 66.904494 105.09416 67.265827 104.79143 curveto
67.265827 103.02873 lineto
67.265822 102.57301 66.967971 102.34514 66.372272 102.34514 curveto
66.372272 102.14983 lineto
68.755085 102.14983 lineto
68.755085 102.34514 lineto
fill
grestore
gsave
1 1 1 setrgbcolor
newpath
249.04155 55.981319 moveto
281.4245 55.981319 lineto
281.82738 55.981319 282.15172 56.305658 282.15172 56.708536 curveto
282.15172 89.09149 lineto
282.15172 89.494368 281.82738 89.818707 281.4245 89.818707 curveto
249.04155 89.818707 lineto
248.63867 89.818707 248.31433 89.494368 248.31433 89.09149 curveto
248.31433 56.708536 lineto
248.31433 56.305658 248.63867 55.981319 249.04155 55.981319 curveto
closepath
eofill
grestore
0 0 0 setrgbcolor
[] 0 setdash
0.35433072 setlinewidth
0 setlinejoin
1 setlinecap
newpath
249.04155 55.981319 moveto
281.4245 55.981319 lineto
281.82738 55.981319 282.15172 56.305658 282.15172 56.708536 curveto
282.15172 89.09149 lineto
282.15172 89.494368 281.82738 89.818707 281.4245 89.818707 curveto
249.04155 89.818707 lineto
248.63867 89.818707 248.31433 89.494368 248.31433 89.09149 curveto
248.31433 56.708536 lineto
248.31433 56.305658 248.63867 55.981319 249.04155 55.981319 curveto
closepath
stroke
gsave
0 0 0 setrgbcolor
newpath
266.76218 75.075813 moveto
266.54733 75.697559 266.23645 76.210254 265.82956 76.613899 curveto
264.83346 76.773404 264.19381 76.853157 263.91061 76.853157 curveto
262.96009 76.853157 262.15443 76.553678 261.49362 75.95472 curveto
260.81328 75.336231 260.47311 74.55661 260.47311 73.615852 curveto
260.47311 72.57419 260.81003 71.690402 261.48386 70.964485 curveto
262.17721 70.222304 263.0431 69.851211 264.08151 69.851204 curveto
264.76185 69.851211 265.3722 69.976536 265.91257 70.22718 curveto
266.08509 70.305312 266.19576 70.344374 266.2446 70.344368 curveto
266.3097 70.344374 266.35852 70.31996 266.39108 70.271126 curveto
266.54245 70.280891 lineto
266.61081 71.755501 lineto
266.43015 71.755501 lineto
266.29017 71.234673 265.9972 70.824517 265.55124 70.525032 curveto
265.12806 70.23858 264.63815 70.095351 264.08151 70.095345 curveto
263.2612 70.095351 262.59714 70.430637 262.08932 71.101204 curveto
261.62708 71.713188 261.39596 72.442354 261.39597 73.288704 curveto
261.39596 74.170868 261.64499 74.932586 262.14304 75.57386 curveto
262.6834 76.270475 263.38327 76.618782 264.24265 76.618782 curveto
264.72116 76.618782 265.1834 76.462532 265.62936 76.150032 curveto
266.06556 75.844043 266.37643 75.46644 266.56198 75.01722 curveto
266.76218 75.075813 lineto
fill
grestore
0 0 0 setrgbcolor
[] 0 setdash
0.35433072 setlinewidth
0 setlinejoin
0 setlinecap
newpath
95.78583 65.351676 moveto
95.78583 139.79392 95.78583 140.3145 95.78583 140.3145 curveto
stroke
gsave [2.1695782e-17 0.35433072 -0.35433072 2.1695782e-17 95.78583 65.351676] concat
1 1 1 setrgbcolor
[] 0 setdash
1.15 setlinewidth
0 setlinejoin
2 setlinecap
newpath
0 0 moveto
2 0 lineto
stroke
gsave
0 0 0 setrgbcolor
newpath
0 0 moveto
13 4 lineto
9 0 lineto
13 -4 lineto
0 0 lineto
closepath
eofill
grestore
0 0 0 setrgbcolor
[] 0 setdash
1 setlinewidth
0 setlinejoin
2 setlinecap
newpath
0 -4 moveto
0 40 lineto
stroke
grestore
gsave [2.1695782e-17 0.35433072 -0.35433072 2.1695782e-17 95.78583 140.3145] concat
1 1 1 setrgbcolor
[] 0 setdash
1.15 setlinewidth
0 setlinejoin
2 setlinecap
newpath
0 0 moveto
-2 0 lineto
stroke
gsave
0 0 0 setrgbcolor
newpath
0 0 moveto
-13 4 lineto
-9 0 lineto
-13 -4 lineto
0 0 lineto
closepath
eofill
grestore
0 0 0 setrgbcolor
[] 0 setdash
1 setlinewidth
0 setlinejoin
2 setlinecap
newpath
0 -4 moveto
0 40 lineto
stroke
grestore
gsave
0 0 0 setrgbcolor
newpath
106.61736 99.04248 moveto
106.61247 99.291504 lineto
106.60271 99.30127 lineto
106.24463 99.356615 106.03141 99.402188 105.96306 99.437988 curveto
105.79704 99.525885 105.71403 99.714687 105.71404 100.00439 curveto
105.71404 103.8667 lineto
105.71403 104.55029 105.41618 105.09554 104.82048 105.50244 curveto
104.29313 105.86051 103.67139 106.03955 102.95525 106.03955 curveto
102.14795 106.03955 101.47901 105.81006 100.94841 105.35107 curveto
100.38851 104.8693 100.10857 104.23128 100.10857 103.43701 curveto
100.10857 99.760254 lineto
100.10857 99.421719 99.843266 99.258959 99.312668 99.271973 curveto
99.376144 99.032715 lineto
101.76384 99.032715 lineto
101.73454 99.271973 lineto
101.16162 99.324063 100.87517 99.507982 100.87517 99.82373 curveto
100.87517 103.62256 lineto
100.87517 104.11084 101.15186 104.56169 101.70525 104.9751 curveto
102.21957 105.35921 102.72901 105.55127 103.23357 105.55127 curveto
103.78695 105.55127 104.2557 105.39502 104.63982 105.08252 curveto
105.04997 104.74723 105.25504 104.31104 105.25505 103.77393 curveto
105.25505 100.18994 lineto
105.25504 99.568203 104.97998 99.262214 104.42986 99.271973 curveto
104.36638 99.032715 lineto
106.61736 99.04248 lineto
fill
grestore
0 0 0 setrgbcolor
[] 0 setdash
0.50236422 setlinewidth
0 setlinejoin
0 setlinecap
newpath
204.78494 152.20238 moveto
204.78494 50.530768 204.78494 49.819771 204.78494 49.819771 curveto
stroke
gsave [3.0759921e-17 -0.50236422 0.50236422 3.0759921e-17 204.78494 152.20238] concat
1 1 1 setrgbcolor
[] 0 setdash
1.15 setlinewidth
0 setlinejoin
2 setlinecap
newpath
0 0 moveto
2 0 lineto
stroke
gsave
0 0 0 setrgbcolor
newpath
0 0 moveto
13 4 lineto
9 0 lineto
13 -4 lineto
0 0 lineto
closepath
eofill
grestore
0 0 0 setrgbcolor
[] 0 setdash
1 setlinewidth
0 setlinejoin
2 setlinecap
newpath
0 -4 moveto
0 40 lineto
stroke
grestore
gsave [3.0759921e-17 -0.50236422 0.50236422 3.0759921e-17 204.78494 49.819771] concat
1 1 1 setrgbcolor
[] 0 setdash
1.15 setlinewidth
0 setlinejoin
2 setlinecap
newpath
0 0 moveto
-2 0 lineto
stroke
gsave
0 0 0 setrgbcolor
newpath
0 0 moveto
-13 4 lineto
-9 0 lineto
-13 -4 lineto
0 0 lineto
closepath
eofill
grestore
0 0 0 setrgbcolor
[] 0 setdash
1 setlinewidth
0 setlinejoin
2 setlinecap
newpath
0 -4 moveto
0 40 lineto
stroke
grestore
gsave
0 0 0 setrgbcolor
newpath
215.41757 95.919029 moveto
215.41269 96.168053 lineto
215.40292 96.177818 lineto
215.04484 96.233163 214.83163 96.278736 214.76328 96.314537 curveto
214.59725 96.402434 214.51425 96.591236 214.51425 96.880943 curveto
214.51425 100.74325 lineto
214.51425 101.42684 214.21639 101.97209 213.6207 102.37899 curveto
213.09335 102.73706 212.4716 102.9161 211.75546 102.9161 curveto
210.94817 102.9161 210.27922 102.68661 209.74863 102.22762 curveto
209.18873 101.74585 208.90878 101.10783 208.90878 100.31356 curveto
208.90878 96.636803 lineto
208.90878 96.298268 208.64348 96.135507 208.11288 96.148521 curveto
208.17636 95.909264 lineto
210.56406 95.909264 lineto
210.53476 96.148521 lineto
209.96184 96.200611 209.67538 96.38453 209.67538 96.700279 curveto
209.67538 100.49911 lineto
209.67538 100.98739 209.95208 101.43824 210.50546 101.85165 curveto
211.01978 102.23576 211.52922 102.42782 212.03378 102.42782 curveto
212.58716 102.42782 213.05591 102.27157 213.44003 101.95907 curveto
213.85018 101.62378 214.05526 101.18759 214.05527 100.65047 curveto
214.05527 97.06649 lineto
214.05526 96.444752 213.7802 96.138762 213.23007 96.148521 curveto
213.1666 95.909264 lineto
215.41757 95.919029 lineto
fill
grestore
0 0 0 setrgbcolor
[] 0 setdash
1 setlinewidth
0 setlinejoin
0 setlinecap
newpath
135.34954 45.56982 moveto
162.94003 45.56982 lineto
stroke
gsave [-0.4 0 0 -0.4 158.94003 45.56982] concat
gsave
0 0 0 setrgbcolor
newpath
0 0 moveto
5 -5 lineto
-12.5 0 lineto
5 5 lineto
0 0 lineto
closepath
eofill
grestore
0 0 0 setrgbcolor
[] 0 setdash
1.25 setlinewidth
0 setlinejoin
0 setlinecap
newpath
0 0 moveto
5 -5 lineto
-12.5 0 lineto
5 5 lineto
0 0 lineto
closepath
stroke
grestore
gsave
0 0 0 setrgbcolor
newpath
149.84419 49.739201 moveto
149.17362 49.739207 148.83833 50.017527 148.83833 50.574162 curveto
148.83833 55.491154 lineto
148.83833 55.826441 148.92622 56.055933 149.10201 56.17963 curveto
149.24523 56.280542 149.491 56.32937 149.83931 56.326115 curveto
149.83931 56.497013 lineto
146.99263 56.497013 lineto
146.99263 56.326115 lineto
147.68273 56.326115 148.02779 56.047795 148.02779 55.491154 curveto
148.02779 50.574162 lineto
148.02779 50.238881 147.94152 50.009389 147.769 49.885685 curveto
147.62577 49.78478 147.37837 49.735952 147.02681 49.739201 curveto
147.02681 49.568302 lineto
149.84419 49.568302 lineto
149.84419 49.739201 lineto
fill
grestore
0 0 0 setrgbcolor
[] 0 setdash
1 setlinewidth
0 setlinejoin
0 setlinecap
newpath
166.29291 156.45233 moveto
138.70242 156.45233 lineto
stroke
gsave [0.4 -4.8984254e-17 4.8984254e-17 0.4 142.70242 156.45233] concat
gsave
0 0 0 setrgbcolor
newpath
0 0 moveto
5 -5 lineto
-12.5 0 lineto
5 5 lineto
0 0 lineto
closepath
eofill
grestore
0 0 0 setrgbcolor
[] 0 setdash
1.25 setlinewidth
0 setlinejoin
0 setlinecap
newpath
0 0 moveto
5 -5 lineto
-12.5 0 lineto
5 5 lineto
0 0 lineto
closepath
stroke
grestore
gsave
0 0 0 setrgbcolor
newpath
152.44707 145.00446 moveto
151.77649 145.00446 151.44121 145.28278 151.44121 145.83942 curveto
151.44121 150.75641 lineto
151.44121 151.0917 151.5291 151.32119 151.70488 151.44489 curveto
151.84811 151.5458 152.09387 151.59463 152.44218 151.59137 curveto
152.44218 151.76227 lineto
149.5955 151.76227 lineto
149.5955 151.59137 lineto
150.28561 151.59137 150.63066 151.31305 150.63066 150.75641 curveto
150.63066 145.83942 lineto
150.63066 145.50414 150.5444 145.27464 150.37187 145.15094 curveto
150.22864 145.05004 149.98125 145.00121 149.62968 145.00446 curveto
149.62968 144.83356 lineto
152.44707 144.83356 lineto
152.44707 145.00446 lineto
fill
grestore
gsave
1 1 1 setrgbcolor
newpath
250.0827 109.07999 moveto
282.46565 109.07999 lineto
282.86853 109.07999 283.19287 109.40433 283.19287 109.8072 curveto
283.19287 142.19016 lineto
283.19287 142.59304 282.86853 142.91737 282.46565 142.91737 curveto
250.0827 142.91737 lineto
249.67982 142.91737 249.35548 142.59304 249.35548 142.19016 curveto
249.35548 109.8072 lineto
249.35548 109.40433 249.67982 109.07999 250.0827 109.07999 curveto
closepath
eofill
grestore
0 0 0 setrgbcolor
[] 0 setdash
0.35433072 setlinewidth
0 setlinejoin
1 setlinecap
newpath
250.0827 109.07999 moveto
282.46565 109.07999 lineto
282.86853 109.07999 283.19287 109.40433 283.19287 109.8072 curveto
283.19287 142.19016 lineto
283.19287 142.59304 282.86853 142.91737 282.46565 142.91737 curveto
250.0827 142.91737 lineto
249.67982 142.91737 249.35548 142.59304 249.35548 142.19016 curveto
249.35548 109.8072 lineto
249.35548 109.40433 249.67982 109.07999 250.0827 109.07999 curveto
closepath
stroke
gsave
0 0 0 setrgbcolor
newpath
270.19958 126.94147 moveto
269.98473 127.56321 269.67386 128.07591 269.26697 128.47955 curveto
268.27087 128.63906 267.63122 128.71881 267.34802 128.71881 curveto
266.3975 128.71881 265.59184 128.41933 264.93103 127.82037 curveto
264.25069 127.20189 263.91052 126.42226 263.91052 125.48151 curveto
263.91052 124.43984 264.24744 123.55606 264.92126 122.83014 curveto
265.61462 122.08796 266.48051 121.71686 267.51892 121.71686 curveto
268.19925 121.71686 268.80961 121.84219 269.34998 122.09283 curveto
269.5225 122.17097 269.63317 122.21003 269.68201 122.21002 curveto
269.7471 122.21003 269.79593 122.18561 269.82849 122.13678 curveto
269.97986 122.14655 lineto
270.04822 123.62115 lineto
269.86755 123.62115 lineto
269.72757 123.10033 269.43461 122.69017 268.98865 122.39069 curveto
268.56547 122.10423 268.07556 121.96101 267.51892 121.961 curveto
266.69861 121.96101 266.03454 122.29629 265.52673 122.96686 curveto
265.06449 123.57884 264.83337 124.30801 264.83337 125.15436 curveto
264.83337 126.03652 265.0824 126.79824 265.58044 127.43951 curveto
266.12081 128.13613 266.82068 128.48444 267.68005 128.48444 curveto
268.15856 128.48444 268.6208 128.32819 269.06677 128.01569 curveto
269.50296 127.7097 269.81384 127.33209 269.99939 126.88287 curveto
270.19958 126.94147 lineto
fill
grestore
0 0 0 setrgbcolor
[] 0 setdash
0.33723429 setlinewidth
0 setlinejoin
0 setlinecap
newpath
234.20086 100.24613 moveto
234.20086 50.069391 234.20086 49.718502 234.20086 49.718502 curveto
stroke
gsave [2.0648963e-17 -0.33723429 0.33723429 2.0648963e-17 234.20086 100.24613] concat
1 1 1 setrgbcolor
[] 0 setdash
1.15 setlinewidth
0 setlinejoin
2 setlinecap
newpath
0 0 moveto
2 0 lineto
stroke
gsave
0 0 0 setrgbcolor
newpath
0 0 moveto
13 4 lineto
9 0 lineto
13 -4 lineto
0 0 lineto
closepath
eofill
grestore
0 0 0 setrgbcolor
[] 0 setdash
1 setlinewidth
0 setlinejoin
2 setlinecap
newpath
0 -4 moveto
0 40 lineto
stroke
grestore
gsave [2.0648963e-17 -0.33723429 0.33723429 2.0648963e-17 234.20086 49.718502] concat
1 1 1 setrgbcolor
[] 0 setdash
1.15 setlinewidth
0 setlinejoin
2 setlinecap
newpath
0 0 moveto
-2 0 lineto
stroke
gsave
0 0 0 setrgbcolor
newpath
0 0 moveto
-13 4 lineto
-9 0 lineto
-13 -4 lineto
0 0 lineto
closepath
eofill
grestore
0 0 0 setrgbcolor
[] 0 setdash
1 setlinewidth
0 setlinejoin
2 setlinecap
newpath
0 -4 moveto
0 40 lineto
stroke
grestore
0 0 0 setrgbcolor
[] 0 setdash
0.34232402 setlinewidth
0 setlinejoin
0 setlinecap
newpath
234.20295 152.30031 moveto
234.20295 100.57932 234.20295 100.21764 234.20295 100.21764 curveto
stroke
gsave [2.0960608e-17 -0.34232402 0.34232402 2.0960608e-17 234.20295 152.30031] concat
1 1 1 setrgbcolor
[] 0 setdash
1.15 setlinewidth
0 setlinejoin
2 setlinecap
newpath
0 0 moveto
2 0 lineto
stroke
gsave
0 0 0 setrgbcolor
newpath
0 0 moveto
13 4 lineto
9 0 lineto
13 -4 lineto
0 0 lineto
closepath
eofill
grestore
0 0 0 setrgbcolor
[] 0 setdash
1 setlinewidth
0 setlinejoin
2 setlinecap
newpath
0 -4 moveto
0 40 lineto
stroke
grestore
gsave [2.0960608e-17 -0.34232402 0.34232402 2.0960608e-17 234.20295 100.21764] concat
1 1 1 setrgbcolor
[] 0 setdash
1.15 setlinewidth
0 setlinejoin
2 setlinecap
newpath
0 0 moveto
-2 0 lineto
stroke
gsave
0 0 0 setrgbcolor
newpath
0 0 moveto
-13 4 lineto
-9 0 lineto
-13 -4 lineto
0 0 lineto
closepath
eofill
grestore
0 0 0 setrgbcolor
[] 0 setdash
1 setlinewidth
0 setlinejoin
2 setlinecap
newpath
0 -4 moveto
0 40 lineto
stroke
grestore
gsave
0 0 0 setrgbcolor
newpath
226.34966 70.410843 moveto
226.34477 70.659866 lineto
226.33501 70.669632 lineto
225.97693 70.724977 225.76371 70.77055 225.69536 70.806351 curveto
225.52934 70.894248 225.44633 71.08305 225.44633 71.372757 curveto
225.44633 75.235062 lineto
225.44633 75.918657 225.14848 76.463904 224.55278 76.870804 curveto
224.02543 77.228877 223.40369 77.407913 222.68755 77.407913 curveto
221.88025 77.407913 221.21131 77.178421 220.68071 76.719437 curveto
220.12081 76.237667 219.84087 75.599647 219.84087 74.805374 curveto
219.84087 71.128616 lineto
219.84087 70.790081 219.57557 70.627321 219.04497 70.640335 curveto
219.10844 70.401077 lineto
221.49614 70.401077 lineto
221.46684 70.640335 lineto
220.89392 70.692425 220.60747 70.876344 220.60747 71.192093 curveto
220.60747 74.990921 lineto
220.60747 75.479204 220.88416 75.93005 221.43755 76.34346 curveto
221.95187 76.727575 222.46131 76.919632 222.96587 76.919632 curveto
223.51925 76.919632 223.988 76.763383 224.37212 76.450882 curveto
224.78227 76.115597 224.98734 75.679399 224.98735 75.142288 curveto
224.98735 71.558304 lineto
224.98734 70.936565 224.71228 70.630576 224.16216 70.640335 curveto
224.09868 70.401077 lineto
226.34966 70.410843 lineto
fill
grestore
gsave
0 0 0 setrgbcolor
newpath
226.87022 121.94778 moveto
226.86534 122.19681 lineto
226.85558 122.20657 lineto
226.4975 122.26192 226.28428 122.30749 226.21593 122.34329 curveto
226.04991 122.43119 225.9669 122.61999 225.9669 122.9097 curveto
225.9669 126.772 lineto
225.9669 127.4556 225.66905 128.00085 225.07335 128.40775 curveto
224.546 128.76582 223.92426 128.94485 223.20811 128.94485 curveto
222.40082 128.94485 221.73188 128.71536 221.20128 128.25638 curveto
220.64138 127.77461 220.36143 127.13659 220.36143 126.34232 curveto
220.36143 122.66556 lineto
220.36143 122.32702 220.09614 122.16426 219.56554 122.17728 curveto
219.62901 121.93802 lineto
222.01671 121.93802 lineto
221.98741 122.17728 lineto
221.41449 122.22937 221.12804 122.41329 221.12804 122.72903 curveto
221.12804 126.52786 lineto
221.12804 127.01615 221.40473 127.46699 221.95811 127.8804 curveto
222.47243 128.26452 222.98187 128.45657 223.48643 128.45657 curveto
224.03982 128.45657 224.50857 128.30032 224.89268 127.98782 curveto
225.30284 127.65254 225.50791 127.21634 225.50792 126.67923 curveto
225.50792 123.09525 lineto
225.50791 122.47351 225.23285 122.16752 224.68272 122.17728 curveto
224.61925 121.93802 lineto
226.87022 121.94778 lineto
fill
grestore
gsave
0 0 0 setrgbcolor
newpath
229.64941 80.964539 moveto
227.0874 80.964539 lineto
227.0874 80.81073 lineto
227.70849 80.81073 228.01904 80.560242 228.01904 80.059265 curveto
228.01904 75.41864 lineto
227.86084 75.512396 227.7041 75.606145 227.54883 75.69989 curveto
227.36133 75.805364 227.1958 75.877141 227.05225 75.915222 curveto
226.96875 75.721863 lineto
227.55762 75.4289 228.06299 75.071478 228.48486 74.649597 curveto
228.74854 74.649597 lineto
228.74854 80.059265 lineto
228.74853 80.361024 228.82617 80.566101 228.98145 80.6745 curveto
229.10742 80.76532 229.33008 80.81073 229.64941 80.81073 curveto
229.64941 80.964539 lineto
fill
grestore
gsave
0 0 0 setrgbcolor
newpath
231.91664 131.25343 moveto
231.91664 131.3091 231.78773 131.72658 231.52992 132.50587 curveto
227.8517 132.50587 lineto
227.7682 132.2466 lineto
229.72523 130.6675 230.70375 129.23195 230.70375 127.93996 curveto
230.70375 127.1841 230.36097 126.80617 229.67543 126.80617 curveto
228.91371 126.80617 228.33363 127.16506 227.9352 127.88283 curveto
227.74184 127.79933 lineto
227.90004 127.36281 228.16957 126.99514 228.55043 126.6963 curveto
228.9518 126.3799 229.3766 126.2217 229.82484 126.22169 curveto
230.23793 126.2217 230.5851 126.34768 230.86635 126.59962 curveto
231.15931 126.8633 231.3058 127.19875 231.3058 127.60597 curveto
231.3058 128.90969 230.4225 130.3467 228.6559 131.91701 curveto
231.05971 131.91701 lineto
231.22084 131.91701 231.37465 131.7925 231.52113 131.54347 curveto
231.66761 131.29445 231.735 131.16994 231.72328 131.16994 curveto
231.74672 131.16994 231.78041 131.18312 231.82436 131.20949 curveto
231.8683 131.23293 231.89906 131.24758 231.91664 131.25343 curveto
fill
grestore
gsave
0 0 0 setrgbcolor
newpath
271.29544 80.964539 moveto
268.73343 80.964539 lineto
268.73343 80.81073 lineto
269.35452 80.81073 269.66507 80.560242 269.66507 80.059265 curveto
269.66507 75.41864 lineto
269.50687 75.512396 269.35013 75.606145 269.19485 75.69989 curveto
269.00735 75.805364 268.84183 75.877141 268.69827 75.915222 curveto
268.61478 75.721863 lineto
269.20364 75.4289 269.70901 75.071478 270.13089 74.649597 curveto
270.39456 74.649597 lineto
270.39456 80.059265 lineto
270.39456 80.361024 270.4722 80.566101 270.62747 80.6745 curveto
270.75345 80.76532 270.9761 80.81073 271.29544 80.81073 curveto
271.29544 80.964539 lineto
fill
grestore
gsave
0 0 0 setrgbcolor
newpath
276.6861 131.25343 moveto
276.68609 131.3091 276.55719 131.72658 276.29938 132.50587 curveto
272.62115 132.50587 lineto
272.53766 132.2466 lineto
274.49469 130.6675 275.4732 129.23195 275.47321 127.93996 curveto
275.4732 127.1841 275.13043 126.80617 274.44489 126.80617 curveto
273.68317 126.80617 273.10309 127.16506 272.70465 127.88283 curveto
272.51129 127.79933 lineto
272.66949 127.36281 272.93903 126.99514 273.31989 126.6963 curveto
273.72125 126.3799 274.14606 126.2217 274.5943 126.22169 curveto
275.00738 126.2217 275.35455 126.34768 275.6358 126.59962 curveto
275.92877 126.8633 276.07525 127.19875 276.07526 127.60597 curveto
276.07525 128.90969 275.19195 130.3467 273.42535 131.91701 curveto
275.82916 131.91701 lineto
275.99029 131.91701 276.1441 131.7925 276.29059 131.54347 curveto
276.43707 131.29445 276.50445 131.16994 276.49274 131.16994 curveto
276.51617 131.16994 276.54986 131.18312 276.59381 131.20949 curveto
276.63775 131.23293 276.66851 131.24758 276.6861 131.25343 curveto
fill
grestore
0 0 0 setrgbcolor
[] 0 setdash
0.65282232 setlinewidth
0 setlinejoin
0 setlinecap
newpath
266.6492 93.174428 moveto
266.6492 103.87175 lineto
stroke
gsave [-1.5989007e-17 -0.26112893 0.26112893 -1.5989007e-17 266.6492 101.26046] concat
gsave
0 0 0 setrgbcolor
newpath
0 0 moveto
5 -5 lineto
-12.5 0 lineto
5 5 lineto
0 0 lineto
closepath
eofill
grestore
0 0 0 setrgbcolor
[] 0 setdash
1.25 setlinewidth
0 setlinejoin
0 setlinecap
newpath
0 0 moveto
5 -5 lineto
-12.5 0 lineto
5 5 lineto
0 0 lineto
closepath
stroke
grestore
gsave
0 0 0 setrgbcolor
newpath
275.82339 95.029236 moveto
275.15282 95.029243 274.81753 95.307563 274.81754 95.864197 curveto
274.81754 100.78119 lineto
274.81753 101.11648 274.90542 101.34597 275.08121 101.46967 curveto
275.22443 101.57058 275.4702 101.61941 275.81851 101.61615 curveto
275.81851 101.78705 lineto
272.97183 101.78705 lineto
272.97183 101.61615 lineto
273.66194 101.61615 274.00699 101.33783 274.00699 100.78119 curveto
274.00699 95.864197 lineto
274.00699 95.528917 273.92072 95.299425 273.7482 95.17572 curveto
273.60497 95.074815 273.35757 95.025987 273.00601 95.029236 curveto
273.00601 94.858337 lineto
275.82339 94.858337 lineto
275.82339 95.029236 lineto
fill
grestore
grestore
showpage
%%EOF
