%!PS-Adobe-2.0 EPSF-2.0
%%Title: CoulombForceDef.eps
%%Creator: fig2dev Version 3.2 Patchlevel 3d
%%CreationDate: Tue Jul 22 20:32:38 2003
%%For: prof@portable (Vincent Guyot)
%%BoundingBox: 0 0 118 38
%%Magnification: 1.0000
%%EndComments
/$F2psDict 200 dict def
$F2psDict begin
$F2psDict /mtrx matrix put
/col-1 {0 setgray} bind def
/col0 {0.000 0.000 0.000 srgb} bind def
/col1 {0.000 0.000 1.000 srgb} bind def
/col2 {0.000 1.000 0.000 srgb} bind def
/col3 {0.000 1.000 1.000 srgb} bind def
/col4 {1.000 0.000 0.000 srgb} bind def
/col5 {1.000 0.000 1.000 srgb} bind def
/col6 {1.000 1.000 0.000 srgb} bind def
/col7 {1.000 1.000 1.000 srgb} bind def
/col8 {0.000 0.000 0.560 srgb} bind def
/col9 {0.000 0.000 0.690 srgb} bind def
/col10 {0.000 0.000 0.820 srgb} bind def
/col11 {0.530 0.810 1.000 srgb} bind def
/col12 {0.000 0.560 0.000 srgb} bind def
/col13 {0.000 0.690 0.000 srgb} bind def
/col14 {0.000 0.820 0.000 srgb} bind def
/col15 {0.000 0.560 0.560 srgb} bind def
/col16 {0.000 0.690 0.690 srgb} bind def
/col17 {0.000 0.820 0.820 srgb} bind def
/col18 {0.560 0.000 0.000 srgb} bind def
/col19 {0.690 0.000 0.000 srgb} bind def
/col20 {0.820 0.000 0.000 srgb} bind def
/col21 {0.560 0.000 0.560 srgb} bind def
/col22 {0.690 0.000 0.690 srgb} bind def
/col23 {0.820 0.000 0.820 srgb} bind def
/col24 {0.500 0.190 0.000 srgb} bind def
/col25 {0.630 0.250 0.000 srgb} bind def
/col26 {0.750 0.380 0.000 srgb} bind def
/col27 {1.000 0.500 0.500 srgb} bind def
/col28 {1.000 0.630 0.630 srgb} bind def
/col29 {1.000 0.750 0.750 srgb} bind def
/col30 {1.000 0.880 0.880 srgb} bind def
/col31 {1.000 0.840 0.000 srgb} bind def

end
save
newpath 0 38 moveto 0 0 lineto 118 0 lineto 118 38 lineto closepath clip newpath
-5.5 44.2 translate
1 -1 scale

/cp {closepath} bind def
/ef {eofill} bind def
/gr {grestore} bind def
/gs {gsave} bind def
/sa {save} bind def
/rs {restore} bind def
/l {lineto} bind def
/m {moveto} bind def
/rm {rmoveto} bind def
/n {newpath} bind def
/s {stroke} bind def
/sh {show} bind def
/slc {setlinecap} bind def
/slj {setlinejoin} bind def
/slw {setlinewidth} bind def
/srgb {setrgbcolor} bind def
/rot {rotate} bind def
/sc {scale} bind def
/sd {setdash} bind def
/ff {findfont} bind def
/sf {setfont} bind def
/scf {scalefont} bind def
/sw {stringwidth} bind def
/tr {translate} bind def
/tnt {dup dup currentrgbcolor
  4 -2 roll dup 1 exch sub 3 -1 roll mul add
  4 -2 roll dup 1 exch sub 3 -1 roll mul add
  4 -2 roll dup 1 exch sub 3 -1 roll mul add srgb}
  bind def
/shd {dup dup currentrgbcolor 4 -2 roll mul 4 -2 roll mul
  4 -2 roll mul srgb} bind def
 /DrawEllipse {
	/endangle exch def
	/startangle exch def
	/yrad exch def
	/xrad exch def
	/y exch def
	/x exch def
	/savematrix mtrx currentmatrix def
	x y tr xrad yrad sc 0 0 1 startangle endangle arc
	closepath
	savematrix setmatrix
	} def

/$F2psBegin {$F2psDict begin /$F2psEnteredState save def} def
/$F2psEnd {$F2psEnteredState restore end} def

$F2psBegin
10 setmiterlimit
 0.06299 0.06299 sc
%
% Fig objects follow
%
7.500 slw
% Ellipse
n 1652 407 288 288 0 360 DrawEllipse gs col0 s gr

% Ellipse
n 257 407 162 162 0 360 DrawEllipse gs col0 s gr

% Polyline
 [45] 0 sd
gs  clippath
1667 452 m 1667 392 l 1515 392 l 1635 422 l 1515 452 l cp
eoclip
n 257 422 m
 1652 422 l gs col0 s gr gr
 [] 0 sd
% arrowhead
n 1515 452 m 1635 422 l 1515 392 l  col0 s
% Polyline
gs  clippath
1057 362 m 1057 422 l 1209 422 l 1089 392 l 1209 362 l cp
eoclip
n 1642 392 m
 1072 392 l gs col0 s gr gr

% arrowhead
n 1209 362 m 1089 392 l 1209 422 l  col0 s
% Polyline
gs  clippath
887 487 m 887 457 l 833 457 l 863 472 l 833 487 l cp
eoclip
n 772 472 m
 872 472 l gs col0 s gr gr

% arrowhead
n 833 487 m 863 472 l 833 457 l  col0 s
% Polyline
gs  clippath
1267 167 m 1267 137 l 1213 137 l 1243 152 l 1213 167 l cp
eoclip
n 1152 152 m
 1252 152 l gs col0 s gr gr

% arrowhead
n 1213 167 m 1243 152 l 1213 137 l  col0 s
/Times-Roman ff 180.00 scf sf
1622 582 m
gs 1 -1 sc (q) col0 sh gr
/Times-Roman ff 180.00 scf sf
432 332 m
gs 1 -1 sc (Q) col0 sh gr
/Times-Roman ff 180.00 scf sf
782 602 m
gs 1 -1 sc (r) col0 sh gr
/Times-Roman ff 180.00 scf sf
1152 312 m
gs 1 -1 sc (F) col0 sh gr
$F2psEnd
rs
