%!PS-Adobe-2.0 EPSF-2.0
%%Title: DangerFoudre.fig
%%Creator: fig2dev Version 3.2 Patchlevel 5-alpha5
%%CreationDate: Mon Dec 20 14:17:13 2004
%%For: prof@portable ()
%%BoundingBox: 0 0 289 274
%Magnification: 1.0000
%%EndComments
/$F2psDict 200 dict def
$F2psDict begin
$F2psDict /mtrx matrix put
/col-1 {0 setgray} bind def
/col0 {0.000 0.000 0.000 srgb} bind def
/col1 {0.000 0.000 1.000 srgb} bind def
/col2 {0.000 1.000 0.000 srgb} bind def
/col3 {0.000 1.000 1.000 srgb} bind def
/col4 {1.000 0.000 0.000 srgb} bind def
/col5 {1.000 0.000 1.000 srgb} bind def
/col6 {1.000 1.000 0.000 srgb} bind def
/col7 {1.000 1.000 1.000 srgb} bind def
/col8 {0.000 0.000 0.560 srgb} bind def
/col9 {0.000 0.000 0.690 srgb} bind def
/col10 {0.000 0.000 0.820 srgb} bind def
/col11 {0.530 0.810 1.000 srgb} bind def
/col12 {0.000 0.560 0.000 srgb} bind def
/col13 {0.000 0.690 0.000 srgb} bind def
/col14 {0.000 0.820 0.000 srgb} bind def
/col15 {0.000 0.560 0.560 srgb} bind def
/col16 {0.000 0.690 0.690 srgb} bind def
/col17 {0.000 0.820 0.820 srgb} bind def
/col18 {0.560 0.000 0.000 srgb} bind def
/col19 {0.690 0.000 0.000 srgb} bind def
/col20 {0.820 0.000 0.000 srgb} bind def
/col21 {0.560 0.000 0.560 srgb} bind def
/col22 {0.690 0.000 0.690 srgb} bind def
/col23 {0.820 0.000 0.820 srgb} bind def
/col24 {0.500 0.190 0.000 srgb} bind def
/col25 {0.630 0.250 0.000 srgb} bind def
/col26 {0.750 0.380 0.000 srgb} bind def
/col27 {1.000 0.500 0.500 srgb} bind def
/col28 {1.000 0.630 0.630 srgb} bind def
/col29 {1.000 0.750 0.750 srgb} bind def
/col30 {1.000 0.880 0.880 srgb} bind def
/col31 {1.000 0.840 0.000 srgb} bind def

end
save
newpath 0 274 moveto 0 0 lineto 289 0 lineto 289 274 lineto closepath clip newpath
-21.9 272.3 translate
1 -1 scale

/cp {closepath} bind def
/ef {eofill} bind def
/gr {grestore} bind def
/gs {gsave} bind def
/sa {save} bind def
/rs {restore} bind def
/l {lineto} bind def
/m {moveto} bind def
/rm {rmoveto} bind def
/n {newpath} bind def
/s {stroke} bind def
/sh {show} bind def
/slc {setlinecap} bind def
/slj {setlinejoin} bind def
/slw {setlinewidth} bind def
/srgb {setrgbcolor} bind def
/rot {rotate} bind def
/sc {scale} bind def
/sd {setdash} bind def
/ff {findfont} bind def
/sf {setfont} bind def
/scf {scalefont} bind def
/sw {stringwidth} bind def
/tr {translate} bind def
/tnt {dup dup currentrgbcolor
  4 -2 roll dup 1 exch sub 3 -1 roll mul add
  4 -2 roll dup 1 exch sub 3 -1 roll mul add
  4 -2 roll dup 1 exch sub 3 -1 roll mul add srgb}
  bind def
/shd {dup dup currentrgbcolor 4 -2 roll mul 4 -2 roll mul
  4 -2 roll mul srgb} bind def
/$F2psBegin {$F2psDict begin /$F2psEnteredState save def} def
/$F2psEnd {$F2psEnteredState restore end} def

$F2psBegin
10 setmiterlimit
0 slj 0 slc
 0.06299 0.06299 sc
%
% Fig objects follow
%
% 
% here starts figure with depth 50
% Polyline
0 slj
0 slc
7.500 slw
n 360 3915 m
 4275 3915 l gs col0 s gr 
% Polyline
n 1048 3705 m
 1593 3441 l gs col0 s gr 
% Polyline
15.000 slw
n 2996 5 m 3282 261 l 3331 792 l 3813 1426 l 3514 2023 l 3008 2194 l
 2758 2413 l 1971 3090 l 1917 3251 l 1746 3343 l 1587 3446 l
 1154 3751 l 813 3916 l
 417 4093 l gs col0 s gr 
% Polyline
n 1929 3245 m 1953 3489 l 1813 3916 l
 1154 4300 l gs col0 s gr 
% Polyline
n 3520 2038 m 3392 2568 l 3337 3294 l 3191 3910 l
 2984 4196 l gs col0 s gr 
% Polyline
n 3374 2940 m 3496 3489 l 3795 3910 l
 4435 4233 l gs col0 s gr 
% Polyline
n 3198 3919 m 2504 4113 l 1959 3799 l 1817 3919 l
 1907 4217 l gs col0 s gr 
% Polyline
2 slj
7.500 slw
n 2970 3915 m 2972 3913 l 2975 3910 l 2980 3904 l 2988 3895 l 2998 3883 l
 3010 3870 l 3023 3855 l 3037 3838 l 3052 3821 l 3067 3803 l
 3082 3783 l 3098 3762 l 3115 3740 l 3133 3715 l 3150 3690 l
 3168 3662 l 3183 3640 l 3194 3623 l 3201 3613 l 3206 3608 l
 3208 3607 l 3210 3608 l 3211 3608 l 3213 3606 l 3216 3600 l
 3220 3589 l 3226 3570 l 3233 3543 l 3240 3510 l 3245 3479 l
 3248 3450 l 3251 3426 l 3252 3407 l 3252 3394 l 3252 3385 l
 3252 3380 l 3251 3375 l 3250 3370 l 3249 3363 l 3248 3352 l
 3247 3336 l 3246 3312 l 3244 3281 l 3242 3241 l 3240 3195 l
 3238 3157 l 3235 3120 l 3233 3086 l 3231 3057 l 3229 3033 l
 3228 3013 l 3227 2997 l 3226 2984 l 3225 2973 l 3225 2962 l
 3224 2952 l 3224 2941 l 3223 2928 l 3221 2913 l 3219 2894 l
 3216 2871 l 3212 2844 l 3207 2813 l 3201 2779 l 3195 2745 l
 3185 2700 l 3177 2664 l 3171 2637 l 3167 2620 l 3165 2610 l
 3165 2605 l 3165 2602 l 3165 2601 l 3164 2597 l 3160 2591 l
 3153 2580 l 3142 2564 l 3126 2543 l 3105 2520 l 3082 2499 l
 3060 2483 l 3043 2472 l 3029 2465 l 3020 2461 l 3013 2460 l
 3007 2460 l 3002 2460 l 2994 2460 l 2983 2458 l 2966 2454 l
 2943 2448 l 2914 2440 l 2880 2430 l 2849 2422 l 2821 2416 l
 2797 2412 l 2779 2410 l 2764 2409 l 2753 2410 l 2745 2413 l
 2738 2415 l 2730 2417 l 2722 2419 l 2712 2420 l 2699 2418 l
 2681 2414 l 2660 2408 l 2636 2398 l 2610 2385 l 2586 2370 l
 2565 2356 l 2549 2342 l 2536 2331 l 2526 2322 l 2519 2314 l
 2513 2308 l 2509 2303 l 2505 2297 l 2501 2290 l 2496 2282 l
 2491 2272 l 2486 2259 l 2481 2243 l 2477 2225 l 2475 2205 l
 2478 2180 l 2487 2161 l 2497 2147 l 2510 2139 l 2522 2136 l
 2535 2134 l 2548 2132 l 2561 2128 l 2575 2121 l 2588 2109 l
 2600 2092 l 2610 2070 l 2615 2051 l 2617 2035 l 2617 2023 l
 2617 2014 l 2616 2008 l 2615 2005 l 2614 2002 l 2612 2000 l
 2609 1997 l 2605 1991 l 2599 1982 l 2591 1970 l 2580 1954 l
 2565 1935 l 2548 1916 l 2531 1901 l 2514 1891 l 2500 1885 l
 2487 1883 l 2475 1884 l 2464 1886 l 2453 1888 l 2442 1888 l
 2430 1884 l 2418 1874 l 2405 1857 l 2394 1832 l 2385 1800 l
 2382 1772 l 2381 1744 l 2381 1718 l 2383 1696 l 2385 1678 l
 2388 1663 l 2390 1651 l 2393 1641 l 2396 1631 l 2400 1622 l
 2404 1611 l 2409 1598 l 2415 1582 l 2422 1562 l 2432 1537 l
 2444 1508 l 2458 1475 l 2475 1440 l 2493 1406 l 2511 1376 l
 2528 1351 l 2544 1331 l 2558 1317 l 2571 1307 l 2582 1301 l
 2593 1297 l 2603 1294 l 2612 1291 l 2622 1287 l 2632 1282 l
 2643 1273 l 2655 1260 l 2667 1244 l 2680 1222 l 2691 1197 l
 2700 1170 l 2706 1136 l 2707 1107 l 2702 1084 l 2694 1067 l
 2684 1056 l 2672 1048 l 2659 1042 l 2646 1037 l 2633 1030 l
 2622 1021 l 2613 1007 l 2608 990 l 2606 968 l 2610 945 l
 2619 924 l 2629 909 l 2640 899 l 2649 894 l 2657 894 l
 2664 896 l 2670 900 l 2677 904 l 2685 906 l 2697 906 l
 2712 901 l 2733 891 l 2759 876 l 2790 855 l 2815 837 l
 2839 819 l 2860 802 l 2878 786 l 2893 773 l 2905 761 l
 2914 750 l 2922 740 l 2929 731 l 2936 722 l 2943 713 l
 2952 703 l 2964 692 l 2978 680 l 2995 668 l 3015 654 l
 3037 641 l 3060 630 l 3091 619 l 3113 614 l 3125 614 l
 3130 618 l 3128 623 l 3124 630 l 3119 637 l 3118 645 l
 3123 652 l 3137 660 l 3161 667 l 3195 675 l 3224 681 l
 3252 686 l 3277 691 l 3299 697 l 3317 702 l 3332 707 l
 3345 712 l 3356 716 l 3368 721 l 3380 725 l 3395 728 l
 3412 730 l 3433 731 l 3457 730 l 3484 727 l 3510 720 l
 3536 709 l 3555 695 l 3566 682 l 3570 669 l 3570 658 l
 3565 648 l 3559 637 l 3552 627 l 3548 616 l 3546 604 l
 3550 590 l 3560 574 l 3577 557 l 3600 540 l 3623 527 l
 3646 517 l 3666 509 l 3683 503 l 3697 500 l 3707 497 l
 3716 496 l 3724 495 l 3732 494 l 3741 494 l 3753 494 l
 3768 493 l 3787 493 l 3811 493 l 3839 493 l 3870 495 l
 3900 499 l 3926 503 l 3947 506 l 3962 508 l 3972 509 l
 3978 509 l 3981 507 l 3983 506 l 3984 506 l 3987 506 l
 3993 509 l 4003 514 l 4018 524 l 4039 539 l 4065 559 l
 4095 585 l 4120 608 l 4143 633 l 4163 656 l 4181 677 l
 4195 696 l 4206 713 l 4214 728 l 4221 741 l 4226 753 l
 4230 765 l 4234 777 l 4239 789 l 4246 802 l 4254 817 l
 4265 834 l 4279 853 l 4297 874 l 4317 897 l 4340 922 l
 4365 945 l 4399 974 l 4429 995 l 4452 1007 l 4469 1012 l
 4481 1012 l 4490 1007 l 4496 1001 l 4503 995 l 4510 990 l
 4520 988 l 4533 991 l 4550 999 l 4570 1014 l 4590 1035 l
 4607 1058 l 4619 1079 l 4627 1096 l 4630 1108 l 4630 1116 l
 4627 1121 l 4624 1125 l 4620 1129 l 4617 1135 l 4615 1146 l
 4616 1163 l 4620 1188 l 4626 1220 l 4635 1260 l 4643 1293 l
 4650 1324 l 4656 1353 l 4661 1378 l 4664 1400 l 4666 1418 l
 4668 1433 l 4668 1446 l 4669 1459 l 4669 1471 l 4670 1484 l
 4672 1498 l 4676 1514 l 4681 1532 l 4689 1553 l 4698 1575 l
 4711 1598 l 4725 1620 l 4748 1645 l 4770 1658 l 4788 1661 l
 4803 1656 l 4815 1647 l 4826 1635 l 4837 1623 l 4848 1612 l
 4861 1605 l 4876 1603 l 4891 1608 l 4905 1620 l 4912 1634 l
 4916 1649 l 4917 1662 l 4916 1674 l 4915 1683 l 4912 1691 l
 4909 1699 l 4905 1706 l 4901 1715 l 4896 1726 l 4889 1740 l
 4882 1757 l 4872 1778 l 4860 1800 l 4844 1825 l 4830 1844 l
 4817 1857 l 4807 1864 l 4799 1867 l 4792 1868 l 4786 1868 l
 4778 1871 l 4768 1878 l 4755 1891 l 4741 1910 l 4725 1935 l
 4712 1961 l 4704 1984 l 4701 2003 l 4703 2017 l 4707 2027 l
 4714 2036 l 4720 2045 l 4724 2055 l 4723 2067 l 4717 2081 l
 4703 2098 l 4680 2115 l 4659 2125 l 4638 2131 l 4617 2134 l
 4599 2134 l 4583 2131 l 4569 2127 l 4557 2121 l 4545 2115 l
 4533 2109 l 4521 2103 l 4507 2099 l 4491 2096 l 4473 2096 l
 4452 2099 l 4431 2105 l 4410 2115 l 4388 2132 l 4374 2149 l
 4369 2165 l 4371 2179 l 4378 2190 l 4388 2201 l 4397 2212 l
 4404 2224 l 4406 2239 l 4401 2256 l 4387 2275 l 4365 2295 l
 4344 2308 l 4323 2318 l 4303 2324 l 4287 2327 l 4272 2328 l
 4261 2327 l 4251 2324 l 4241 2321 l 4232 2318 l 4221 2315 l
 4208 2314 l 4193 2314 l 4173 2317 l 4150 2322 l 4123 2330 l
 4095 2340 l 4065 2353 l 4039 2367 l 4021 2378 l 4009 2389 l
 4002 2397 l 3999 2405 l 3997 2411 l 3996 2418 l 3993 2425 l
 3987 2433 l 3977 2443 l 3961 2453 l 3940 2464 l 3915 2475 l
 3886 2484 l 3862 2489 l 3844 2491 l 3831 2489 l 3823 2486 l
 3817 2482 l 3812 2478 l 3804 2475 l 3794 2472 l 3778 2471 l
 3758 2472 l 3735 2475 l 3714 2479 l 3699 2483 l 3689 2485 l
 3684 2486 l 3682 2486 l 3683 2486 l 3682 2487 l 3678 2491 l
 3671 2497 l 3659 2507 l 3645 2520 l 3630 2536 l 3618 2550 l
 3608 2561 l 3602 2569 l 3596 2575 l 3592 2580 l 3589 2585 l
 3584 2591 l 3579 2601 l 3572 2615 l 3563 2633 l 3555 2655 l
 3548 2681 l 3545 2700 l 3545 2711 l 3548 2717 l 3551 2719 l
 3555 2721 l 3558 2727 l 3559 2739 l 3558 2761 l 3555 2790 l
 3551 2816 l 3546 2837 l 3541 2851 l 3537 2858 l 3533 2861 l
 3529 2861 l 3525 2862 l 3521 2867 l 3517 2877 l 3514 2897 l
 3511 2929 l 3510 2970 l 3510 3001 l 3512 3030 l 3513 3057 l
 3515 3079 l 3516 3098 l 3518 3112 l 3519 3124 l 3520 3134 l
 3521 3143 l 3523 3151 l 3524 3161 l 3526 3174 l 3529 3189 l
 3532 3209 l 3536 3233 l 3542 3262 l 3548 3295 l 3555 3330 l
 3564 3368 l 3572 3401 l 3579 3428 l 3584 3448 l 3589 3462 l
 3592 3472 l 3594 3479 l 3596 3484 l 3598 3488 l 3601 3494 l
 3604 3502 l 3609 3514 l 3616 3530 l 3624 3550 l 3634 3574 l
 3645 3600 l 3659 3631 l 3671 3654 l 3679 3668 l 3683 3675 l
 3685 3676 l 3686 3675 l 3687 3674 l 3689 3674 l 3695 3680 l
 3704 3691 l 3717 3710 l 3735 3735 l 3751 3758 l 3767 3779 l
 3782 3799 l 3795 3817 l 3808 3835 l 3820 3851 l 3832 3866 l
 3843 3880 l 3852 3892 l 3860 3902 l 3865 3909 l 3868 3913 l

 3870 3915 l gs col0 s gr 
% Polyline
n 2970 2070 m 2969 2070 l 2966 2071 l 2961 2071 l 2955 2072 l 2947 2071 l
 2939 2070 l 2930 2067 l 2920 2062 l 2908 2054 l 2895 2042 l
 2880 2025 l 2867 2008 l 2857 1991 l 2848 1976 l 2843 1962 l
 2839 1951 l 2837 1941 l 2835 1931 l 2833 1922 l 2831 1912 l
 2827 1901 l 2822 1889 l 2813 1874 l 2803 1859 l 2790 1845 l
 2769 1829 l 2754 1825 l 2746 1829 l 2741 1838 l 2737 1847 l
 2729 1853 l 2717 1853 l 2700 1845 l 2690 1837 l 2681 1828 l
 2675 1821 l 2671 1816 l 2668 1811 l 2666 1807 l 2664 1804 l
 2663 1798 l 2660 1792 l 2658 1782 l 2656 1770 l 2655 1755 l
 2656 1738 l 2660 1725 l 2663 1718 l 2667 1715 l 2670 1714 l
 2674 1713 l 2678 1709 l 2684 1700 l 2691 1686 l 2700 1665 l
 2708 1643 l 2715 1624 l 2718 1610 l 2719 1601 l 2719 1594 l
 2719 1587 l 2720 1578 l 2725 1565 l 2733 1549 l 2745 1530 l
 2757 1516 l 2768 1506 l 2779 1499 l 2789 1494 l 2799 1490 l
 2808 1488 l 2817 1486 l 2824 1486 l 2830 1485 l 2833 1485 l

 2835 1485 l gs col0 s gr 
% Polyline
n 3915 1395 m 3918 1397 l 3923 1400 l 3932 1406 l 3942 1413 l 3953 1422 l
 3965 1433 l 3978 1447 l 3991 1464 l 4005 1485 l 4017 1507 l
 4025 1526 l 4028 1541 l 4029 1552 l 4027 1560 l 4026 1568 l
 4027 1578 l 4030 1590 l 4038 1605 l 4050 1620 l 4067 1632 l
 4082 1635 l 4093 1631 l 4103 1624 l 4111 1616 l 4121 1612 l
 4131 1612 l 4140 1620 l 4142 1630 l 4141 1640 l 4137 1647 l
 4133 1653 l 4129 1658 l 4124 1662 l 4118 1669 l 4112 1679 l
 4104 1693 l 4095 1710 l 4087 1727 l 4080 1741 l 4077 1751 l
 4076 1758 l 4076 1763 l 4076 1767 l 4075 1773 l 4070 1780 l
 4062 1790 l 4050 1800 l 4033 1808 l 4018 1808 l 4007 1802 l
 3998 1793 l 3989 1784 l 3979 1780 l 3969 1784 l 3960 1800 l
 3958 1817 l 3959 1834 l 3963 1850 l 3969 1864 l 3975 1875 l
 3983 1886 l 3990 1897 l 3996 1909 l 4002 1924 l 4006 1941 l
 4007 1960 l 4005 1980 l 4001 1995 l 3994 2006 l 3987 2014 l
 3978 2020 l 3969 2023 l 3960 2025 l 3950 2026 l 3941 2027 l
 3932 2026 l 3925 2026 l 3920 2026 l 3917 2025 l
 3915 2025 l gs col0 s gr 
% Polyline
n 3735 945 m 3738 945 l 3744 945 l 3753 945 l 3765 945 l 3780 945 l
 3799 945 l 3825 945 l 3847 945 l 3866 944 l 3881 942 l
 3892 940 l 3900 937 l 3908 935 l 3918 934 l 3930 934 l
 3945 938 l 3960 945 l 3972 958 l 3975 970 l 3971 979 l
 3964 986 l 3956 994 l 3952 1004 l 3952 1018 l 3960 1035 l
 3970 1047 l 3981 1055 l 3991 1058 l 4000 1059 l 4009 1057 l
 4017 1056 l 4026 1057 l 4035 1060 l 4043 1068 l 4050 1080 l
 4052 1094 l 4048 1105 l 4039 1114 l 4028 1120 l 4016 1125 l
 4004 1130 l 3995 1136 l 3990 1145 l 3992 1156 l 4005 1170 l
 4020 1179 l 4037 1186 l 4055 1191 l 4071 1193 l 4086 1194 l
 4100 1193 l 4114 1192 l 4127 1192 l 4142 1191 l 4157 1192 l
 4174 1194 l 4193 1199 l 4212 1206 l 4230 1215 l 4250 1231 l
 4253 1243 l 4242 1247 l 4226 1249 l 4210 1251 l 4201 1258 l
 4206 1276 l 4230 1305 l 4246 1320 l 4264 1335 l 4282 1349 l
 4299 1360 l 4315 1370 l 4330 1378 l 4343 1384 l 4356 1390 l
 4369 1395 l 4381 1400 l 4394 1406 l 4407 1412 l 4422 1420 l
 4437 1430 l 4453 1441 l 4470 1455 l 4486 1470 l 4500 1485 l
 4511 1499 l 4517 1511 l 4521 1521 l 4522 1528 l 4521 1532 l
 4518 1534 l 4514 1535 l 4509 1535 l 4504 1534 l 4498 1533 l
 4493 1532 l 4487 1533 l 4481 1535 l 4476 1538 l 4470 1544 l
 4465 1553 l 4460 1563 l 4455 1575 l 4446 1598 l 4439 1619 l
 4432 1638 l 4426 1656 l 4421 1672 l 4417 1687 l 4413 1698 l
 4411 1706 l 4410 1709 l
 4410 1710 l gs col0 s gr 
% Polyline
n 3825 2340 m 3823 2343 l 3818 2350 l 3811 2359 l 3802 2371 l 3792 2383 l
 3781 2396 l 3768 2408 l 3752 2420 l 3735 2430 l 3714 2438 l
 3701 2440 l 3695 2438 l 3694 2434 l 3692 2429 l 3685 2426 l
 3670 2426 l 3645 2430 l 3623 2435 l 3605 2441 l 3592 2446 l
 3583 2451 l 3577 2456 l 3572 2461 l 3563 2466 l 3550 2470 l
 3532 2473 l 3510 2475 l 3492 2474 l 3479 2472 l 3470 2470 l
 3464 2469 l 3462 2468 l 3461 2467 l 3460 2466 l 3458 2464 l
 3454 2460 l 3446 2454 l 3434 2444 l 3420 2430 l 3406 2414 l
 3394 2398 l 3385 2384 l 3380 2371 l 3377 2359 l 3375 2347 l
 3373 2337 l 3370 2326 l 3365 2316 l 3356 2306 l 3344 2298 l
 3330 2295 l 3315 2298 l 3302 2307 l 3290 2320 l 3280 2335 l
 3271 2353 l 3262 2371 l 3255 2389 l 3249 2405 l 3244 2418 l
 3241 2426 l 3240 2429 l
 3240 2430 l gs col0 s gr 
% Polyline
n 1795 2999 m 1795 2998 l 1797 2995 l 1801 2989 l 1807 2983 l 1814 2976 l
 1825 2968 l 1836 2962 l 1843 2959 l 1845 2958 l 1848 2957 l
 1855 2956 l 1868 2956 l 1881 2958 l 1888 2960 l 1891 2961 l
 1894 2963 l 1900 2967 l 1911 2974 l 1920 2982 l 1924 2985 l
 1924 2986 l 1925 2988 l 1928 2993 l 1935 3005 l 1942 3019 l
 1946 3027 l 1948 3031 l 1949 3035 l 1953 3044 l 1960 3060 l
 1967 3075 l 1971 3082 l 1974 3085 l 1975 3087 l 1979 3094 l
 1984 3109 l 1988 3125 l 1990 3134 l 1991 3139 l 1992 3144 l
 1992 3152 l 1990 3164 l 1985 3174 l 1981 3175 l 1978 3173 l
 1973 3174 l 1966 3182 l 1961 3191 l 1958 3196 l 1955 3199 l
 1954 3203 l 1953 3209 l 1954 3219 l 1958 3229 l 1963 3233 l
 1966 3235 l 1970 3236 l 1975 3240 l 1984 3250 l 1992 3260 l
 1995 3266 l 1994 3269 l 1994 3271 l 1998 3277 l 2009 3287 l
 2022 3296 l 2029 3300 l 2031 3300 l 2035 3301 l 2044 3306 l
 2064 3317 l 2078 3326 l 2089 3333 l 2098 3338 l 2103 3341 l
 2107 3344 l 2110 3347 l 2116 3350 l 2124 3355 l 2136 3363 l
 2150 3372 l 2167 3382 l 2178 3389 l 2183 3392 l 2186 3393 l
 2189 3393 l 2193 3396 l 2201 3401 l 2211 3409 l 2221 3419 l
 2226 3424 l 2227 3427 l 2228 3429 l 2229 3434 l 2229 3440 l
 2227 3444 l 2225 3446 l 2222 3447 l 2220 3447 l 2218 3447 l
 2214 3447 l 2210 3447 l 2205 3446 l 2198 3443 l 2195 3440 l
 2194 3438 l 2192 3434 l 2186 3427 l 2181 3420 l 2180 3417 l
 2181 3416 l 2180 3413 l 2172 3406 l 2163 3401 l 2158 3399 l
 2157 3399 l 2155 3399 l 2147 3396 l 2132 3389 l 2118 3382 l
 2108 3377 l 2102 3374 l 2098 3371 l 2094 3369 l 2087 3365 l
 2076 3360 l 2061 3352 l 2043 3343 l 2033 3339 l 2029 3337 l
 2025 3336 l 2017 3332 l 2004 3325 l 1993 3318 l 1988 3312 l
 1987 3307 l 1986 3303 l 1984 3301 l 1980 3305 l 1978 3313 l
 1978 3320 l 1978 3327 l 1979 3332 l 1980 3338 l 1981 3346 l
 1982 3357 l 1984 3372 l 1987 3389 l 1988 3398 l 1988 3402 l
 1989 3404 l 1991 3412 l 1997 3427 l 2004 3441 l 2009 3448 l
 2012 3450 l 2015 3452 l 2020 3458 l 2027 3470 l 2032 3482 l
 2035 3488 l 2035 3490 l 2035 3491 l 2036 3498 l 2038 3510 l
 2039 3523 l 2040 3530 l 2039 3533 l 2039 3536 l 2039 3543 l
 2038 3557 l 2037 3571 l 2036 3578 l 2035 3581 l 2035 3583 l
 2034 3591 l 2033 3605 l 2032 3619 l 2032 3626 l 2031 3629 l
 2031 3631 l 2031 3639 l 2033 3654 l 2036 3669 l 2039 3677 l
 2041 3680 l 2042 3683 l 2046 3692 l 2052 3709 l 2057 3723 l
 2060 3732 l 2062 3738 l 2063 3740 l 2064 3743 l 2066 3748 l
 2070 3758 l 2075 3772 l 2081 3790 l 2086 3800 l 2089 3805 l
 2091 3809 l 2093 3817 l 2095 3831 l 2095 3837 l 2094 3842 l
 2093 3846 l 2092 3848 l 2091 3849 l 2091 3850 l 2090 3851 l
 2089 3851 l 2087 3852 l 2084 3854 l 2081 3855 l 2076 3856 l
 2066 3855 l 2060 3852 l 2057 3849 l 2054 3845 l 2046 3841 l
 2033 3838 l 2019 3837 l 2011 3839 l 2008 3841 l 2005 3843 l
 1997 3844 l 1984 3844 l 1972 3842 l 1967 3840 l 1965 3838 l
 1964 3836 l 1959 3834 l 1948 3831 l 1936 3830 l 1929 3829 l
 1927 3829 l 1924 3830 l 1917 3830 l 1905 3831 l 1894 3832 l
 1888 3834 l 1886 3835 l 1885 3836 l 1879 3837 l 1868 3838 l
 1858 3838 l 1851 3838 l 1846 3839 l 1842 3840 l 1839 3840 l
 1835 3840 l 1830 3837 l 1825 3831 l 1823 3820 l 1824 3813 l
 1826 3810 l 1830 3805 l 1833 3795 l 1837 3776 l 1840 3760 l
 1842 3747 l 1843 3740 l 1844 3735 l 1845 3730 l 1846 3723 l
 1847 3711 l 1849 3695 l 1850 3677 l 1850 3670 l 1849 3669 l
 1848 3669 l 1848 3662 l 1849 3645 l 1851 3630 l 1852 3620 l
 1853 3614 l 1853 3611 l 1854 3607 l 1855 3601 l 1858 3590 l
 1863 3574 l 1869 3559 l 1874 3548 l 1876 3543 l 1878 3541 l
 1880 3539 l 1884 3534 l 1889 3524 l 1896 3510 l 1905 3492 l
 1910 3483 l 1913 3479 l 1916 3476 l 1919 3467 l 1923 3452 l
 1924 3441 l 1924 3433 l 1923 3429 l 1922 3428 l 1921 3426 l
 1919 3423 l 1916 3417 l 1911 3409 l 1904 3400 l 1899 3396 l
 1897 3396 l 1894 3395 l 1889 3393 l 1881 3387 l 1874 3382 l
 1869 3381 l 1867 3382 l 1865 3382 l 1863 3380 l 1859 3372 l
 1857 3361 l 1858 3354 l 1860 3348 l 1862 3343 l 1863 3335 l
 1863 3325 l 1862 3322 l 1862 3320 l 1861 3318 l 1861 3316 l
 1861 3315 l 1861 3314 l 1861 3313 l 1862 3312 l 1861 3311 l
 1860 3311 l 1858 3311 l 1856 3311 l 1853 3311 l 1850 3311 l
 1838 3313 l 1829 3316 l 1823 3318 l 1817 3320 l 1807 3325 l
 1792 3332 l 1778 3339 l 1771 3344 l 1769 3346 l 1767 3348 l
 1762 3352 l 1752 3360 l 1742 3369 l 1739 3373 l 1739 3374 l
 1737 3377 l 1727 3385 l 1718 3391 l 1713 3393 l 1711 3394 l
 1710 3394 l 1703 3396 l 1690 3403 l 1678 3409 l 1669 3413 l
 1663 3416 l 1660 3418 l 1656 3420 l 1650 3423 l 1642 3427 l
 1631 3433 l 1618 3441 l 1614 3446 l 1614 3450 l 1612 3452 l
 1605 3452 l 1601 3449 l 1598 3444 l 1596 3440 l 1595 3437 l
 1593 3433 l 1592 3429 l 1592 3422 l 1592 3415 l 1595 3407 l
 1597 3402 l 1600 3400 l 1602 3398 l 1607 3396 l 1614 3392 l
 1622 3391 l 1624 3394 l 1623 3398 l 1626 3401 l 1641 3397 l
 1654 3391 l 1664 3386 l 1671 3383 l 1676 3380 l 1681 3377 l
 1689 3372 l 1700 3365 l 1715 3354 l 1729 3343 l 1737 3336 l
 1740 3332 l 1740 3330 l 1740 3327 l 1743 3323 l 1751 3316 l
 1764 3305 l 1778 3294 l 1788 3288 l 1794 3284 l 1798 3283 l
 1801 3281 l 1807 3278 l 1817 3271 l 1831 3262 l 1848 3251 l
 1857 3245 l 1861 3244 l 1864 3243 l 1870 3238 l 1880 3225 l
 1887 3211 l 1889 3201 l 1889 3195 l 1889 3190 l 1888 3182 l
 1886 3170 l 1884 3164 l 1881 3161 l 1879 3159 l 1878 3159 l
 1877 3159 l 1875 3159 l 1873 3160 l 1870 3159 l 1867 3159 l
 1862 3158 l 1854 3158 l 1849 3160 l 1847 3162 l 1843 3164 l
 1837 3164 l 1834 3163 l 1832 3162 l 1832 3161 l 1832 3160 l
 1832 3159 l 1832 3156 l 1831 3152 l 1830 3145 l 1831 3141 l
 1833 3138 l 1833 3134 l 1831 3127 l 1827 3121 l 1824 3120 l
 1821 3120 l 1818 3119 l 1813 3115 l 1809 3111 l 1808 3110 l
 1807 3109 l 1807 3103 l 1808 3096 l 1810 3093 l 1811 3091 l
 1813 3087 l 1813 3078 l 1811 3068 l 1810 3063 l 1808 3061 l
 1806 3056 l 1801 3048 l 1795 3042 l 1791 3042 l 1788 3044 l
 1785 3043 l 1782 3036 l 1783 3026 l 1785 3016 l 1789 3007 l
 1792 2999 l 1795 2994 l
 1795 2993 l gs col0 s gr 
% Polyline
n 1832 3840 m 1832 3841 l 1831 3846 l 1830 3855 l 1828 3865 l 1824 3874 l
 1819 3883 l 1813 3888 l 1809 3888 l 1808 3886 l 1806 3883 l
 1802 3882 l 1795 3883 l 1788 3885 l 1784 3886 l 1781 3887 l
 1779 3889 l 1775 3893 l 1774 3894 l 1774 3895 l 1774 3896 l
 1773 3897 l 1773 3898 l 1773 3899 l 1772 3899 l 1772 3900 l
 1771 3900 l 1771 3901 l 1770 3901 l 1770 3902 l 1770 3903 l
 1771 3903 l 1772 3904 l 1773 3905 l 1775 3905 l 1778 3906 l
 1782 3907 l 1793 3908 l 1803 3910 l 1812 3912 l 1818 3914 l
 1825 3915 l 1833 3916 l 1844 3913 l 1856 3907 l 1865 3897 l
 1871 3886 l 1873 3875 l 1874 3863 l 1874 3852 l 1873 3845 l
 1873 3841 l
 1873 3840 l gs col0 s gr 
% Polyline
n 2095 3850 m 2098 3853 l 2101 3858 l 2105 3864 l 2106 3871 l 2105 3880 l
 2101 3888 l 2097 3893 l 2095 3895 l 2093 3897 l 2087 3901 l
 2075 3907 l 2061 3911 l 2052 3914 l 2045 3915 l 2039 3916 l
 2031 3916 l 2021 3914 l 2017 3912 l 2015 3909 l 2014 3906 l
 2013 3904 l 2013 3901 l 2013 3899 l 2014 3897 l 2014 3895 l
 2015 3892 l 2016 3889 l 2018 3886 l 2021 3883 l 2029 3879 l
 2036 3879 l 2042 3881 l 2048 3884 l 2054 3884 l 2061 3880 l
 2063 3874 l 2062 3867 l 2058 3860 l 2054 3854 l 2052 3851 l

 2051 3850 l gs col0 s gr 
% Polyline
n 855 3870 m 858 3869 l 864 3866 l 873 3862 l 885 3856 l 898 3848 l
 913 3840 l 927 3831 l 941 3821 l 955 3810 l 968 3797 l
 980 3782 l 988 3767 l 993 3755 l 996 3745 l 997 3738 l
 996 3733 l 995 3729 l 994 3725 l 992 3721 l 990 3715 l
 987 3708 l 983 3699 l 977 3691 l 966 3682 l 956 3680 l
 948 3680 l 942 3683 l 936 3686 l 927 3689 l 915 3690 l
 900 3690 l 883 3690 l 875 3692 l 873 3694 l 871 3696 l
 865 3695 l 855 3690 l 849 3685 l 844 3679 l 841 3675 l
 838 3672 l 836 3669 l 835 3666 l 833 3662 l 832 3657 l
 832 3650 l 834 3642 l 839 3632 l 845 3625 l 849 3621 l
 853 3618 l 857 3615 l 863 3612 l 873 3609 l 886 3606 l
 899 3606 l 910 3610 l 916 3616 l 921 3622 l 925 3628 l
 931 3633 l 939 3634 l 947 3631 l 952 3623 l 953 3613 l
 951 3606 l 947 3599 l 944 3592 l 941 3583 l 941 3570 l
 945 3555 l 951 3541 l 957 3532 l 961 3526 l 964 3522 l
 967 3519 l 972 3516 l 979 3512 l 990 3510 l 1000 3512 l
 1007 3515 l 1011 3519 l 1013 3521 l 1014 3525 l 1018 3530 l
 1025 3540 l 1035 3555 l 1044 3569 l 1051 3581 l 1057 3590 l
 1061 3597 l 1065 3602 l 1068 3607 l 1072 3614 l 1075 3622 l
 1079 3633 l 1080 3645 l 1078 3656 l 1073 3662 l 1067 3662 l
 1061 3661 l 1055 3659 l 1049 3659 l 1042 3661 l 1035 3666 l
 1032 3669 l 1030 3672 l 1029 3674 l 1028 3675 l 1028 3676 l
 1028 3677 l 1029 3679 l 1030 3682 l 1032 3685 l 1035 3690 l
 1041 3699 l 1046 3706 l 1048 3712 l 1049 3716 l 1051 3721 l
 1055 3725 l 1065 3731 l 1080 3735 l 1094 3736 l 1107 3735 l
 1116 3733 l 1122 3729 l 1126 3726 l 1130 3722 l 1137 3719 l
 1146 3716 l 1161 3714 l 1178 3713 l 1199 3714 l 1212 3716 l
 1220 3717 l 1223 3718 l 1227 3720 l 1233 3723 l 1244 3728 l
 1260 3735 l 1277 3746 l 1284 3753 l 1285 3757 l 1285 3761 l
 1291 3769 l 1305 3780 l 1320 3790 l 1326 3795 l 1328 3797 l
 1330 3798 l 1339 3802 l 1359 3807 l 1378 3810 l 1395 3811 l
 1410 3810 l 1423 3809 l 1435 3808 l 1446 3807 l 1453 3808 l
 1453 3812 l 1446 3815 l 1435 3818 l 1423 3821 l 1412 3822 l
 1401 3823 l 1390 3823 l 1379 3824 l 1367 3825 l 1353 3827 l
 1338 3831 l 1321 3837 l 1304 3845 l 1284 3858 l 1275 3869 l
 1275 3877 l 1279 3883 l 1283 3889 l 1284 3897 l 1276 3906 l
 1260 3915 l 1244 3920 l 1229 3922 l 1216 3923 l 1206 3922 l
 1198 3921 l 1190 3920 l 1180 3918 l 1170 3916 l 1158 3913 l
 1147 3909 l 1142 3906 l 1139 3902 l 1139 3899 l 1139 3896 l
 1141 3893 l 1143 3891 l 1145 3889 l 1148 3887 l 1151 3885 l
 1154 3882 l 1158 3879 l 1161 3876 l 1165 3873 l 1170 3870 l
 1181 3866 l 1189 3866 l 1195 3868 l 1200 3870 l 1207 3871 l
 1215 3870 l 1217 3869 l 1218 3869 l 1219 3868 l 1220 3868 l
 1220 3867 l 1221 3867 l 1221 3866 l 1222 3866 l 1222 3865 l
 1221 3864 l 1221 3863 l 1220 3863 l 1219 3862 l 1218 3860 l
 1217 3859 l 1215 3858 l 1213 3856 l 1203 3849 l 1194 3843 l
 1186 3840 l 1179 3836 l 1170 3832 l 1161 3826 l 1160 3825 l
 1159 3824 l 1158 3823 l 1158 3822 l 1158 3821 l 1159 3821 l
 1160 3820 l 1161 3820 l 1162 3820 l 1164 3819 l 1165 3819 l
 1166 3819 l 1168 3819 l 1169 3818 l 1170 3818 l 1171 3818 l
 1172 3818 l 1173 3818 l 1174 3819 l 1175 3819 l 1174 3820 l
 1174 3821 l 1173 3822 l 1172 3823 l 1170 3825 l 1162 3832 l
 1155 3839 l 1149 3844 l 1144 3849 l 1138 3854 l 1131 3860 l
 1121 3867 l 1109 3875 l 1095 3882 l 1087 3883 l 1083 3882 l
 1081 3880 l 1076 3880 l 1070 3884 l 1068 3886 l 1068 3888 l
 1067 3890 l 1067 3892 l 1067 3893 l 1067 3894 l 1068 3895 l
 1068 3896 l 1069 3897 l 1070 3898 l 1071 3900 l 1074 3902 l
 1077 3904 l 1081 3906 l 1092 3910 l 1101 3913 l 1107 3916 l
 1112 3917 l 1122 3917 l 1136 3914 l 1148 3906 l 1153 3899 l
 1154 3893 l 1154 3886 l 1159 3878 l 1170 3870 l 1183 3866 l
 1192 3866 l 1199 3870 l 1205 3874 l 1211 3875 l 1215 3870 l
 1213 3864 l 1210 3857 l 1206 3852 l 1204 3848 l 1200 3843 l
 1195 3838 l 1185 3831 l 1170 3825 l 1153 3821 l 1140 3819 l
 1131 3820 l 1125 3821 l 1119 3823 l 1110 3824 l 1097 3825 l
 1080 3825 l 1068 3825 l 1061 3824 l 1059 3822 l 1060 3820 l
 1064 3818 l 1067 3816 l 1067 3814 l 1063 3815 l 1053 3818 l
 1035 3825 l 1017 3833 l 999 3842 l 985 3850 l 973 3857 l
 963 3863 l 955 3869 l 947 3875 l 937 3881 l 925 3888 l
 910 3896 l 892 3904 l 872 3911 l 855 3916 l 842 3918 l
 833 3919 l 828 3918 l 826 3917 l 825 3915 l 825 3913 l
 823 3911 l 821 3908 l 817 3906 l 812 3903 l 806 3900 l
 802 3897 l 800 3894 l 799 3891 l 798 3889 l 798 3887 l
 798 3886 l 799 3884 l 799 3883 l 800 3881 l 801 3879 l
 803 3877 l 805 3875 l 807 3872 l 810 3870 l 819 3867 l
 830 3866 l 840 3867 l 849 3869 l 854 3870 l
 855 3870 l  cp gs col0 s gr 
% Polyline
n 856 3620 m 856 3619 l 856 3614 l 855 3607 l 852 3599 l 847 3592 l
 841 3588 l 838 3587 l 835 3587 l 832 3587 l 829 3588 l
 823 3589 l 819 3591 l 817 3593 l 817 3594 l 816 3595 l
 816 3597 l 816 3598 l 815 3602 l 814 3606 l 813 3612 l
 813 3616 l 813 3618 l 813 3620 l 814 3623 l 817 3628 l
 823 3632 l 829 3633 l 834 3633 l 838 3633 l
 839 3633 l gs col0 s gr 
% Polyline
n 960 3622 m 961 3622 l 964 3620 l 970 3617 l 975 3612 l 980 3606 l
 982 3601 l 982 3597 l 981 3596 l 980 3594 l 979 3591 l
 977 3586 l 975 3581 l 974 3579 l 973 3578 l 973 3577 l
 971 3576 l 966 3573 l 959 3571 l 952 3570 l 946 3570 l
 942 3570 l
 941 3570 l gs col0 s gr 
% Polyline
n 1043 3661 m 1042 3661 l 1040 3658 l 1036 3654 l 1030 3648 l 1024 3639 l
 1019 3630 l 1016 3627 l 1015 3626 l 1013 3622 l 1010 3611 l
 1008 3600 l 1008 3591 l 1009 3583 l 1009 3577 l 1010 3574 l

 1010 3573 l gs col0 s gr 
% Polyline
n 966 3617 m
 955 3600 l gs col0 s gr 
% Polyline
n 980 3782 m 979 3782 l 974 3784 l 965 3787 l 953 3790 l 941 3793 l
 927 3796 l 914 3798 l 909 3796 l 907 3794 l 904 3793 l
 897 3798 l 893 3805 l 892 3811 l 892 3816 l 893 3820 l
 893 3826 l 894 3834 l 895 3838 l 896 3840 l 898 3841 l
 899 3841 l 901 3841 l 902 3841 l 904 3841 l
 905 3840 l gs col0 s gr 
% Polyline
n 927 3889 m 928 3889 l 933 3892 l 940 3895 l 948 3897 l 958 3897 l
 964 3895 l 968 3893 l 969 3891 l 970 3889 l 972 3886 l
 974 3881 l 975 3874 l 973 3869 l 971 3865 l 969 3863 l

 969 3862 l gs col0 s gr 
% Polyline
n 988 3705 m
 1037 3691 l gs col0 s gr 
% Polyline
n 1002 3746 m
 1048 3721 l gs col0 s gr 
% Polyline
n 993 3507 m 994 3506 l 997 3504 l 1003 3500 l 1010 3496 l 1018 3493 l
 1025 3492 l 1029 3493 l 1033 3495 l 1035 3497 l
 1037 3498 l gs col0 s gr 
% Polyline
n 971 3518 m 971 3517 l 969 3513 l 967 3506 l 966 3498 l 969 3490 l
 975 3484 l 983 3481 l 990 3480 l 995 3479 l
 996 3479 l gs col0 s gr 
% here ends figure;
$F2psEnd
rs
showpage
%%Trailer
%EOF
