%!PS-Adobe-2.0
%%Creator: inkscape 0.41.1
%%Pages: 1
%%Orientation: Portrait
%%BoundingBox: 38 741 127 833
%%HiResBoundingBox: 38.530718 741.00918 126.41317 832.60227
%%EndComments
%%Page: 1 1
0 842 translate
0.80000000 -0.80000000 scale
gsave [1.0000000 0.0000000 0.0000000 1.0000000 0.0000000 0.0000000] concat
0.0000000 0.0000000 0.0000000 setrgbcolor
newpath
93.863670 69.815781 moveto
93.193095 69.815787 92.857809 70.094107 92.857811 70.650742 curveto
92.857811 75.567734 lineto
92.857809 75.903021 92.945699 76.132513 93.121483 76.256210 curveto
93.264710 76.357122 93.510478 76.405950 93.858788 76.402695 curveto
93.858788 76.573593 lineto
91.012108 76.573593 lineto
91.012108 76.402695 lineto
91.702211 76.402695 92.047263 76.124375 92.047264 75.567734 curveto
92.047264 70.650742 lineto
92.047263 70.315461 91.961000 70.085969 91.788475 69.962265 curveto
91.645245 69.861360 91.397849 69.812532 91.046288 69.815781 curveto
91.046288 69.644882 lineto
93.863670 69.644882 lineto
93.863670 69.815781 lineto
fill
gsave [1.0000000 0.0000000 0.0000000 1.0000000 47.241920 -7.3243330] concat
0.0000000 0.0000000 0.0000000 setrgbcolor
newpath
35.347120 30.589050 moveto
35.347114 31.253114 35.054146 31.746278 34.468214 32.068542 curveto
34.002715 32.322449 33.405384 32.449402 32.676222 32.449402 curveto
29.233839 32.449402 lineto
29.282667 32.268738 lineto
29.728630 32.262228 30.018344 32.229676 30.151808 32.171082 curveto
30.405713 32.060405 30.532666 31.811382 30.532667 31.424011 curveto
30.532667 26.448425 lineto
30.532666 26.002468 30.151807 25.779487 29.390089 25.779480 curveto
29.390089 25.554871 lineto
30.203890 25.499539 31.214631 25.471870 32.422316 25.471863 curveto
33.034291 25.471870 33.584421 25.584174 34.072706 25.808777 curveto
34.687935 26.095242 34.995552 26.498887 34.995558 27.019714 curveto
34.995552 27.892115 34.500761 28.401554 33.511183 28.548035 curveto
34.142688 28.684757 34.596789 28.896346 34.873487 29.182800 curveto
35.189237 29.501814 35.347114 29.970563 35.347120 30.589050 curveto
34.072706 27.239441 moveto
34.072701 26.236843 33.576283 25.735541 32.583448 25.735535 curveto
31.372511 25.735535 lineto
31.372511 28.499207 lineto
32.285597 28.499207 lineto
32.858510 28.499210 33.270293 28.435734 33.520948 28.308777 curveto
33.888782 28.123234 34.072701 27.766789 34.072706 27.239441 curveto
34.394972 30.549988 moveto
34.394967 29.990094 34.264759 29.550642 34.004347 29.231628 curveto
33.717884 28.886580 33.301218 28.714054 32.754347 28.714050 curveto
31.372511 28.714050 lineto
31.372511 31.472839 lineto
31.372509 31.974142 31.758251 32.224793 32.529737 32.224792 curveto
33.047312 32.224793 33.481882 32.076681 33.833448 31.780457 curveto
34.207792 31.467958 34.394967 31.057802 34.394972 30.549988 curveto
fill
0.0000000 0.0000000 0.0000000 setrgbcolor
[] 0 setdash
0.35433072 setlinewidth
0 setlinejoin
0 setlinecap
newpath
27.466233 23.110883 moveto
35.706103 23.110883 35.706103 23.110883 35.706103 23.110883 curveto
stroke
gsave [-0.21259843 0.0000000 0.0000000 -0.21259843 36.769095 23.110883] concat
0.0000000 0.0000000 0.0000000 setrgbcolor
newpath
8.7185878 4.0337352 moveto
-2.2072895 0.016013256 lineto
8.7185884 -4.0017078 lineto
6.9730900 -1.6296469 6.9831476 1.6157441 8.7185878 4.0337352 curveto
closepath
eofill
grestore
grestore
gsave [1.0000000 0.0000000 0.0000000 1.0000000 58.960800 10.437170] concat
0.0000000 0.0000000 0.0000000 setrgbcolor
newpath
53.677490 29.109592 moveto
53.501709 29.109592 lineto
53.501704 28.461812 53.215246 28.137919 52.642334 28.137913 curveto
50.440186 28.137913 lineto
50.440186 30.759983 lineto
52.261475 30.759983 lineto
52.456783 30.759987 52.611406 30.683490 52.725342 30.530491 curveto
52.822994 30.397032 52.871822 30.226133 52.871826 30.017796 curveto
53.008545 30.017796 lineto
53.008545 31.922092 lineto
52.871826 31.922092 lineto
52.871822 31.388242 52.668372 31.121315 52.261475 31.121311 curveto
50.440186 31.121311 lineto
50.440186 33.772678 lineto
50.440184 34.208877 50.734780 34.426975 51.323975 34.426975 curveto
51.323975 34.646702 lineto
48.770264 34.646702 lineto
48.770264 34.426975 lineto
49.310628 34.426975 49.580810 34.189345 49.580811 33.714085 curveto
49.580811 28.450413 lineto
49.580810 28.095602 49.310628 27.919821 48.770264 27.923069 curveto
48.770264 27.713108 lineto
53.560303 27.713108 lineto
53.677490 29.109592 lineto
fill
0.0000000 0.0000000 0.0000000 setrgbcolor
[] 0 setdash
0.35433072 setlinewidth
0 setlinejoin
0 setlinecap
newpath
46.326380 25.308182 moveto
54.566250 25.308182 54.566250 25.308182 54.566250 25.308182 curveto
stroke
gsave [-0.21259843 0.0000000 0.0000000 -0.21259843 55.629242 25.308182] concat
0.0000000 0.0000000 0.0000000 setrgbcolor
newpath
8.7185878 4.0337352 moveto
-2.2072895 0.016013256 lineto
8.7185884 -4.0017078 lineto
6.9730900 -1.6296469 6.9831476 1.6157441 8.7185878 4.0337352 curveto
closepath
eofill
grestore
grestore
gsave [1.0000000 0.0000000 0.0000000 1.0000000 52.735070 6.9581110] concat
0.0000000 0.0000000 0.0000000 setrgbcolor
newpath
48.880043 52.178726 moveto
48.494301 53.873062 lineto
42.996254 53.873062 lineto
42.996254 53.692398 lineto
43.774248 53.682633 44.163245 53.461279 44.163246 53.028336 curveto
44.163246 47.774429 lineto
44.163245 47.478212 44.055823 47.284527 43.840981 47.193375 curveto
43.717282 47.144553 43.474769 47.120139 43.113441 47.120132 curveto
43.113441 46.949234 lineto
46.214027 46.949234 lineto
46.214027 47.105484 lineto
46.140785 47.100601 lineto
45.890131 47.097353 45.659012 47.146181 45.447426 47.247086 curveto
45.180497 47.374045 45.047033 47.551454 45.047035 47.779312 curveto
45.047035 52.940445 lineto
45.047033 53.301774 45.185379 53.482438 45.462074 53.482437 curveto
47.527504 53.482437 lineto
47.846510 53.482438 48.111809 53.335953 48.323402 53.042984 curveto
48.495923 52.808610 48.614738 52.514014 48.679848 52.159195 curveto
48.880043 52.178726 lineto
fill
0.0000000 0.0000000 0.0000000 setrgbcolor
[] 0 setdash
0.35433072 setlinewidth
0 setlinejoin
0 setlinecap
newpath
41.199350 44.534545 moveto
49.439220 44.534545 49.439220 44.534545 49.439220 44.534545 curveto
stroke
gsave [-0.21259843 0.0000000 0.0000000 -0.21259843 50.502212 44.534545] concat
0.0000000 0.0000000 0.0000000 setrgbcolor
newpath
8.7185878 4.0337352 moveto
-2.2072895 0.016013256 lineto
8.7185884 -4.0017078 lineto
6.9730900 -1.6296469 6.9831476 1.6157441 8.7185878 4.0337352 curveto
closepath
eofill
grestore
grestore
0.0000000 0.0000000 0.0000000 setrgbcolor
newpath
107.60403 11.667944 moveto
107.60402 11.723289 107.59914 11.783511 107.58938 11.848608 curveto
107.23455 11.890932 107.04087 11.918602 107.00832 11.931616 curveto
106.83579 11.999982 106.74953 12.159487 106.74953 12.410131 curveto
106.74953 18.533178 lineto
106.53469 18.533178 lineto
101.29055 12.654272 lineto
101.29055 17.712866 lineto
101.29055 18.136043 101.56887 18.347632 102.12551 18.347631 curveto
102.20038 18.347632 102.27362 18.342749 102.34524 18.332983 curveto
102.34524 18.533178 lineto
100.14309 18.533178 lineto
100.08450 18.332983 lineto
100.62160 18.332983 100.89016 18.197892 100.89016 17.927710 curveto
100.89016 12.375952 lineto
100.89016 12.213198 100.79250 12.079734 100.59719 11.975561 curveto
100.44745 11.894188 100.27655 11.842104 100.08450 11.819311 curveto
100.11379 11.609350 lineto
101.66653 11.609350 lineto
106.31985 17.058569 lineto
106.31985 12.410131 lineto
106.31984 12.211570 106.21893 12.061831 106.01711 11.960913 curveto
105.85435 11.879539 105.66554 11.842104 105.45071 11.848608 curveto
105.45071 11.609350 lineto
107.58938 11.609350 lineto
107.59914 11.648420 107.60402 11.667951 107.60403 11.667944 curveto
fill
0.0000000 0.0000000 0.0000000 setrgbcolor
newpath
106.14898 124.36243 moveto
106.14897 124.92883 105.95203 125.36666 105.55816 125.67590 curveto
105.20008 125.95911 104.72971 126.10071 104.14703 126.10071 curveto
103.97124 126.10071 103.70757 126.06816 103.35601 126.00305 curveto
103.00770 125.93795 102.74403 125.90540 102.56499 125.90540 curveto
102.48036 125.90540 102.40712 125.93632 102.34527 125.99817 curveto
102.18902 125.99817 lineto
101.91070 124.28430 lineto
102.09624 124.22083 lineto
102.21669 124.71562 102.45269 125.10950 102.80425 125.40247 curveto
103.15907 125.69543 103.58713 125.84192 104.08843 125.84192 curveto
104.47254 125.84192 104.78667 125.71497 105.03082 125.46106 curveto
105.27821 125.20715 105.40190 124.88652 105.40191 124.49915 curveto
105.40190 124.11178 105.10243 123.70325 104.50347 123.27356 curveto
103.95008 122.88619 103.39507 122.49882 102.83843 122.11145 curveto
102.23947 121.60690 101.93999 121.06979 101.93999 120.50012 curveto
101.93999 120.02487 102.18576 119.64726 102.67730 119.36731 curveto
103.08745 119.13294 103.54969 119.01575 104.06402 119.01575 curveto
104.19097 119.01575 104.37163 119.04831 104.60601 119.11340 curveto
104.84364 119.17526 105.02105 119.20618 105.13824 119.20618 curveto
105.23914 119.20618 105.31727 119.16224 105.37261 119.07434 curveto
105.55816 119.07434 lineto
105.87066 121.13489 lineto
105.65093 121.13489 lineto
105.49793 120.52942 105.30588 120.09485 105.07476 119.83118 curveto
104.77528 119.49590 104.34396 119.32825 103.78082 119.32825 curveto
103.46831 119.32825 103.21766 119.42591 103.02886 119.62122 curveto
102.84331 119.81653 102.75054 120.07207 102.75054 120.38782 curveto
102.75054 120.77845 103.04514 121.17884 103.63433 121.58899 curveto
104.17795 121.96334 104.72319 122.33769 105.27007 122.71204 curveto
105.85601 123.21334 106.14897 123.76347 106.14898 124.36243 curveto
fill
0.0000000 0.0000000 0.0000000 setrgbcolor
newpath
156.72346 73.285011 moveto
156.52815 74.930519 lineto
151.03011 74.930519 lineto
151.03011 74.749855 lineto
151.80810 74.740090 152.19710 74.518736 152.19710 74.085793 curveto
152.19710 68.822121 lineto
152.19710 68.568221 152.13036 68.397323 151.99690 68.309425 curveto
151.85367 68.215031 151.57047 68.167831 151.14729 68.167824 curveto
151.14729 67.996925 lineto
156.30843 67.996925 lineto
156.36214 69.495949 lineto
156.18147 69.495949 lineto
156.10334 68.744002 155.86083 68.368026 155.45393 68.368019 curveto
153.08089 68.368019 lineto
153.08089 71.121925 lineto
154.97054 71.121925 lineto
155.27327 71.121929 155.46858 70.837099 155.55647 70.267433 curveto
155.71761 70.267433 lineto
155.71761 72.376808 lineto
155.55647 72.376808 lineto
155.44905 71.768087 155.25373 71.463726 154.97054 71.463722 curveto
153.08089 71.463722 lineto
153.08089 73.997902 lineto
153.08088 74.359231 153.21923 74.539894 153.49593 74.539894 curveto
155.56136 74.539894 lineto
156.04963 74.539894 156.37190 74.116718 156.52815 73.270363 curveto
156.72346 73.285011 lineto
fill
0.0000000 0.0000000 0.0000000 setrgbcolor
newpath
56.289799 71.427094 moveto
56.289792 72.498060 55.965899 73.385103 55.318119 74.088226 curveto
54.650796 74.810883 53.786539 75.172211 52.725346 75.172211 curveto
51.683676 75.172211 50.830813 74.880870 50.166752 74.298187 curveto
49.466882 73.686210 49.116947 72.869153 49.116947 71.847015 curveto
49.116947 70.776056 49.437585 69.889013 50.078861 69.185883 curveto
50.742922 68.463233 51.605551 68.101905 52.666752 68.101898 curveto
53.708414 68.101905 54.564533 68.393246 55.235111 68.975922 curveto
55.938229 69.587906 56.289792 70.404963 56.289799 71.427094 curveto
55.303471 71.788422 moveto
55.303464 70.909520 55.082110 70.144546 54.639408 69.493500 curveto
54.134846 68.751319 53.462646 68.380225 52.622807 68.380219 curveto
51.782960 68.380225 51.144940 68.709001 50.708744 69.366547 curveto
50.337649 69.929703 50.152102 70.653986 50.152103 71.539398 curveto
50.152102 72.411797 50.368573 73.165377 50.801517 73.800140 curveto
51.296307 74.522797 51.960369 74.884125 52.793705 74.884125 curveto
53.640055 74.884125 54.284585 74.569998 54.727299 73.941742 curveto
55.111407 73.391613 55.303464 72.673841 55.303471 71.788422 curveto
fill
gsave [1.0000000 0.0000000 0.0000000 1.0000000 20.233450 6.8665620] concat
0.0000000 0.0000000 0.0000000 setrgbcolor
[] 0 setdash
0.35433072 setlinewidth
0 setlinejoin
0 setlinecap
newpath
89.539918 64.493340 moveto
89.539918 67.626687 86.996911 70.169694 83.863564 70.169694 curveto
80.730216 70.169694 78.187209 67.626687 78.187209 64.493340 curveto
78.187209 61.359992 80.730216 58.816985 83.863564 58.816985 curveto
86.996911 58.816985 89.539918 61.359992 89.539918 64.493340 curveto
closepath
stroke
grestore
gsave [1.0000000 0.0000000 0.0000000 1.0000000 32.043930 10.070950] concat
0.0000000 0.0000000 0.0000000 setrgbcolor
newpath
73.426397 61.288948 moveto
73.426397 62.047016 72.811153 62.662260 72.053085 62.662260 curveto
71.295017 62.662260 70.679774 62.047016 70.679774 61.288948 curveto
70.679774 60.530880 71.295017 59.915636 72.053085 59.915636 curveto
72.811153 59.915636 73.426397 60.530880 73.426397 61.288948 curveto
closepath
fill
0.0000000 0.0000000 0.0000000 setrgbcolor
[] 0 setdash
0.35433072 setlinewidth
0 setlinejoin
0 setlinecap
newpath
73.426397 61.288948 moveto
73.426397 62.047016 72.811153 62.662260 72.053085 62.662260 curveto
71.295017 62.662260 70.679774 62.047016 70.679774 61.288948 curveto
70.679774 60.530880 71.295017 59.915636 72.053085 59.915636 curveto
72.811153 59.915636 73.426397 60.530880 73.426397 61.288948 curveto
closepath
stroke
grestore
gsave [1.0000000 0.0000000 0.0000000 1.0000000 -11.902030 -6.5918960] concat
0.0000000 0.0000000 0.0000000 setrgbcolor
[1.0629922 1.0629922] 0.0000000 setdash
0.35433072 setlinewidth
0 setlinejoin
0 setlinecap
newpath
159.48725 77.951797 moveto
159.48725 101.95728 140.00453 121.44000 115.99905 121.44000 curveto
91.993559 121.44000 72.510845 101.95728 72.510845 77.951797 curveto
72.510845 53.946310 91.993559 34.463596 115.99905 34.463596 curveto
140.00453 34.463596 159.48725 53.946310 159.48725 77.951797 curveto
closepath
stroke
grestore
0.0000000 0.0000000 0.0000000 setrgbcolor
[] 0 setdash
0.35433072 setlinewidth
0 setlinejoin
0 setlinecap
newpath
103.63926 27.871697 moveto
71.595314 27.871697 71.595314 27.871697 71.595314 27.871697 curveto
stroke
gsave [-0.28346457 3.4713252e-17 -3.4713252e-17 -0.28346457 103.63926 27.871697] concat
0.0000000 0.0000000 0.0000000 setrgbcolor
[] 0 setdash
1.2500000 setlinewidth
0 setlinejoin
0 setlinecap
newpath
0.0000000 5.6500000 moveto
0.0000000 -5.6500000 lineto
stroke
grestore
gsave [0.38976379 -4.7730721e-17 4.7730721e-17 0.38976379 69.646495 27.871697] concat
0.0000000 0.0000000 0.0000000 setrgbcolor
newpath
8.7185878 4.0337352 moveto
-2.2072895 0.016013256 lineto
8.7185884 -4.0017078 lineto
6.9730900 -1.6296469 6.9831476 1.6157441 8.7185878 4.0337352 curveto
closepath
eofill
grestore
0.0000000 0.0000000 0.0000000 setrgbcolor
[] 0 setdash
0.35433072 setlinewidth
0 setlinejoin
0 setlinecap
newpath
103.82236 114.84810 moveto
135.86631 114.84810 135.86631 114.84810 135.86631 114.84810 curveto
stroke
gsave [0.28346457 0.0000000 0.0000000 0.28346457 103.82236 114.84810] concat
0.0000000 0.0000000 0.0000000 setrgbcolor
[] 0 setdash
1.2500000 setlinewidth
0 setlinejoin
0 setlinecap
newpath
0.0000000 5.6500000 moveto
0.0000000 -5.6500000 lineto
stroke
grestore
gsave [-0.38976379 0.0000000 0.0000000 -0.38976379 137.81513 114.84810] concat
0.0000000 0.0000000 0.0000000 setrgbcolor
newpath
8.7185878 4.0337352 moveto
-2.2072895 0.016013256 lineto
8.7185884 -4.0017078 lineto
6.9730900 -1.6296469 6.9831476 1.6157441 8.7185878 4.0337352 curveto
closepath
eofill
grestore
0.0000000 0.0000000 0.0000000 setrgbcolor
[] 0 setdash
0.35433072 setlinewidth
0 setlinejoin
0 setlinecap
newpath
60.517270 71.543003 moveto
60.517270 103.58695 60.517270 103.58695 60.517270 103.58695 curveto
stroke
gsave [1.7356626e-17 0.28346457 -0.28346457 1.7356626e-17 60.517270 71.543003] concat
0.0000000 0.0000000 0.0000000 setrgbcolor
[] 0 setdash
1.2500000 setlinewidth
0 setlinejoin
0 setlinecap
newpath
0.0000000 5.6500000 moveto
0.0000000 -5.6500000 lineto
stroke
grestore
gsave [-2.3865361e-17 -0.38976379 0.38976379 -2.3865361e-17 60.517270 105.53577] concat
0.0000000 0.0000000 0.0000000 setrgbcolor
newpath
8.7185878 4.0337352 moveto
-2.2072895 0.016013256 lineto
8.7185884 -4.0017078 lineto
6.9730900 -1.6296469 6.9831476 1.6157441 8.7185878 4.0337352 curveto
closepath
eofill
grestore
0.0000000 0.0000000 0.0000000 setrgbcolor
[] 0 setdash
0.35433072 setlinewidth
0 setlinejoin
0 setlinecap
newpath
147.49367 71.726120 moveto
147.49367 39.682173 147.49367 39.682173 147.49367 39.682173 curveto
stroke
gsave [1.7356626e-17 -0.28346457 0.28346457 1.7356626e-17 147.49367 71.726120] concat
0.0000000 0.0000000 0.0000000 setrgbcolor
[] 0 setdash
1.2500000 setlinewidth
0 setlinejoin
0 setlinecap
newpath
0.0000000 5.6500000 moveto
0.0000000 -5.6500000 lineto
stroke
grestore
gsave [-2.3865361e-17 0.38976379 -0.38976379 -2.3865361e-17 147.49367 37.733354] concat
0.0000000 0.0000000 0.0000000 setrgbcolor
newpath
8.7185878 4.0337352 moveto
-2.2072895 0.016013256 lineto
8.7185884 -4.0017078 lineto
6.9730900 -1.6296469 6.9831476 1.6157441 8.7185878 4.0337352 curveto
closepath
eofill
grestore
gsave [1.0000000 0.0000000 0.0000000 1.0000000 20.874330 60.059490] concat
0.0000000 0.0000000 0.0000000 setrgbcolor
newpath
35.347120 30.589050 moveto
35.347114 31.253114 35.054146 31.746278 34.468214 32.068542 curveto
34.002715 32.322449 33.405384 32.449402 32.676222 32.449402 curveto
29.233839 32.449402 lineto
29.282667 32.268738 lineto
29.728630 32.262228 30.018344 32.229676 30.151808 32.171082 curveto
30.405713 32.060405 30.532666 31.811382 30.532667 31.424011 curveto
30.532667 26.448425 lineto
30.532666 26.002468 30.151807 25.779487 29.390089 25.779480 curveto
29.390089 25.554871 lineto
30.203890 25.499539 31.214631 25.471870 32.422316 25.471863 curveto
33.034291 25.471870 33.584421 25.584174 34.072706 25.808777 curveto
34.687935 26.095242 34.995552 26.498887 34.995558 27.019714 curveto
34.995552 27.892115 34.500761 28.401554 33.511183 28.548035 curveto
34.142688 28.684757 34.596789 28.896346 34.873487 29.182800 curveto
35.189237 29.501814 35.347114 29.970563 35.347120 30.589050 curveto
34.072706 27.239441 moveto
34.072701 26.236843 33.576283 25.735541 32.583448 25.735535 curveto
31.372511 25.735535 lineto
31.372511 28.499207 lineto
32.285597 28.499207 lineto
32.858510 28.499210 33.270293 28.435734 33.520948 28.308777 curveto
33.888782 28.123234 34.072701 27.766789 34.072706 27.239441 curveto
34.394972 30.549988 moveto
34.394967 29.990094 34.264759 29.550642 34.004347 29.231628 curveto
33.717884 28.886580 33.301218 28.714054 32.754347 28.714050 curveto
31.372511 28.714050 lineto
31.372511 31.472839 lineto
31.372509 31.974142 31.758251 32.224793 32.529737 32.224792 curveto
33.047312 32.224793 33.481882 32.076681 33.833448 31.780457 curveto
34.207792 31.467958 34.394967 31.057802 34.394972 30.549988 curveto
fill
0.0000000 0.0000000 0.0000000 setrgbcolor
[] 0 setdash
0.35433072 setlinewidth
0 setlinejoin
0 setlinecap
newpath
27.466233 23.110883 moveto
35.706103 23.110883 35.706103 23.110883 35.706103 23.110883 curveto
stroke
gsave [-0.21259843 0.0000000 0.0000000 -0.21259843 36.769095 23.110883] concat
0.0000000 0.0000000 0.0000000 setrgbcolor
newpath
8.7185878 4.0337352 moveto
-2.2072895 0.016013256 lineto
8.7185884 -4.0017078 lineto
6.9730900 -1.6296469 6.9831476 1.6157441 8.7185878 4.0337352 curveto
closepath
eofill
grestore
grestore
gsave [1.0000000 0.0000000 0.0000000 1.0000000 86.427070 77.637880] concat
0.0000000 0.0000000 0.0000000 setrgbcolor
newpath
35.347120 30.589050 moveto
35.347114 31.253114 35.054146 31.746278 34.468214 32.068542 curveto
34.002715 32.322449 33.405384 32.449402 32.676222 32.449402 curveto
29.233839 32.449402 lineto
29.282667 32.268738 lineto
29.728630 32.262228 30.018344 32.229676 30.151808 32.171082 curveto
30.405713 32.060405 30.532666 31.811382 30.532667 31.424011 curveto
30.532667 26.448425 lineto
30.532666 26.002468 30.151807 25.779487 29.390089 25.779480 curveto
29.390089 25.554871 lineto
30.203890 25.499539 31.214631 25.471870 32.422316 25.471863 curveto
33.034291 25.471870 33.584421 25.584174 34.072706 25.808777 curveto
34.687935 26.095242 34.995552 26.498887 34.995558 27.019714 curveto
34.995552 27.892115 34.500761 28.401554 33.511183 28.548035 curveto
34.142688 28.684757 34.596789 28.896346 34.873487 29.182800 curveto
35.189237 29.501814 35.347114 29.970563 35.347120 30.589050 curveto
34.072706 27.239441 moveto
34.072701 26.236843 33.576283 25.735541 32.583448 25.735535 curveto
31.372511 25.735535 lineto
31.372511 28.499207 lineto
32.285597 28.499207 lineto
32.858510 28.499210 33.270293 28.435734 33.520948 28.308777 curveto
33.888782 28.123234 34.072701 27.766789 34.072706 27.239441 curveto
34.394972 30.549988 moveto
34.394967 29.990094 34.264759 29.550642 34.004347 29.231628 curveto
33.717884 28.886580 33.301218 28.714054 32.754347 28.714050 curveto
31.372511 28.714050 lineto
31.372511 31.472839 lineto
31.372509 31.974142 31.758251 32.224793 32.529737 32.224792 curveto
33.047312 32.224793 33.481882 32.076681 33.833448 31.780457 curveto
34.207792 31.467958 34.394967 31.057802 34.394972 30.549988 curveto
fill
0.0000000 0.0000000 0.0000000 setrgbcolor
[] 0 setdash
0.35433072 setlinewidth
0 setlinejoin
0 setlinecap
newpath
27.466233 23.110883 moveto
35.706103 23.110883 35.706103 23.110883 35.706103 23.110883 curveto
stroke
gsave [-0.21259843 0.0000000 0.0000000 -0.21259843 36.769095 23.110883] concat
0.0000000 0.0000000 0.0000000 setrgbcolor
newpath
8.7185878 4.0337352 moveto
-2.2072895 0.016013256 lineto
8.7185884 -4.0017078 lineto
6.9730900 -1.6296469 6.9831476 1.6157441 8.7185878 4.0337352 curveto
closepath
eofill
grestore
grestore
gsave [1.0000000 0.0000000 0.0000000 1.0000000 122.13320 27.100010] concat
0.0000000 0.0000000 0.0000000 setrgbcolor
newpath
35.347120 30.589050 moveto
35.347114 31.253114 35.054146 31.746278 34.468214 32.068542 curveto
34.002715 32.322449 33.405384 32.449402 32.676222 32.449402 curveto
29.233839 32.449402 lineto
29.282667 32.268738 lineto
29.728630 32.262228 30.018344 32.229676 30.151808 32.171082 curveto
30.405713 32.060405 30.532666 31.811382 30.532667 31.424011 curveto
30.532667 26.448425 lineto
30.532666 26.002468 30.151807 25.779487 29.390089 25.779480 curveto
29.390089 25.554871 lineto
30.203890 25.499539 31.214631 25.471870 32.422316 25.471863 curveto
33.034291 25.471870 33.584421 25.584174 34.072706 25.808777 curveto
34.687935 26.095242 34.995552 26.498887 34.995558 27.019714 curveto
34.995552 27.892115 34.500761 28.401554 33.511183 28.548035 curveto
34.142688 28.684757 34.596789 28.896346 34.873487 29.182800 curveto
35.189237 29.501814 35.347114 29.970563 35.347120 30.589050 curveto
34.072706 27.239441 moveto
34.072701 26.236843 33.576283 25.735541 32.583448 25.735535 curveto
31.372511 25.735535 lineto
31.372511 28.499207 lineto
32.285597 28.499207 lineto
32.858510 28.499210 33.270293 28.435734 33.520948 28.308777 curveto
33.888782 28.123234 34.072701 27.766789 34.072706 27.239441 curveto
34.394972 30.549988 moveto
34.394967 29.990094 34.264759 29.550642 34.004347 29.231628 curveto
33.717884 28.886580 33.301218 28.714054 32.754347 28.714050 curveto
31.372511 28.714050 lineto
31.372511 31.472839 lineto
31.372509 31.974142 31.758251 32.224793 32.529737 32.224792 curveto
33.047312 32.224793 33.481882 32.076681 33.833448 31.780457 curveto
34.207792 31.467958 34.394967 31.057802 34.394972 30.549988 curveto
fill
0.0000000 0.0000000 0.0000000 setrgbcolor
[] 0 setdash
0.35433072 setlinewidth
0 setlinejoin
0 setlinecap
newpath
27.466233 23.110883 moveto
35.706103 23.110883 35.706103 23.110883 35.706103 23.110883 curveto
stroke
gsave [-0.21259843 0.0000000 0.0000000 -0.21259843 36.769095 23.110883] concat
0.0000000 0.0000000 0.0000000 setrgbcolor
newpath
8.7185878 4.0337352 moveto
-2.2072895 0.016013256 lineto
8.7185884 -4.0017078 lineto
6.9730900 -1.6296469 6.9831476 1.6157441 8.7185878 4.0337352 curveto
closepath
eofill
grestore
grestore
0.0000000 0.0000000 0.0000000 setrgbcolor
[] 0 setdash
0.32727042 setlinewidth
0 setlinejoin
0 setlinecap
newpath
109.85737 63.924713 moveto
145.39548 83.922114 lineto
145.39548 83.922114 lineto
stroke
gsave [0.17112969 0.096295189 -0.096295189 0.17112969 111.22641 64.695075] concat
0.0000000 0.0000000 0.0000000 setrgbcolor
newpath
0.0000000 0.0000000 moveto
5.0000000 -5.0000000 lineto
-12.500000 0.0000000 lineto
5.0000000 5.0000000 lineto
0.0000000 0.0000000 lineto
closepath
eofill
0.0000000 0.0000000 0.0000000 setrgbcolor
[] 0 setdash
1.2500000 setlinewidth
0 setlinejoin
0 setlinecap
newpath
0.0000000 0.0000000 moveto
5.0000000 -5.0000000 lineto
-12.500000 0.0000000 lineto
5.0000000 5.0000000 lineto
0.0000000 0.0000000 lineto
closepath
stroke
0.0000000 0.0000000 0.0000000 setrgbcolor
[] 0 setdash
1.5000000 setlinewidth
0 setlinejoin
0 setlinecap
newpath
-14.759949 -7.0000000 moveto
-14.759949 65.000000 lineto
stroke
grestore
gsave [-0.17112969 -0.096295189 -0.096295189 0.17112969 144.02644 83.151752] concat
0.0000000 0.0000000 0.0000000 setrgbcolor
newpath
0.0000000 0.0000000 moveto
5.0000000 -5.0000000 lineto
-12.500000 0.0000000 lineto
5.0000000 5.0000000 lineto
0.0000000 0.0000000 lineto
closepath
eofill
0.0000000 0.0000000 0.0000000 setrgbcolor
[] 0 setdash
1.2500000 setlinewidth
0 setlinejoin
0 setlinecap
newpath
0.0000000 0.0000000 moveto
5.0000000 -5.0000000 lineto
-12.500000 0.0000000 lineto
5.0000000 5.0000000 lineto
0.0000000 0.0000000 lineto
closepath
stroke
0.0000000 0.0000000 0.0000000 setrgbcolor
[] 0 setdash
1.5000000 setlinewidth
0 setlinejoin
0 setlinecap
newpath
-14.759949 -7.0000000 moveto
-14.759949 65.000000 lineto
stroke
grestore
0.0000000 0.0000000 0.0000000 setrgbcolor
newpath
132.73873 72.071587 moveto
132.51086 72.149712 132.28137 72.229465 132.05025 72.310844 curveto
131.78658 72.411756 131.56848 72.514295 131.39596 72.618462 curveto
131.36666 72.637993 131.33573 72.647758 131.30318 72.647758 curveto
131.24459 72.647758 131.20715 72.585909 131.19088 72.462212 curveto
131.17786 72.374321 131.17460 72.252251 131.18111 72.096001 curveto
131.19413 71.881158 131.20064 71.793267 131.20065 71.832329 curveto
130.92720 72.001600 130.65377 72.172498 130.38033 72.345024 curveto
130.08085 72.514295 129.76510 72.598930 129.43307 72.598930 curveto
128.91549 72.598930 128.48743 72.354790 128.14889 71.866508 curveto
127.84615 71.430312 127.69479 70.943659 127.69479 70.406548 curveto
127.69479 69.706681 127.89986 69.143530 128.31002 68.717094 curveto
128.79179 68.219052 129.34355 67.970029 129.96529 67.970024 curveto
130.47961 67.970029 130.89140 68.057919 131.20065 68.233696 curveto
131.20065 66.295219 lineto
131.20064 66.047830 131.01998 65.924132 130.65865 65.924126 curveto
130.65540 65.924132 130.54960 65.929015 130.34127 65.938774 curveto
130.34127 65.767876 lineto
130.84582 65.702778 131.35364 65.535135 131.86471 65.264946 curveto
131.86471 71.607719 lineto
131.86470 71.689100 131.89726 71.765598 131.96236 71.837212 curveto
132.02746 71.905572 132.09908 71.939751 132.17721 71.939751 curveto
132.24231 71.939751 132.33671 71.933241 132.46041 71.920219 curveto
132.58410 71.907199 132.67688 71.900689 132.73873 71.900688 curveto
132.73873 72.071587 lineto
131.20065 71.641899 moveto
131.20065 69.127251 lineto
130.97603 68.808244 130.76770 68.591773 130.57565 68.477837 curveto
130.36080 68.354143 130.06783 68.292294 129.69674 68.292290 curveto
129.23124 68.292294 128.89107 68.541317 128.67623 69.039360 curveto
128.52324 69.397436 128.44674 69.841772 128.44674 70.372368 curveto
128.44674 70.789036 128.57532 71.178033 128.83248 71.539360 curveto
129.11568 71.933241 129.45748 72.130181 129.85787 72.130180 curveto
130.13456 72.130181 130.58215 71.967421 131.20065 71.641899 curveto
fill
gsave [1.0000000 0.0000000 0.0000000 1.0000000 -0.18310800 0.18310800] concat
gsave [1.0000000 0.0000000 0.0000000 1.0000000 19.867230 -36.713190] concat
0.0000000 0.0000000 0.0000000 setrgbcolor
[] 0 setdash
0.35433072 setlinewidth
0 setlinejoin
0 setlinecap
newpath
89.539918 64.493340 moveto
89.539918 67.626687 86.996911 70.169694 83.863564 70.169694 curveto
80.730216 70.169694 78.187209 67.626687 78.187209 64.493340 curveto
78.187209 61.359992 80.730216 58.816985 83.863564 58.816985 curveto
86.996911 58.816985 89.539918 61.359992 89.539918 64.493340 curveto
closepath
stroke
grestore
gsave [1.0000000 0.0000000 0.0000000 1.0000000 31.677710 -33.508810] concat
0.0000000 0.0000000 0.0000000 setrgbcolor
newpath
73.426397 61.288948 moveto
73.426397 62.047016 72.811153 62.662260 72.053085 62.662260 curveto
71.295017 62.662260 70.679774 62.047016 70.679774 61.288948 curveto
70.679774 60.530880 71.295017 59.915636 72.053085 59.915636 curveto
72.811153 59.915636 73.426397 60.530880 73.426397 61.288948 curveto
closepath
fill
0.0000000 0.0000000 0.0000000 setrgbcolor
[] 0 setdash
0.35433072 setlinewidth
0 setlinejoin
0 setlinecap
newpath
73.426397 61.288948 moveto
73.426397 62.047016 72.811153 62.662260 72.053085 62.662260 curveto
71.295017 62.662260 70.679774 62.047016 70.679774 61.288948 curveto
70.679774 60.530880 71.295017 59.915636 72.053085 59.915636 curveto
72.811153 59.915636 73.426397 60.530880 73.426397 61.288948 curveto
closepath
stroke
grestore
grestore
0.0000000 0.0000000 0.0000000 setrgbcolor
[] 0 setdash
0.24837017 setlinewidth
0 setlinejoin
0 setlinecap
newpath
103.54770 28.056238 moveto
103.54770 43.800679 103.54770 43.800679 103.54770 43.800679 curveto
stroke
gsave [1.2166228e-17 0.19869614 -0.19869614 1.2166228e-17 103.54770 28.056238] concat
0.0000000 0.0000000 0.0000000 setrgbcolor
[] 0 setdash
1.2500000 setlinewidth
0 setlinejoin
0 setlinecap
newpath
0.0000000 5.6500000 moveto
0.0000000 -5.6500000 lineto
stroke
grestore
gsave [-1.6728563e-17 -0.27320719 0.27320719 -1.6728563e-17 103.54770 45.166715] concat
0.0000000 0.0000000 0.0000000 setrgbcolor
newpath
8.7185878 4.0337352 moveto
-2.2072895 0.016013256 lineto
8.7185884 -4.0017078 lineto
6.9730900 -1.6296469 6.9831476 1.6157441 8.7185878 4.0337352 curveto
closepath
eofill
grestore
gsave [1.0000000 0.0000000 0.0000000 1.0000000 69.581030 -29.114210] concat
0.0000000 0.0000000 0.0000000 setrgbcolor
newpath
48.880043 52.178726 moveto
48.494301 53.873062 lineto
42.996254 53.873062 lineto
42.996254 53.692398 lineto
43.774248 53.682633 44.163245 53.461279 44.163246 53.028336 curveto
44.163246 47.774429 lineto
44.163245 47.478212 44.055823 47.284527 43.840981 47.193375 curveto
43.717282 47.144553 43.474769 47.120139 43.113441 47.120132 curveto
43.113441 46.949234 lineto
46.214027 46.949234 lineto
46.214027 47.105484 lineto
46.140785 47.100601 lineto
45.890131 47.097353 45.659012 47.146181 45.447426 47.247086 curveto
45.180497 47.374045 45.047033 47.551454 45.047035 47.779312 curveto
45.047035 52.940445 lineto
45.047033 53.301774 45.185379 53.482438 45.462074 53.482437 curveto
47.527504 53.482437 lineto
47.846510 53.482438 48.111809 53.335953 48.323402 53.042984 curveto
48.495923 52.808610 48.614738 52.514014 48.679848 52.159195 curveto
48.880043 52.178726 lineto
fill
0.0000000 0.0000000 0.0000000 setrgbcolor
[] 0 setdash
0.35433072 setlinewidth
0 setlinejoin
0 setlinecap
newpath
41.199350 44.534545 moveto
49.439220 44.534545 49.439220 44.534545 49.439220 44.534545 curveto
stroke
gsave [-0.21259843 0.0000000 0.0000000 -0.21259843 50.502212 44.534545] concat
0.0000000 0.0000000 0.0000000 setrgbcolor
newpath
8.7185878 4.0337352 moveto
-2.2072895 0.016013256 lineto
8.7185884 -4.0017078 lineto
6.9730900 -1.6296469 6.9831476 1.6157441 8.7185878 4.0337352 curveto
closepath
eofill
grestore
grestore
0.0000000 0.0000000 0.0000000 setrgbcolor
newpath
105.73982 63.939621 moveto
103.17781 63.939621 lineto
103.17781 63.785812 lineto
103.79890 63.785813 104.10945 63.535325 104.10945 63.034348 curveto
104.10945 58.393723 lineto
103.95125 58.487478 103.79451 58.581228 103.63924 58.674973 curveto
103.45174 58.780446 103.28621 58.852224 103.14265 58.890305 curveto
103.05916 58.696945 lineto
103.64802 58.403982 104.15339 58.046560 104.57527 57.624680 curveto
104.83894 57.624680 lineto
104.83894 63.034348 lineto
104.83894 63.336106 104.91658 63.541184 105.07185 63.649582 curveto
105.19783 63.740402 105.42048 63.785813 105.73982 63.785812 curveto
105.73982 63.939621 lineto
fill
0.0000000 0.0000000 0.0000000 setrgbcolor
newpath
123.07942 25.520605 moveto
123.07942 25.576270 122.95051 25.993750 122.69270 26.773046 curveto
119.01448 26.773046 lineto
118.93098 26.513769 lineto
120.88801 24.934669 121.86653 23.499124 121.86653 22.207129 curveto
121.86653 21.451274 121.52376 21.073345 120.83821 21.073339 curveto
120.07649 21.073345 119.49641 21.432232 119.09798 22.150000 curveto
118.90462 22.066504 lineto
119.06282 21.629985 119.33235 21.262310 119.71321 20.963476 curveto
120.11458 20.647076 120.53938 20.488873 120.98763 20.488867 curveto
121.40071 20.488873 121.74788 20.614850 122.02913 20.866796 curveto
122.32209 21.130474 122.46858 21.465923 122.46858 21.873144 curveto
122.46858 23.176859 121.58528 24.613869 119.81868 26.184179 curveto
122.22249 26.184179 lineto
122.38362 26.184180 122.53743 26.059668 122.68391 25.810644 curveto
122.83039 25.561622 122.89778 25.437110 122.88606 25.437109 curveto
122.90950 25.437110 122.94319 25.450294 122.98714 25.476660 curveto
123.03108 25.500099 123.06184 25.514747 123.07942 25.520605 curveto
fill
grestore
showpage
