%!PS-Adobe-2.0
%%Creator: inkscape 0.41.1
%%Pages: 1
%%Orientation: Portrait
%%BoundingBox: 20 801 125 836
%%HiResBoundingBox: 20.694070 801.61400 124.65532 835.55467
%%EndComments
%%Page: 1 1
0 842 translate
0.80000000 -0.80000000 scale
gsave [1.0000000 0.0000000 0.0000000 1.0000000 0.0000000 0.0000000] concat
0.0000000 0.0000000 0.0000000 setrgbcolor
[] 0 setdash
1.0000000 setlinewidth
0 setlinejoin
0 setlinecap
newpath
26.367588 49.844683 moveto
58.045299 49.844683 lineto
stroke
gsave [0.40000000 0.0000000 0.0000000 0.40000000 26.367588 49.844683] concat
0.0000000 0.0000000 0.0000000 setrgbcolor
[] 0 setdash
1.2500000 setlinewidth
0 setlinejoin
0 setlinecap
newpath
0.0000000 5.6500000 moveto
0.0000000 -5.6500000 lineto
stroke
grestore
gsave [-0.60000000 0.0000000 0.0000000 -0.60000000 61.045299 49.844683] concat
0.0000000 0.0000000 0.0000000 setrgbcolor
newpath
8.7185878 4.0337352 moveto
-2.2072895 0.016013256 lineto
8.7185884 -4.0017078 lineto
6.9730900 -1.6296469 6.9831476 1.6157441 8.7185878 4.0337352 curveto
closepath
eofill
grestore
gsave [1.0000000 0.0000000 0.0000000 1.0000000 -18.310860 -4.5777050] concat
0.0000000 0.0000000 0.0000000 setrgbcolor
newpath
53.677490 29.109592 moveto
53.501709 29.109592 lineto
53.501704 28.461812 53.215246 28.137919 52.642334 28.137913 curveto
50.440186 28.137913 lineto
50.440186 30.759983 lineto
52.261475 30.759983 lineto
52.456783 30.759987 52.611406 30.683490 52.725342 30.530491 curveto
52.822994 30.397032 52.871822 30.226133 52.871826 30.017796 curveto
53.008545 30.017796 lineto
53.008545 31.922092 lineto
52.871826 31.922092 lineto
52.871822 31.388242 52.668372 31.121315 52.261475 31.121311 curveto
50.440186 31.121311 lineto
50.440186 33.772678 lineto
50.440184 34.208877 50.734780 34.426975 51.323975 34.426975 curveto
51.323975 34.646702 lineto
48.770264 34.646702 lineto
48.770264 34.426975 lineto
49.310628 34.426975 49.580810 34.189345 49.580811 33.714085 curveto
49.580811 28.450413 lineto
49.580810 28.095602 49.310628 27.919821 48.770264 27.923069 curveto
48.770264 27.713108 lineto
53.560303 27.713108 lineto
53.677490 29.109592 lineto
fill
0.0000000 0.0000000 0.0000000 setrgbcolor
[] 0 setdash
0.35433072 setlinewidth
0 setlinejoin
0 setlinecap
newpath
46.326380 25.308182 moveto
54.566250 25.308182 54.566250 25.308182 54.566250 25.308182 curveto
stroke
gsave [-0.21259843 0.0000000 0.0000000 -0.21259843 55.629242 25.308182] concat
0.0000000 0.0000000 0.0000000 setrgbcolor
newpath
8.7185878 4.0337352 moveto
-2.2072895 0.016013256 lineto
8.7185884 -4.0017078 lineto
6.9730900 -1.6296469 6.9831476 1.6157441 8.7185878 4.0337352 curveto
closepath
eofill
grestore
grestore
0.0000000 0.0000000 0.0000000 setrgbcolor
[] 0 setdash
0.53909457 setlinewidth
0 setlinejoin
0 setlinecap
newpath
26.367587 49.283835 moveto
26.367587 25.869034 lineto
stroke
gsave [-1.9805359e-17 0.32345674 -0.32345674 -1.9805359e-17 26.367587 24.251750] concat
0.0000000 0.0000000 0.0000000 setrgbcolor
newpath
8.7185878 4.0337352 moveto
-2.2072895 0.016013256 lineto
8.7185884 -4.0017078 lineto
6.9730900 -1.6296469 6.9831476 1.6157441 8.7185878 4.0337352 curveto
closepath
eofill
grestore
gsave [1.0000000 0.0000000 0.0000000 1.0000000 65.918960 -10.070950] concat
0.0000000 0.0000000 0.0000000 setrgbcolor
newpath
11.909232 39.744465 moveto
11.909226 40.408529 11.616257 40.901692 11.030325 41.223957 curveto
10.564826 41.477863 9.9674958 41.604816 9.2383332 41.604816 curveto
5.7959504 41.604816 lineto
5.8447785 41.424152 lineto
6.2907416 41.417642 6.5804549 41.385090 6.7139192 41.326496 curveto
6.9678243 41.215819 7.0947773 40.966796 7.0947785 40.579426 curveto
7.0947785 35.603840 lineto
7.0947773 35.157883 6.7139183 34.934901 5.9522004 34.934895 curveto
5.9522004 34.710285 lineto
6.7660016 34.654954 7.7767428 34.627284 8.9844270 34.627277 curveto
9.5964024 34.627284 10.146532 34.739589 10.634818 34.964191 curveto
11.250047 35.250656 11.557663 35.654302 11.557669 36.175129 curveto
11.557663 37.047529 11.062872 37.556969 10.073294 37.703449 curveto
10.704800 37.840172 11.158901 38.051760 11.435599 38.338215 curveto
11.751348 38.657228 11.909226 39.125978 11.909232 39.744465 curveto
10.634818 36.394855 moveto
10.634813 35.392258 10.138394 34.890956 9.1455598 34.890949 curveto
7.9346223 34.890949 lineto
7.9346223 37.654621 lineto
8.8477082 37.654621 lineto
9.4206213 37.654625 9.8324048 37.591149 10.083060 37.464191 curveto
10.450894 37.278649 10.634813 36.922204 10.634818 36.394855 curveto
10.957083 39.705402 moveto
10.957078 39.145509 10.826870 38.706056 10.566458 38.387043 curveto
10.279995 38.041994 9.8633292 37.869469 9.3164582 37.869465 curveto
7.9346223 37.869465 lineto
7.9346223 40.628254 lineto
7.9346202 41.129556 8.3203620 41.380207 9.0918489 41.380207 curveto
9.6094232 41.380207 10.043993 41.232095 10.395560 40.935871 curveto
10.769904 40.623372 10.957078 40.213216 10.957083 39.705402 curveto
fill
0.0000000 0.0000000 0.0000000 setrgbcolor
[] 0 setdash
0.35433072 setlinewidth
0 setlinejoin
0 setlinecap
newpath
3.4790200 32.266296 moveto
11.718890 32.266296 11.718890 32.266296 11.718890 32.266296 curveto
stroke
gsave [-0.21259843 0.0000000 0.0000000 -0.21259843 12.781882 32.266296] concat
0.0000000 0.0000000 0.0000000 setrgbcolor
newpath
8.7185878 4.0337352 moveto
-2.2072895 0.016013256 lineto
8.7185884 -4.0017078 lineto
6.9730900 -1.6296469 6.9831476 1.6157441 8.7185878 4.0337352 curveto
closepath
eofill
grestore
grestore
gsave [1.0000000 0.0000000 0.0000000 1.0000000 2.1972990 2.1972990] concat
0.0000000 0.0000000 0.0000000 setrgbcolor
newpath
43.931210 39.700558 moveto
43.911678 39.876339 lineto
43.745658 39.876343 43.581270 39.952841 43.418514 40.105831 curveto
43.278536 40.236043 43.171114 40.387410 43.096249 40.559933 curveto
41.489803 44.217159 lineto
41.226131 44.217159 lineto
39.600155 40.462276 lineto
39.427628 40.071656 39.141170 39.876343 38.740780 39.876339 curveto
38.740780 39.700558 lineto
40.967342 39.700558 lineto
40.967342 39.876339 lineto
40.492080 39.876343 40.254450 39.964234 40.254452 40.140011 curveto
40.254450 40.192098 40.656468 41.181680 41.460506 43.108761 curveto
41.483290 43.160845 41.507704 43.186887 41.533749 43.186886 curveto
41.569553 43.186887 41.602105 43.154335 41.631405 43.089230 curveto
42.695858 40.716183 lineto
42.764213 40.563192 42.798393 40.429728 42.798397 40.315792 curveto
42.798393 40.009807 42.542859 39.856812 42.031796 39.856808 curveto
42.085506 39.700558 lineto
43.931210 39.700558 lineto
fill
0.0000000 0.0000000 0.0000000 setrgbcolor
[] 0 setdash
0.35433072 setlinewidth
0 setlinejoin
0 setlinecap
newpath
36.621605 36.477784 moveto
44.861475 36.477784 44.861475 36.477784 44.861475 36.477784 curveto
stroke
gsave [-0.21259843 0.0000000 0.0000000 -0.21259843 45.924467 36.477784] concat
0.0000000 0.0000000 0.0000000 setrgbcolor
newpath
8.7185878 4.0337352 moveto
-2.2072895 0.016013256 lineto
8.7185884 -4.0017078 lineto
6.9730900 -1.6296469 6.9831476 1.6157441 8.7185878 4.0337352 curveto
closepath
eofill
grestore
grestore
0.0000000 0.0000000 0.0000000 setrgbcolor
[1.0629922 1.0629922] 0.0000000 setdash
0.35433072 setlinewidth
0 setlinejoin
0 setlinecap
newpath
26.184475 49.844683 moveto
26.184475 49.844683 79.468971 53.140631 155.64199 8.0960087 curveto
stroke
gsave [-0.33549375 0.19839294 -0.19839294 -0.33549375 157.31946 7.1040440] concat
0.0000000 0.0000000 0.0000000 setrgbcolor
newpath
8.7185878 4.0337352 moveto
-2.2072895 0.016013256 lineto
8.7185884 -4.0017078 lineto
6.9730900 -1.6296469 6.9831476 1.6157441 8.7185878 4.0337352 curveto
closepath
eofill
grestore
gsave [1.0000000 0.0000000 0.0000000 1.0000000 -17.303710 -0.091556440] concat
gsave [1.0000000 0.0000000 0.0000000 1.0000000 19.867230 -36.713190] concat
0.0000000 0.0000000 0.0000000 setrgbcolor
[] 0 setdash
0.35433072 setlinewidth
0 setlinejoin
0 setlinecap
newpath
89.539918 64.493340 moveto
89.539918 67.626687 86.996911 70.169694 83.863564 70.169694 curveto
80.730216 70.169694 78.187209 67.626687 78.187209 64.493340 curveto
78.187209 61.359992 80.730216 58.816985 83.863564 58.816985 curveto
86.996911 58.816985 89.539918 61.359992 89.539918 64.493340 curveto
closepath
stroke
grestore
gsave [1.0000000 0.0000000 0.0000000 1.0000000 31.677710 -33.508810] concat
0.0000000 0.0000000 0.0000000 setrgbcolor
newpath
73.426397 61.288948 moveto
73.426397 62.047016 72.811153 62.662260 72.053085 62.662260 curveto
71.295017 62.662260 70.679774 62.047016 70.679774 61.288948 curveto
70.679774 60.530880 71.295017 59.915636 72.053085 59.915636 curveto
72.811153 59.915636 73.426397 60.530880 73.426397 61.288948 curveto
closepath
fill
0.0000000 0.0000000 0.0000000 setrgbcolor
[] 0 setdash
0.35433072 setlinewidth
0 setlinejoin
0 setlinecap
newpath
73.426397 61.288948 moveto
73.426397 62.047016 72.811153 62.662260 72.053085 62.662260 curveto
71.295017 62.662260 70.679774 62.047016 70.679774 61.288948 curveto
70.679774 60.530880 71.295017 59.915636 72.053085 59.915636 curveto
72.811153 59.915636 73.426397 60.530880 73.426397 61.288948 curveto
closepath
stroke
grestore
grestore
grestore
showpage
