%!PS-Adobe-2.0
%%Creator: inkscape 0.41.1
%%Pages: 1
%%Orientation: Portrait
%%BoundingBox: 26 691 138 838
%%HiResBoundingBox: 26.114074 691.87239 137.61958 837.07569
%%EndComments
%%Page: 1 1
0 842 translate
0.80000000 -0.80000000 scale
gsave [1.0000000 0.0000000 0.0000000 1.0000000 0.0000000 0.0000000] concat
0.0000000 0.0000000 0.0000000 setrgbcolor
[] 0 setdash
1.0000000 setlinewidth
0 setlinejoin
0 setlinecap
newpath
33.142592 176.00625 moveto
64.820303 176.00625 lineto
stroke
gsave [0.40000000 0.0000000 0.0000000 0.40000000 33.142592 176.00625] concat
0.0000000 0.0000000 0.0000000 setrgbcolor
[] 0 setdash
1.2500000 setlinewidth
0 setlinejoin
0 setlinecap
newpath
0.0000000 5.6500000 moveto
0.0000000 -5.6500000 lineto
stroke
grestore
gsave [-0.60000000 0.0000000 0.0000000 -0.60000000 67.820303 176.00625] concat
0.0000000 0.0000000 0.0000000 setrgbcolor
newpath
8.7185878 4.0337352 moveto
-2.2072895 0.016013256 lineto
8.7185884 -4.0017078 lineto
6.9730900 -1.6296469 6.9831476 1.6157441 8.7185878 4.0337352 curveto
closepath
eofill
grestore
gsave [1.0000000 0.0000000 0.0000000 1.0000000 -11.535860 121.58390] concat
0.0000000 0.0000000 0.0000000 setrgbcolor
newpath
53.677490 29.109592 moveto
53.501709 29.109592 lineto
53.501704 28.461812 53.215246 28.137919 52.642334 28.137913 curveto
50.440186 28.137913 lineto
50.440186 30.759983 lineto
52.261475 30.759983 lineto
52.456783 30.759987 52.611406 30.683490 52.725342 30.530491 curveto
52.822994 30.397032 52.871822 30.226133 52.871826 30.017796 curveto
53.008545 30.017796 lineto
53.008545 31.922092 lineto
52.871826 31.922092 lineto
52.871822 31.388242 52.668372 31.121315 52.261475 31.121311 curveto
50.440186 31.121311 lineto
50.440186 33.772678 lineto
50.440184 34.208877 50.734780 34.426975 51.323975 34.426975 curveto
51.323975 34.646702 lineto
48.770264 34.646702 lineto
48.770264 34.426975 lineto
49.310628 34.426975 49.580810 34.189345 49.580811 33.714085 curveto
49.580811 28.450413 lineto
49.580810 28.095602 49.310628 27.919821 48.770264 27.923069 curveto
48.770264 27.713108 lineto
53.560303 27.713108 lineto
53.677490 29.109592 lineto
fill
0.0000000 0.0000000 0.0000000 setrgbcolor
[] 0 setdash
0.35433072 setlinewidth
0 setlinejoin
0 setlinecap
newpath
46.326380 25.308182 moveto
54.566250 25.308182 54.566250 25.308182 54.566250 25.308182 curveto
stroke
gsave [-0.21259843 0.0000000 0.0000000 -0.21259843 55.629242 25.308182] concat
0.0000000 0.0000000 0.0000000 setrgbcolor
newpath
8.7185878 4.0337352 moveto
-2.2072895 0.016013256 lineto
8.7185884 -4.0017078 lineto
6.9730900 -1.6296469 6.9831476 1.6157441 8.7185878 4.0337352 curveto
closepath
eofill
grestore
grestore
0.0000000 0.0000000 0.0000000 setrgbcolor
[] 0 setdash
0.53909457 setlinewidth
0 setlinejoin
0 setlinecap
newpath
33.142591 175.44540 moveto
33.142591 152.03060 lineto
stroke
gsave [-1.9805359e-17 0.32345674 -0.32345674 -1.9805359e-17 33.142591 150.41332] concat
0.0000000 0.0000000 0.0000000 setrgbcolor
newpath
8.7185878 4.0337352 moveto
-2.2072895 0.016013256 lineto
8.7185884 -4.0017078 lineto
6.9730900 -1.6296469 6.9831476 1.6157441 8.7185878 4.0337352 curveto
closepath
eofill
grestore
gsave [1.0000000 0.0000000 0.0000000 1.0000000 72.693960 116.09060] concat
0.0000000 0.0000000 0.0000000 setrgbcolor
newpath
11.909232 39.744465 moveto
11.909226 40.408529 11.616257 40.901692 11.030325 41.223957 curveto
10.564826 41.477863 9.9674958 41.604816 9.2383332 41.604816 curveto
5.7959504 41.604816 lineto
5.8447785 41.424152 lineto
6.2907416 41.417642 6.5804549 41.385090 6.7139192 41.326496 curveto
6.9678243 41.215819 7.0947773 40.966796 7.0947785 40.579426 curveto
7.0947785 35.603840 lineto
7.0947773 35.157883 6.7139183 34.934901 5.9522004 34.934895 curveto
5.9522004 34.710285 lineto
6.7660016 34.654954 7.7767428 34.627284 8.9844270 34.627277 curveto
9.5964024 34.627284 10.146532 34.739589 10.634818 34.964191 curveto
11.250047 35.250656 11.557663 35.654302 11.557669 36.175129 curveto
11.557663 37.047529 11.062872 37.556969 10.073294 37.703449 curveto
10.704800 37.840172 11.158901 38.051760 11.435599 38.338215 curveto
11.751348 38.657228 11.909226 39.125978 11.909232 39.744465 curveto
10.634818 36.394855 moveto
10.634813 35.392258 10.138394 34.890956 9.1455598 34.890949 curveto
7.9346223 34.890949 lineto
7.9346223 37.654621 lineto
8.8477082 37.654621 lineto
9.4206213 37.654625 9.8324048 37.591149 10.083060 37.464191 curveto
10.450894 37.278649 10.634813 36.922204 10.634818 36.394855 curveto
10.957083 39.705402 moveto
10.957078 39.145509 10.826870 38.706056 10.566458 38.387043 curveto
10.279995 38.041994 9.8633292 37.869469 9.3164582 37.869465 curveto
7.9346223 37.869465 lineto
7.9346223 40.628254 lineto
7.9346202 41.129556 8.3203620 41.380207 9.0918489 41.380207 curveto
9.6094232 41.380207 10.043993 41.232095 10.395560 40.935871 curveto
10.769904 40.623372 10.957078 40.213216 10.957083 39.705402 curveto
fill
0.0000000 0.0000000 0.0000000 setrgbcolor
[] 0 setdash
0.35433072 setlinewidth
0 setlinejoin
0 setlinecap
newpath
3.4790200 32.266296 moveto
11.718890 32.266296 11.718890 32.266296 11.718890 32.266296 curveto
stroke
gsave [-0.21259843 0.0000000 0.0000000 -0.21259843 12.781882 32.266296] concat
0.0000000 0.0000000 0.0000000 setrgbcolor
newpath
8.7185878 4.0337352 moveto
-2.2072895 0.016013256 lineto
8.7185884 -4.0017078 lineto
6.9730900 -1.6296469 6.9831476 1.6157441 8.7185878 4.0337352 curveto
closepath
eofill
grestore
grestore
gsave [1.0000000 0.0000000 0.0000000 1.0000000 2.1307190 125.38430] concat
0.0000000 0.0000000 0.0000000 setrgbcolor
newpath
43.931210 39.700558 moveto
43.911678 39.876339 lineto
43.745658 39.876343 43.581270 39.952841 43.418514 40.105831 curveto
43.278536 40.236043 43.171114 40.387410 43.096249 40.559933 curveto
41.489803 44.217159 lineto
41.226131 44.217159 lineto
39.600155 40.462276 lineto
39.427628 40.071656 39.141170 39.876343 38.740780 39.876339 curveto
38.740780 39.700558 lineto
40.967342 39.700558 lineto
40.967342 39.876339 lineto
40.492080 39.876343 40.254450 39.964234 40.254452 40.140011 curveto
40.254450 40.192098 40.656468 41.181680 41.460506 43.108761 curveto
41.483290 43.160845 41.507704 43.186887 41.533749 43.186886 curveto
41.569553 43.186887 41.602105 43.154335 41.631405 43.089230 curveto
42.695858 40.716183 lineto
42.764213 40.563192 42.798393 40.429728 42.798397 40.315792 curveto
42.798393 40.009807 42.542859 39.856812 42.031796 39.856808 curveto
42.085506 39.700558 lineto
43.931210 39.700558 lineto
fill
0.0000000 0.0000000 0.0000000 setrgbcolor
[] 0 setdash
0.35433072 setlinewidth
0 setlinejoin
0 setlinecap
newpath
36.621605 36.477784 moveto
44.861475 36.477784 44.861475 36.477784 44.861475 36.477784 curveto
stroke
gsave [-0.21259843 0.0000000 0.0000000 -0.21259843 45.924467 36.477784] concat
0.0000000 0.0000000 0.0000000 setrgbcolor
newpath
8.7185878 4.0337352 moveto
-2.2072895 0.016013256 lineto
8.7185884 -4.0017078 lineto
6.9730900 -1.6296469 6.9831476 1.6157441 8.7185878 4.0337352 curveto
closepath
eofill
grestore
grestore
0.0000000 0.0000000 0.0000000 setrgbcolor
[1.0629922 1.0629922] 0.0000000 setdash
0.35433072 setlinewidth
0 setlinejoin
0 setlinecap
newpath
32.959479 176.00625 moveto
32.959479 176.00625 86.243975 179.30220 162.41699 134.25757 curveto
stroke
gsave [-0.33549373 0.19839297 -0.19839297 -0.33549373 164.09446 133.26561] concat
0.0000000 0.0000000 0.0000000 setrgbcolor
newpath
8.7185878 4.0337352 moveto
-2.2072895 0.016013256 lineto
8.7185884 -4.0017078 lineto
6.9730900 -1.6296469 6.9831476 1.6157441 8.7185878 4.0337352 curveto
closepath
eofill
grestore
gsave [1.0000000 0.0000000 0.0000000 1.0000000 -10.528710 126.07000] concat
gsave [1.0000000 0.0000000 0.0000000 1.0000000 19.867230 -36.713190] concat
0.0000000 0.0000000 0.0000000 setrgbcolor
[] 0 setdash
0.35433072 setlinewidth
0 setlinejoin
0 setlinecap
newpath
89.539918 64.493340 moveto
89.539918 67.626687 86.996911 70.169694 83.863564 70.169694 curveto
80.730216 70.169694 78.187209 67.626687 78.187209 64.493340 curveto
78.187209 61.359992 80.730216 58.816985 83.863564 58.816985 curveto
86.996911 58.816985 89.539918 61.359992 89.539918 64.493340 curveto
closepath
stroke
grestore
gsave [1.0000000 0.0000000 0.0000000 1.0000000 31.677710 -33.508810] concat
0.0000000 0.0000000 0.0000000 setrgbcolor
newpath
73.426397 61.288948 moveto
73.426397 62.047016 72.811153 62.662260 72.053085 62.662260 curveto
71.295017 62.662260 70.679774 62.047016 70.679774 61.288948 curveto
70.679774 60.530880 71.295017 59.915636 72.053085 59.915636 curveto
72.811153 59.915636 73.426397 60.530880 73.426397 61.288948 curveto
closepath
fill
0.0000000 0.0000000 0.0000000 setrgbcolor
[] 0 setdash
0.35433072 setlinewidth
0 setlinejoin
0 setlinecap
newpath
73.426397 61.288948 moveto
73.426397 62.047016 72.811153 62.662260 72.053085 62.662260 curveto
71.295017 62.662260 70.679774 62.047016 70.679774 61.288948 curveto
70.679774 60.530880 71.295017 59.915636 72.053085 59.915636 curveto
72.811153 59.915636 73.426397 60.530880 73.426397 61.288948 curveto
closepath
stroke
grestore
grestore
0.0000000 0.0000000 0.0000000 setrgbcolor
[1.4173228 1.4173228] 0.0000000 setdash
0.35433072 setlinewidth
0 setlinejoin
0 setlinecap
newpath
33.018080 176.34195 moveto
33.018080 6.1947309 lineto
stroke
0.0000000 0.0000000 0.0000000 setrgbcolor
[1.4173228 1.4173228] 0.0000000 setdash
0.35433072 setlinewidth
0 setlinejoin
0 setlinecap
newpath
146.64787 142.72895 moveto
33.018080 6.1947309 lineto
stroke
0.0000000 0.0000000 0.0000000 setrgbcolor
[1.4173228 1.4173228] 0.0000000 setdash
0.35433072 setlinewidth
0 setlinejoin
0 setlinecap
newpath
33.018080 176.34195 moveto
148.73009 176.34195 lineto
stroke
0.0000000 0.0000000 0.0000000 setrgbcolor
newpath
42.150299 97.495468 moveto
42.096588 97.500351 lineto
41.787337 97.506861 41.432520 97.404322 41.032135 97.192734 curveto
40.634995 96.977891 40.356675 96.738633 40.197174 96.474960 curveto
39.049713 94.585312 lineto
38.893460 94.611356 38.738838 94.624377 38.585846 94.624374 curveto
38.361234 94.624377 38.065010 94.575549 37.697174 94.477890 curveto
37.692291 96.504257 lineto
37.692289 96.800482 37.807849 97.025091 38.038971 97.178085 curveto
38.240791 97.311549 38.494697 97.370143 38.800690 97.353867 curveto
38.834869 97.490585 lineto
38.829987 97.539413 lineto
35.861237 97.539413 lineto
35.890533 97.324570 lineto
35.944244 97.324570 lineto
36.276275 97.327825 36.507395 97.264349 36.637604 97.134140 curveto
36.771066 97.000677 36.837798 96.767930 36.837799 96.435898 curveto
36.837799 91.411484 lineto
36.837798 90.975292 36.522043 90.760449 35.890533 90.766953 curveto
35.890533 90.586288 lineto
36.343007 90.524446 37.008696 90.493522 37.887604 90.493515 curveto
38.864163 90.493522 39.585191 90.586295 40.050690 90.771835 curveto
40.789617 91.064811 41.159083 91.623078 41.159088 92.446640 curveto
41.159083 92.860056 41.030502 93.237660 40.773346 93.579453 curveto
40.538966 93.895211 40.224839 94.147490 39.830963 94.336288 curveto
41.310455 96.631210 lineto
41.577377 97.041367 41.845931 97.248073 42.116119 97.251328 curveto
42.150299 97.495468 lineto
40.133698 92.446640 moveto
40.133693 91.977896 39.990464 91.577505 39.704010 91.245468 curveto
39.401272 90.900423 39.018785 90.727897 38.556549 90.727890 curveto
38.445869 90.727897 38.302640 90.740918 38.126862 90.766953 curveto
37.902250 90.796256 37.759021 90.814160 37.697174 90.820663 curveto
37.697174 94.214218 lineto
37.918526 94.276070 38.245674 94.306995 38.678619 94.306992 curveto
39.189684 94.306995 39.570543 94.116565 39.821198 93.735703 curveto
40.029527 93.416696 40.133693 92.987009 40.133698 92.446640 curveto
fill
0.0000000 0.0000000 0.0000000 setrgbcolor
newpath
93.610909 89.761505 moveto
93.557198 89.766388 lineto
93.247947 89.772898 92.893129 89.670359 92.492744 89.458771 curveto
92.095604 89.243928 91.817284 89.004670 91.657784 88.740997 curveto
90.510323 86.851349 lineto
90.354069 86.877393 90.199447 86.890414 90.046455 86.890411 curveto
89.821843 86.890414 89.525620 86.841586 89.157784 86.743927 curveto
89.152901 88.770294 lineto
89.152899 89.066519 89.268458 89.291128 89.499580 89.444122 curveto
89.701401 89.577586 89.955307 89.636180 90.261299 89.619904 curveto
90.295479 89.756622 lineto
90.290596 89.805450 lineto
87.321846 89.805450 lineto
87.351143 89.590607 lineto
87.404854 89.590607 lineto
87.736884 89.593862 87.968004 89.530386 88.098213 89.400177 curveto
88.231676 89.266714 88.298407 89.033967 88.298409 88.701935 curveto
88.298409 83.677521 lineto
88.298407 83.241329 87.982652 83.026486 87.351143 83.032990 curveto
87.351143 82.852325 lineto
87.803616 82.790483 88.469306 82.759559 89.348213 82.759552 curveto
90.324773 82.759559 91.045800 82.852332 91.511299 83.037872 curveto
92.250226 83.330848 92.619692 83.889115 92.619698 84.712677 curveto
92.619692 85.126093 92.491112 85.503697 92.233955 85.845490 curveto
91.999576 86.161248 91.685448 86.413527 91.291573 86.602325 curveto
92.771065 88.897247 lineto
93.037986 89.307404 93.306540 89.514110 93.576729 89.517365 curveto
93.610909 89.761505 lineto
91.594307 84.712677 moveto
91.594303 84.243933 91.451073 83.843542 91.164619 83.511505 curveto
90.861881 83.166460 90.479395 82.993934 90.017159 82.993927 curveto
89.906479 82.993934 89.763250 83.006955 89.587471 83.032990 curveto
89.362859 83.062293 89.219630 83.080197 89.157784 83.086700 curveto
89.157784 86.480255 lineto
89.379135 86.542107 89.706284 86.573032 90.139229 86.573029 curveto
90.650293 86.573032 91.031152 86.382602 91.281807 86.001740 curveto
91.490136 85.682733 91.594303 85.253046 91.594307 84.712677 curveto
fill
0.0000000 0.0000000 0.0000000 setrgbcolor
[] 0 setdash
0.34743547 setlinewidth
0 setlinejoin
0 setlinecap
newpath
145.46488 187.34798 moveto
34.498530 187.34798 lineto
stroke
gsave [-0.20846128 2.5528301e-17 -2.5528301e-17 -0.20846128 143.79719 187.34798] concat
0.0000000 0.0000000 0.0000000 setrgbcolor
newpath
0.0000000 0.0000000 moveto
5.0000000 -5.0000000 lineto
-12.500000 0.0000000 lineto
5.0000000 5.0000000 lineto
0.0000000 0.0000000 lineto
closepath
eofill
0.0000000 0.0000000 0.0000000 setrgbcolor
[] 0 setdash
1.2500000 setlinewidth
0 setlinejoin
0 setlinecap
newpath
0.0000000 0.0000000 moveto
5.0000000 -5.0000000 lineto
-12.500000 0.0000000 lineto
5.0000000 5.0000000 lineto
0.0000000 0.0000000 lineto
closepath
stroke
0.0000000 0.0000000 0.0000000 setrgbcolor
[] 0 setdash
1.5000000 setlinewidth
0 setlinejoin
0 setlinecap
newpath
-14.759949 -7.0000000 moveto
-14.759949 65.000000 lineto
stroke
grestore
gsave [0.20846128 -2.5528301e-17 -2.5528301e-17 -0.20846128 36.166220 187.34798] concat
0.0000000 0.0000000 0.0000000 setrgbcolor
newpath
0.0000000 0.0000000 moveto
5.0000000 -5.0000000 lineto
-12.500000 0.0000000 lineto
5.0000000 5.0000000 lineto
0.0000000 0.0000000 lineto
closepath
eofill
0.0000000 0.0000000 0.0000000 setrgbcolor
[] 0 setdash
1.2500000 setlinewidth
0 setlinejoin
0 setlinecap
newpath
0.0000000 0.0000000 moveto
5.0000000 -5.0000000 lineto
-12.500000 0.0000000 lineto
5.0000000 5.0000000 lineto
0.0000000 0.0000000 lineto
closepath
stroke
0.0000000 0.0000000 0.0000000 setrgbcolor
[] 0 setdash
1.5000000 setlinewidth
0 setlinejoin
0 setlinecap
newpath
-14.759949 -7.0000000 moveto
-14.759949 65.000000 lineto
stroke
grestore
0.0000000 0.0000000 0.0000000 setrgbcolor
[] 0 setdash
0.35433072 setlinewidth
0 setlinejoin
0 setlinecap
newpath
146.87096 183.03481 moveto
146.87096 126.21991 lineto
stroke
0.0000000 0.0000000 0.0000000 setrgbcolor
newpath
139.89926 121.59796 moveto
139.49561 122.45734 138.85596 122.88702 137.98032 122.88702 curveto
137.41716 122.88702 136.94190 122.64126 136.55453 122.14972 curveto
136.19321 121.69074 136.01254 121.17316 136.01254 120.59698 curveto
136.01254 119.94269 136.19809 119.39256 136.56918 118.94659 curveto
136.96632 118.47134 137.48552 118.23371 138.12680 118.23370 curveto
138.63787 118.23371 139.05128 118.38833 139.36703 118.69757 curveto
139.68604 119.00682 139.84555 119.41860 139.84555 119.93292 curveto
136.69125 119.93292 lineto
136.67498 120.06964 136.66684 120.20962 136.66684 120.35284 curveto
136.66684 120.83787 136.81495 121.28384 137.11118 121.69073 curveto
137.43669 122.14321 137.83383 122.36945 138.30258 122.36945 curveto
138.91456 122.36945 139.38005 122.09438 139.69907 121.54425 curveto
139.73813 121.54425 lineto
139.80974 121.54100 139.86345 121.55890 139.89926 121.59796 curveto
139.09848 119.65460 moveto
139.08546 119.32257 138.96990 119.05239 138.75180 118.84406 curveto
138.53370 118.63247 138.25701 118.52668 137.92172 118.52667 curveto
137.64503 118.52668 137.39926 118.64875 137.18442 118.89288 curveto
136.99561 119.10773 136.86703 119.36164 136.79868 119.65460 curveto
139.09848 119.65460 lineto
139.24008 116.04620 moveto
137.75571 117.86261 lineto
137.63852 117.71613 lineto
138.39047 115.75812 lineto
139.24008 116.04620 lineto
fill
0.0000000 0.0000000 0.0000000 setrgbcolor
newpath
144.05942 121.59796 moveto
143.65577 122.45734 143.01612 122.88702 142.14047 122.88702 curveto
141.57732 122.88702 141.10043 122.66079 140.70981 122.20831 curveto
140.33546 121.77537 140.14828 121.27244 140.14828 120.69952 curveto
140.14828 119.98338 140.39568 119.39256 140.89047 118.92706 curveto
141.37550 118.47134 141.97934 118.24347 142.70200 118.24347 curveto
142.91684 118.24347 143.16749 118.31021 143.45395 118.44366 curveto
143.78272 118.59015 143.94711 118.74803 143.94711 118.91730 curveto
143.94711 119.22655 143.80062 119.38117 143.50766 119.38116 curveto
143.32537 119.38117 143.20655 119.30793 143.15121 119.16144 curveto
143.09913 119.02472 143.04867 118.88800 142.99985 118.75128 curveto
142.89242 118.60155 142.68572 118.52668 142.37973 118.52667 curveto
141.88819 118.52668 141.50408 118.74966 141.22739 119.19562 curveto
140.99627 119.57323 140.88071 120.02407 140.88071 120.54816 curveto
140.88071 120.98436 141.03370 121.39126 141.33969 121.76886 curveto
141.66521 122.16925 142.03956 122.36945 142.46274 122.36945 curveto
143.07146 122.36945 143.53695 122.09438 143.85922 121.54425 curveto
143.99268 121.54100 144.05941 121.55890 144.05942 121.59796 curveto
fill
0.0000000 0.0000000 0.0000000 setrgbcolor
newpath
148.04868 118.43878 moveto
148.03891 118.62433 147.93800 118.87498 147.74594 119.19073 curveto
147.34229 118.98241 147.06397 118.87824 146.91098 118.87823 curveto
146.71567 118.87824 146.54314 118.97264 146.39340 119.16144 curveto
146.27947 119.33397 146.16716 119.50649 146.05649 119.67902 curveto
146.05649 122.10089 lineto
146.05649 122.45245 146.27621 122.62824 146.71567 122.62823 curveto
146.75798 122.62824 146.81820 122.62661 146.89633 122.62335 curveto
146.97445 122.62010 147.02979 122.61847 147.06235 122.61847 curveto
147.08188 122.79913 lineto
144.66489 122.79913 lineto
144.66489 122.65753 lineto
145.12387 122.64451 145.35336 122.45896 145.35336 122.10089 curveto
145.35336 119.23956 lineto
145.35336 119.04751 145.11899 118.90103 144.65024 118.80011 curveto
144.65024 118.61945 lineto
144.93670 118.58690 145.34197 118.42088 145.86606 118.12140 curveto
146.05649 118.16046 lineto
146.05649 119.31281 lineto
146.44711 118.58364 146.79542 118.21906 147.10141 118.21906 curveto
147.25766 118.21906 147.57341 118.29230 148.04868 118.43878 curveto
fill
0.0000000 0.0000000 0.0000000 setrgbcolor
newpath
152.75571 122.31085 moveto
152.43018 122.54848 152.26417 122.67055 152.25766 122.67706 curveto
152.04607 122.80727 151.85076 122.87238 151.67172 122.87238 curveto
151.39177 122.87238 151.19971 122.65916 151.09555 122.23273 curveto
150.70167 122.51919 150.48357 122.67381 150.44125 122.69659 curveto
150.22641 122.81704 149.97901 122.87726 149.69907 122.87726 curveto
149.42237 122.87726 149.18800 122.78286 148.99594 122.59406 curveto
148.80714 122.40200 148.71274 122.16925 148.71274 121.89581 curveto
148.71274 121.55402 148.84783 121.27407 149.11801 121.05597 curveto
149.27752 120.92902 149.56235 120.78091 149.97250 120.61163 curveto
151.07602 120.15753 lineto
151.07602 119.42999 lineto
151.07602 119.17283 150.98324 118.95636 150.79770 118.78058 curveto
150.61540 118.60480 150.39405 118.51691 150.13364 118.51691 curveto
149.72022 118.51691 149.51352 118.73664 149.51352 119.17609 curveto
149.51352 119.20539 149.52003 119.24445 149.53305 119.29327 curveto
149.54607 119.34211 149.55258 119.37954 149.55258 119.40558 curveto
149.55258 119.52602 149.46143 119.63345 149.27914 119.72784 curveto
149.11964 119.81248 148.97315 119.85480 148.83969 119.85480 curveto
148.78435 119.85480 148.75668 119.80923 148.75668 119.71808 curveto
148.75668 119.28514 148.93897 118.93032 149.30356 118.65363 curveto
149.63559 118.39972 150.02621 118.27277 150.47543 118.27277 curveto
150.92465 118.27277 151.25343 118.35578 151.46176 118.52179 curveto
151.69288 118.70409 151.80844 119.01333 151.80844 119.44952 curveto
151.80844 121.96417 lineto
151.80844 122.24412 151.90447 122.38409 152.09653 122.38409 curveto
152.21697 122.38409 152.43344 122.29295 152.74594 122.11066 curveto
152.75571 122.31085 lineto
151.08090 121.90558 moveto
151.07602 120.44073 lineto
150.08481 120.87531 lineto
149.63884 121.07062 149.41586 121.38475 149.41586 121.81769 curveto
149.41586 122.00324 149.47608 122.15135 149.59653 122.26202 curveto
149.71697 122.37270 149.86996 122.42804 150.05551 122.42804 curveto
150.24757 122.42804 150.43311 122.37433 150.61215 122.26691 curveto
150.69027 122.21808 150.84652 122.09764 151.08090 121.90558 curveto
fill
0.0000000 0.0000000 0.0000000 setrgbcolor
newpath
158.07309 122.79913 moveto
155.87094 122.79913 lineto
155.87094 122.57941 lineto
156.32016 122.57941 156.54477 122.35968 156.54477 121.92023 curveto
156.54477 119.69855 lineto
156.54477 119.41535 156.48617 119.17283 156.36899 118.97101 curveto
156.22576 118.73013 156.02231 118.60968 155.75864 118.60968 curveto
155.33871 118.60968 154.82439 118.82941 154.21567 119.26886 curveto
154.21567 122.05695 lineto
154.21567 122.37596 154.46632 122.55011 154.96762 122.57941 curveto
154.93832 122.79913 lineto
152.82895 122.79913 lineto
152.80942 122.76007 lineto
152.83871 122.60870 lineto
153.04379 122.60870 153.20981 122.52570 153.33676 122.35968 curveto
153.45395 122.20994 153.51254 122.02928 153.51254 121.81769 curveto
153.51254 119.12726 lineto
153.51254 119.01007 153.41000 118.91730 153.20493 118.84894 curveto
153.17888 118.83918 153.02263 118.80337 152.73618 118.74152 curveto
152.73618 118.61945 lineto
152.88266 118.59992 153.11541 118.52179 153.43442 118.38507 curveto
153.73390 118.25487 153.93409 118.14907 154.03500 118.06769 curveto
154.21567 118.19952 lineto
154.21567 119.07843 lineto
155.17595 118.47297 155.83839 118.17023 156.20297 118.17023 curveto
156.55779 118.17023 156.83285 118.33136 157.02817 118.65363 curveto
157.19418 118.92381 157.27719 119.24608 157.27719 119.62042 curveto
157.27719 122.15948 lineto
157.27719 122.42641 157.53272 122.55988 158.04379 122.55988 curveto
158.07309 122.79913 lineto
fill
0.0000000 0.0000000 0.0000000 setrgbcolor
newpath
83.486717 184.16634 moveto
83.100975 185.86067 lineto
77.602928 185.86067 lineto
77.602928 185.68001 lineto
78.380922 185.67024 78.769919 185.44889 78.769920 185.01595 curveto
78.769920 179.76204 lineto
78.769919 179.46582 78.662497 179.27214 78.447655 179.18098 curveto
78.323956 179.13216 78.081443 179.10775 77.720116 179.10774 curveto
77.720116 178.93684 lineto
80.820702 178.93684 lineto
80.820702 179.09309 lineto
80.747459 179.08821 lineto
80.496806 179.08496 80.265686 179.13379 80.054100 179.23470 curveto
79.787171 179.36166 79.653707 179.53906 79.653709 179.76692 curveto
79.653709 184.92805 lineto
79.653707 185.28938 79.792054 185.47005 80.068748 185.47005 curveto
82.134178 185.47005 lineto
82.453184 185.47005 82.718483 185.32356 82.930077 185.03059 curveto
83.102597 184.79622 83.221412 184.50162 83.286522 184.14680 curveto
83.486717 184.16634 lineto
fill
0.0000000 0.0000000 0.0000000 setrgbcolor
newpath
88.169334 181.68587 moveto
84.116600 181.68587 lineto
84.116600 181.22688 lineto
88.169334 181.22688 lineto
88.169334 181.68587 lineto
88.169334 183.52669 moveto
84.116600 183.52669 lineto
84.116600 183.06282 lineto
88.169334 183.06282 lineto
88.169334 183.52669 lineto
fill
0.0000000 0.0000000 0.0000000 setrgbcolor
newpath
92.974022 183.54622 moveto
92.974018 184.42838 92.733132 185.05826 92.251366 185.43587 curveto
91.821675 185.77441 91.152730 185.94368 90.244530 185.94368 curveto
89.980857 185.94368 89.741599 185.89811 89.526756 185.80696 curveto
89.246808 185.68326 89.106834 185.50585 89.106834 185.27473 curveto
89.106834 185.16731 89.144269 185.07780 89.219139 185.00618 curveto
89.294008 184.93131 89.386782 184.89388 89.497459 184.89388 curveto
89.722068 184.89388 89.958070 185.00293 90.205467 185.22102 curveto
90.456117 185.43912 90.705140 185.54817 90.952538 185.54817 curveto
91.828185 185.54817 92.266011 184.93457 92.266014 183.70735 curveto
92.266011 183.37207 92.183003 183.05631 92.016991 182.76009 curveto
91.821675 182.41178 91.567769 182.23763 91.255272 182.23763 curveto
90.926494 182.23763 90.579814 182.33040 90.215233 182.51595 curveto
90.122459 182.26692 lineto
90.405661 182.18880 90.744202 181.97070 91.138084 181.61263 curveto
91.564514 181.22526 91.777730 180.90299 91.777733 180.64583 curveto
91.777730 180.34635 91.663798 180.08757 91.435936 179.86946 curveto
91.208069 179.65137 90.944397 179.54232 90.644920 179.54231 curveto
90.286846 179.54232 89.806703 179.82878 89.204491 180.40169 curveto
89.053123 180.33821 lineto
89.381899 179.83692 89.661846 179.48861 89.892967 179.29329 curveto
90.238018 179.01009 90.651429 178.86849 91.133202 178.86848 curveto
91.546610 178.86849 91.901428 178.99870 92.197655 179.25911 curveto
92.510151 179.53255 92.666401 179.87272 92.666405 180.27962 curveto
92.666401 180.62793 92.558979 180.91764 92.344139 181.14876 curveto
92.200906 181.30501 91.940490 181.48405 91.562889 181.68587 curveto
92.005594 181.71517 92.358784 181.92676 92.622459 182.32063 curveto
92.856830 182.67220 92.974018 183.08073 92.974022 183.54622 curveto
fill
0.0000000 0.0000000 0.0000000 setrgbcolor
newpath
fill
0.0000000 0.0000000 0.0000000 setrgbcolor
newpath
100.17129 184.65950 moveto
99.767638 185.51888 99.127990 185.94856 98.252342 185.94856 curveto
97.689190 185.94856 97.212302 185.72233 96.821678 185.26985 curveto
96.447329 184.83691 96.260155 184.33398 96.260155 183.76106 curveto
96.260155 183.04492 96.507550 182.45410 97.002342 181.98860 curveto
97.487367 181.53288 98.091208 181.30501 98.813866 181.30501 curveto
99.028707 181.30501 99.279357 181.37174 99.565819 181.50520 curveto
99.894591 181.65169 100.05898 181.80957 100.05898 181.97884 curveto
100.05898 182.28808 99.912495 182.44271 99.619530 182.44270 curveto
99.437235 182.44271 99.318420 182.36946 99.263084 182.22298 curveto
99.210998 182.08626 99.160542 181.94954 99.111717 181.81282 curveto
99.004293 181.66309 98.797587 181.58822 98.491600 181.58821 curveto
98.000062 181.58822 97.615948 181.81120 97.339256 182.25716 curveto
97.108136 182.63476 96.992576 183.08561 96.992577 183.60970 curveto
96.992576 184.04590 97.145570 184.45280 97.451561 184.83040 curveto
97.777080 185.23079 98.151429 185.43098 98.574608 185.43098 curveto
99.183329 185.43098 99.648823 185.15592 99.971092 184.60579 curveto
100.10455 184.60254 100.17128 184.62044 100.17129 184.65950 curveto
fill
0.0000000 0.0000000 0.0000000 setrgbcolor
newpath
108.83828 185.86067 moveto
106.67519 185.86067 lineto
106.67519 185.64095 lineto
107.11790 185.64095 107.33925 185.42122 107.33926 184.98177 curveto
107.33926 182.76009 lineto
107.33925 182.48340 107.27252 182.24088 107.13906 182.03255 curveto
106.98280 181.79167 106.77284 181.67122 106.50918 181.67122 curveto
106.10553 181.67122 105.62538 181.87467 105.06875 182.28157 curveto
105.06875 185.22102 lineto
105.06874 185.48795 105.32916 185.62141 105.85000 185.62141 curveto
105.87441 185.86067 lineto
103.71621 185.86067 lineto
103.71621 185.64095 lineto
104.15566 185.64095 104.37539 185.42122 104.37539 184.98177 curveto
104.37539 182.76009 lineto
104.37539 182.48014 104.31842 182.23926 104.20449 182.03743 curveto
104.06451 181.79329 103.86432 181.67122 103.60390 181.67122 curveto
103.19375 181.67122 102.69082 181.89095 102.09512 182.33040 curveto
102.09512 185.11848 lineto
102.09511 185.43750 102.34088 185.61165 102.83242 185.64095 curveto
102.80312 185.86067 lineto
100.73769 185.86067 lineto
100.71816 185.82161 lineto
100.74746 185.67024 lineto
100.94928 185.67024 101.11204 185.58723 101.23574 185.42122 curveto
101.34967 185.26822 101.40664 185.08756 101.40664 184.87923 curveto
101.40664 182.18880 lineto
101.40664 182.07161 101.30573 181.97884 101.10390 181.91048 curveto
101.07786 181.90072 100.92487 181.86491 100.64492 181.80305 curveto
100.64492 181.68098 lineto
100.67747 181.64518 100.71816 181.61914 100.76699 181.60286 curveto
101.02415 181.51497 101.40827 181.35710 101.91933 181.12923 curveto
102.09512 181.26106 lineto
102.09512 182.13997 lineto
103.03587 181.53450 103.68528 181.23177 104.04336 181.23177 curveto
104.26145 181.23177 104.46490 181.33268 104.65371 181.53450 curveto
104.81321 181.70703 104.92877 181.90885 105.00039 182.13997 curveto
105.94114 181.53450 106.59055 181.23177 106.94863 181.23177 curveto
107.29693 181.23177 107.57525 181.39290 107.78359 181.71516 curveto
107.96588 181.99512 108.05702 182.31738 108.05703 182.68196 curveto
108.05703 185.22102 lineto
108.05702 185.48795 108.30767 185.62141 108.80898 185.62141 curveto
108.83828 185.86067 lineto
fill
0.0000000 0.0000000 0.0000000 setrgbcolor
[] 0 setdash
0.33724222 setlinewidth
0 setlinejoin
0 setlinecap
newpath
155.57167 144.49684 moveto
155.57167 174.94589 lineto
stroke
gsave [1.2389669e-17 0.20234533 -0.20234533 1.2389669e-17 155.57167 146.11560] concat
0.0000000 0.0000000 0.0000000 setrgbcolor
newpath
0.0000000 0.0000000 moveto
5.0000000 -5.0000000 lineto
-12.500000 0.0000000 lineto
5.0000000 5.0000000 lineto
0.0000000 0.0000000 lineto
closepath
eofill
0.0000000 0.0000000 0.0000000 setrgbcolor
[] 0 setdash
1.2500000 setlinewidth
0 setlinejoin
0 setlinecap
newpath
0.0000000 0.0000000 moveto
5.0000000 -5.0000000 lineto
-12.500000 0.0000000 lineto
5.0000000 5.0000000 lineto
0.0000000 0.0000000 lineto
closepath
stroke
0.0000000 0.0000000 0.0000000 setrgbcolor
[] 0 setdash
1.5000000 setlinewidth
0 setlinejoin
0 setlinecap
newpath
-14.759949 -7.0000000 moveto
-14.759949 65.000000 lineto
stroke
grestore
gsave [-1.2389669e-17 -0.20234533 -0.20234533 1.2389669e-17 155.57167 173.32713] concat
0.0000000 0.0000000 0.0000000 setrgbcolor
newpath
0.0000000 0.0000000 moveto
5.0000000 -5.0000000 lineto
-12.500000 0.0000000 lineto
5.0000000 5.0000000 lineto
0.0000000 0.0000000 lineto
closepath
eofill
0.0000000 0.0000000 0.0000000 setrgbcolor
[] 0 setdash
1.2500000 setlinewidth
0 setlinejoin
0 setlinecap
newpath
0.0000000 0.0000000 moveto
5.0000000 -5.0000000 lineto
-12.500000 0.0000000 lineto
5.0000000 5.0000000 lineto
0.0000000 0.0000000 lineto
closepath
stroke
0.0000000 0.0000000 0.0000000 setrgbcolor
[] 0 setdash
1.5000000 setlinewidth
0 setlinejoin
0 setlinecap
newpath
-14.759949 -7.0000000 moveto
-14.759949 65.000000 lineto
stroke
grestore
0.0000000 0.0000000 0.0000000 setrgbcolor
newpath
163.36111 163.96503 moveto
163.13325 164.04315 162.90375 164.12290 162.67264 164.20428 curveto
162.40896 164.30520 162.19086 164.40774 162.01834 164.51190 curveto
161.98904 164.53143 161.95812 164.54120 161.92557 164.54120 curveto
161.86697 164.54120 161.82954 164.47935 161.81326 164.35565 curveto
161.80024 164.26776 161.79698 164.14569 161.80350 163.98944 curveto
161.81651 163.77460 161.82302 163.68671 161.82303 163.72577 curveto
161.54959 163.89504 161.27615 164.06594 161.00272 164.23846 curveto
160.70323 164.40774 160.38748 164.49237 160.05545 164.49237 curveto
159.53787 164.49237 159.10981 164.24823 158.77127 163.75995 curveto
158.46854 163.32375 158.31717 162.83710 158.31717 162.29999 curveto
158.31717 161.60012 158.52225 161.03697 158.93240 160.61053 curveto
159.41417 160.11249 159.96593 159.86347 160.58768 159.86346 curveto
161.10200 159.86347 161.51378 159.95136 161.82303 160.12714 curveto
161.82303 158.18866 lineto
161.82302 157.94127 161.64236 157.81757 161.28104 157.81757 curveto
161.27778 157.81757 161.17198 157.82246 160.96365 157.83221 curveto
160.96365 157.66132 lineto
161.46821 157.59622 161.97602 157.42858 162.48709 157.15839 curveto
162.48709 163.50116 lineto
162.48709 163.58254 162.51964 163.65904 162.58475 163.73065 curveto
162.64985 163.79901 162.72146 163.83319 162.79959 163.83319 curveto
162.86469 163.83319 162.95909 163.82668 163.08279 163.81366 curveto
163.20649 163.80064 163.29926 163.79413 163.36111 163.79413 curveto
163.36111 163.96503 lineto
161.82303 163.53534 moveto
161.82303 161.02069 lineto
161.59842 160.70168 161.39008 160.48521 161.19803 160.37128 curveto
160.98318 160.24758 160.69021 160.18573 160.31912 160.18573 curveto
159.85363 160.18573 159.51346 160.43476 159.29861 160.93280 curveto
159.14562 161.29088 159.06912 161.73521 159.06912 162.26581 curveto
159.06912 162.68248 159.19770 163.07147 159.45486 163.43280 curveto
159.73807 163.82668 160.07986 164.02362 160.48026 164.02362 curveto
160.75695 164.02362 161.20454 163.86086 161.82303 163.53534 curveto
fill
0.0000000 0.0000000 0.0000000 setrgbcolor
newpath
48.609840 173.06989 moveto
46.592751 173.06989 lineto
46.575172 173.03473 lineto
46.601540 172.89850 lineto
46.809547 172.89850 46.957496 172.86920 47.045387 172.81061 curveto
47.153785 172.73737 47.207984 172.59674 47.207985 172.38873 curveto
47.207985 169.76520 lineto
47.207984 169.55133 47.102515 169.44440 46.891579 169.44440 curveto
46.812477 169.44440 46.720192 169.45758 46.614723 169.48395 curveto
46.504860 169.30817 lineto
47.061500 169.15290 47.478980 168.98737 47.757301 168.81158 curveto
47.919899 168.93024 lineto
47.919899 172.40192 lineto
47.919897 172.68903 48.144018 172.84576 48.592262 172.87213 curveto
48.609840 173.06989 lineto
47.972633 167.44489 moveto
47.972632 167.57087 47.928687 167.67927 47.840797 167.77008 curveto
47.752905 167.85798 47.645972 167.90192 47.519997 167.90192 curveto
47.394019 167.90192 47.287086 167.85798 47.199196 167.77008 curveto
47.111305 167.67927 47.067359 167.57087 47.067360 167.44489 curveto
47.067359 167.31891 47.111305 167.21198 47.199196 167.12408 curveto
47.287086 167.03620 47.394019 166.99225 47.519997 166.99225 curveto
47.645972 166.99225 47.752905 167.03620 47.840797 167.12408 curveto
47.928687 167.21198 47.972632 167.31891 47.972633 167.44489 curveto
fill
gsave [1.0000000 0.0000000 0.0000000 1.0000000 2.1307190 125.38430] concat
0.0000000 0.0000000 0.0000000 setrgbcolor
newpath
43.931210 39.700558 moveto
43.911678 39.876339 lineto
43.745658 39.876343 43.581270 39.952841 43.418514 40.105831 curveto
43.278536 40.236043 43.171114 40.387410 43.096249 40.559933 curveto
41.489803 44.217159 lineto
41.226131 44.217159 lineto
39.600155 40.462276 lineto
39.427628 40.071656 39.141170 39.876343 38.740780 39.876339 curveto
38.740780 39.700558 lineto
40.967342 39.700558 lineto
40.967342 39.876339 lineto
40.492080 39.876343 40.254450 39.964234 40.254452 40.140011 curveto
40.254450 40.192098 40.656468 41.181680 41.460506 43.108761 curveto
41.483290 43.160845 41.507704 43.186887 41.533749 43.186886 curveto
41.569553 43.186887 41.602105 43.154335 41.631405 43.089230 curveto
42.695858 40.716183 lineto
42.764213 40.563192 42.798393 40.429728 42.798397 40.315792 curveto
42.798393 40.009807 42.542859 39.856812 42.031796 39.856808 curveto
42.085506 39.700558 lineto
43.931210 39.700558 lineto
fill
0.0000000 0.0000000 0.0000000 setrgbcolor
[] 0 setdash
0.35433072 setlinewidth
0 setlinejoin
0 setlinecap
newpath
36.621605 36.477784 moveto
44.861475 36.477784 44.861475 36.477784 44.861475 36.477784 curveto
stroke
gsave [-0.21259843 0.0000000 0.0000000 -0.21259843 45.924467 36.477784] concat
0.0000000 0.0000000 0.0000000 setrgbcolor
newpath
8.7185878 4.0337352 moveto
-2.2072895 0.016013256 lineto
8.7185884 -4.0017078 lineto
6.9730900 -1.6296469 6.9831476 1.6157441 8.7185878 4.0337352 curveto
closepath
eofill
grestore
grestore
gsave [1.0000000 0.0000000 0.0000000 1.0000000 123.49450 85.822100] concat
0.0000000 0.0000000 0.0000000 setrgbcolor
newpath
43.931210 39.700558 moveto
43.911678 39.876339 lineto
43.745658 39.876343 43.581270 39.952841 43.418514 40.105831 curveto
43.278536 40.236043 43.171114 40.387410 43.096249 40.559933 curveto
41.489803 44.217159 lineto
41.226131 44.217159 lineto
39.600155 40.462276 lineto
39.427628 40.071656 39.141170 39.876343 38.740780 39.876339 curveto
38.740780 39.700558 lineto
40.967342 39.700558 lineto
40.967342 39.876339 lineto
40.492080 39.876343 40.254450 39.964234 40.254452 40.140011 curveto
40.254450 40.192098 40.656468 41.181680 41.460506 43.108761 curveto
41.483290 43.160845 41.507704 43.186887 41.533749 43.186886 curveto
41.569553 43.186887 41.602105 43.154335 41.631405 43.089230 curveto
42.695858 40.716183 lineto
42.764213 40.563192 42.798393 40.429728 42.798397 40.315792 curveto
42.798393 40.009807 42.542859 39.856812 42.031796 39.856808 curveto
42.085506 39.700558 lineto
43.931210 39.700558 lineto
fill
0.0000000 0.0000000 0.0000000 setrgbcolor
[] 0 setdash
0.35433072 setlinewidth
0 setlinejoin
0 setlinecap
newpath
36.621605 36.477784 moveto
44.861475 36.477784 44.861475 36.477784 44.861475 36.477784 curveto
stroke
gsave [-0.21259843 0.0000000 0.0000000 -0.21259843 45.924467 36.477784] concat
0.0000000 0.0000000 0.0000000 setrgbcolor
newpath
8.7185878 4.0337352 moveto
-2.2072895 0.016013256 lineto
8.7185884 -4.0017078 lineto
6.9730900 -1.6296469 6.9831476 1.6157441 8.7185878 4.0337352 curveto
closepath
eofill
grestore
grestore
0.0000000 0.0000000 0.0000000 setrgbcolor
newpath
172.02448 128.31061 moveto
171.58502 128.72369 lineto
171.49127 128.30768 171.19537 128.09968 170.69733 128.09967 curveto
170.41021 128.09968 170.15240 128.18610 169.92389 128.35895 curveto
169.67779 128.54645 169.55475 128.78083 169.55475 129.06207 curveto
169.55475 130.10358 lineto
170.58746 130.10358 lineto
170.58746 130.43756 lineto
169.55475 130.43756 lineto
169.55475 133.34674 lineto
169.55475 133.72174 169.76129 133.90924 170.17438 133.90924 curveto
170.20660 133.90924 170.25348 133.90924 170.31500 133.90924 curveto
170.37652 133.90631 170.42193 133.90485 170.45123 133.90485 curveto
170.45123 134.10260 lineto
168.31110 134.10260 lineto
168.28912 133.97516 lineto
168.52936 133.90192 168.67145 133.85358 168.71539 133.83014 curveto
168.86188 133.75104 168.93512 133.63239 168.93512 133.47418 curveto
168.93512 130.43756 lineto
168.85309 130.44635 168.59674 130.42585 168.16608 130.37604 curveto
168.16608 130.20465 lineto
168.52936 130.20465 168.74029 130.17096 168.79889 130.10358 curveto
168.93512 130.10358 lineto
168.93512 129.97174 lineto
168.93512 129.50007 168.98639 129.16022 169.08893 128.95221 curveto
169.16803 128.79694 169.37897 128.55378 169.72174 128.22272 curveto
170.02057 127.93561 170.45123 127.79206 171.01373 127.79205 curveto
171.31549 127.79206 171.65240 127.96491 172.02448 128.31061 curveto
fill
0.0000000 0.0000000 0.0000000 setrgbcolor
[] 0 setdash
0.35433072 setlinewidth
0 setlinejoin
0 setlinecap
newpath
33.315540 37.428050 moveto
33.315540 37.725510 45.808867 35.643289 52.947911 29.991546 curveto
stroke
0.0000000 0.0000000 0.0000000 setrgbcolor
newpath
46.697746 41.857918 moveto
46.697742 42.388518 46.518705 42.878427 46.160637 43.327644 curveto
45.779774 43.809415 45.332183 44.050301 44.817863 44.050301 curveto
44.342601 44.050301 44.104971 43.802905 44.104973 43.308113 curveto
44.104971 43.190926 44.147288 43.075367 44.231926 42.961433 curveto
44.319814 42.844247 44.420726 42.785653 44.534660 42.785652 curveto
44.804840 42.785653 44.939931 42.902841 44.939934 43.137215 curveto
44.939931 43.199064 44.900868 43.270679 44.822746 43.352058 curveto
44.747874 43.430184 44.710439 43.470874 44.710442 43.474129 curveto
44.710439 43.532723 44.760894 43.588061 44.861809 43.640144 curveto
44.949696 43.685718 45.026194 43.708504 45.091301 43.708504 curveto
45.468902 43.708504 45.717925 43.500171 45.838371 43.083504 curveto
45.896961 42.871916 45.926258 42.507333 45.926262 41.989754 curveto
45.926258 40.967621 45.429839 40.456554 44.437004 40.456551 curveto
44.332835 40.456554 44.222158 40.461437 44.104973 40.471199 curveto
44.134270 40.163582 lineto
44.957834 39.912935 45.369618 39.346529 45.369621 38.464363 curveto
45.369618 38.138848 45.293121 37.876804 45.140129 37.678230 curveto
44.970855 37.460138 44.728342 37.351088 44.412590 37.351082 curveto
44.021963 37.351088 43.766429 37.533380 43.645988 37.897957 curveto
43.580883 38.093275 43.548331 38.436699 43.548332 38.928230 curveto
43.548332 43.972176 lineto
42.034660 43.972176 lineto
42.034660 43.771980 lineto
42.093254 43.776863 lineto
42.236483 43.783374 42.374829 43.742684 42.508293 43.654793 curveto
42.645011 43.566903 42.713371 43.451343 42.713371 43.308113 curveto
42.713371 38.649910 lineto
42.713371 38.200697 42.856600 37.813328 43.143059 37.487801 curveto
43.439281 37.149266 43.808747 36.979995 44.251457 36.979988 curveto
44.729970 36.979995 45.143381 37.087417 45.491692 37.302254 curveto
45.905099 37.552911 46.111805 37.899591 46.111809 38.342293 curveto
46.111805 38.706881 45.988107 39.069837 45.740715 39.431160 curveto
45.493316 39.789237 45.193837 40.033377 44.842278 40.163582 curveto
44.995269 40.127778 45.140126 40.109875 45.276848 40.109871 curveto
45.735828 40.109875 46.093901 40.290539 46.351067 40.651863 curveto
46.582182 40.974132 46.697742 41.376150 46.697746 41.857918 curveto
fill
grestore
showpage
