%!PS-Adobe-2.0
%%Creator: inkscape 0.41.1
%%Pages: 1
%%Orientation: Portrait
%%BoundingBox: 21 793 160 839
%%HiResBoundingBox: 21.692742 793.51496 159.10593 838.33791
%%EndComments
%%Page: 1 1
0 842 translate
0.80000000 -0.80000000 scale
gsave [1.0000000 0.0000000 0.0000000 1.0000000 0.0000000 0.0000000] concat
0.0000000 0.0000000 0.0000000 setrgbcolor
[] 0 setdash
0.37325650 setlinewidth
0 setlinejoin
0 setlinecap
newpath
27.302556 60.281845 moveto
167.70769 60.281852 lineto
stroke
0.0000000 0.0000000 0.0000000 setrgbcolor
[] 0 setdash
1.0000000 setlinewidth
0 setlinejoin
0 setlinecap
newpath
190.61566 7.7297925 moveto
88.258155 44.168328 lineto
stroke
gsave [-0.37683384 0.13415014 -0.13415014 -0.37683384 190.61566 7.7297925] concat
0.0000000 0.0000000 0.0000000 setrgbcolor
[] 0 setdash
1.2500000 setlinewidth
0 setlinejoin
0 setlinecap
newpath
0.0000000 5.6500000 moveto
0.0000000 -5.6500000 lineto
stroke
grestore
gsave [0.56525076 -0.20122520 0.20122520 0.56525076 85.431901 45.174454] concat
0.0000000 0.0000000 0.0000000 setrgbcolor
newpath
8.7185878 4.0337352 moveto
-2.2072895 0.016013256 lineto
8.7185884 -4.0017078 lineto
6.9730900 -1.6296469 6.9831476 1.6157441 8.7185878 4.0337352 curveto
closepath
eofill
grestore
gsave [1.0000000 0.0000000 0.0000000 1.0000000 86.793300 -0.54932500] concat
0.0000000 0.0000000 0.0000000 setrgbcolor
newpath
21.230685 34.234119 moveto
20.844943 35.928455 lineto
15.346896 35.928455 lineto
15.346896 35.747791 lineto
16.124890 35.738026 16.513887 35.516672 16.513888 35.083729 curveto
16.513888 29.829823 lineto
16.513887 29.533605 16.406465 29.339920 16.191623 29.248768 curveto
16.067924 29.199946 15.825411 29.175532 15.464084 29.175526 curveto
15.464084 29.004627 lineto
18.564670 29.004627 lineto
18.564670 29.160877 lineto
18.491427 29.155994 lineto
18.240774 29.152746 18.009654 29.201574 17.798068 29.302479 curveto
17.531139 29.429438 17.397675 29.606847 17.397677 29.834705 curveto
17.397677 34.995838 lineto
17.397675 35.357167 17.536022 35.537831 17.812716 35.537830 curveto
19.878146 35.537830 lineto
20.197152 35.537831 20.462451 35.391347 20.674045 35.098377 curveto
20.846565 34.864003 20.965380 34.569407 21.030490 34.214588 curveto
21.230685 34.234119 lineto
fill
0.0000000 0.0000000 0.0000000 setrgbcolor
[] 0 setdash
0.35433072 setlinewidth
0 setlinejoin
0 setlinecap
newpath
13.549993 26.589935 moveto
21.789863 26.589935 21.789863 26.589935 21.789863 26.589935 curveto
stroke
gsave [-0.21259843 0.0000000 0.0000000 -0.21259843 22.852855 26.589935] concat
0.0000000 0.0000000 0.0000000 setrgbcolor
newpath
8.7185878 4.0337352 moveto
-2.2072895 0.016013256 lineto
8.7185884 -4.0017078 lineto
6.9730900 -1.6296469 6.9831476 1.6157441 8.7185878 4.0337352 curveto
closepath
eofill
grestore
grestore
gsave [1.0000000 0.0000000 0.0000000 1.0000000 79.468930 -10.803380] concat
0.0000000 0.0000000 0.0000000 setrgbcolor
newpath
53.677490 29.109592 moveto
53.501709 29.109592 lineto
53.501704 28.461812 53.215246 28.137919 52.642334 28.137913 curveto
50.440186 28.137913 lineto
50.440186 30.759983 lineto
52.261475 30.759983 lineto
52.456783 30.759987 52.611406 30.683490 52.725342 30.530491 curveto
52.822994 30.397032 52.871822 30.226133 52.871826 30.017796 curveto
53.008545 30.017796 lineto
53.008545 31.922092 lineto
52.871826 31.922092 lineto
52.871822 31.388242 52.668372 31.121315 52.261475 31.121311 curveto
50.440186 31.121311 lineto
50.440186 33.772678 lineto
50.440184 34.208877 50.734780 34.426975 51.323975 34.426975 curveto
51.323975 34.646702 lineto
48.770264 34.646702 lineto
48.770264 34.426975 lineto
49.310628 34.426975 49.580810 34.189345 49.580811 33.714085 curveto
49.580811 28.450413 lineto
49.580810 28.095602 49.310628 27.919821 48.770264 27.923069 curveto
48.770264 27.713108 lineto
53.560303 27.713108 lineto
53.677490 29.109592 lineto
fill
0.0000000 0.0000000 0.0000000 setrgbcolor
[] 0 setdash
0.35433072 setlinewidth
0 setlinejoin
0 setlinecap
newpath
46.326380 25.308182 moveto
54.566250 25.308182 54.566250 25.308182 54.566250 25.308182 curveto
stroke
gsave [-0.21259843 0.0000000 0.0000000 -0.21259843 55.629242 25.308182] concat
0.0000000 0.0000000 0.0000000 setrgbcolor
newpath
8.7185878 4.0337352 moveto
-2.2072895 0.016013256 lineto
8.7185884 -4.0017078 lineto
6.9730900 -1.6296469 6.9831476 1.6157441 8.7185878 4.0337352 curveto
closepath
eofill
grestore
grestore
0.0000000 0.0000000 0.0000000 setrgbcolor
[] 0 setdash
0.35433072 setlinewidth
0 setlinejoin
0 setlinecap
newpath
164.98376 7.9129004 moveto
164.98376 7.9129004 164.80066 12.673713 167.18106 15.969661 curveto
stroke
0.47058824 0.47058824 0.47058824 setrgbcolor
newpath
47.747307 41.787922 moveto
80.794659 41.787922 lineto
80.794659 54.971714 lineto
47.747307 54.971714 lineto
47.747307 41.787922 lineto
closepath
fill
0.47058824 0.47058824 0.47058824 setrgbcolor
[] 0 setdash
0.35433072 setlinewidth
1 setlinejoin
1 setlinecap
newpath
47.747307 41.787922 moveto
80.794659 41.787922 lineto
80.794659 54.971714 lineto
47.747307 54.971714 lineto
47.747307 41.787922 lineto
closepath
stroke
0.47058824 0.47058824 0.47058824 setrgbcolor
newpath
74.525047 47.830494 moveto
94.850060 47.830494 lineto
94.850060 54.971714 lineto
74.525047 54.971714 lineto
74.525047 47.830494 lineto
closepath
fill
0.47058824 0.47058824 0.47058824 setrgbcolor
[] 0 setdash
0.35433072 setlinewidth
1 setlinejoin
1 setlinecap
newpath
74.525047 47.830494 moveto
94.850060 47.830494 lineto
94.850060 54.971714 lineto
74.525047 54.971714 lineto
74.525047 47.830494 lineto
closepath
stroke
0.47058824 0.47058824 0.47058824 setrgbcolor
newpath
33.142590 47.830494 moveto
53.467602 47.830494 lineto
53.467602 54.971714 lineto
33.142590 54.971714 lineto
33.142590 47.830494 lineto
closepath
fill
0.47058824 0.47058824 0.47058824 setrgbcolor
[] 0 setdash
0.35433072 setlinewidth
1 setlinejoin
1 setlinecap
newpath
33.142590 47.830494 moveto
53.467602 47.830494 lineto
53.467602 54.971714 lineto
33.142590 54.971714 lineto
33.142590 47.830494 lineto
closepath
stroke
gsave [1.0000000 0.0000000 0.0000000 1.0000000 -0.36621600 -1.0986490] concat
0.47058824 0.47058824 0.47058824 setrgbcolor
newpath
45.044621 58.633877 moveto
45.044621 60.048937 43.896166 61.197392 42.481106 61.197392 curveto
41.066045 61.197392 39.917591 60.048937 39.917591 58.633877 curveto
39.917591 57.218816 41.066045 56.070362 42.481106 56.070362 curveto
43.896166 56.070362 45.044621 57.218816 45.044621 58.633877 curveto
closepath
fill
0.47058824 0.47058824 0.47058824 setrgbcolor
[] 0 setdash
0.35433072 setlinewidth
1 setlinejoin
1 setlinecap
newpath
45.044621 58.633877 moveto
45.044621 60.048937 43.896166 61.197392 42.481106 61.197392 curveto
41.066045 61.197392 39.917591 60.048937 39.917591 58.633877 curveto
39.917591 57.218816 41.066045 56.070362 42.481106 56.070362 curveto
43.896166 56.070362 45.044621 57.218816 45.044621 58.633877 curveto
closepath
stroke
grestore
gsave [1.0000000 0.0000000 0.0000000 1.0000000 41.931780 -1.0986490] concat
0.47058824 0.47058824 0.47058824 setrgbcolor
newpath
45.044621 58.633877 moveto
45.044621 60.048937 43.896166 61.197392 42.481106 61.197392 curveto
41.066045 61.197392 39.917591 60.048937 39.917591 58.633877 curveto
39.917591 57.218816 41.066045 56.070362 42.481106 56.070362 curveto
43.896166 56.070362 45.044621 57.218816 45.044621 58.633877 curveto
closepath
fill
0.47058824 0.47058824 0.47058824 setrgbcolor
[] 0 setdash
0.35433072 setlinewidth
1 setlinejoin
1 setlinecap
newpath
45.044621 58.633877 moveto
45.044621 60.048937 43.896166 61.197392 42.481106 61.197392 curveto
41.066045 61.197392 39.917591 60.048937 39.917591 58.633877 curveto
39.917591 57.218816 41.066045 56.070362 42.481106 56.070362 curveto
43.896166 56.070362 45.044621 57.218816 45.044621 58.633877 curveto
closepath
stroke
grestore
0.0000000 0.0000000 0.0000000 setrgbcolor
[] 0 setdash
0.34976587 setlinewidth
0 setlinejoin
0 setlinecap
newpath
190.07086 57.352119 moveto
85.873220 57.352119 85.873220 57.352119 85.873220 57.352119 curveto
85.873220 57.352119 lineto
85.873220 57.352119 lineto
stroke
gsave [-0.20985952 2.5699530e-17 -2.5699530e-17 -0.20985952 188.39198 57.352119] concat
0.0000000 0.0000000 0.0000000 setrgbcolor
newpath
0.0000000 0.0000000 moveto
5.0000000 -5.0000000 lineto
-12.500000 0.0000000 lineto
5.0000000 5.0000000 lineto
0.0000000 0.0000000 lineto
closepath
eofill
0.0000000 0.0000000 0.0000000 setrgbcolor
[] 0 setdash
1.2500000 setlinewidth
0 setlinejoin
0 setlinecap
newpath
0.0000000 0.0000000 moveto
5.0000000 -5.0000000 lineto
-12.500000 0.0000000 lineto
5.0000000 5.0000000 lineto
0.0000000 0.0000000 lineto
closepath
stroke
0.0000000 0.0000000 0.0000000 setrgbcolor
[] 0 setdash
1.5000000 setlinewidth
0 setlinejoin
0 setlinecap
newpath
-14.759949 -7.0000000 moveto
-14.759949 65.000000 lineto
stroke
grestore
gsave [0.20985952 -2.5699530e-17 -2.5699530e-17 -0.20985952 87.552096 57.352119] concat
0.0000000 0.0000000 0.0000000 setrgbcolor
newpath
0.0000000 0.0000000 moveto
5.0000000 -5.0000000 lineto
-12.500000 0.0000000 lineto
5.0000000 5.0000000 lineto
0.0000000 0.0000000 lineto
closepath
eofill
0.0000000 0.0000000 0.0000000 setrgbcolor
[] 0 setdash
1.2500000 setlinewidth
0 setlinejoin
0 setlinecap
newpath
0.0000000 0.0000000 moveto
5.0000000 -5.0000000 lineto
-12.500000 0.0000000 lineto
5.0000000 5.0000000 lineto
0.0000000 0.0000000 lineto
closepath
stroke
0.0000000 0.0000000 0.0000000 setrgbcolor
[] 0 setdash
1.5000000 setlinewidth
0 setlinejoin
0 setlinecap
newpath
-14.759949 -7.0000000 moveto
-14.759949 65.000000 lineto
stroke
grestore
0.0000000 0.0000000 0.0000000 setrgbcolor
newpath
131.26167 54.129436 moveto
131.26166 54.191287 131.11843 54.655154 130.83198 55.521038 curveto
126.74506 55.521038 lineto
126.65229 55.232952 lineto
128.82677 53.478397 129.91401 51.883346 129.91401 50.447796 curveto
129.91401 49.607958 129.53315 49.188037 128.77143 49.188030 curveto
127.92508 49.188037 127.28054 49.586799 126.83784 50.384319 curveto
126.62299 50.291546 lineto
126.79877 49.806526 127.09825 49.397997 127.52143 49.065960 curveto
127.96739 48.714404 128.43940 48.538623 128.93745 48.538616 curveto
129.39643 48.538623 129.78217 48.678597 130.09467 48.958538 curveto
130.42019 49.251513 130.58295 49.624234 130.58295 50.076702 curveto
130.58295 51.525274 129.60151 53.121952 127.63862 54.866741 curveto
130.30952 54.866741 lineto
130.48855 54.866742 130.65945 54.728396 130.82221 54.451702 curveto
130.98497 54.175011 131.05984 54.036665 131.04682 54.036663 curveto
131.07286 54.036665 131.11029 54.051313 131.15913 54.080608 curveto
131.20795 54.106651 131.24213 54.122927 131.26167 54.129436 curveto
fill
0.0000000 0.0000000 0.0000000 setrgbcolor
newpath
136.44721 51.995647 moveto
136.44721 52.786666 136.27956 53.535363 135.94428 54.241741 curveto
135.52761 55.123903 134.96609 55.564983 134.25971 55.564983 curveto
133.52729 55.564983 132.95763 55.130413 132.55073 54.261272 curveto
132.23172 53.580936 132.07221 52.825728 132.07221 51.995647 curveto
132.07221 51.204636 132.23985 50.455939 132.57514 49.749554 curveto
132.99181 48.870654 133.55333 48.431201 134.25971 48.431194 curveto
134.99213 48.431201 135.56016 48.864144 135.96381 49.730022 curveto
136.28607 50.413621 136.44721 51.168829 136.44721 51.995647 curveto
135.72944 52.215374 moveto
135.72943 49.874885 135.23953 48.704639 134.25971 48.704632 curveto
133.27989 48.704639 132.78998 49.730028 132.78999 51.780804 curveto
132.78998 54.118045 133.27989 55.286663 134.25971 55.286663 curveto
135.23953 55.286663 135.72943 54.262901 135.72944 52.215374 curveto
fill
0.0000000 0.0000000 0.0000000 setrgbcolor
newpath
141.99409 51.995647 moveto
141.99408 52.786666 141.82644 53.535363 141.49116 54.241741 curveto
141.07449 55.123903 140.51296 55.564983 139.80659 55.564983 curveto
139.07416 55.564983 138.50450 55.130413 138.09760 54.261272 curveto
137.77859 53.580936 137.61909 52.825728 137.61909 51.995647 curveto
137.61909 51.204636 137.78673 50.455939 138.12202 49.749554 curveto
138.53868 48.870654 139.10021 48.431201 139.80659 48.431194 curveto
140.53901 48.431201 141.10704 48.864144 141.51069 49.730022 curveto
141.83295 50.413621 141.99408 51.168829 141.99409 51.995647 curveto
141.27631 52.215374 moveto
141.27631 49.874885 140.78640 48.704639 139.80659 48.704632 curveto
138.82677 48.704639 138.33686 49.730028 138.33686 51.780804 curveto
138.33686 54.118045 138.82677 55.286663 139.80659 55.286663 curveto
140.78640 55.286663 141.27631 54.262901 141.27631 52.215374 curveto
fill
0.0000000 0.0000000 0.0000000 setrgbcolor
newpath
fill
0.0000000 0.0000000 0.0000000 setrgbcolor
newpath
153.93256 55.521038 moveto
151.76948 55.521038 lineto
151.76948 55.301311 lineto
152.21218 55.301312 152.43353 55.081585 152.43354 54.642132 curveto
152.43354 52.420452 lineto
152.43353 52.143763 152.36680 51.901250 152.23335 51.692913 curveto
152.07709 51.452032 151.86713 51.331589 151.60346 51.331585 curveto
151.19981 51.331589 150.71967 51.535039 150.16303 51.941936 curveto
150.16303 54.881390 lineto
150.16303 55.148317 150.42344 55.281780 150.94428 55.281780 curveto
150.96870 55.521038 lineto
148.81049 55.521038 lineto
148.81049 55.301311 lineto
149.24994 55.301312 149.46967 55.081585 149.46967 54.642132 curveto
149.46967 52.420452 lineto
149.46967 52.140508 149.41270 51.899622 149.29877 51.697796 curveto
149.15880 51.453659 148.95860 51.331589 148.69819 51.331585 curveto
148.28803 51.331589 147.78510 51.551315 147.18940 51.990765 curveto
147.18940 54.778851 lineto
147.18940 55.097861 147.43517 55.272015 147.92670 55.301311 curveto
147.89741 55.521038 lineto
145.83198 55.521038 lineto
145.81245 55.481976 lineto
145.84174 55.330608 lineto
146.04357 55.330609 146.20633 55.247601 146.33002 55.081585 curveto
146.44396 54.928591 146.50092 54.747927 146.50092 54.539593 curveto
146.50092 51.849163 lineto
146.50092 51.731979 146.40001 51.639206 146.19819 51.570843 curveto
146.17215 51.561081 146.01915 51.525274 145.73920 51.463421 curveto
145.73920 51.341351 lineto
145.77176 51.305547 145.81245 51.279506 145.86127 51.263226 curveto
146.11844 51.175339 146.50255 51.017462 147.01362 50.789593 curveto
147.18940 50.921429 lineto
147.18940 51.800335 lineto
148.13015 51.194871 148.77957 50.892136 149.13764 50.892132 curveto
149.35574 50.892136 149.55919 50.993048 149.74799 51.194866 curveto
149.90749 51.367396 150.02305 51.569219 150.09467 51.800335 curveto
151.03542 51.194871 151.68484 50.892136 152.04292 50.892132 curveto
152.39122 50.892136 152.66954 51.053269 152.87788 51.375530 curveto
153.06016 51.655482 153.15131 51.977747 153.15131 52.342327 curveto
153.15131 54.881390 lineto
153.15131 55.148317 153.40196 55.281780 153.90327 55.281780 curveto
153.93256 55.521038 lineto
fill
0.0000000 0.0000000 0.0000000 setrgbcolor
[] 0 setdash
0.23687609 setlinewidth
0 setlinejoin
0 setlinecap
newpath
198.76397 8.6454915 moveto
198.76397 56.436414 198.76397 56.436414 198.76397 56.436414 curveto
198.76397 56.436414 lineto
198.76397 56.436414 lineto
stroke
gsave [8.7023988e-18 0.14212565 -0.14212565 8.7023988e-18 198.76397 9.7824967] concat
0.0000000 0.0000000 0.0000000 setrgbcolor
newpath
0.0000000 0.0000000 moveto
5.0000000 -5.0000000 lineto
-12.500000 0.0000000 lineto
5.0000000 5.0000000 lineto
0.0000000 0.0000000 lineto
closepath
eofill
0.0000000 0.0000000 0.0000000 setrgbcolor
[] 0 setdash
1.2500000 setlinewidth
0 setlinejoin
0 setlinecap
newpath
0.0000000 0.0000000 moveto
5.0000000 -5.0000000 lineto
-12.500000 0.0000000 lineto
5.0000000 5.0000000 lineto
0.0000000 0.0000000 lineto
closepath
stroke
0.0000000 0.0000000 0.0000000 setrgbcolor
[] 0 setdash
1.5000000 setlinewidth
0 setlinejoin
0 setlinecap
newpath
-14.759949 -7.0000000 moveto
-14.759949 65.000000 lineto
stroke
grestore
gsave [-8.7023988e-18 -0.14212565 -0.14212565 8.7023988e-18 198.76397 55.299409] concat
0.0000000 0.0000000 0.0000000 setrgbcolor
newpath
0.0000000 0.0000000 moveto
5.0000000 -5.0000000 lineto
-12.500000 0.0000000 lineto
5.0000000 5.0000000 lineto
0.0000000 0.0000000 lineto
closepath
eofill
0.0000000 0.0000000 0.0000000 setrgbcolor
[] 0 setdash
1.2500000 setlinewidth
0 setlinejoin
0 setlinecap
newpath
0.0000000 0.0000000 moveto
5.0000000 -5.0000000 lineto
-12.500000 0.0000000 lineto
5.0000000 5.0000000 lineto
0.0000000 0.0000000 lineto
closepath
stroke
0.0000000 0.0000000 0.0000000 setrgbcolor
[] 0 setdash
1.5000000 setlinewidth
0 setlinejoin
0 setlinecap
newpath
-14.759949 -7.0000000 moveto
-14.759949 65.000000 lineto
stroke
grestore
0.0000000 0.0000000 0.0000000 setrgbcolor
newpath
174.39465 33.543167 moveto
171.54797 33.543167 lineto
171.54797 33.372269 lineto
172.23808 33.372269 172.58313 33.093949 172.58313 32.537308 curveto
172.58313 27.381058 lineto
172.40735 27.485230 172.23319 27.589397 172.06067 27.693558 curveto
171.85233 27.810751 171.66842 27.890504 171.50891 27.932816 curveto
171.41614 27.717972 lineto
172.07043 27.392457 172.63196 26.995322 173.10071 26.526566 curveto
173.39368 26.526566 lineto
173.39368 32.537308 lineto
173.39367 32.872595 173.47994 33.100459 173.65247 33.220901 curveto
173.79244 33.321813 174.03983 33.372269 174.39465 33.372269 curveto
174.39465 33.543167 lineto
fill
0.0000000 0.0000000 0.0000000 setrgbcolor
newpath
179.82922 30.022659 moveto
179.82922 30.813678 179.66158 31.562375 179.32629 32.268753 curveto
178.90962 33.150915 178.34810 33.591995 177.64172 33.591995 curveto
176.90930 33.591995 176.33964 33.157425 175.93274 32.288284 curveto
175.61373 31.607948 175.45422 30.852740 175.45422 30.022659 curveto
175.45422 29.231648 175.62187 28.482951 175.95715 27.776566 curveto
176.37382 26.897666 176.93534 26.458213 177.64172 26.458206 curveto
178.37414 26.458213 178.94218 26.891156 179.34583 27.757034 curveto
179.66809 28.440633 179.82922 29.195841 179.82922 30.022659 curveto
179.11145 30.242386 moveto
179.11145 27.901897 178.62154 26.731650 177.64172 26.731644 curveto
176.66190 26.731650 176.17200 27.757040 176.17200 29.807816 curveto
176.17200 32.145057 176.66190 33.313675 177.64172 33.313675 curveto
178.62154 33.313675 179.11145 32.289913 179.11145 30.242386 curveto
fill
0.0000000 0.0000000 0.0000000 setrgbcolor
newpath
185.37610 30.022659 moveto
185.37609 30.813678 185.20845 31.562375 184.87317 32.268753 curveto
184.45650 33.150915 183.89498 33.591995 183.18860 33.591995 curveto
182.45617 33.591995 181.88651 33.157425 181.47961 32.288284 curveto
181.16060 31.607948 181.00110 30.852740 181.00110 30.022659 curveto
181.00110 29.231648 181.16874 28.482951 181.50403 27.776566 curveto
181.92069 26.897666 182.48222 26.458213 183.18860 26.458206 curveto
183.92102 26.458213 184.48905 26.891156 184.89270 27.757034 curveto
185.21496 28.440633 185.37609 29.195841 185.37610 30.022659 curveto
184.65833 30.242386 moveto
184.65832 27.901897 184.16841 26.731650 183.18860 26.731644 curveto
182.20878 26.731650 181.71887 27.757040 181.71887 29.807816 curveto
181.71887 32.145057 182.20878 33.313675 183.18860 33.313675 curveto
184.16841 33.313675 184.65832 32.289913 184.65833 30.242386 curveto
fill
0.0000000 0.0000000 0.0000000 setrgbcolor
newpath
fill
0.0000000 0.0000000 0.0000000 setrgbcolor
newpath
197.31458 33.548050 moveto
195.15149 33.548050 lineto
195.15149 33.328323 lineto
195.59419 33.328324 195.81555 33.108597 195.81555 32.669144 curveto
195.81555 30.447464 lineto
195.81555 30.170775 195.74881 29.928262 195.61536 29.719925 curveto
195.45910 29.479044 195.24914 29.358601 194.98547 29.358597 curveto
194.58182 29.358601 194.10168 29.562051 193.54504 29.968948 curveto
193.54504 32.908401 lineto
193.54504 33.175329 193.80546 33.308792 194.32629 33.308792 curveto
194.35071 33.548050 lineto
192.19250 33.548050 lineto
192.19250 33.328323 lineto
192.63195 33.328324 192.85168 33.108597 192.85168 32.669144 curveto
192.85168 30.447464 lineto
192.85168 30.167519 192.79471 29.926634 192.68079 29.724808 curveto
192.54081 29.480671 192.34061 29.358601 192.08020 29.358597 curveto
191.67004 29.358601 191.16711 29.578327 190.57141 30.017776 curveto
190.57141 32.805862 lineto
190.57141 33.124873 190.81718 33.299027 191.30872 33.328323 curveto
191.27942 33.548050 lineto
189.21399 33.548050 lineto
189.19446 33.508987 lineto
189.22375 33.357620 lineto
189.42558 33.357620 189.58834 33.274613 189.71204 33.108597 curveto
189.82597 32.955603 189.88293 32.774939 189.88293 32.566605 curveto
189.88293 29.876175 lineto
189.88293 29.758991 189.78202 29.666218 189.58020 29.597855 curveto
189.55416 29.588093 189.40116 29.552286 189.12122 29.490433 curveto
189.12122 29.368362 lineto
189.15377 29.332559 189.19446 29.306518 189.24329 29.290237 curveto
189.50045 29.202351 189.88456 29.044474 190.39563 28.816605 curveto
190.57141 28.948441 lineto
190.57141 29.827347 lineto
191.51216 29.221882 192.16158 28.919148 192.51965 28.919144 curveto
192.73775 28.919148 192.94120 29.020060 193.13000 29.221878 curveto
193.28951 29.394408 193.40507 29.596231 193.47668 29.827347 curveto
194.41743 29.221882 195.06685 28.919148 195.42493 28.919144 curveto
195.77323 28.919148 196.05155 29.080281 196.25989 29.402542 curveto
196.44217 29.682494 196.53332 30.004759 196.53333 30.369339 curveto
196.53333 32.908401 lineto
196.53332 33.175329 196.78397 33.308792 197.28528 33.308792 curveto
197.31458 33.548050 lineto
fill
0.0000000 0.0000000 0.0000000 setrgbcolor
newpath
118.58328 36.490093 moveto
117.91271 36.490100 117.57742 36.768420 117.57742 37.325054 curveto
117.57742 42.242046 lineto
117.57742 42.577333 117.66531 42.806825 117.84109 42.930523 curveto
117.98432 43.031435 118.23009 43.080263 118.57840 43.077007 curveto
118.57840 43.247906 lineto
115.73172 43.247906 lineto
115.73172 43.077007 lineto
116.42182 43.077007 116.76687 42.798687 116.76688 42.242046 curveto
116.76688 37.325054 lineto
116.76687 36.989774 116.68061 36.760282 116.50809 36.636578 curveto
116.36486 36.535673 116.11746 36.486845 115.76590 36.490093 curveto
115.76590 36.319195 lineto
118.58328 36.319195 lineto
118.58328 36.490093 lineto
fill
0.0000000 0.0000000 0.0000000 setrgbcolor
[] 0 setdash
1.0000000 setlinewidth
0 setlinejoin
0 setlinecap
newpath
190.61566 7.7297922 moveto
110.04804 7.7297922 lineto
stroke
gsave [0.60000000 -7.3476381e-17 7.3476381e-17 0.60000000 107.04804 7.7297922] concat
0.0000000 0.0000000 0.0000000 setrgbcolor
newpath
8.7185878 4.0337352 moveto
-2.2072895 0.016013256 lineto
8.7185884 -4.0017078 lineto
6.9730900 -1.6296469 6.9831476 1.6157441 8.7185878 4.0337352 curveto
closepath
eofill
grestore
gsave [1.0000000 0.0000000 0.0000000 1.0000000 91.371000 -27.649340] concat
0.0000000 0.0000000 0.0000000 setrgbcolor
newpath
11.909232 39.744465 moveto
11.909226 40.408529 11.616257 40.901692 11.030325 41.223957 curveto
10.564826 41.477863 9.9674958 41.604816 9.2383332 41.604816 curveto
5.7959504 41.604816 lineto
5.8447785 41.424152 lineto
6.2907416 41.417642 6.5804549 41.385090 6.7139192 41.326496 curveto
6.9678243 41.215819 7.0947773 40.966796 7.0947785 40.579426 curveto
7.0947785 35.603840 lineto
7.0947773 35.157883 6.7139183 34.934901 5.9522004 34.934895 curveto
5.9522004 34.710285 lineto
6.7660016 34.654954 7.7767428 34.627284 8.9844270 34.627277 curveto
9.5964024 34.627284 10.146532 34.739589 10.634818 34.964191 curveto
11.250047 35.250656 11.557663 35.654302 11.557669 36.175129 curveto
11.557663 37.047529 11.062872 37.556969 10.073294 37.703449 curveto
10.704800 37.840172 11.158901 38.051760 11.435599 38.338215 curveto
11.751348 38.657228 11.909226 39.125978 11.909232 39.744465 curveto
10.634818 36.394855 moveto
10.634813 35.392258 10.138394 34.890956 9.1455598 34.890949 curveto
7.9346223 34.890949 lineto
7.9346223 37.654621 lineto
8.8477082 37.654621 lineto
9.4206213 37.654625 9.8324048 37.591149 10.083060 37.464191 curveto
10.450894 37.278649 10.634813 36.922204 10.634818 36.394855 curveto
10.957083 39.705402 moveto
10.957078 39.145509 10.826870 38.706056 10.566458 38.387043 curveto
10.279995 38.041994 9.8633292 37.869469 9.3164582 37.869465 curveto
7.9346223 37.869465 lineto
7.9346223 40.628254 lineto
7.9346202 41.129556 8.3203620 41.380207 9.0918489 41.380207 curveto
9.6094232 41.380207 10.043993 41.232095 10.395560 40.935871 curveto
10.769904 40.623372 10.957078 40.213216 10.957083 39.705402 curveto
fill
0.0000000 0.0000000 0.0000000 setrgbcolor
[] 0 setdash
0.35433072 setlinewidth
0 setlinejoin
0 setlinecap
newpath
3.4790200 32.266296 moveto
11.718890 32.266296 11.718890 32.266296 11.718890 32.266296 curveto
stroke
gsave [-0.21259843 0.0000000 0.0000000 -0.21259843 12.781882 32.266296] concat
0.0000000 0.0000000 0.0000000 setrgbcolor
newpath
8.7185878 4.0337352 moveto
-2.2072895 0.016013256 lineto
8.7185884 -4.0017078 lineto
6.9730900 -1.6296469 6.9831476 1.6157441 8.7185878 4.0337352 curveto
closepath
eofill
grestore
grestore
gsave [1.0000000 0.0000000 0.0000000 1.0000000 125.52070 -37.994960] concat
gsave [1.0000000 0.0000000 0.0000000 1.0000000 -70.588230 -0.45776700] concat
0.0000000 0.0000000 0.0000000 setrgbcolor
[] 0 setdash
0.35433072 setlinewidth
0 setlinejoin
0 setlinecap
newpath
89.539918 64.493340 moveto
89.539918 67.626687 86.996911 70.169694 83.863564 70.169694 curveto
80.730216 70.169694 78.187209 67.626687 78.187209 64.493340 curveto
78.187209 61.359992 80.730216 58.816985 83.863564 58.816985 curveto
86.996911 58.816985 89.539918 61.359992 89.539918 64.493340 curveto
closepath
stroke
grestore
0.0000000 0.0000000 0.0000000 setrgbcolor
[] 0 setdash
0.35433072 setlinewidth
0 setlinejoin
0 setlinecap
newpath
8.9917348 60.488510 moveto
17.742065 67.582629 lineto
17.742065 67.582629 lineto
stroke
0.0000000 0.0000000 0.0000000 setrgbcolor
[] 0 setdash
0.35433072 setlinewidth
0 setlinejoin
0 setlinecap
newpath
17.742065 60.488510 moveto
8.9917348 67.582629 lineto
8.9917348 67.582629 lineto
stroke
grestore
0.0000000 0.0000000 0.0000000 setrgbcolor
newpath
161.67960 14.404728 moveto
161.67959 14.935328 161.50055 15.425237 161.14249 15.874454 curveto
160.76162 16.356225 160.31403 16.597111 159.79971 16.597111 curveto
159.32445 16.597111 159.08682 16.349715 159.08682 15.854923 curveto
159.08682 15.737737 159.12914 15.622177 159.21378 15.508244 curveto
159.30166 15.391057 159.40258 15.332463 159.51651 15.332462 curveto
159.78669 15.332463 159.92178 15.449651 159.92178 15.684025 curveto
159.92178 15.745875 159.88272 15.817489 159.80460 15.898869 curveto
159.72972 15.976994 159.69229 16.017684 159.69229 16.020939 curveto
159.69229 16.079533 159.74274 16.134872 159.84366 16.186954 curveto
159.93155 16.232528 160.00804 16.255314 160.07315 16.255314 curveto
160.45075 16.255314 160.69977 16.046981 160.82022 15.630314 curveto
160.87881 15.418726 160.90811 15.054143 160.90811 14.536564 curveto
160.90811 13.514431 160.41169 13.003364 159.41885 13.003361 curveto
159.31468 13.003364 159.20401 13.008247 159.08682 13.018009 curveto
159.11612 12.710392 lineto
159.93968 12.459745 160.35147 11.893339 160.35147 11.011173 curveto
160.35147 10.685658 160.27497 10.423614 160.12198 10.225040 curveto
159.95270 10.006948 159.71019 9.8978986 159.39444 9.8978920 curveto
159.00381 9.8978986 158.74828 10.080190 158.62784 10.444767 curveto
158.56273 10.640085 158.53018 10.983510 158.53018 11.475040 curveto
158.53018 16.518986 lineto
157.01651 16.518986 lineto
157.01651 16.318790 lineto
157.07510 16.323673 lineto
157.21833 16.330184 157.35668 16.289494 157.49014 16.201603 curveto
157.62686 16.113713 157.69522 15.998153 157.69522 15.854923 curveto
157.69522 11.196720 lineto
157.69522 10.747507 157.83845 10.360138 158.12491 10.034611 curveto
158.42113 9.6960759 158.79060 9.5268052 159.23331 9.5267982 curveto
159.71182 9.5268052 160.12523 9.6342270 160.47354 9.8490639 curveto
160.88695 10.099721 161.09365 10.446401 161.09366 10.889103 curveto
161.09365 11.253692 160.96996 11.616647 160.72256 11.977970 curveto
160.47517 12.336047 160.17569 12.580188 159.82413 12.710392 curveto
159.97712 12.674589 160.12198 12.656685 160.25870 12.656681 curveto
160.71768 12.656685 161.07575 12.837349 161.33292 13.198673 curveto
161.56403 13.520942 161.67959 13.922960 161.67960 14.404728 curveto
fill
grestore
showpage
