%!PS-Adobe-2.0
%%Creator: inkscape 0.41.1
%%Pages: 1
%%Orientation: Portrait
%%BoundingBox: 21 751 135 825
%%HiResBoundingBox: 21.692742 751.66207 134.31545 824.25253
%%EndComments
%%Page: 1 1
0 842 translate
0.80000000 -0.80000000 scale
gsave [1.0000000 0.0000000 0.0000000 1.0000000 0.0000000 0.0000000] concat
0.0000000 0.0000000 0.0000000 setrgbcolor
[] 0 setdash
0.37325650 setlinewidth
0 setlinejoin
0 setlinecap
newpath
27.302556 60.281845 moveto
167.70769 60.281852 lineto
stroke
0.0000000 0.0000000 0.0000000 setrgbcolor
[] 0 setdash
1.0000000 setlinewidth
0 setlinejoin
0 setlinecap
newpath
56.031115 89.212950 moveto
129.27440 34.280484 lineto
stroke
gsave [0.32000000 -0.24000001 0.24000001 0.32000000 56.031115 89.212950] concat
0.0000000 0.0000000 0.0000000 setrgbcolor
[] 0 setdash
1.2500000 setlinewidth
0 setlinejoin
0 setlinecap
newpath
0.0000000 5.6500000 moveto
0.0000000 -5.6500000 lineto
stroke
grestore
gsave [-0.47999999 0.36000001 -0.36000001 -0.47999999 131.67440 32.480484] concat
0.0000000 0.0000000 0.0000000 setrgbcolor
newpath
8.7185878 4.0337352 moveto
-2.2072895 0.016013256 lineto
8.7185884 -4.0017078 lineto
6.9730900 -1.6296469 6.9831476 1.6157441 8.7185878 4.0337352 curveto
closepath
eofill
grestore
0.0000000 0.0000000 0.0000000 setrgbcolor
[] 0 setdash
1.0000000 setlinewidth
0 setlinejoin
0 setlinecap
newpath
162.05077 60.281846 moveto
155.64198 60.281851 lineto
stroke
gsave [0.60000000 -4.6810708e-07 4.6810708e-07 0.60000000 152.64198 60.281853] concat
0.0000000 0.0000000 0.0000000 setrgbcolor
newpath
8.7185878 4.0337352 moveto
-2.2072895 0.016013256 lineto
8.7185884 -4.0017078 lineto
6.9730900 -1.6296469 6.9831476 1.6157441 8.7185878 4.0337352 curveto
closepath
eofill
grestore
0.0000000 0.0000000 0.0000000 setrgbcolor
[] 0 setdash
1.0000000 setlinewidth
0 setlinejoin
0 setlinecap
newpath
94.483845 60.281851 moveto
94.483845 112.28459 lineto
stroke
gsave [2.4492127e-17 0.40000000 -0.40000000 2.4492127e-17 94.483845 60.281851] concat
0.0000000 0.0000000 0.0000000 setrgbcolor
[] 0 setdash
1.2500000 setlinewidth
0 setlinejoin
0 setlinecap
newpath
0.0000000 5.6500000 moveto
0.0000000 -5.6500000 lineto
stroke
grestore
gsave [-3.6738191e-17 -0.60000000 0.60000000 -3.6738191e-17 94.483845 115.28459] concat
0.0000000 0.0000000 0.0000000 setrgbcolor
newpath
8.7185878 4.0337352 moveto
-2.2072895 0.016013256 lineto
8.7185884 -4.0017078 lineto
6.9730900 -1.6296469 6.9831476 1.6157441 8.7185878 4.0337352 curveto
closepath
eofill
grestore
0.0000000 0.0000000 0.0000000 setrgbcolor
[] 0 setdash
1.2921926 setlinewidth
0 setlinejoin
0 setlinecap
newpath
142.30641 60.281851 moveto
42.632881 60.281851 lineto
stroke
gsave [-0.51687703 6.3297090e-17 -6.3297090e-17 -0.51687703 142.30641 60.281851] concat
0.0000000 0.0000000 0.0000000 setrgbcolor
[] 0 setdash
1.2500000 setlinewidth
0 setlinejoin
0 setlinecap
newpath
0.0000000 5.6500000 moveto
0.0000000 -5.6500000 lineto
stroke
grestore
gsave [0.77531555 -9.4945635e-17 9.4945635e-17 0.77531555 38.756303 60.281851] concat
0.0000000 0.0000000 0.0000000 setrgbcolor
newpath
8.7185878 4.0337352 moveto
-2.2072895 0.016013256 lineto
8.7185884 -4.0017078 lineto
6.9730900 -1.6296469 6.9831476 1.6157441 8.7185878 4.0337352 curveto
closepath
eofill
grestore
0.0000000 0.0000000 0.0000000 setrgbcolor
newpath
159.59952 49.856987 moveto
158.92894 49.856994 158.59366 50.135314 158.59366 50.691948 curveto
158.59366 55.608940 lineto
158.59366 55.944227 158.68155 56.173719 158.85733 56.297417 curveto
159.00056 56.398328 159.24633 56.447156 159.59464 56.443901 curveto
159.59464 56.614799 lineto
156.74796 56.614799 lineto
156.74796 56.443901 lineto
157.43806 56.443901 157.78311 56.165581 157.78311 55.608940 curveto
157.78311 50.691948 lineto
157.78311 50.356668 157.69685 50.127176 157.52432 50.003471 curveto
157.38109 49.902567 157.13370 49.853739 156.78214 49.856987 curveto
156.78214 49.686089 lineto
159.59952 49.686089 lineto
159.59952 49.856987 lineto
fill
gsave [1.0000000 0.0000000 0.0000000 1.0000000 72.693950 15.014870] concat
0.0000000 0.0000000 0.0000000 setrgbcolor
newpath
35.347120 30.589050 moveto
35.347114 31.253114 35.054146 31.746278 34.468214 32.068542 curveto
34.002715 32.322449 33.405384 32.449402 32.676222 32.449402 curveto
29.233839 32.449402 lineto
29.282667 32.268738 lineto
29.728630 32.262228 30.018344 32.229676 30.151808 32.171082 curveto
30.405713 32.060405 30.532666 31.811382 30.532667 31.424011 curveto
30.532667 26.448425 lineto
30.532666 26.002468 30.151807 25.779487 29.390089 25.779480 curveto
29.390089 25.554871 lineto
30.203890 25.499539 31.214631 25.471870 32.422316 25.471863 curveto
33.034291 25.471870 33.584421 25.584174 34.072706 25.808777 curveto
34.687935 26.095242 34.995552 26.498887 34.995558 27.019714 curveto
34.995552 27.892115 34.500761 28.401554 33.511183 28.548035 curveto
34.142688 28.684757 34.596789 28.896346 34.873487 29.182800 curveto
35.189237 29.501814 35.347114 29.970563 35.347120 30.589050 curveto
34.072706 27.239441 moveto
34.072701 26.236843 33.576283 25.735541 32.583448 25.735535 curveto
31.372511 25.735535 lineto
31.372511 28.499207 lineto
32.285597 28.499207 lineto
32.858510 28.499210 33.270293 28.435734 33.520948 28.308777 curveto
33.888782 28.123234 34.072701 27.766789 34.072706 27.239441 curveto
34.394972 30.549988 moveto
34.394967 29.990094 34.264759 29.550642 34.004347 29.231628 curveto
33.717884 28.886580 33.301218 28.714054 32.754347 28.714050 curveto
31.372511 28.714050 lineto
31.372511 31.472839 lineto
31.372509 31.974142 31.758251 32.224793 32.529737 32.224792 curveto
33.047312 32.224793 33.481882 32.076681 33.833448 31.780457 curveto
34.207792 31.467958 34.394967 31.057802 34.394972 30.549988 curveto
fill
0.0000000 0.0000000 0.0000000 setrgbcolor
[] 0 setdash
0.35433072 setlinewidth
0 setlinejoin
0 setlinecap
newpath
27.466233 23.110883 moveto
35.706103 23.110883 35.706103 23.110883 35.706103 23.110883 curveto
stroke
gsave [-0.21259843 0.0000000 0.0000000 -0.21259843 36.769095 23.110883] concat
0.0000000 0.0000000 0.0000000 setrgbcolor
newpath
8.7185878 4.0337352 moveto
-2.2072895 0.016013256 lineto
8.7185884 -4.0017078 lineto
6.9730900 -1.6296469 6.9831476 1.6157441 8.7185878 4.0337352 curveto
closepath
eofill
grestore
grestore
gsave [1.0000000 0.0000000 0.0000000 1.0000000 51.087160 54.749360] concat
0.0000000 0.0000000 0.0000000 setrgbcolor
newpath
53.677490 29.109592 moveto
53.501709 29.109592 lineto
53.501704 28.461812 53.215246 28.137919 52.642334 28.137913 curveto
50.440186 28.137913 lineto
50.440186 30.759983 lineto
52.261475 30.759983 lineto
52.456783 30.759987 52.611406 30.683490 52.725342 30.530491 curveto
52.822994 30.397032 52.871822 30.226133 52.871826 30.017796 curveto
53.008545 30.017796 lineto
53.008545 31.922092 lineto
52.871826 31.922092 lineto
52.871822 31.388242 52.668372 31.121315 52.261475 31.121311 curveto
50.440186 31.121311 lineto
50.440186 33.772678 lineto
50.440184 34.208877 50.734780 34.426975 51.323975 34.426975 curveto
51.323975 34.646702 lineto
48.770264 34.646702 lineto
48.770264 34.426975 lineto
49.310628 34.426975 49.580810 34.189345 49.580811 33.714085 curveto
49.580811 28.450413 lineto
49.580810 28.095602 49.310628 27.919821 48.770264 27.923069 curveto
48.770264 27.713108 lineto
53.560303 27.713108 lineto
53.677490 29.109592 lineto
fill
0.0000000 0.0000000 0.0000000 setrgbcolor
[] 0 setdash
0.35433072 setlinewidth
0 setlinejoin
0 setlinecap
newpath
46.326380 25.308182 moveto
54.566250 25.308182 54.566250 25.308182 54.566250 25.308182 curveto
stroke
gsave [-0.21259843 0.0000000 0.0000000 -0.21259843 55.629242 25.308182] concat
0.0000000 0.0000000 0.0000000 setrgbcolor
newpath
8.7185878 4.0337352 moveto
-2.2072895 0.016013256 lineto
8.7185884 -4.0017078 lineto
6.9730900 -1.6296469 6.9831476 1.6157441 8.7185878 4.0337352 curveto
closepath
eofill
grestore
grestore
gsave [1.0000000 0.0000000 0.0000000 1.0000000 12.268240 3.4790560] concat
0.0000000 0.0000000 0.0000000 setrgbcolor
newpath
48.880043 52.178726 moveto
48.494301 53.873062 lineto
42.996254 53.873062 lineto
42.996254 53.692398 lineto
43.774248 53.682633 44.163245 53.461279 44.163246 53.028336 curveto
44.163246 47.774429 lineto
44.163245 47.478212 44.055823 47.284527 43.840981 47.193375 curveto
43.717282 47.144553 43.474769 47.120139 43.113441 47.120132 curveto
43.113441 46.949234 lineto
46.214027 46.949234 lineto
46.214027 47.105484 lineto
46.140785 47.100601 lineto
45.890131 47.097353 45.659012 47.146181 45.447426 47.247086 curveto
45.180497 47.374045 45.047033 47.551454 45.047035 47.779312 curveto
45.047035 52.940445 lineto
45.047033 53.301774 45.185379 53.482438 45.462074 53.482437 curveto
47.527504 53.482437 lineto
47.846510 53.482438 48.111809 53.335953 48.323402 53.042984 curveto
48.495923 52.808610 48.614738 52.514014 48.679848 52.159195 curveto
48.880043 52.178726 lineto
fill
0.0000000 0.0000000 0.0000000 setrgbcolor
[] 0 setdash
0.35433072 setlinewidth
0 setlinejoin
0 setlinecap
newpath
41.199350 44.534545 moveto
49.439220 44.534545 49.439220 44.534545 49.439220 44.534545 curveto
stroke
gsave [-0.21259843 0.0000000 0.0000000 -0.21259843 50.502212 44.534545] concat
0.0000000 0.0000000 0.0000000 setrgbcolor
newpath
8.7185878 4.0337352 moveto
-2.2072895 0.016013256 lineto
8.7185884 -4.0017078 lineto
6.9730900 -1.6296469 6.9831476 1.6157441 8.7185878 4.0337352 curveto
closepath
eofill
grestore
grestore
0.0000000 0.0000000 0.0000000 setrgbcolor
newpath
135.07027 22.105112 moveto
135.07026 22.160457 135.06538 22.220679 135.05562 22.285776 curveto
134.70079 22.328100 134.50711 22.355770 134.47456 22.368784 curveto
134.30203 22.437150 134.21577 22.596655 134.21577 22.847300 curveto
134.21577 28.970346 lineto
134.00093 28.970346 lineto
128.75679 23.091440 lineto
128.75679 28.150034 lineto
128.75679 28.573211 129.03511 28.784800 129.59175 28.784800 curveto
129.66662 28.784800 129.73986 28.779917 129.81148 28.770151 curveto
129.81148 28.970346 lineto
127.60933 28.970346 lineto
127.55074 28.770151 lineto
128.08784 28.770151 128.35640 28.635060 128.35640 28.364878 curveto
128.35640 22.813120 lineto
128.35640 22.650366 128.25874 22.516902 128.06343 22.412729 curveto
127.91369 22.331356 127.74279 22.279272 127.55074 22.256479 curveto
127.58003 22.046518 lineto
129.13277 22.046518 lineto
133.78609 27.495737 lineto
133.78609 22.847300 lineto
133.78608 22.648738 133.68517 22.498999 133.48335 22.398081 curveto
133.32059 22.316707 133.13178 22.279272 132.91695 22.285776 curveto
132.91695 22.046518 lineto
135.05562 22.046518 lineto
135.06538 22.085588 135.07026 22.105119 135.07027 22.105112 curveto
fill
0.0000000 0.0000000 0.0000000 setrgbcolor
newpath
51.216511 89.022537 moveto
51.216506 89.588945 51.019566 90.026770 50.625690 90.336014 curveto
50.267614 90.619217 49.797237 90.760818 49.214558 90.760818 curveto
49.038774 90.760818 48.775102 90.728266 48.423542 90.663162 curveto
48.075233 90.598058 47.811562 90.565506 47.632526 90.565506 curveto
47.547890 90.565506 47.474648 90.596431 47.412800 90.658279 curveto
47.256550 90.658279 lineto
46.978230 88.944412 lineto
47.163776 88.880936 lineto
47.284218 89.375729 47.520221 89.769608 47.871784 90.062576 curveto
48.226600 90.355545 48.654660 90.502030 49.155964 90.502029 curveto
49.540075 90.502030 49.854203 90.375077 50.098347 90.121170 curveto
50.345739 89.867265 50.469437 89.546627 50.469440 89.159256 curveto
50.469437 88.771888 50.169958 88.363360 49.571003 87.933670 curveto
49.017615 87.546303 48.462603 87.158934 47.905964 86.771561 curveto
47.307005 86.267008 47.007526 85.729899 47.007526 85.160233 curveto
47.007526 84.684978 47.253294 84.307374 47.744831 84.027420 curveto
48.154986 83.793052 48.617225 83.675865 49.131550 83.675858 curveto
49.258500 83.675865 49.439164 83.708417 49.673542 83.773514 curveto
49.911169 83.835370 50.088578 83.866294 50.205769 83.866287 curveto
50.306676 83.866294 50.384801 83.822349 50.440144 83.734451 curveto
50.625690 83.734451 lineto
50.938190 85.794998 lineto
50.718464 85.794998 lineto
50.565465 85.189535 50.373408 84.754965 50.142292 84.491287 curveto
49.842810 84.156007 49.411495 83.988364 48.848347 83.988358 curveto
48.535845 83.988364 48.285194 84.086020 48.096394 84.281326 curveto
47.910845 84.476645 47.818072 84.732179 47.818073 85.047928 curveto
47.818072 85.438558 48.112668 85.838948 48.701862 86.249100 curveto
49.245479 86.623453 49.790726 86.997801 50.337605 87.372147 curveto
50.923538 87.873451 51.216506 88.423581 51.216511 89.022537 curveto
fill
0.0000000 0.0000000 0.0000000 setrgbcolor
newpath
147.01872 72.186356 moveto
146.82341 73.831863 lineto
141.32536 73.831863 lineto
141.32536 73.651199 lineto
142.10336 73.641434 142.49235 73.420080 142.49236 72.987137 curveto
142.49236 67.723465 lineto
142.49235 67.469565 142.42562 67.298667 142.29216 67.210770 curveto
142.14893 67.116375 141.86573 67.069175 141.44255 67.069168 curveto
141.44255 66.898270 lineto
146.60368 66.898270 lineto
146.65739 68.397293 lineto
146.47673 68.397293 lineto
146.39860 67.645346 146.15609 67.269370 145.74919 67.269363 curveto
143.37614 67.269363 lineto
143.37614 70.023270 lineto
145.26579 70.023270 lineto
145.56852 70.023273 145.76384 69.738443 145.85173 69.168777 curveto
146.01286 69.168777 lineto
146.01286 71.278152 lineto
145.85173 71.278152 lineto
145.74430 70.669432 145.54899 70.365070 145.26579 70.365067 curveto
143.37614 70.365067 lineto
143.37614 72.899246 lineto
143.37614 73.260575 143.51449 73.441239 143.79118 73.441238 curveto
145.85661 73.441238 lineto
146.34489 73.441239 146.66715 73.018062 146.82341 72.171707 curveto
147.01872 72.186356 lineto
fill
0.0000000 0.0000000 0.0000000 setrgbcolor
newpath
44.021549 68.680473 moveto
44.021542 69.751439 43.697649 70.638483 43.049870 71.341606 curveto
42.382546 72.064263 41.518289 72.425590 40.457096 72.425591 curveto
39.415427 72.425590 38.562563 72.134250 37.898502 71.551567 curveto
37.198632 70.939589 36.848698 70.122533 36.848698 69.100395 curveto
36.848698 68.029436 37.169335 67.142393 37.810612 66.439262 curveto
38.474673 65.716613 39.337302 65.355285 40.398502 65.355278 curveto
41.440164 65.355285 42.296283 65.646626 42.966862 66.229301 curveto
43.669980 66.841286 44.021542 67.658343 44.021549 68.680473 curveto
43.035221 69.041801 moveto
43.035215 68.162899 42.813861 67.397926 42.371159 66.746880 curveto
41.866596 66.004698 41.194396 65.633605 40.354557 65.633598 curveto
39.514711 65.633605 38.876690 65.962381 38.440495 66.619926 curveto
38.069400 67.183083 37.883853 67.907366 37.883854 68.792778 curveto
37.883853 69.665177 38.100324 70.418757 38.533268 71.053520 curveto
39.028057 71.776177 39.692119 72.137505 40.525455 72.137505 curveto
41.371805 72.137505 42.016336 71.823378 42.459049 71.195122 curveto
42.843158 70.644993 43.035215 69.927221 43.035221 69.041801 curveto
fill
grestore
showpage
