%!PS-Adobe-2.0 EPSF-2.0
%%Title: FilDroit.eps
%%Creator: fig2dev Version 3.2 Patchlevel 3d
%%CreationDate: Fri Aug  8 22:37:51 2003
%%For: prof@portable (Vincent Guyot)
%%BoundingBox: 0 0 176 113
%%Magnification: 1.0000
%%EndComments
/$F2psDict 200 dict def
$F2psDict begin
$F2psDict /mtrx matrix put
/col-1 {0 setgray} bind def
/col0 {0.000 0.000 0.000 srgb} bind def
/col1 {0.000 0.000 1.000 srgb} bind def
/col2 {0.000 1.000 0.000 srgb} bind def
/col3 {0.000 1.000 1.000 srgb} bind def
/col4 {1.000 0.000 0.000 srgb} bind def
/col5 {1.000 0.000 1.000 srgb} bind def
/col6 {1.000 1.000 0.000 srgb} bind def
/col7 {1.000 1.000 1.000 srgb} bind def
/col8 {0.000 0.000 0.560 srgb} bind def
/col9 {0.000 0.000 0.690 srgb} bind def
/col10 {0.000 0.000 0.820 srgb} bind def
/col11 {0.530 0.810 1.000 srgb} bind def
/col12 {0.000 0.560 0.000 srgb} bind def
/col13 {0.000 0.690 0.000 srgb} bind def
/col14 {0.000 0.820 0.000 srgb} bind def
/col15 {0.000 0.560 0.560 srgb} bind def
/col16 {0.000 0.690 0.690 srgb} bind def
/col17 {0.000 0.820 0.820 srgb} bind def
/col18 {0.560 0.000 0.000 srgb} bind def
/col19 {0.690 0.000 0.000 srgb} bind def
/col20 {0.820 0.000 0.000 srgb} bind def
/col21 {0.560 0.000 0.560 srgb} bind def
/col22 {0.690 0.000 0.690 srgb} bind def
/col23 {0.820 0.000 0.820 srgb} bind def
/col24 {0.500 0.190 0.000 srgb} bind def
/col25 {0.630 0.250 0.000 srgb} bind def
/col26 {0.750 0.380 0.000 srgb} bind def
/col27 {1.000 0.500 0.500 srgb} bind def
/col28 {1.000 0.630 0.630 srgb} bind def
/col29 {1.000 0.750 0.750 srgb} bind def
/col30 {1.000 0.880 0.880 srgb} bind def
/col31 {1.000 0.840 0.000 srgb} bind def

end
save
newpath 0 113 moveto 0 0 lineto 176 0 lineto 176 113 lineto closepath clip newpath
-0.9 131.1 translate
1 -1 scale

/cp {closepath} bind def
/ef {eofill} bind def
/gr {grestore} bind def
/gs {gsave} bind def
/sa {save} bind def
/rs {restore} bind def
/l {lineto} bind def
/m {moveto} bind def
/rm {rmoveto} bind def
/n {newpath} bind def
/s {stroke} bind def
/sh {show} bind def
/slc {setlinecap} bind def
/slj {setlinejoin} bind def
/slw {setlinewidth} bind def
/srgb {setrgbcolor} bind def
/rot {rotate} bind def
/sc {scale} bind def
/sd {setdash} bind def
/ff {findfont} bind def
/sf {setfont} bind def
/scf {scalefont} bind def
/sw {stringwidth} bind def
/tr {translate} bind def
/tnt {dup dup currentrgbcolor
  4 -2 roll dup 1 exch sub 3 -1 roll mul add
  4 -2 roll dup 1 exch sub 3 -1 roll mul add
  4 -2 roll dup 1 exch sub 3 -1 roll mul add srgb}
  bind def
/shd {dup dup currentrgbcolor 4 -2 roll mul 4 -2 roll mul
  4 -2 roll mul srgb} bind def
/reencdict 12 dict def /ReEncode { reencdict begin
/newcodesandnames exch def /newfontname exch def /basefontname exch def
/basefontdict basefontname findfont def /newfont basefontdict maxlength dict def
basefontdict { exch dup /FID ne { dup /Encoding eq
{ exch dup length array copy newfont 3 1 roll put }
{ exch newfont 3 1 roll put } ifelse } { pop pop } ifelse } forall
newfont /FontName newfontname put newcodesandnames aload pop
128 1 255 { newfont /Encoding get exch /.notdef put } for
newcodesandnames length 2 idiv { newfont /Encoding get 3 1 roll put } repeat
newfontname newfont definefont pop end } def
/isovec [
8#055 /minus 8#200 /grave 8#201 /acute 8#202 /circumflex 8#203 /tilde
8#204 /macron 8#205 /breve 8#206 /dotaccent 8#207 /dieresis
8#210 /ring 8#211 /cedilla 8#212 /hungarumlaut 8#213 /ogonek 8#214 /caron
8#220 /dotlessi 8#230 /oe 8#231 /OE
8#240 /space 8#241 /exclamdown 8#242 /cent 8#243 /sterling
8#244 /currency 8#245 /yen 8#246 /brokenbar 8#247 /section 8#250 /dieresis
8#251 /copyright 8#252 /ordfeminine 8#253 /guillemotleft 8#254 /logicalnot
8#255 /hyphen 8#256 /registered 8#257 /macron 8#260 /degree 8#261 /plusminus
8#262 /twosuperior 8#263 /threesuperior 8#264 /acute 8#265 /mu 8#266 /paragraph
8#267 /periodcentered 8#270 /cedilla 8#271 /onesuperior 8#272 /ordmasculine
8#273 /guillemotright 8#274 /onequarter 8#275 /onehalf
8#276 /threequarters 8#277 /questiondown 8#300 /Agrave 8#301 /Aacute
8#302 /Acircumflex 8#303 /Atilde 8#304 /Adieresis 8#305 /Aring
8#306 /AE 8#307 /Ccedilla 8#310 /Egrave 8#311 /Eacute
8#312 /Ecircumflex 8#313 /Edieresis 8#314 /Igrave 8#315 /Iacute
8#316 /Icircumflex 8#317 /Idieresis 8#320 /Eth 8#321 /Ntilde 8#322 /Ograve
8#323 /Oacute 8#324 /Ocircumflex 8#325 /Otilde 8#326 /Odieresis 8#327 /multiply
8#330 /Oslash 8#331 /Ugrave 8#332 /Uacute 8#333 /Ucircumflex
8#334 /Udieresis 8#335 /Yacute 8#336 /Thorn 8#337 /germandbls 8#340 /agrave
8#341 /aacute 8#342 /acircumflex 8#343 /atilde 8#344 /adieresis 8#345 /aring
8#346 /ae 8#347 /ccedilla 8#350 /egrave 8#351 /eacute
8#352 /ecircumflex 8#353 /edieresis 8#354 /igrave 8#355 /iacute
8#356 /icircumflex 8#357 /idieresis 8#360 /eth 8#361 /ntilde 8#362 /ograve
8#363 /oacute 8#364 /ocircumflex 8#365 /otilde 8#366 /odieresis 8#367 /divide
8#370 /oslash 8#371 /ugrave 8#372 /uacute 8#373 /ucircumflex
8#374 /udieresis 8#375 /yacute 8#376 /thorn 8#377 /ydieresis] def
/Times-Roman /Times-Roman-iso isovec ReEncode
 /DrawEllipse {
	/endangle exch def
	/startangle exch def
	/yrad exch def
	/xrad exch def
	/y exch def
	/x exch def
	/savematrix mtrx currentmatrix def
	x y tr xrad yrad sc 0 0 1 startangle endangle arc
	closepath
	savematrix setmatrix
	} def

/$F2psBegin {$F2psDict begin /$F2psEnteredState save def} def
/$F2psEnd {$F2psEnteredState restore end} def

$F2psBegin
10 setmiterlimit
 0.06299 0.06299 sc
%
% Fig objects follow
%
7.500 slw
% Ellipse
n 1353 1177 1305 450 0 360 DrawEllipse gs col0 s gr

% Ellipse
n 1350 1170 855 270 0 360 DrawEllipse gs col0 s gr

% Ellipse
n 1350 1170 1125 360 0 360 DrawEllipse gs col0 s gr

% Ellipse
n 1346 1169 589 181 0 360 DrawEllipse gs col0 s gr

% Ellipse
n 1346 1169 274 91 0 360 DrawEllipse gs col0 s gr

% Polyline
gs  clippath
1372 300 m 1327 300 l 1327 447 l 1350 335 l 1372 447 l cp
eoclip
n 1350 2070 m
 1350 315 l gs col0 s gr gr

% arrowhead
n 1372 447 m 1350 335 l 1327 447 l 1350 425 l 1372 447 l 
 cp gs 0.00 setgray ef gr  col0 s
% Polyline
gs  clippath
1320 1642 m 1320 1597 l 1172 1597 l 1285 1620 l 1172 1642 l cp
eoclip
n 1215 1620 m
 1305 1620 l gs col0 s gr gr

% arrowhead
n 1172 1642 m 1285 1620 l 1172 1597 l 1195 1620 l 1172 1642 l 
 cp gs 0.00 setgray ef gr  col0 s
% Polyline
gs  clippath
1410 1552 m 1410 1507 l 1262 1507 l 1375 1530 l 1262 1552 l cp
eoclip
n 1305 1530 m
 1395 1530 l gs col0 s gr gr

% arrowhead
n 1262 1552 m 1375 1530 l 1262 1507 l 1285 1530 l 1262 1552 l 
 cp gs 0.00 setgray ef gr  col0 s
% Polyline
gs  clippath
1455 1462 m 1455 1417 l 1307 1417 l 1420 1440 l 1307 1462 l cp
eoclip
n 1350 1440 m
 1440 1440 l gs col0 s gr gr

% arrowhead
n 1307 1462 m 1420 1440 l 1307 1417 l 1330 1440 l 1307 1462 l 
 cp gs 0.00 setgray ef gr  col0 s
% Polyline
gs  clippath
1500 1372 m 1500 1327 l 1352 1327 l 1465 1350 l 1352 1372 l cp
eoclip
n 1395 1350 m
 1485 1350 l gs col0 s gr gr

% arrowhead
n 1352 1372 m 1465 1350 l 1352 1327 l 1375 1350 l 1352 1372 l 
 cp gs 0.00 setgray ef gr  col0 s
% Polyline
gs  clippath
1455 1282 m 1455 1237 l 1307 1237 l 1420 1260 l 1307 1282 l cp
eoclip
n 1350 1260 m
 1440 1260 l gs col0 s gr gr

% arrowhead
n 1307 1282 m 1420 1260 l 1307 1237 l 1330 1260 l 1307 1282 l 
 cp gs 0.00 setgray ef gr  col0 s
% Polyline
gs  clippath
2677 1065 m 2632 1065 l 2632 1212 l 2655 1100 l 2677 1212 l cp
eoclip
n 2655 1170 m
 2655 1080 l gs col0 s gr gr

% arrowhead
n 2677 1212 m 2655 1100 l 2632 1212 l 2655 1190 l 2677 1212 l 
 cp gs 0.00 setgray ef gr  col0 s
% Polyline
gs  clippath
2497 1065 m 2452 1065 l 2452 1212 l 2475 1100 l 2497 1212 l cp
eoclip
n 2475 1170 m
 2475 1080 l gs col0 s gr gr

% arrowhead
n 2497 1212 m 2475 1100 l 2452 1212 l 2475 1190 l 2497 1212 l 
 cp gs 0.00 setgray ef gr  col0 s
% Polyline
gs  clippath
2227 1065 m 2182 1065 l 2182 1212 l 2205 1100 l 2227 1212 l cp
eoclip
n 2205 1170 m
 2205 1080 l gs col0 s gr gr

% arrowhead
n 2227 1212 m 2205 1100 l 2182 1212 l 2205 1190 l 2227 1212 l 
 cp gs 0.00 setgray ef gr  col0 s
% Polyline
gs  clippath
1957 1065 m 1912 1065 l 1912 1212 l 1935 1100 l 1957 1212 l cp
eoclip
n 1935 1170 m
 1935 1080 l gs col0 s gr gr

% arrowhead
n 1957 1212 m 1935 1100 l 1912 1212 l 1935 1190 l 1957 1212 l 
 cp gs 0.00 setgray ef gr  col0 s
% Polyline
gs  clippath
0 1138 m 31 1170 l 135 1066 l 40 1130 l 103 1034 l cp
eoclip
n 90 1080 m
 26 1144 l gs col0 s gr gr

% arrowhead
n 103 1034 m 40 1130 l 135 1066 l 103 1066 l 103 1034 l 
 cp gs 0.00 setgray ef gr  col0 s
% Polyline
gs  clippath
179 1138 m 211 1170 l 315 1066 l 220 1130 l 283 1034 l cp
eoclip
n 270 1080 m
 206 1144 l gs col0 s gr gr

% arrowhead
n 283 1034 m 220 1130 l 315 1066 l 283 1066 l 283 1034 l 
 cp gs 0.00 setgray ef gr  col0 s
% Polyline
gs  clippath
449 1138 m 481 1170 l 585 1066 l 490 1130 l 553 1034 l cp
eoclip
n 540 1080 m
 476 1144 l gs col0 s gr gr

% arrowhead
n 553 1034 m 490 1130 l 585 1066 l 553 1066 l 553 1034 l 
 cp gs 0.00 setgray ef gr  col0 s
% Polyline
gs  clippath
674 1183 m 706 1215 l 810 1111 l 715 1175 l 778 1079 l cp
eoclip
n 765 1125 m
 701 1189 l gs col0 s gr gr

% arrowhead
n 778 1079 m 715 1175 l 810 1111 l 778 1111 l 778 1079 l 
 cp gs 0.00 setgray ef gr  col0 s
% Polyline
gs  clippath
1034 1183 m 1066 1215 l 1170 1111 l 1075 1175 l 1138 1079 l cp
eoclip
n 1125 1125 m
 1061 1189 l gs col0 s gr gr

% arrowhead
n 1138 1079 m 1075 1175 l 1170 1111 l 1138 1111 l 1138 1079 l 
 cp gs 0.00 setgray ef gr  col0 s
/Times-Roman-iso ff 180.00 scf sf
1395 630 m
gs 1 -1 sc (Fil parcouru par un) col0 sh gr
/Times-Roman-iso ff 180.00 scf sf
2250 810 m
gs 1 -1 sc (courant) col0 sh gr
/Times-Roman-iso ff 180.00 scf sf
90 1800 m
gs 1 -1 sc (Lignes de champ magn\351tique) col0 sh gr
$F2psEnd
rs
