%!PS-Adobe-2.0
%%Creator: inkscape 0.41.1
%%Pages: 1
%%Orientation: Portrait
%%BoundingBox: 24 755 121 834
%%HiResBoundingBox: 24.614499 755.28954 120.22602 833.02969
%%EndComments
%%Page: 1 1
0 842 translate
0.80000000 -0.80000000 scale
gsave [1.0000000 0.0000000 0.0000000 1.0000000 0.0000000 0.0000000] concat
0.0000000 0.0000000 0.0000000 setrgbcolor
[] 0 setdash
0.35433072 setlinewidth
0 setlinejoin
0 setlinecap
newpath
30.945289 108.07309 moveto
143.00752 23.843316 lineto
stroke
0.0000000 0.0000000 0.0000000 setrgbcolor
[] 0 setdash
1.0000000 setlinewidth
0 setlinejoin
0 setlinecap
newpath
56.031115 89.212950 moveto
129.27440 34.280484 lineto
stroke
gsave [0.32000000 -0.24000001 0.24000001 0.32000000 56.031115 89.212950] concat
0.0000000 0.0000000 0.0000000 setrgbcolor
[] 0 setdash
1.2500000 setlinewidth
0 setlinejoin
0 setlinecap
newpath
0.0000000 5.6500000 moveto
0.0000000 -5.6500000 lineto
stroke
grestore
gsave [-0.47999999 0.36000001 -0.36000001 -0.47999999 131.67440 32.480484] concat
0.0000000 0.0000000 0.0000000 setrgbcolor
newpath
8.7185878 4.0337352 moveto
-2.2072895 0.016013256 lineto
8.7185884 -4.0017078 lineto
6.9730900 -1.6296469 6.9831476 1.6157441 8.7185878 4.0337352 curveto
closepath
eofill
grestore
0.0000000 0.0000000 0.0000000 setrgbcolor
[] 0 setdash
1.0000000 setlinewidth
0 setlinejoin
0 setlinecap
newpath
39.002051 102.03052 moveto
47.241920 95.804846 lineto
stroke
gsave [-0.47872053 0.36169968 -0.36169968 -0.47872053 49.635523 93.996348] concat
0.0000000 0.0000000 0.0000000 setrgbcolor
newpath
8.7185878 4.0337352 moveto
-2.2072895 0.016013256 lineto
8.7185884 -4.0017078 lineto
6.9730900 -1.6296469 6.9831476 1.6157441 8.7185878 4.0337352 curveto
closepath
eofill
grestore
0.0000000 0.0000000 0.0000000 setrgbcolor
[] 0 setdash
1.0000000 setlinewidth
0 setlinejoin
0 setlinecap
newpath
90.089244 63.577799 moveto
90.089244 11.575065 lineto
stroke
gsave [2.4492127e-17 -0.40000000 0.40000000 2.4492127e-17 90.089244 63.577799] concat
0.0000000 0.0000000 0.0000000 setrgbcolor
[] 0 setdash
1.2500000 setlinewidth
0 setlinejoin
0 setlinecap
newpath
0.0000000 5.6500000 moveto
0.0000000 -5.6500000 lineto
stroke
grestore
gsave [-3.6738191e-17 0.60000000 -0.60000000 -3.6738191e-17 90.089244 8.5750650] concat
0.0000000 0.0000000 0.0000000 setrgbcolor
newpath
8.7185878 4.0337352 moveto
-2.2072895 0.016013256 lineto
8.7185884 -4.0017078 lineto
6.9730900 -1.6296469 6.9831476 1.6157441 8.7185878 4.0337352 curveto
closepath
eofill
grestore
0.0000000 0.0000000 0.0000000 setrgbcolor
[] 0 setdash
1.0000000 setlinewidth
0 setlinejoin
0 setlinecap
newpath
90.089244 63.577799 moveto
149.78252 63.577799 lineto
stroke
gsave [0.40000000 0.0000000 0.0000000 0.40000000 90.089244 63.577799] concat
0.0000000 0.0000000 0.0000000 setrgbcolor
[] 0 setdash
1.2500000 setlinewidth
0 setlinejoin
0 setlinecap
newpath
0.0000000 5.6500000 moveto
0.0000000 -5.6500000 lineto
stroke
grestore
gsave [-0.60000000 0.0000000 0.0000000 -0.60000000 152.78252 63.577799] concat
0.0000000 0.0000000 0.0000000 setrgbcolor
newpath
8.7185878 4.0337352 moveto
-2.2072895 0.016013256 lineto
8.7185884 -4.0017078 lineto
6.9730900 -1.6296469 6.9831476 1.6157441 8.7185878 4.0337352 curveto
closepath
eofill
grestore
0.0000000 0.0000000 0.0000000 setrgbcolor
newpath
42.410259 90.507011 moveto
41.739684 90.507018 41.404398 90.785338 41.404400 91.341972 curveto
41.404400 96.258965 lineto
41.404398 96.594252 41.492288 96.823744 41.668072 96.947441 curveto
41.811298 97.048353 42.057066 97.097181 42.405376 97.093925 curveto
42.405376 97.264824 lineto
39.558697 97.264824 lineto
39.558697 97.093925 lineto
40.248800 97.093926 40.593852 96.815606 40.593853 96.258965 curveto
40.593853 91.341972 lineto
40.593852 91.006692 40.507589 90.777200 40.335064 90.653496 curveto
40.191834 90.552591 39.944438 90.503763 39.592876 90.507011 curveto
39.592876 90.336113 lineto
42.410259 90.336113 lineto
42.410259 90.507011 lineto
fill
gsave [1.0000000 0.0000000 0.0000000 1.0000000 64.454090 3.2959480] concat
0.0000000 0.0000000 0.0000000 setrgbcolor
newpath
35.347120 30.589050 moveto
35.347114 31.253114 35.054146 31.746278 34.468214 32.068542 curveto
34.002715 32.322449 33.405384 32.449402 32.676222 32.449402 curveto
29.233839 32.449402 lineto
29.282667 32.268738 lineto
29.728630 32.262228 30.018344 32.229676 30.151808 32.171082 curveto
30.405713 32.060405 30.532666 31.811382 30.532667 31.424011 curveto
30.532667 26.448425 lineto
30.532666 26.002468 30.151807 25.779487 29.390089 25.779480 curveto
29.390089 25.554871 lineto
30.203890 25.499539 31.214631 25.471870 32.422316 25.471863 curveto
33.034291 25.471870 33.584421 25.584174 34.072706 25.808777 curveto
34.687935 26.095242 34.995552 26.498887 34.995558 27.019714 curveto
34.995552 27.892115 34.500761 28.401554 33.511183 28.548035 curveto
34.142688 28.684757 34.596789 28.896346 34.873487 29.182800 curveto
35.189237 29.501814 35.347114 29.970563 35.347120 30.589050 curveto
34.072706 27.239441 moveto
34.072701 26.236843 33.576283 25.735541 32.583448 25.735535 curveto
31.372511 25.735535 lineto
31.372511 28.499207 lineto
32.285597 28.499207 lineto
32.858510 28.499210 33.270293 28.435734 33.520948 28.308777 curveto
33.888782 28.123234 34.072701 27.766789 34.072706 27.239441 curveto
34.394972 30.549988 moveto
34.394967 29.990094 34.264759 29.550642 34.004347 29.231628 curveto
33.717884 28.886580 33.301218 28.714054 32.754347 28.714050 curveto
31.372511 28.714050 lineto
31.372511 31.472839 lineto
31.372509 31.974142 31.758251 32.224793 32.529737 32.224792 curveto
33.047312 32.224793 33.481882 32.076681 33.833448 31.780457 curveto
34.207792 31.467958 34.394967 31.057802 34.394972 30.549988 curveto
fill
0.0000000 0.0000000 0.0000000 setrgbcolor
[] 0 setdash
0.35433072 setlinewidth
0 setlinejoin
0 setlinecap
newpath
27.466233 23.110883 moveto
35.706103 23.110883 35.706103 23.110883 35.706103 23.110883 curveto
stroke
gsave [-0.21259843 0.0000000 0.0000000 -0.21259843 36.769095 23.110883] concat
0.0000000 0.0000000 0.0000000 setrgbcolor
newpath
8.7185878 4.0337352 moveto
-2.2072895 0.016013256 lineto
8.7185884 -4.0017078 lineto
6.9730900 -1.6296469 6.9831476 1.6157441 8.7185878 4.0337352 curveto
closepath
eofill
grestore
grestore
gsave [1.0000000 0.0000000 0.0000000 1.0000000 79.652080 41.199350] concat
0.0000000 0.0000000 0.0000000 setrgbcolor
newpath
53.677490 29.109592 moveto
53.501709 29.109592 lineto
53.501704 28.461812 53.215246 28.137919 52.642334 28.137913 curveto
50.440186 28.137913 lineto
50.440186 30.759983 lineto
52.261475 30.759983 lineto
52.456783 30.759987 52.611406 30.683490 52.725342 30.530491 curveto
52.822994 30.397032 52.871822 30.226133 52.871826 30.017796 curveto
53.008545 30.017796 lineto
53.008545 31.922092 lineto
52.871826 31.922092 lineto
52.871822 31.388242 52.668372 31.121315 52.261475 31.121311 curveto
50.440186 31.121311 lineto
50.440186 33.772678 lineto
50.440184 34.208877 50.734780 34.426975 51.323975 34.426975 curveto
51.323975 34.646702 lineto
48.770264 34.646702 lineto
48.770264 34.426975 lineto
49.310628 34.426975 49.580810 34.189345 49.580811 33.714085 curveto
49.580811 28.450413 lineto
49.580810 28.095602 49.310628 27.919821 48.770264 27.923069 curveto
48.770264 27.713108 lineto
53.560303 27.713108 lineto
53.677490 29.109592 lineto
fill
0.0000000 0.0000000 0.0000000 setrgbcolor
[] 0 setdash
0.35433072 setlinewidth
0 setlinejoin
0 setlinecap
newpath
46.326380 25.308182 moveto
54.566250 25.308182 54.566250 25.308182 54.566250 25.308182 curveto
stroke
gsave [-0.21259843 0.0000000 0.0000000 -0.21259843 55.629242 25.308182] concat
0.0000000 0.0000000 0.0000000 setrgbcolor
newpath
8.7185878 4.0337352 moveto
-2.2072895 0.016013256 lineto
8.7185884 -4.0017078 lineto
6.9730900 -1.6296469 6.9831476 1.6157441 8.7185878 4.0337352 curveto
closepath
eofill
grestore
grestore
gsave [1.0000000 0.0000000 0.0000000 1.0000000 23.987180 20.325010] concat
0.0000000 0.0000000 0.0000000 setrgbcolor
newpath
48.880043 52.178726 moveto
48.494301 53.873062 lineto
42.996254 53.873062 lineto
42.996254 53.692398 lineto
43.774248 53.682633 44.163245 53.461279 44.163246 53.028336 curveto
44.163246 47.774429 lineto
44.163245 47.478212 44.055823 47.284527 43.840981 47.193375 curveto
43.717282 47.144553 43.474769 47.120139 43.113441 47.120132 curveto
43.113441 46.949234 lineto
46.214027 46.949234 lineto
46.214027 47.105484 lineto
46.140785 47.100601 lineto
45.890131 47.097353 45.659012 47.146181 45.447426 47.247086 curveto
45.180497 47.374045 45.047033 47.551454 45.047035 47.779312 curveto
45.047035 52.940445 lineto
45.047033 53.301774 45.185379 53.482438 45.462074 53.482437 curveto
47.527504 53.482437 lineto
47.846510 53.482438 48.111809 53.335953 48.323402 53.042984 curveto
48.495923 52.808610 48.614738 52.514014 48.679848 52.159195 curveto
48.880043 52.178726 lineto
fill
0.0000000 0.0000000 0.0000000 setrgbcolor
[] 0 setdash
0.35433072 setlinewidth
0 setlinejoin
0 setlinecap
newpath
41.199350 44.534545 moveto
49.439220 44.534545 49.439220 44.534545 49.439220 44.534545 curveto
stroke
gsave [-0.21259843 0.0000000 0.0000000 -0.21259843 50.502212 44.534545] concat
0.0000000 0.0000000 0.0000000 setrgbcolor
newpath
8.7185878 4.0337352 moveto
-2.2072895 0.016013256 lineto
8.7185884 -4.0017078 lineto
6.9730900 -1.6296469 6.9831476 1.6157441 8.7185878 4.0337352 curveto
closepath
eofill
grestore
grestore
grestore
showpage
