%!PS-Adobe-2.0
%%Creator: inkscape 0.41.1
%%Pages: 1
%%Orientation: Portrait
%%BoundingBox: 26 748 146 835
%%HiResBoundingBox: 26.958213 748.23831 145.13891 834.08980
%%EndComments
%%Page: 1 1
0 842 translate
0.80000000 -0.80000000 scale
gsave [1.0000000 0.0000000 0.0000000 1.0000000 0.0000000 0.0000000] concat
gsave [1.0000000 0.0000000 0.0000000 1.0000000 22.339200 41.565570] concat
0.0000000 0.0000000 0.0000000 setrgbcolor
newpath
53.677490 29.109592 moveto
53.501709 29.109592 lineto
53.501704 28.461812 53.215246 28.137919 52.642334 28.137913 curveto
50.440186 28.137913 lineto
50.440186 30.759983 lineto
52.261475 30.759983 lineto
52.456783 30.759987 52.611406 30.683490 52.725342 30.530491 curveto
52.822994 30.397032 52.871822 30.226133 52.871826 30.017796 curveto
53.008545 30.017796 lineto
53.008545 31.922092 lineto
52.871826 31.922092 lineto
52.871822 31.388242 52.668372 31.121315 52.261475 31.121311 curveto
50.440186 31.121311 lineto
50.440186 33.772678 lineto
50.440184 34.208877 50.734780 34.426975 51.323975 34.426975 curveto
51.323975 34.646702 lineto
48.770264 34.646702 lineto
48.770264 34.426975 lineto
49.310628 34.426975 49.580810 34.189345 49.580811 33.714085 curveto
49.580811 28.450413 lineto
49.580810 28.095602 49.310628 27.919821 48.770264 27.923069 curveto
48.770264 27.713108 lineto
53.560303 27.713108 lineto
53.677490 29.109592 lineto
fill
0.0000000 0.0000000 0.0000000 setrgbcolor
[] 0 setdash
0.35433072 setlinewidth
0 setlinejoin
0 setlinecap
newpath
46.326380 25.308182 moveto
54.566250 25.308182 54.566250 25.308182 54.566250 25.308182 curveto
stroke
gsave [-0.21259843 0.0000000 0.0000000 -0.21259843 55.629242 25.308182] concat
0.0000000 0.0000000 0.0000000 setrgbcolor
newpath
8.7185878 4.0337352 moveto
-2.2072895 0.016013256 lineto
8.7185884 -4.0017078 lineto
6.9730900 -1.6296469 6.9831476 1.6157441 8.7185878 4.0337352 curveto
closepath
eofill
grestore
grestore
gsave [1.0000000 0.0000000 0.0000000 1.0000000 67.566870 -34.607450] concat
0.0000000 0.0000000 0.0000000 setrgbcolor
newpath
48.880043 52.178726 moveto
48.494301 53.873062 lineto
42.996254 53.873062 lineto
42.996254 53.692398 lineto
43.774248 53.682633 44.163245 53.461279 44.163246 53.028336 curveto
44.163246 47.774429 lineto
44.163245 47.478212 44.055823 47.284527 43.840981 47.193375 curveto
43.717282 47.144553 43.474769 47.120139 43.113441 47.120132 curveto
43.113441 46.949234 lineto
46.214027 46.949234 lineto
46.214027 47.105484 lineto
46.140785 47.100601 lineto
45.890131 47.097353 45.659012 47.146181 45.447426 47.247086 curveto
45.180497 47.374045 45.047033 47.551454 45.047035 47.779312 curveto
45.047035 52.940445 lineto
45.047033 53.301774 45.185379 53.482438 45.462074 53.482437 curveto
47.527504 53.482437 lineto
47.846510 53.482438 48.111809 53.335953 48.323402 53.042984 curveto
48.495923 52.808610 48.614738 52.514014 48.679848 52.159195 curveto
48.880043 52.178726 lineto
fill
0.0000000 0.0000000 0.0000000 setrgbcolor
[] 0 setdash
0.35433072 setlinewidth
0 setlinejoin
0 setlinecap
newpath
41.199350 44.534545 moveto
49.439220 44.534545 49.439220 44.534545 49.439220 44.534545 curveto
stroke
gsave [-0.21259843 0.0000000 0.0000000 -0.21259843 50.502212 44.534545] concat
0.0000000 0.0000000 0.0000000 setrgbcolor
newpath
8.7185878 4.0337352 moveto
-2.2072895 0.016013256 lineto
8.7185884 -4.0017078 lineto
6.9730900 -1.6296469 6.9831476 1.6157441 8.7185878 4.0337352 curveto
closepath
eofill
grestore
grestore
gsave [1.0000000 0.0000000 0.0000000 1.0000000 -10.803380 -12.085140] concat
0.0000000 0.0000000 0.0000000 setrgbcolor
[] 0 setdash
0.35433072 setlinewidth
0 setlinejoin
0 setlinecap
newpath
159.48725 77.951797 moveto
159.48725 101.95728 140.00453 121.44000 115.99905 121.44000 curveto
91.993559 121.44000 72.510845 101.95728 72.510845 77.951797 curveto
72.510845 53.946310 91.993559 34.463596 115.99905 34.463596 curveto
140.00453 34.463596 159.48725 53.946310 159.48725 77.951797 curveto
closepath
stroke
gsave [-2.3865361e-17 -0.38976379 0.38976379 -2.3865361e-17 159.48725 79.900616] concat
0.0000000 0.0000000 0.0000000 setrgbcolor
newpath
8.7185878 4.0337352 moveto
-2.2072895 0.016013256 lineto
8.7185884 -4.0017078 lineto
6.9730900 -1.6296469 6.9831476 1.6157441 8.7185878 4.0337352 curveto
closepath
eofill
grestore
grestore
0.0000000 0.0000000 0.0000000 setrgbcolor
[] 0 setdash
0.26226622 setlinewidth
0 setlinejoin
0 setlinecap
newpath
104.81801 64.676450 moveto
87.262516 64.676450 87.262516 64.676450 87.262516 64.676450 curveto
stroke
gsave [-0.20981297 2.5693830e-17 -2.5693830e-17 -0.20981297 104.81801 64.676450] concat
0.0000000 0.0000000 0.0000000 setrgbcolor
[] 0 setdash
1.2500000 setlinewidth
0 setlinejoin
0 setlinecap
newpath
0.0000000 5.6500000 moveto
0.0000000 -5.6500000 lineto
stroke
grestore
gsave [0.28849284 -3.5329017e-17 3.5329017e-17 0.28849284 85.820052 64.676450] concat
0.0000000 0.0000000 0.0000000 setrgbcolor
newpath
8.7185878 4.0337352 moveto
-2.2072895 0.016013256 lineto
8.7185884 -4.0017078 lineto
6.9730900 -1.6296469 6.9831476 1.6157441 8.7185878 4.0337352 curveto
closepath
eofill
grestore
0.0000000 0.0000000 0.0000000 setrgbcolor
[] 0 setdash
0.26629370 setlinewidth
0 setlinejoin
0 setlinecap
newpath
61.630370 64.859554 moveto
79.729186 64.859554 79.729186 64.859554 79.729186 64.859554 curveto
stroke
gsave [0.21303496 0.0000000 0.0000000 0.21303496 61.630370 64.859554] concat
0.0000000 0.0000000 0.0000000 setrgbcolor
[] 0 setdash
1.2500000 setlinewidth
0 setlinejoin
0 setlinecap
newpath
0.0000000 5.6500000 moveto
0.0000000 -5.6500000 lineto
stroke
grestore
gsave [-0.29292307 0.0000000 0.0000000 -0.29292307 81.193801 64.859554] concat
0.0000000 0.0000000 0.0000000 setrgbcolor
newpath
8.7185878 4.0337352 moveto
-2.2072895 0.016013256 lineto
8.7185884 -4.0017078 lineto
6.9730900 -1.6296469 6.9831476 1.6157441 8.7185878 4.0337352 curveto
closepath
eofill
grestore
0.0000000 0.0000000 0.0000000 setrgbcolor
[] 0 setdash
0.63370204 setlinewidth
0 setlinejoin
0 setlinecap
newpath
104.82945 116.74745 moveto
104.82945 14.253420 104.82945 14.253420 104.82945 14.253420 curveto
stroke
gsave [3.1041422e-17 -0.50696163 0.50696163 3.1041422e-17 104.82945 116.74745] concat
0.0000000 0.0000000 0.0000000 setrgbcolor
[] 0 setdash
1.2500000 setlinewidth
0 setlinejoin
0 setlinecap
newpath
0.0000000 5.6500000 moveto
0.0000000 -5.6500000 lineto
stroke
grestore
gsave [-4.2681955e-17 0.69707224 -0.69707224 -4.2681955e-17 104.82945 10.768059] concat
0.0000000 0.0000000 0.0000000 setrgbcolor
newpath
8.7185878 4.0337352 moveto
-2.2072895 0.016013256 lineto
8.7185884 -4.0017078 lineto
6.9730900 -1.6296469 6.9831476 1.6157441 8.7185878 4.0337352 curveto
closepath
eofill
grestore
gsave [1.0000000 0.0000000 0.0000000 1.0000000 -42.114890 36.987860] concat
gsave [1.0000000 0.0000000 0.0000000 1.0000000 19.867230 -36.713190] concat
0.0000000 0.0000000 0.0000000 setrgbcolor
[] 0 setdash
0.35433072 setlinewidth
0 setlinejoin
0 setlinecap
newpath
89.539918 64.493340 moveto
89.539918 67.626687 86.996911 70.169694 83.863564 70.169694 curveto
80.730216 70.169694 78.187209 67.626687 78.187209 64.493340 curveto
78.187209 61.359992 80.730216 58.816985 83.863564 58.816985 curveto
86.996911 58.816985 89.539918 61.359992 89.539918 64.493340 curveto
closepath
stroke
grestore
gsave [1.0000000 0.0000000 0.0000000 1.0000000 31.677710 -33.508810] concat
0.0000000 0.0000000 0.0000000 setrgbcolor
newpath
73.426397 61.288948 moveto
73.426397 62.047016 72.811153 62.662260 72.053085 62.662260 curveto
71.295017 62.662260 70.679774 62.047016 70.679774 61.288948 curveto
70.679774 60.530880 71.295017 59.915636 72.053085 59.915636 curveto
72.811153 59.915636 73.426397 60.530880 73.426397 61.288948 curveto
closepath
fill
0.0000000 0.0000000 0.0000000 setrgbcolor
[] 0 setdash
0.35433072 setlinewidth
0 setlinejoin
0 setlinecap
newpath
73.426397 61.288948 moveto
73.426397 62.047016 72.811153 62.662260 72.053085 62.662260 curveto
71.295017 62.662260 70.679774 62.047016 70.679774 61.288948 curveto
70.679774 60.530880 71.295017 59.915636 72.053085 59.915636 curveto
72.811153 59.915636 73.426397 60.530880 73.426397 61.288948 curveto
closepath
stroke
grestore
grestore
0.0000000 0.0000000 0.0000000 setrgbcolor
[] 0 setdash
0.18057954 setlinewidth
0 setlinejoin
0 setlinecap
newpath
61.799026 69.295581 moveto
61.799026 60.972857 61.799026 60.972857 61.799026 60.972857 curveto
stroke
gsave [8.8455542e-18 -0.14446363 0.14446363 8.8455542e-18 61.799026 69.295581] concat
0.0000000 0.0000000 0.0000000 setrgbcolor
[] 0 setdash
1.2500000 setlinewidth
0 setlinejoin
0 setlinecap
newpath
0.0000000 5.6500000 moveto
0.0000000 -5.6500000 lineto
stroke
grestore
gsave [-1.2162637e-17 0.19863750 -0.19863750 -1.2162637e-17 61.799026 59.979670] concat
0.0000000 0.0000000 0.0000000 setrgbcolor
newpath
8.7185878 4.0337352 moveto
-2.2072895 0.016013256 lineto
8.7185884 -4.0017078 lineto
6.9730900 -1.6296469 6.9831476 1.6157441 8.7185878 4.0337352 curveto
closepath
eofill
grestore
gsave [1.0000000 0.0000000 0.0000000 1.0000000 -7.3244190 0.73243400] concat
0.0000000 0.0000000 0.0000000 setrgbcolor
newpath
48.880043 52.178726 moveto
48.494301 53.873062 lineto
42.996254 53.873062 lineto
42.996254 53.692398 lineto
43.774248 53.682633 44.163245 53.461279 44.163246 53.028336 curveto
44.163246 47.774429 lineto
44.163245 47.478212 44.055823 47.284527 43.840981 47.193375 curveto
43.717282 47.144553 43.474769 47.120139 43.113441 47.120132 curveto
43.113441 46.949234 lineto
46.214027 46.949234 lineto
46.214027 47.105484 lineto
46.140785 47.100601 lineto
45.890131 47.097353 45.659012 47.146181 45.447426 47.247086 curveto
45.180497 47.374045 45.047033 47.551454 45.047035 47.779312 curveto
45.047035 52.940445 lineto
45.047033 53.301774 45.185379 53.482438 45.462074 53.482437 curveto
47.527504 53.482437 lineto
47.846510 53.482438 48.111809 53.335953 48.323402 53.042984 curveto
48.495923 52.808610 48.614738 52.514014 48.679848 52.159195 curveto
48.880043 52.178726 lineto
fill
0.0000000 0.0000000 0.0000000 setrgbcolor
[] 0 setdash
0.35433072 setlinewidth
0 setlinejoin
0 setlinecap
newpath
41.199350 44.534545 moveto
49.439220 44.534545 49.439220 44.534545 49.439220 44.534545 curveto
stroke
gsave [-0.21259843 0.0000000 0.0000000 -0.21259843 50.502212 44.534545] concat
0.0000000 0.0000000 0.0000000 setrgbcolor
newpath
8.7185878 4.0337352 moveto
-2.2072895 0.016013256 lineto
8.7185884 -4.0017078 lineto
6.9730900 -1.6296469 6.9831476 1.6157441 8.7185878 4.0337352 curveto
closepath
eofill
grestore
grestore
gsave [1.0000000 0.0000000 0.0000000 1.0000000 1.0986490 -3.8452730] concat
0.0000000 0.0000000 0.0000000 setrgbcolor
newpath
109.24476 36.306980 moveto
108.57418 36.306987 108.23890 36.585307 108.23890 37.141941 curveto
108.23890 42.058933 lineto
108.23890 42.394220 108.32679 42.623712 108.50257 42.747410 curveto
108.64580 42.848322 108.89157 42.897150 109.23988 42.893894 curveto
109.23988 43.064793 lineto
106.39320 43.064793 lineto
106.39320 42.893894 lineto
107.08330 42.893894 107.42835 42.615574 107.42835 42.058933 curveto
107.42835 37.141941 lineto
107.42835 36.806661 107.34209 36.577169 107.16956 36.453465 curveto
107.02633 36.352560 106.77894 36.303732 106.42738 36.306980 curveto
106.42738 36.136082 lineto
109.24476 36.136082 lineto
109.24476 36.306980 lineto
fill
0.0000000 0.0000000 0.0000000 setrgbcolor
newpath
114.19064 40.756744 moveto
113.75118 41.169830 lineto
113.65743 40.753820 113.36153 40.545813 112.86349 40.545807 curveto
112.57638 40.545813 112.31856 40.632239 112.09005 40.805084 curveto
111.84395 40.992590 111.72091 41.226965 111.72091 41.508209 curveto
111.72091 42.549713 lineto
112.75362 42.549713 lineto
112.75362 42.883698 lineto
111.72091 42.883698 lineto
111.72091 45.792877 lineto
111.72091 46.167878 111.92745 46.355377 112.34054 46.355377 curveto
112.37276 46.355377 112.41964 46.355377 112.48116 46.355377 curveto
112.54268 46.352448 112.58809 46.350983 112.61739 46.350983 curveto
112.61739 46.548737 lineto
110.47726 46.548737 lineto
110.45528 46.421295 lineto
110.69552 46.348053 110.83761 46.299713 110.88155 46.276276 curveto
111.02804 46.197174 111.10128 46.078522 111.10128 45.920319 curveto
111.10128 42.883698 lineto
111.01925 42.892490 110.76290 42.871982 110.33224 42.822174 curveto
110.33224 42.650787 lineto
110.69552 42.650791 110.90646 42.617100 110.96505 42.549713 curveto
111.10128 42.549713 lineto
111.10128 42.417877 lineto
111.10128 41.946202 111.15255 41.606359 111.25509 41.398346 curveto
111.33419 41.243078 111.54513 40.999914 111.88790 40.668854 curveto
112.18673 40.381751 112.61739 40.238196 113.17989 40.238190 curveto
113.48165 40.238196 113.81856 40.411047 114.19064 40.756744 curveto
fill
0.0000000 0.0000000 0.0000000 setrgbcolor
newpath
115.82980 46.548737 moveto
113.81271 46.548737 lineto
113.79513 46.513580 lineto
113.82150 46.377350 lineto
114.02950 46.377350 114.17745 46.348053 114.26534 46.289459 curveto
114.37374 46.216217 114.42794 46.075593 114.42794 45.867584 curveto
114.42794 43.244049 lineto
114.42794 43.030185 114.32247 42.923252 114.11153 42.923248 curveto
114.03243 42.923252 113.94015 42.936435 113.83468 42.962799 curveto
113.72482 42.787018 lineto
114.28146 42.631748 114.69894 42.466221 114.97726 42.290436 curveto
115.13985 42.409088 lineto
115.13985 45.880768 lineto
115.13985 46.167878 115.36397 46.324616 115.81222 46.350983 curveto
115.82980 46.548737 lineto
115.19259 40.923737 moveto
115.19259 41.049719 115.14864 41.158117 115.06075 41.248932 curveto
114.97286 41.336828 114.86593 41.380773 114.73995 41.380768 curveto
114.61397 41.380773 114.50704 41.336828 114.41915 41.248932 curveto
114.33126 41.158117 114.28731 41.049719 114.28732 40.923737 curveto
114.28731 40.797766 114.33126 40.690832 114.41915 40.602936 curveto
114.50704 40.515051 114.61397 40.471106 114.73995 40.471100 curveto
114.86593 40.471106 114.97286 40.515051 115.06075 40.602936 curveto
115.14864 40.690832 115.19259 40.797766 115.19259 40.923737 curveto
fill
0.0000000 0.0000000 0.0000000 setrgbcolor
newpath
118.21163 46.350983 moveto
118.18526 46.548737 lineto
116.28683 46.548737 lineto
116.26925 46.513580 lineto
116.29562 46.377350 lineto
116.48019 46.377350 116.62814 46.302643 116.73946 46.153229 curveto
116.84200 46.018464 116.89327 45.855866 116.89327 45.665436 curveto
116.89327 40.976471 lineto
116.89327 40.871008 116.83761 40.783117 116.72628 40.712799 curveto
116.63253 40.654211 116.52853 40.624914 116.41427 40.624908 curveto
116.41427 40.624914 116.34103 40.639563 116.19454 40.668854 curveto
116.19454 40.654211 116.19601 40.632239 116.19894 40.602936 curveto
116.20187 40.573645 116.20333 40.550207 116.20333 40.532623 curveto
116.20333 40.491614 116.24581 40.456458 116.33077 40.427155 curveto
116.55929 40.356848 116.89620 40.225012 117.34151 40.031647 curveto
117.53487 40.031647 lineto
117.53487 45.880768 lineto
117.53487 46.167878 117.76046 46.324616 118.21163 46.350983 curveto
fill
grestore
gsave [1.0000000 0.0000000 0.0000000 1.0000000 -23.620960 8.4229780] concat
gsave [1.0000000 0.0000000 0.0000000 1.0000000 40.466920 36.255420] concat
0.0000000 0.0000000 0.0000000 setrgbcolor
newpath
35.347120 30.589050 moveto
35.347114 31.253114 35.054146 31.746278 34.468214 32.068542 curveto
34.002715 32.322449 33.405384 32.449402 32.676222 32.449402 curveto
29.233839 32.449402 lineto
29.282667 32.268738 lineto
29.728630 32.262228 30.018344 32.229676 30.151808 32.171082 curveto
30.405713 32.060405 30.532666 31.811382 30.532667 31.424011 curveto
30.532667 26.448425 lineto
30.532666 26.002468 30.151807 25.779487 29.390089 25.779480 curveto
29.390089 25.554871 lineto
30.203890 25.499539 31.214631 25.471870 32.422316 25.471863 curveto
33.034291 25.471870 33.584421 25.584174 34.072706 25.808777 curveto
34.687935 26.095242 34.995552 26.498887 34.995558 27.019714 curveto
34.995552 27.892115 34.500761 28.401554 33.511183 28.548035 curveto
34.142688 28.684757 34.596789 28.896346 34.873487 29.182800 curveto
35.189237 29.501814 35.347114 29.970563 35.347120 30.589050 curveto
34.072706 27.239441 moveto
34.072701 26.236843 33.576283 25.735541 32.583448 25.735535 curveto
31.372511 25.735535 lineto
31.372511 28.499207 lineto
32.285597 28.499207 lineto
32.858510 28.499210 33.270293 28.435734 33.520948 28.308777 curveto
33.888782 28.123234 34.072701 27.766789 34.072706 27.239441 curveto
34.394972 30.549988 moveto
34.394967 29.990094 34.264759 29.550642 34.004347 29.231628 curveto
33.717884 28.886580 33.301218 28.714054 32.754347 28.714050 curveto
31.372511 28.714050 lineto
31.372511 31.472839 lineto
31.372509 31.974142 31.758251 32.224793 32.529737 32.224792 curveto
33.047312 32.224793 33.481882 32.076681 33.833448 31.780457 curveto
34.207792 31.467958 34.394967 31.057802 34.394972 30.549988 curveto
fill
0.0000000 0.0000000 0.0000000 setrgbcolor
[] 0 setdash
0.35433072 setlinewidth
0 setlinejoin
0 setlinecap
newpath
27.466233 23.110883 moveto
35.706103 23.110883 35.706103 23.110883 35.706103 23.110883 curveto
stroke
gsave [-0.21259843 0.0000000 0.0000000 -0.21259843 36.769095 23.110883] concat
0.0000000 0.0000000 0.0000000 setrgbcolor
newpath
8.7185878 4.0337352 moveto
-2.2072895 0.016013256 lineto
8.7185884 -4.0017078 lineto
6.9730900 -1.6296469 6.9831476 1.6157441 8.7185878 4.0337352 curveto
closepath
eofill
grestore
grestore
0.0000000 0.0000000 0.0000000 setrgbcolor
newpath
80.681824 66.575005 moveto
80.242371 66.988091 lineto
80.148617 66.572081 79.852719 66.364073 79.354675 66.364067 curveto
79.067564 66.364073 78.809751 66.450499 78.581238 66.623344 curveto
78.335142 66.810850 78.212096 67.045225 78.212097 67.326469 curveto
78.212097 68.367973 lineto
79.244812 68.367973 lineto
79.244812 68.701958 lineto
78.212097 68.701958 lineto
78.212097 71.611137 lineto
78.212096 71.986138 78.418638 72.173638 78.831726 72.173637 curveto
78.863950 72.173638 78.910825 72.173638 78.972351 72.173637 curveto
79.033872 72.170708 79.079282 72.169243 79.108582 72.169243 curveto
79.108582 72.366997 lineto
76.968445 72.366997 lineto
76.946472 72.239555 lineto
77.186706 72.166313 77.328796 72.117974 77.372742 72.094536 curveto
77.519225 72.015435 77.592467 71.896782 77.592468 71.738579 curveto
77.592468 68.701958 lineto
77.510436 68.710750 77.254089 68.690243 76.823425 68.640434 curveto
76.823425 68.469048 lineto
77.186706 68.469051 77.397643 68.435360 77.456238 68.367973 curveto
77.592468 68.367973 lineto
77.592468 68.236137 lineto
77.592467 67.764462 77.643737 67.424619 77.746277 67.216606 curveto
77.825377 67.061338 78.036315 66.818174 78.379089 66.487114 curveto
78.677916 66.200011 79.108579 66.056456 79.671082 66.056450 curveto
79.972836 66.056456 80.309750 66.229308 80.681824 66.575005 curveto
fill
0.0000000 0.0000000 0.0000000 setrgbcolor
newpath
82.320984 72.366997 moveto
80.303894 72.366997 lineto
80.286316 72.331841 lineto
80.312683 72.195610 lineto
80.520691 72.195610 80.668640 72.166313 80.756531 72.107719 curveto
80.864928 72.034478 80.919128 71.893853 80.919128 71.685844 curveto
80.919128 69.062309 lineto
80.919128 68.848446 80.813659 68.741512 80.602722 68.741508 curveto
80.523620 68.741512 80.431335 68.754696 80.325867 68.781059 curveto
80.216003 68.605278 lineto
80.772643 68.450008 81.190123 68.284481 81.468445 68.108696 curveto
81.631042 68.227348 lineto
81.631042 71.699028 lineto
81.631041 71.986138 81.855162 72.142876 82.303406 72.169243 curveto
82.320984 72.366997 lineto
81.683777 66.741997 moveto
81.683775 66.867979 81.639830 66.976377 81.551941 67.067192 curveto
81.464049 67.155088 81.357115 67.199033 81.231140 67.199028 curveto
81.105163 67.199033 80.998229 67.155088 80.910339 67.067192 curveto
80.822448 66.976377 80.778503 66.867979 80.778503 66.741997 curveto
80.778503 66.616026 80.822448 66.509092 80.910339 66.421196 curveto
80.998229 66.333311 81.105163 66.289366 81.231140 66.289360 curveto
81.357115 66.289366 81.464049 66.333311 81.551941 66.421196 curveto
81.639830 66.509092 81.683775 66.616026 81.683777 66.741997 curveto
fill
0.0000000 0.0000000 0.0000000 setrgbcolor
newpath
84.702820 72.169243 moveto
84.676453 72.366997 lineto
82.778015 72.366997 lineto
82.760437 72.331841 lineto
82.786804 72.195610 lineto
82.971374 72.195610 83.119323 72.120903 83.230652 71.971489 curveto
83.333190 71.836724 83.384460 71.674126 83.384460 71.483696 curveto
83.384460 66.794731 lineto
83.384460 66.689268 83.328796 66.601378 83.217468 66.531059 curveto
83.123718 66.472471 83.019714 66.443175 82.905457 66.443169 curveto
82.905456 66.443175 82.832214 66.457823 82.685730 66.487114 curveto
82.685730 66.472471 82.687195 66.450499 82.690125 66.421196 curveto
82.693054 66.391905 82.694519 66.368468 82.694519 66.350883 curveto
82.694519 66.309874 82.736999 66.274718 82.821960 66.245415 curveto
83.050476 66.175108 83.387389 66.043273 83.832703 65.849907 curveto
84.026062 65.849907 lineto
84.026062 71.699028 lineto
84.026061 71.986138 84.251646 72.142876 84.702820 72.169243 curveto
fill
grestore
gsave [1.0000000 0.0000000 0.0000000 1.0000000 135.31700 1.8310820] concat
gsave [1.0000000 0.0000000 0.0000000 1.0000000 -70.588230 -0.45776700] concat
0.0000000 0.0000000 0.0000000 setrgbcolor
[] 0 setdash
0.35433072 setlinewidth
0 setlinejoin
0 setlinecap
newpath
89.539918 64.493340 moveto
89.539918 67.626687 86.996911 70.169694 83.863564 70.169694 curveto
80.730216 70.169694 78.187209 67.626687 78.187209 64.493340 curveto
78.187209 61.359992 80.730216 58.816985 83.863564 58.816985 curveto
86.996911 58.816985 89.539918 61.359992 89.539918 64.493340 curveto
closepath
stroke
grestore
0.0000000 0.0000000 0.0000000 setrgbcolor
[] 0 setdash
0.35433072 setlinewidth
0 setlinejoin
0 setlinecap
newpath
8.9917348 60.488510 moveto
17.742065 67.582629 lineto
17.742065 67.582629 lineto
stroke
0.0000000 0.0000000 0.0000000 setrgbcolor
[] 0 setdash
0.35433072 setlinewidth
0 setlinejoin
0 setlinecap
newpath
17.742065 60.488510 moveto
8.9917348 67.582629 lineto
8.9917348 67.582629 lineto
stroke
grestore
gsave [1.0000000 0.0000000 0.0000000 1.0000000 56.946660 -5.1270300] concat
gsave [1.0000000 0.0000000 0.0000000 1.0000000 40.466920 36.255420] concat
0.0000000 0.0000000 0.0000000 setrgbcolor
newpath
35.347120 30.589050 moveto
35.347114 31.253114 35.054146 31.746278 34.468214 32.068542 curveto
34.002715 32.322449 33.405384 32.449402 32.676222 32.449402 curveto
29.233839 32.449402 lineto
29.282667 32.268738 lineto
29.728630 32.262228 30.018344 32.229676 30.151808 32.171082 curveto
30.405713 32.060405 30.532666 31.811382 30.532667 31.424011 curveto
30.532667 26.448425 lineto
30.532666 26.002468 30.151807 25.779487 29.390089 25.779480 curveto
29.390089 25.554871 lineto
30.203890 25.499539 31.214631 25.471870 32.422316 25.471863 curveto
33.034291 25.471870 33.584421 25.584174 34.072706 25.808777 curveto
34.687935 26.095242 34.995552 26.498887 34.995558 27.019714 curveto
34.995552 27.892115 34.500761 28.401554 33.511183 28.548035 curveto
34.142688 28.684757 34.596789 28.896346 34.873487 29.182800 curveto
35.189237 29.501814 35.347114 29.970563 35.347120 30.589050 curveto
34.072706 27.239441 moveto
34.072701 26.236843 33.576283 25.735541 32.583448 25.735535 curveto
31.372511 25.735535 lineto
31.372511 28.499207 lineto
32.285597 28.499207 lineto
32.858510 28.499210 33.270293 28.435734 33.520948 28.308777 curveto
33.888782 28.123234 34.072701 27.766789 34.072706 27.239441 curveto
34.394972 30.549988 moveto
34.394967 29.990094 34.264759 29.550642 34.004347 29.231628 curveto
33.717884 28.886580 33.301218 28.714054 32.754347 28.714050 curveto
31.372511 28.714050 lineto
31.372511 31.472839 lineto
31.372509 31.974142 31.758251 32.224793 32.529737 32.224792 curveto
33.047312 32.224793 33.481882 32.076681 33.833448 31.780457 curveto
34.207792 31.467958 34.394967 31.057802 34.394972 30.549988 curveto
fill
0.0000000 0.0000000 0.0000000 setrgbcolor
[] 0 setdash
0.35433072 setlinewidth
0 setlinejoin
0 setlinecap
newpath
27.466233 23.110883 moveto
35.706103 23.110883 35.706103 23.110883 35.706103 23.110883 curveto
stroke
gsave [-0.21259843 0.0000000 0.0000000 -0.21259843 36.769095 23.110883] concat
0.0000000 0.0000000 0.0000000 setrgbcolor
newpath
8.7185878 4.0337352 moveto
-2.2072895 0.016013256 lineto
8.7185884 -4.0017078 lineto
6.9730900 -1.6296469 6.9831476 1.6157441 8.7185878 4.0337352 curveto
closepath
eofill
grestore
grestore
0.0000000 0.0000000 0.0000000 setrgbcolor
newpath
80.681824 66.575005 moveto
80.242371 66.988091 lineto
80.148617 66.572081 79.852719 66.364073 79.354675 66.364067 curveto
79.067564 66.364073 78.809751 66.450499 78.581238 66.623344 curveto
78.335142 66.810850 78.212096 67.045225 78.212097 67.326469 curveto
78.212097 68.367973 lineto
79.244812 68.367973 lineto
79.244812 68.701958 lineto
78.212097 68.701958 lineto
78.212097 71.611137 lineto
78.212096 71.986138 78.418638 72.173638 78.831726 72.173637 curveto
78.863950 72.173638 78.910825 72.173638 78.972351 72.173637 curveto
79.033872 72.170708 79.079282 72.169243 79.108582 72.169243 curveto
79.108582 72.366997 lineto
76.968445 72.366997 lineto
76.946472 72.239555 lineto
77.186706 72.166313 77.328796 72.117974 77.372742 72.094536 curveto
77.519225 72.015435 77.592467 71.896782 77.592468 71.738579 curveto
77.592468 68.701958 lineto
77.510436 68.710750 77.254089 68.690243 76.823425 68.640434 curveto
76.823425 68.469048 lineto
77.186706 68.469051 77.397643 68.435360 77.456238 68.367973 curveto
77.592468 68.367973 lineto
77.592468 68.236137 lineto
77.592467 67.764462 77.643737 67.424619 77.746277 67.216606 curveto
77.825377 67.061338 78.036315 66.818174 78.379089 66.487114 curveto
78.677916 66.200011 79.108579 66.056456 79.671082 66.056450 curveto
79.972836 66.056456 80.309750 66.229308 80.681824 66.575005 curveto
fill
0.0000000 0.0000000 0.0000000 setrgbcolor
newpath
82.320984 72.366997 moveto
80.303894 72.366997 lineto
80.286316 72.331841 lineto
80.312683 72.195610 lineto
80.520691 72.195610 80.668640 72.166313 80.756531 72.107719 curveto
80.864928 72.034478 80.919128 71.893853 80.919128 71.685844 curveto
80.919128 69.062309 lineto
80.919128 68.848446 80.813659 68.741512 80.602722 68.741508 curveto
80.523620 68.741512 80.431335 68.754696 80.325867 68.781059 curveto
80.216003 68.605278 lineto
80.772643 68.450008 81.190123 68.284481 81.468445 68.108696 curveto
81.631042 68.227348 lineto
81.631042 71.699028 lineto
81.631041 71.986138 81.855162 72.142876 82.303406 72.169243 curveto
82.320984 72.366997 lineto
81.683777 66.741997 moveto
81.683775 66.867979 81.639830 66.976377 81.551941 67.067192 curveto
81.464049 67.155088 81.357115 67.199033 81.231140 67.199028 curveto
81.105163 67.199033 80.998229 67.155088 80.910339 67.067192 curveto
80.822448 66.976377 80.778503 66.867979 80.778503 66.741997 curveto
80.778503 66.616026 80.822448 66.509092 80.910339 66.421196 curveto
80.998229 66.333311 81.105163 66.289366 81.231140 66.289360 curveto
81.357115 66.289366 81.464049 66.333311 81.551941 66.421196 curveto
81.639830 66.509092 81.683775 66.616026 81.683777 66.741997 curveto
fill
0.0000000 0.0000000 0.0000000 setrgbcolor
newpath
84.702820 72.169243 moveto
84.676453 72.366997 lineto
82.778015 72.366997 lineto
82.760437 72.331841 lineto
82.786804 72.195610 lineto
82.971374 72.195610 83.119323 72.120903 83.230652 71.971489 curveto
83.333190 71.836724 83.384460 71.674126 83.384460 71.483696 curveto
83.384460 66.794731 lineto
83.384460 66.689268 83.328796 66.601378 83.217468 66.531059 curveto
83.123718 66.472471 83.019714 66.443175 82.905457 66.443169 curveto
82.905456 66.443175 82.832214 66.457823 82.685730 66.487114 curveto
82.685730 66.472471 82.687195 66.450499 82.690125 66.421196 curveto
82.693054 66.391905 82.694519 66.368468 82.694519 66.350883 curveto
82.694519 66.309874 82.736999 66.274718 82.821960 66.245415 curveto
83.050476 66.175108 83.387389 66.043273 83.832703 65.849907 curveto
84.026062 65.849907 lineto
84.026062 71.699028 lineto
84.026061 71.986138 84.251646 72.142876 84.702820 72.169243 curveto
fill
grestore
0.0000000 0.0000000 0.0000000 setrgbcolor
[] 0 setdash
0.26629370 setlinewidth
0 setlinejoin
0 setlinecap
newpath
148.78988 65.958203 moveto
166.88870 65.958203 166.88870 65.958203 166.88870 65.958203 curveto
stroke
gsave [0.21303496 0.0000000 0.0000000 0.21303496 148.78988 65.958203] concat
0.0000000 0.0000000 0.0000000 setrgbcolor
[] 0 setdash
1.2500000 setlinewidth
0 setlinejoin
0 setlinecap
newpath
0.0000000 5.6500000 moveto
0.0000000 -5.6500000 lineto
stroke
grestore
gsave [-0.29292307 0.0000000 0.0000000 -0.29292307 168.35332 65.958203] concat
0.0000000 0.0000000 0.0000000 setrgbcolor
newpath
8.7185878 4.0337352 moveto
-2.2072895 0.016013256 lineto
8.7185884 -4.0017078 lineto
6.9730900 -1.6296469 6.9831476 1.6157441 8.7185878 4.0337352 curveto
closepath
eofill
grestore
gsave [1.0000000 0.0000000 0.0000000 1.0000000 110.78050 25.635150] concat
0.0000000 0.0000000 0.0000000 setrgbcolor
newpath
53.677490 29.109592 moveto
53.501709 29.109592 lineto
53.501704 28.461812 53.215246 28.137919 52.642334 28.137913 curveto
50.440186 28.137913 lineto
50.440186 30.759983 lineto
52.261475 30.759983 lineto
52.456783 30.759987 52.611406 30.683490 52.725342 30.530491 curveto
52.822994 30.397032 52.871822 30.226133 52.871826 30.017796 curveto
53.008545 30.017796 lineto
53.008545 31.922092 lineto
52.871826 31.922092 lineto
52.871822 31.388242 52.668372 31.121315 52.261475 31.121311 curveto
50.440186 31.121311 lineto
50.440186 33.772678 lineto
50.440184 34.208877 50.734780 34.426975 51.323975 34.426975 curveto
51.323975 34.646702 lineto
48.770264 34.646702 lineto
48.770264 34.426975 lineto
49.310628 34.426975 49.580810 34.189345 49.580811 33.714085 curveto
49.580811 28.450413 lineto
49.580810 28.095602 49.310628 27.919821 48.770264 27.923069 curveto
48.770264 27.713108 lineto
53.560303 27.713108 lineto
53.677490 29.109592 lineto
fill
0.0000000 0.0000000 0.0000000 setrgbcolor
[] 0 setdash
0.35433072 setlinewidth
0 setlinejoin
0 setlinecap
newpath
46.326380 25.308182 moveto
54.566250 25.308182 54.566250 25.308182 54.566250 25.308182 curveto
stroke
gsave [-0.21259843 0.0000000 0.0000000 -0.21259843 55.629242 25.308182] concat
0.0000000 0.0000000 0.0000000 setrgbcolor
newpath
8.7185878 4.0337352 moveto
-2.2072895 0.016013256 lineto
8.7185884 -4.0017078 lineto
6.9730900 -1.6296469 6.9831476 1.6157441 8.7185878 4.0337352 curveto
closepath
eofill
grestore
grestore
0.0000000 0.0000000 0.0000000 setrgbcolor
[] 0 setdash
0.18057954 setlinewidth
0 setlinejoin
0 setlinecap
newpath
134.12677 98.043571 moveto
131.01393 100.70734 130.64772 101.07356 126.98555 103.27086 curveto
stroke
gsave [-0.10976124 0.093926633 -0.093926633 -0.10976124 134.12677 98.043571] concat
0.0000000 0.0000000 0.0000000 setrgbcolor
[] 0 setdash
1.2500000 setlinewidth
0 setlinejoin
0 setlinecap
newpath
0.0000000 5.6500000 moveto
0.0000000 -5.6500000 lineto
stroke
grestore
gsave [0.17033029 -0.10219808 0.10219808 0.17033029 126.13390 103.78185] concat
0.0000000 0.0000000 0.0000000 setrgbcolor
newpath
8.7185878 4.0337352 moveto
-2.2072895 0.016013256 lineto
8.7185884 -4.0017078 lineto
6.9730900 -1.6296469 6.9831476 1.6157441 8.7185878 4.0337352 curveto
closepath
eofill
grestore
gsave [1.0000000 0.0000000 0.0000000 1.0000000 28.564880 6.7750040] concat
0.0000000 0.0000000 0.0000000 setrgbcolor
newpath
112.35760 90.690125 moveto
111.68703 90.690131 111.35174 90.968451 111.35175 91.525085 curveto
111.35175 96.442078 lineto
111.35174 96.777365 111.43963 97.006857 111.61542 97.130554 curveto
111.75864 97.231466 112.00441 97.280294 112.35272 97.277039 curveto
112.35272 97.447937 lineto
109.50604 97.447937 lineto
109.50604 97.277039 lineto
110.19615 97.277039 110.54120 96.998719 110.54120 96.442078 curveto
110.54120 91.525085 lineto
110.54120 91.189805 110.45493 90.960313 110.28241 90.836609 curveto
110.13918 90.735704 109.89178 90.686876 109.54022 90.690125 curveto
109.54022 90.519226 lineto
112.35760 90.519226 lineto
112.35760 90.690125 lineto
fill
0.0000000 0.0000000 0.0000000 setrgbcolor
newpath
116.05396 98.555885 moveto
116.05395 98.863503 115.91333 99.125710 115.63208 99.342506 curveto
115.37427 99.547585 115.08716 99.650124 114.77075 99.650124 curveto
114.66528 99.650124 114.50854 99.631081 114.30054 99.592995 curveto
114.09253 99.551979 113.93579 99.531471 113.83032 99.531471 curveto
113.71899 99.531471 113.64429 99.588600 113.60620 99.702858 curveto
113.43481 99.667702 lineto
113.39087 98.533913 lineto
113.49194 98.516335 lineto
113.75268 99.146218 114.12768 99.461159 114.61694 99.461159 curveto
115.18530 99.461159 115.46948 99.204812 115.46948 98.692116 curveto
115.46948 98.396219 115.29223 98.166238 114.93774 98.002174 curveto
114.60962 97.861551 114.28003 97.720926 113.94897 97.580299 curveto
113.59448 97.363505 113.41724 97.044169 113.41724 96.622292 curveto
113.41724 96.317607 113.56665 96.062725 113.86548 95.857643 curveto
114.12915 95.673077 114.41919 95.580792 114.73560 95.580788 curveto
115.21899 95.580792 115.58374 95.654034 115.82983 95.800514 curveto
115.88696 96.789284 lineto
115.78589 96.806862 lineto
115.59839 96.408428 115.47387 96.172588 115.41235 96.099342 curveto
115.24829 95.900127 115.01098 95.800518 114.70044 95.800514 curveto
114.50122 95.800518 114.32397 95.862041 114.16870 95.985085 curveto
113.99878 96.113994 113.91382 96.275127 113.91382 96.468483 curveto
113.91382 96.705791 114.09839 96.910869 114.46753 97.083717 curveto
115.14136 97.397196 115.48413 97.558329 115.49585 97.567116 curveto
115.86792 97.813211 116.05395 98.142801 116.05396 98.555885 curveto
fill
0.0000000 0.0000000 0.0000000 setrgbcolor
newpath
121.09888 97.364967 moveto
121.09887 97.947977 120.88354 98.479715 120.45288 98.960182 curveto
120.01049 99.455300 119.50219 99.702858 118.92798 99.702858 curveto
118.62329 99.702858 118.32593 99.619362 118.03589 99.452370 curveto
118.03589 100.88059 lineto
118.03589 101.29075 118.34936 101.51926 118.97632 101.56614 curveto
118.96753 101.78147 lineto
116.68677 101.78147 lineto
116.63403 101.64524 lineto
116.66919 101.58372 lineto
117.15845 101.56907 117.40308 101.42551 117.40308 101.15305 curveto
117.40308 96.714577 lineto
117.40308 96.471416 117.36206 96.313213 117.28003 96.239967 curveto
117.20093 96.166729 117.03686 96.121319 116.78784 96.103737 curveto
116.73950 95.888405 lineto
116.90649 95.859112 117.10718 95.787334 117.34155 95.673073 curveto
117.56714 95.561749 117.74731 95.448956 117.88208 95.334694 curveto
118.03589 95.387428 lineto
118.03589 96.231178 lineto
118.66284 95.774151 119.20044 95.545636 119.64868 95.545631 curveto
120.07641 95.545636 120.43237 95.747784 120.71655 96.152077 curveto
120.97143 96.518291 121.09887 96.922587 121.09888 97.364967 curveto
120.48364 97.624245 moveto
120.48364 97.205302 120.37524 96.828837 120.15845 96.494850 curveto
119.90942 96.113994 119.58423 95.923565 119.18286 95.923561 curveto
118.77563 95.923565 118.39331 96.094951 118.03589 96.437721 curveto
118.03589 98.793190 lineto
118.40796 99.159401 118.82397 99.342507 119.28394 99.342506 curveto
119.42749 99.342507 119.59301 99.276589 119.78052 99.144753 curveto
119.94165 99.027566 120.07055 98.900124 120.16724 98.762428 curveto
120.37817 98.457742 120.48364 98.078348 120.48364 97.624245 curveto
fill
0.0000000 0.0000000 0.0000000 setrgbcolor
newpath
123.69165 99.650124 moveto
121.67456 99.650124 lineto
121.65698 99.614967 lineto
121.68335 99.478737 lineto
121.89136 99.478737 122.03931 99.449440 122.12720 99.390846 curveto
122.23559 99.317604 122.28979 99.176980 122.28979 98.968971 curveto
122.28979 96.345436 lineto
122.28979 96.131572 122.18433 96.024639 121.97339 96.024635 curveto
121.89429 96.024639 121.80200 96.037823 121.69653 96.064186 curveto
121.58667 95.888405 lineto
122.14331 95.733135 122.56079 95.567608 122.83911 95.391823 curveto
123.00171 95.510475 lineto
123.00171 98.982155 lineto
123.00171 99.269265 123.22583 99.426003 123.67407 99.452370 curveto
123.69165 99.650124 lineto
123.05444 94.025124 moveto
123.05444 94.151106 123.01050 94.259504 122.92261 94.350319 curveto
122.83472 94.438215 122.72778 94.482160 122.60181 94.482155 curveto
122.47583 94.482160 122.36890 94.438215 122.28101 94.350319 curveto
122.19311 94.259504 122.14917 94.151106 122.14917 94.025124 curveto
122.14917 93.899153 122.19311 93.792219 122.28101 93.704323 curveto
122.36890 93.616438 122.47583 93.572493 122.60181 93.572487 curveto
122.72778 93.572493 122.83472 93.616438 122.92261 93.704323 curveto
123.01050 93.792219 123.05444 93.899153 123.05444 94.025124 curveto
fill
0.0000000 0.0000000 0.0000000 setrgbcolor
newpath
127.04028 95.725807 moveto
127.03149 95.892803 126.94067 96.118389 126.76782 96.402565 curveto
126.40454 96.215068 126.15405 96.121319 126.01636 96.121315 curveto
125.84057 96.121319 125.68530 96.206279 125.55054 96.376198 curveto
125.44800 96.531474 125.34692 96.686748 125.24731 96.842018 curveto
125.24731 99.021706 lineto
125.24731 99.338112 125.44507 99.496315 125.84058 99.496315 curveto
125.87866 99.496315 125.93286 99.494850 126.00317 99.491920 curveto
126.07348 99.488991 126.12329 99.487526 126.15259 99.487526 curveto
126.17017 99.650124 lineto
123.99487 99.650124 lineto
123.99487 99.522682 lineto
124.40796 99.510964 124.61450 99.343972 124.61450 99.021706 curveto
124.61450 96.446510 lineto
124.61450 96.273662 124.40356 96.141826 123.98169 96.051003 curveto
123.98169 95.888405 lineto
124.23950 95.859112 124.60425 95.709698 125.07593 95.440163 curveto
125.24731 95.475319 lineto
125.24731 96.512428 lineto
125.59888 95.856182 125.91235 95.528057 126.18774 95.528053 curveto
126.32837 95.528057 126.61255 95.593975 127.04028 95.725807 curveto
fill
0.0000000 0.0000000 0.0000000 setrgbcolor
newpath
130.83276 98.569069 moveto
130.46948 99.342507 129.89380 99.729225 129.10571 99.729225 curveto
128.59888 99.729225 128.17114 99.508034 127.82251 99.065651 curveto
127.49731 98.652566 127.33472 98.186746 127.33472 97.668190 curveto
127.33472 97.079325 127.50171 96.584209 127.83569 96.182838 curveto
128.19311 95.755108 128.66040 95.541241 129.23755 95.541237 curveto
129.69751 95.541241 130.06958 95.680401 130.35376 95.958717 curveto
130.64087 96.237041 130.78442 96.607646 130.78442 97.070534 curveto
127.94556 97.070534 lineto
127.93091 97.193583 127.92358 97.319560 127.92358 97.448463 curveto
127.92358 97.884989 128.05688 98.286355 128.32349 98.652565 curveto
128.61645 99.059792 128.97388 99.263405 129.39575 99.263405 curveto
129.94653 99.263405 130.36548 99.015847 130.65259 98.520729 curveto
130.68774 98.520729 lineto
130.75219 98.517801 130.80053 98.533914 130.83276 98.569069 curveto
130.11206 96.820045 moveto
130.10034 96.521220 129.99634 96.278057 129.80005 96.090553 curveto
129.60376 95.900127 129.35473 95.804913 129.05298 95.804909 curveto
128.80395 95.804913 128.58276 95.914776 128.38940 96.134499 curveto
128.21948 96.327861 128.10376 96.556377 128.04224 96.820045 curveto
130.11206 96.820045 lineto
fill
grestore
gsave [1.0000000 0.0000000 0.0000000 1.0000000 91.554140 0.54932400] concat
gsave [1.0000000 0.0000000 0.0000000 1.0000000 -70.588230 -0.45776700] concat
0.0000000 0.0000000 0.0000000 setrgbcolor
[] 0 setdash
0.35433072 setlinewidth
0 setlinejoin
0 setlinecap
newpath
89.539918 64.493340 moveto
89.539918 67.626687 86.996911 70.169694 83.863564 70.169694 curveto
80.730216 70.169694 78.187209 67.626687 78.187209 64.493340 curveto
78.187209 61.359992 80.730216 58.816985 83.863564 58.816985 curveto
86.996911 58.816985 89.539918 61.359992 89.539918 64.493340 curveto
closepath
stroke
grestore
0.0000000 0.0000000 0.0000000 setrgbcolor
[] 0 setdash
0.35433072 setlinewidth
0 setlinejoin
0 setlinecap
newpath
8.9917348 60.488510 moveto
17.742065 67.582629 lineto
17.742065 67.582629 lineto
stroke
0.0000000 0.0000000 0.0000000 setrgbcolor
[] 0 setdash
0.35433072 setlinewidth
0 setlinejoin
0 setlinecap
newpath
17.742065 60.488510 moveto
8.9917348 67.582629 lineto
8.9917348 67.582629 lineto
stroke
grestore
gsave [1.0000000 0.0000000 0.0000000 1.0000000 78.553430 47.791240] concat
0.0000000 0.0000000 0.0000000 setrgbcolor
newpath
35.347120 30.589050 moveto
35.347114 31.253114 35.054146 31.746278 34.468214 32.068542 curveto
34.002715 32.322449 33.405384 32.449402 32.676222 32.449402 curveto
29.233839 32.449402 lineto
29.282667 32.268738 lineto
29.728630 32.262228 30.018344 32.229676 30.151808 32.171082 curveto
30.405713 32.060405 30.532666 31.811382 30.532667 31.424011 curveto
30.532667 26.448425 lineto
30.532666 26.002468 30.151807 25.779487 29.390089 25.779480 curveto
29.390089 25.554871 lineto
30.203890 25.499539 31.214631 25.471870 32.422316 25.471863 curveto
33.034291 25.471870 33.584421 25.584174 34.072706 25.808777 curveto
34.687935 26.095242 34.995552 26.498887 34.995558 27.019714 curveto
34.995552 27.892115 34.500761 28.401554 33.511183 28.548035 curveto
34.142688 28.684757 34.596789 28.896346 34.873487 29.182800 curveto
35.189237 29.501814 35.347114 29.970563 35.347120 30.589050 curveto
34.072706 27.239441 moveto
34.072701 26.236843 33.576283 25.735541 32.583448 25.735535 curveto
31.372511 25.735535 lineto
31.372511 28.499207 lineto
32.285597 28.499207 lineto
32.858510 28.499210 33.270293 28.435734 33.520948 28.308777 curveto
33.888782 28.123234 34.072701 27.766789 34.072706 27.239441 curveto
34.394972 30.549988 moveto
34.394967 29.990094 34.264759 29.550642 34.004347 29.231628 curveto
33.717884 28.886580 33.301218 28.714054 32.754347 28.714050 curveto
31.372511 28.714050 lineto
31.372511 31.472839 lineto
31.372509 31.974142 31.758251 32.224793 32.529737 32.224792 curveto
33.047312 32.224793 33.481882 32.076681 33.833448 31.780457 curveto
34.207792 31.467958 34.394967 31.057802 34.394972 30.549988 curveto
fill
0.0000000 0.0000000 0.0000000 setrgbcolor
[] 0 setdash
0.35433072 setlinewidth
0 setlinejoin
0 setlinecap
newpath
27.466233 23.110883 moveto
35.706103 23.110883 35.706103 23.110883 35.706103 23.110883 curveto
stroke
gsave [-0.21259843 0.0000000 0.0000000 -0.21259843 36.769095 23.110883] concat
0.0000000 0.0000000 0.0000000 setrgbcolor
newpath
8.7185878 4.0337352 moveto
-2.2072895 0.016013256 lineto
8.7185884 -4.0017078 lineto
6.9730900 -1.6296469 6.9831476 1.6157441 8.7185878 4.0337352 curveto
closepath
eofill
grestore
grestore
0.0000000 0.0000000 0.0000000 setrgbcolor
newpath
117.88503 82.808578 moveto
117.88503 83.116196 117.74440 83.378403 117.46316 83.595200 curveto
117.20534 83.800278 116.91823 83.902817 116.60183 83.902817 curveto
116.49636 83.902817 116.33962 83.883774 116.13161 83.845688 curveto
115.92361 83.804672 115.76687 83.784165 115.66140 83.784164 curveto
115.55007 83.784165 115.47536 83.841293 115.43728 83.955551 curveto
115.26589 83.920395 lineto
115.22195 82.786606 lineto
115.32302 82.769028 lineto
115.58376 83.398911 115.95876 83.713852 116.44802 83.713852 curveto
117.01638 83.713852 117.30056 83.457505 117.30056 82.944809 curveto
117.30056 82.648912 117.12331 82.418932 116.76882 82.254868 curveto
116.44070 82.114244 116.11111 81.973619 115.78005 81.832993 curveto
115.42556 81.616198 115.24831 81.296862 115.24831 80.874985 curveto
115.24831 80.570301 115.39773 80.315418 115.69656 80.110336 curveto
115.96023 79.925770 116.25027 79.833485 116.56667 79.833481 curveto
117.05007 79.833485 117.41482 79.906727 117.66091 80.053207 curveto
117.71804 81.041977 lineto
117.61697 81.059555 lineto
117.42946 80.661121 117.30495 80.425281 117.24343 80.352036 curveto
117.07937 80.152821 116.84206 80.053211 116.53152 80.053207 curveto
116.33230 80.053211 116.15505 80.114735 115.99978 80.237778 curveto
115.82986 80.366687 115.74489 80.527820 115.74490 80.721176 curveto
115.74489 80.958484 115.92947 81.163562 116.29861 81.336411 curveto
116.97243 81.649889 117.31521 81.811022 117.32693 81.819809 curveto
117.69899 82.065905 117.88503 82.395494 117.88503 82.808578 curveto
fill
0.0000000 0.0000000 0.0000000 setrgbcolor
newpath
122.92995 81.617661 moveto
122.92995 82.200670 122.71462 82.732408 122.28396 83.212875 curveto
121.84157 83.707993 121.33327 83.955551 120.75906 83.955551 curveto
120.45437 83.955551 120.15700 83.872055 119.86697 83.705063 curveto
119.86697 85.133286 lineto
119.86696 85.543440 120.18044 85.771956 120.80740 85.818832 curveto
120.79861 86.034164 lineto
118.51785 86.034164 lineto
118.46511 85.897934 lineto
118.50027 85.836411 lineto
118.98952 85.821760 119.23415 85.678206 119.23415 85.405746 curveto
119.23415 80.967270 lineto
119.23415 80.724109 119.19314 80.565906 119.11111 80.492661 curveto
119.03200 80.419422 118.86794 80.374012 118.61892 80.356430 curveto
118.57058 80.141098 lineto
118.73757 80.111805 118.93825 80.040028 119.17263 79.925766 curveto
119.39822 79.814442 119.57839 79.701649 119.71316 79.587387 curveto
119.86697 79.640121 lineto
119.86697 80.483871 lineto
120.49392 80.026844 121.03151 79.798329 121.47976 79.798325 curveto
121.90749 79.798329 122.26345 80.000477 122.54763 80.404770 curveto
122.80251 80.770984 122.92995 81.175280 122.92995 81.617661 curveto
122.31472 81.876938 moveto
122.31472 81.457995 122.20632 81.081531 121.98952 80.747543 curveto
121.74050 80.366687 121.41530 80.176258 121.01394 80.176254 curveto
120.60671 80.176258 120.22439 80.347645 119.86697 80.690414 curveto
119.86697 83.045883 lineto
120.23903 83.412095 120.65505 83.595200 121.11501 83.595200 curveto
121.25857 83.595200 121.42409 83.529282 121.61160 83.397446 curveto
121.77272 83.280259 121.90163 83.152818 121.99831 83.015121 curveto
122.20925 82.710435 122.31472 82.331041 122.31472 81.876938 curveto
fill
0.0000000 0.0000000 0.0000000 setrgbcolor
newpath
125.52273 83.902817 moveto
123.50564 83.902817 lineto
123.48806 83.867661 lineto
123.51443 83.731430 lineto
123.72243 83.731430 123.87038 83.702133 123.95827 83.643539 curveto
124.06667 83.570298 124.12087 83.429673 124.12087 83.221664 curveto
124.12087 80.598129 lineto
124.12087 80.384266 124.01540 80.277332 123.80447 80.277328 curveto
123.72536 80.277332 123.63308 80.290516 123.52761 80.316879 curveto
123.41775 80.141098 lineto
123.97439 79.985829 124.39187 79.820301 124.67019 79.644516 curveto
124.83279 79.763168 lineto
124.83279 83.234848 lineto
124.83279 83.521958 125.05691 83.678696 125.50515 83.705063 curveto
125.52273 83.902817 lineto
124.88552 78.277817 moveto
124.88552 78.403799 124.84157 78.512197 124.75368 78.603012 curveto
124.66579 78.690908 124.55886 78.734853 124.43288 78.734848 curveto
124.30691 78.734853 124.19997 78.690908 124.11208 78.603012 curveto
124.02419 78.512197 123.98025 78.403799 123.98025 78.277817 curveto
123.98025 78.151846 124.02419 78.044912 124.11208 77.957016 curveto
124.19997 77.869131 124.30691 77.825186 124.43288 77.825180 curveto
124.55886 77.825186 124.66579 77.869131 124.75368 77.957016 curveto
124.84157 78.044912 124.88552 78.151846 124.88552 78.277817 curveto
fill
0.0000000 0.0000000 0.0000000 setrgbcolor
newpath
128.87136 79.978500 moveto
128.86257 80.145496 128.77175 80.371082 128.59890 80.655258 curveto
128.23562 80.467762 127.98513 80.374012 127.84743 80.374008 curveto
127.67165 80.374012 127.51638 80.458973 127.38161 80.628891 curveto
127.27907 80.784168 127.17800 80.939441 127.07839 81.094711 curveto
127.07839 83.274399 lineto
127.07839 83.590805 127.27614 83.749008 127.67165 83.749008 curveto
127.70974 83.749008 127.76394 83.747543 127.83425 83.744614 curveto
127.90456 83.741684 127.95437 83.740219 127.98367 83.740219 curveto
128.00124 83.902817 lineto
125.82595 83.902817 lineto
125.82595 83.775375 lineto
126.23904 83.763657 126.44558 83.596665 126.44558 83.274399 curveto
126.44558 80.699203 lineto
126.44558 80.526355 126.23464 80.394519 125.81277 80.303696 curveto
125.81277 80.141098 lineto
126.07058 80.111805 126.43532 79.962391 126.90701 79.692856 curveto
127.07839 79.728012 lineto
127.07839 80.765121 lineto
127.42995 80.108875 127.74343 79.780751 128.01882 79.780746 curveto
128.15944 79.780751 128.44362 79.846668 128.87136 79.978500 curveto
fill
0.0000000 0.0000000 0.0000000 setrgbcolor
newpath
132.66384 82.821762 moveto
132.30056 83.595200 131.72487 83.981918 130.93679 83.981918 curveto
130.42995 83.981918 130.00222 83.760727 129.65359 83.318344 curveto
129.32839 82.905259 129.16579 82.439439 129.16579 81.920883 curveto
129.16579 81.332019 129.33279 80.836902 129.66677 80.435532 curveto
130.02419 80.007801 130.49148 79.793934 131.06863 79.793930 curveto
131.52858 79.793934 131.90065 79.933094 132.18484 80.211411 curveto
132.47194 80.489734 132.61550 80.860339 132.61550 81.323227 curveto
129.77663 81.323227 lineto
129.76199 81.446276 129.75466 81.572253 129.75466 81.701157 curveto
129.75466 82.137682 129.88796 82.539049 130.15456 82.905258 curveto
130.44753 83.312485 130.80495 83.516098 131.22683 83.516098 curveto
131.77761 83.516098 132.19655 83.268540 132.48367 82.773422 curveto
132.51882 82.773422 lineto
132.58327 82.770494 132.63161 82.786607 132.66384 82.821762 curveto
131.94314 81.072739 moveto
131.93142 80.773914 131.82741 80.530750 131.63113 80.343246 curveto
131.43484 80.152821 131.18581 80.057606 130.88406 80.057602 curveto
130.63503 80.057606 130.41384 80.167469 130.22048 80.387192 curveto
130.05056 80.580554 129.93484 80.809070 129.87331 81.072739 curveto
131.94314 81.072739 lineto
fill
0.0000000 0.0000000 0.0000000 setrgbcolor
newpath
45.740398 55.525455 moveto
45.740395 55.833073 45.599770 56.095280 45.318523 56.312077 curveto
45.060709 56.517155 44.773599 56.619694 44.457195 56.619694 curveto
44.351725 56.619694 44.194987 56.600651 43.986980 56.562565 curveto
43.778972 56.521549 43.622233 56.501042 43.516766 56.501041 curveto
43.405437 56.501042 43.330730 56.558170 43.292645 56.672428 curveto
43.121258 56.637272 lineto
43.077312 55.503483 lineto
43.178387 55.485905 lineto
43.439128 56.115788 43.814128 56.430729 44.303387 56.430729 curveto
44.871744 56.430729 45.155923 56.174382 45.155926 55.661686 curveto
45.155923 55.365789 44.978677 55.135809 44.624187 54.971745 curveto
44.296061 54.831121 43.966471 54.690496 43.635418 54.549870 curveto
43.280925 54.333075 43.103679 54.013739 43.103680 53.591862 curveto
43.103679 53.287178 43.253093 53.032295 43.551922 52.827213 curveto
43.815593 52.642647 44.105631 52.550362 44.422039 52.550358 curveto
44.905435 52.550362 45.270181 52.623604 45.516277 52.770084 curveto
45.573406 53.758854 lineto
45.472332 53.776432 lineto
45.284829 53.377998 45.160318 53.142158 45.098797 53.068913 curveto
44.934732 52.869698 44.697428 52.770088 44.386883 52.770084 curveto
44.187663 52.770088 44.010417 52.831612 43.855145 52.954655 curveto
43.685222 53.083564 43.600261 53.244697 43.600262 53.438053 curveto
43.600261 53.675361 43.784831 53.880439 44.153973 54.053288 curveto
44.827799 54.366766 45.170572 54.527899 45.182293 54.536686 curveto
45.554360 54.782782 45.740395 55.112371 45.740398 55.525455 curveto
fill
0.0000000 0.0000000 0.0000000 setrgbcolor
newpath
50.785320 54.334538 moveto
50.785316 54.917547 50.569984 55.449285 50.139324 55.929752 curveto
49.696938 56.424870 49.188638 56.672428 48.614422 56.672428 curveto
48.309732 56.672428 48.012369 56.588932 47.722332 56.421940 curveto
47.722332 57.850163 lineto
47.722331 58.260317 48.035807 58.488833 48.662762 58.535709 curveto
48.653973 58.751041 lineto
46.373211 58.751041 lineto
46.320477 58.614811 lineto
46.355633 58.553288 lineto
46.844890 58.538637 47.089519 58.395083 47.089520 58.122623 curveto
47.089520 53.684147 lineto
47.089519 53.440986 47.048503 53.282783 46.966473 53.209538 curveto
46.887371 53.136299 46.723308 53.090889 46.474285 53.073307 curveto
46.425945 52.857975 lineto
46.592937 52.828682 46.793621 52.756905 47.027996 52.642643 curveto
47.253581 52.531319 47.433757 52.418526 47.568523 52.304264 curveto
47.722332 52.356998 lineto
47.722332 53.200748 lineto
48.349283 52.743721 48.886880 52.515206 49.335125 52.515202 curveto
49.762856 52.515206 50.118813 52.717354 50.402996 53.121647 curveto
50.657875 53.487861 50.785316 53.892157 50.785320 54.334538 curveto
50.170086 54.593815 moveto
50.170082 54.174872 50.061684 53.798408 49.844891 53.464420 curveto
49.595864 53.083564 49.270669 52.893135 48.869305 52.893131 curveto
48.462076 52.893135 48.079752 53.064522 47.722332 53.407291 curveto
47.722332 55.762760 lineto
48.094401 56.128972 48.510416 56.312077 48.970379 56.312077 curveto
49.113931 56.312077 49.279458 56.246159 49.466961 56.114323 curveto
49.628090 55.997136 49.756997 55.869695 49.853680 55.731998 curveto
50.064613 55.427312 50.170082 55.047918 50.170086 54.593815 curveto
fill
0.0000000 0.0000000 0.0000000 setrgbcolor
newpath
53.378094 56.619694 moveto
51.361004 56.619694 lineto
51.343426 56.584538 lineto
51.369793 56.448307 lineto
51.577800 56.448307 51.725749 56.419010 51.813641 56.360416 curveto
51.922038 56.287175 51.976237 56.146550 51.976238 55.938541 curveto
51.976238 53.315006 lineto
51.976237 53.101143 51.870769 52.994209 51.659832 52.994205 curveto
51.580730 52.994209 51.488445 53.007393 51.382977 53.033756 curveto
51.273113 52.857975 lineto
51.829753 52.702705 52.247233 52.537178 52.525555 52.361393 curveto
52.688152 52.480045 lineto
52.688152 55.951725 lineto
52.688151 56.238835 52.912272 56.395573 53.360516 56.421940 curveto
53.378094 56.619694 lineto
52.740887 50.994694 moveto
52.740885 51.120676 52.696940 51.229074 52.609051 51.319889 curveto
52.521159 51.407785 52.414225 51.451730 52.288250 51.451725 curveto
52.162272 51.451730 52.055339 51.407785 51.967449 51.319889 curveto
51.879558 51.229074 51.835613 51.120676 51.835613 50.994694 curveto
51.835613 50.868723 51.879558 50.761789 51.967449 50.673893 curveto
52.055339 50.586008 52.162272 50.542063 52.288250 50.542057 curveto
52.414225 50.542063 52.521159 50.586008 52.609051 50.673893 curveto
52.696940 50.761789 52.740885 50.868723 52.740887 50.994694 curveto
fill
0.0000000 0.0000000 0.0000000 setrgbcolor
newpath
56.726727 52.695377 moveto
56.717934 52.862373 56.627114 53.087959 56.454266 53.372135 curveto
56.090982 53.184639 55.840494 53.090889 55.702801 53.090885 curveto
55.527018 53.090889 55.371744 53.175850 55.236980 53.345768 curveto
55.134440 53.501045 55.033366 53.656318 54.933758 53.811588 curveto
54.933758 55.991276 lineto
54.933756 56.307682 55.131510 56.465885 55.527020 56.465885 curveto
55.565103 56.465885 55.619303 56.464420 55.689617 56.461491 curveto
55.759927 56.458561 55.809732 56.457096 55.839031 56.457096 curveto
55.856609 56.619694 lineto
53.681316 56.619694 lineto
53.681316 56.492252 lineto
54.094402 56.480534 54.300945 56.313542 54.300945 55.991276 curveto
54.300945 53.416080 lineto
54.300945 53.243232 54.090007 53.111396 53.668133 53.020573 curveto
53.668133 52.857975 lineto
53.925945 52.828682 54.290691 52.679268 54.762371 52.409733 curveto
54.933758 52.444889 lineto
54.933758 53.481998 lineto
55.285319 52.825752 55.598795 52.497628 55.874187 52.497623 curveto
56.014810 52.497628 56.298989 52.563545 56.726727 52.695377 curveto
fill
0.0000000 0.0000000 0.0000000 setrgbcolor
newpath
60.519207 55.538639 moveto
60.155923 56.312077 59.580240 56.698795 58.792156 56.698795 curveto
58.285319 56.698795 57.857585 56.477604 57.508953 56.035221 curveto
57.183758 55.622136 57.021160 55.156316 57.021160 54.637760 curveto
57.021160 54.048896 57.188152 53.553779 57.522137 53.152409 curveto
57.879558 52.724678 58.346842 52.510811 58.923992 52.510807 curveto
59.383951 52.510811 59.756021 52.649971 60.040203 52.928288 curveto
60.327309 53.206611 60.470864 53.577216 60.470867 54.040104 curveto
57.632000 54.040104 lineto
57.617351 54.163153 57.610027 54.289130 57.610027 54.418034 curveto
57.610027 54.854559 57.743327 55.255926 58.009930 55.622135 curveto
58.302897 56.029362 58.660319 56.232975 59.082195 56.232975 curveto
59.632974 56.232975 60.051919 55.985417 60.339031 55.490299 curveto
60.374187 55.490299 lineto
60.438637 55.487371 60.486977 55.503484 60.519207 55.538639 curveto
59.798504 53.789616 moveto
59.786782 53.490791 59.682778 53.247627 59.486492 53.060123 curveto
59.290201 52.869698 59.041178 52.774483 58.739422 52.774479 curveto
58.490397 52.774483 58.269206 52.884346 58.075848 53.104069 curveto
57.905925 53.297431 57.790202 53.525947 57.728680 53.789616 curveto
59.798504 53.789616 lineto
fill
0.0000000 0.0000000 0.0000000 setrgbcolor
newpath
121.51495 16.952677 moveto
121.07550 17.365763 lineto
120.98175 16.949753 120.68585 16.741745 120.18781 16.741739 curveto
119.90069 16.741745 119.64288 16.828171 119.41437 17.001017 curveto
119.16827 17.188522 119.04523 17.422897 119.04523 17.704142 curveto
119.04523 18.745646 lineto
120.07794 18.745646 lineto
120.07794 19.079630 lineto
119.04523 19.079630 lineto
119.04523 21.988810 lineto
119.04523 22.363810 119.25177 22.551310 119.66486 22.551310 curveto
119.69708 22.551310 119.74396 22.551310 119.80548 22.551310 curveto
119.86700 22.548380 119.91241 22.546915 119.94171 22.546915 curveto
119.94171 22.744669 lineto
117.80157 22.744669 lineto
117.77960 22.617228 lineto
118.01984 22.543986 118.16193 22.495646 118.20587 22.472208 curveto
118.35236 22.393107 118.42560 22.274455 118.42560 22.116251 curveto
118.42560 19.079630 lineto
118.34357 19.088423 118.08722 19.067915 117.65656 19.018106 curveto
117.65656 18.846720 lineto
118.01984 18.846724 118.23077 18.813032 118.28937 18.745646 curveto
118.42560 18.745646 lineto
118.42560 18.613810 lineto
118.42560 18.142135 118.47687 17.802291 118.57941 17.594278 curveto
118.65851 17.439010 118.86944 17.195846 119.21222 16.864786 curveto
119.51105 16.577683 119.94171 16.434128 120.50421 16.434122 curveto
120.80597 16.434128 121.14288 16.606980 121.51495 16.952677 curveto
fill
0.0000000 0.0000000 0.0000000 setrgbcolor
newpath
123.15411 22.744669 moveto
121.13702 22.744669 lineto
121.11945 22.709513 lineto
121.14581 22.573282 lineto
121.35382 22.573282 121.50177 22.543986 121.58966 22.485392 curveto
121.69806 22.412150 121.75226 22.271525 121.75226 22.063517 curveto
121.75226 19.439981 lineto
121.75226 19.226118 121.64679 19.119184 121.43585 19.119181 curveto
121.35675 19.119184 121.26447 19.132368 121.15900 19.158731 curveto
121.04913 18.982950 lineto
121.60577 18.827681 122.02325 18.662154 122.30157 18.486368 curveto
122.46417 18.605021 lineto
122.46417 22.076700 lineto
122.46417 22.363810 122.68829 22.520548 123.13654 22.546915 curveto
123.15411 22.744669 lineto
122.51691 17.119669 moveto
122.51691 17.245651 122.47296 17.354049 122.38507 17.444864 curveto
122.29718 17.532760 122.19025 17.576705 122.06427 17.576700 curveto
121.93829 17.576705 121.83136 17.532760 121.74347 17.444864 curveto
121.65558 17.354049 121.61163 17.245651 121.61163 17.119669 curveto
121.61163 16.993698 121.65558 16.886765 121.74347 16.798868 curveto
121.83136 16.710984 121.93829 16.667038 122.06427 16.667032 curveto
122.19025 16.667038 122.29718 16.710984 122.38507 16.798868 curveto
122.47296 16.886765 122.51691 16.993698 122.51691 17.119669 curveto
fill
0.0000000 0.0000000 0.0000000 setrgbcolor
newpath
125.53595 22.546915 moveto
125.50958 22.744669 lineto
123.61115 22.744669 lineto
123.59357 22.709513 lineto
123.61993 22.573282 lineto
123.80450 22.573282 123.95245 22.498575 124.06378 22.349161 curveto
124.16632 22.214396 124.21759 22.051799 124.21759 21.861368 curveto
124.21759 17.172403 lineto
124.21759 17.066940 124.16193 16.979050 124.05060 16.908731 curveto
123.95685 16.850144 123.85284 16.820847 123.73859 16.820841 curveto
123.73859 16.820847 123.66534 16.835495 123.51886 16.864786 curveto
123.51886 16.850144 123.52032 16.828171 123.52325 16.798868 curveto
123.52618 16.769577 123.52765 16.746140 123.52765 16.728556 curveto
123.52765 16.687546 123.57013 16.652390 123.65509 16.623087 curveto
123.88361 16.552781 124.22052 16.420945 124.66583 16.227579 curveto
124.85919 16.227579 lineto
124.85919 22.076700 lineto
124.85919 22.363810 125.08478 22.520548 125.53595 22.546915 curveto
fill
gsave [1.0000000 0.0000000 0.0000000 1.0000000 30.212860 22.888530] concat
0.0000000 0.0000000 0.0000000 setrgbcolor
newpath
53.677490 29.109592 moveto
53.501709 29.109592 lineto
53.501704 28.461812 53.215246 28.137919 52.642334 28.137913 curveto
50.440186 28.137913 lineto
50.440186 30.759983 lineto
52.261475 30.759983 lineto
52.456783 30.759987 52.611406 30.683490 52.725342 30.530491 curveto
52.822994 30.397032 52.871822 30.226133 52.871826 30.017796 curveto
53.008545 30.017796 lineto
53.008545 31.922092 lineto
52.871826 31.922092 lineto
52.871822 31.388242 52.668372 31.121315 52.261475 31.121311 curveto
50.440186 31.121311 lineto
50.440186 33.772678 lineto
50.440184 34.208877 50.734780 34.426975 51.323975 34.426975 curveto
51.323975 34.646702 lineto
48.770264 34.646702 lineto
48.770264 34.426975 lineto
49.310628 34.426975 49.580810 34.189345 49.580811 33.714085 curveto
49.580811 28.450413 lineto
49.580810 28.095602 49.310628 27.919821 48.770264 27.923069 curveto
48.770264 27.713108 lineto
53.560303 27.713108 lineto
53.677490 29.109592 lineto
fill
0.0000000 0.0000000 0.0000000 setrgbcolor
[] 0 setdash
0.35433072 setlinewidth
0 setlinejoin
0 setlinecap
newpath
46.326380 25.308182 moveto
54.566250 25.308182 54.566250 25.308182 54.566250 25.308182 curveto
stroke
gsave [-0.21259843 0.0000000 0.0000000 -0.21259843 55.629242 25.308182] concat
0.0000000 0.0000000 0.0000000 setrgbcolor
newpath
8.7185878 4.0337352 moveto
-2.2072895 0.016013256 lineto
8.7185884 -4.0017078 lineto
6.9730900 -1.6296469 6.9831476 1.6157441 8.7185878 4.0337352 curveto
closepath
eofill
grestore
grestore
gsave [1.0000000 0.0000000 0.0000000 1.0000000 34.241240 63.538550] concat
0.0000000 0.0000000 0.0000000 setrgbcolor
newpath
57.642433 14.509214 moveto
57.642430 14.816832 57.501805 15.079039 57.220558 15.295835 curveto
56.962743 15.500914 56.675634 15.603453 56.359230 15.603453 curveto
56.253760 15.603453 56.097021 15.584410 55.889015 15.546324 curveto
55.681006 15.505308 55.524268 15.484800 55.418800 15.484800 curveto
55.307471 15.484800 55.232765 15.541929 55.194679 15.656187 curveto
55.023293 15.621031 lineto
54.979347 14.487242 lineto
55.080421 14.469664 lineto
55.341163 15.099547 55.716162 15.414488 56.205421 15.414488 curveto
56.773779 15.414488 57.057958 15.158141 57.057961 14.645445 curveto
57.057958 14.349548 56.880712 14.119567 56.526222 13.955503 curveto
56.198096 13.814880 55.868506 13.674255 55.537453 13.533628 curveto
55.182960 13.316834 55.005714 12.997498 55.005714 12.575621 curveto
55.005714 12.270936 55.155128 12.016054 55.453957 11.810972 curveto
55.717627 11.626406 56.007666 11.534121 56.324074 11.534117 curveto
56.807470 11.534121 57.172216 11.607363 57.418312 11.753843 curveto
57.475441 12.742613 lineto
57.374367 12.760191 lineto
57.186864 12.361757 57.062353 12.125917 57.000832 12.052671 curveto
56.836767 11.853456 56.599462 11.753847 56.288918 11.753843 curveto
56.089697 11.753847 55.912451 11.815371 55.757179 11.938414 curveto
55.587256 12.067323 55.502296 12.228456 55.502296 12.421812 curveto
55.502296 12.659120 55.686866 12.864198 56.056007 13.037046 curveto
56.729833 13.350525 57.072606 13.511658 57.084328 13.520445 curveto
57.456395 13.766540 57.642430 14.096130 57.642433 14.509214 curveto
fill
0.0000000 0.0000000 0.0000000 setrgbcolor
newpath
45.891258 10.177673 moveto
45.451805 10.590759 lineto
45.358052 10.174749 45.062154 9.9667418 44.564110 9.9667358 curveto
44.276998 9.9667418 44.019186 10.053168 43.790672 10.226013 curveto
43.544577 10.413519 43.421530 10.647894 43.421532 10.929138 curveto
43.421532 11.970642 lineto
44.454247 11.970642 lineto
44.454247 12.304626 lineto
43.421532 12.304626 lineto
43.421532 15.213806 lineto
43.421530 15.588807 43.628073 15.776306 44.041161 15.776306 curveto
44.073385 15.776306 44.120260 15.776306 44.181786 15.776306 curveto
44.243307 15.773377 44.288717 15.771912 44.318016 15.771912 curveto
44.318016 15.969666 lineto
42.177879 15.969666 lineto
42.155907 15.842224 lineto
42.396141 15.768982 42.538230 15.720642 42.582176 15.697205 curveto
42.728660 15.618103 42.801902 15.499451 42.801903 15.341248 curveto
42.801903 12.304626 lineto
42.719871 12.313419 42.463523 12.292911 42.032860 12.243103 curveto
42.032860 12.071716 lineto
42.396141 12.071720 42.607078 12.038029 42.665672 11.970642 curveto
42.801903 11.970642 lineto
42.801903 11.838806 lineto
42.801902 11.367131 42.853171 11.027288 42.955711 10.819275 curveto
43.034812 10.664007 43.245749 10.420843 43.588524 10.089783 curveto
43.887350 9.8026795 44.318014 9.6591250 44.880516 9.6591187 curveto
45.182271 9.6591250 45.519184 9.8319764 45.891258 10.177673 curveto
fill
0.0000000 0.0000000 0.0000000 setrgbcolor
[] 0 setdash
0.13880663 setlinewidth
0 setlinejoin
0 setlinecap
newpath
46.980446 13.680809 moveto
51.897996 13.680809 51.897996 13.680809 51.897996 13.680809 curveto
stroke
gsave [0.11104530 0.0000000 0.0000000 0.11104530 46.980446 13.680809] concat
0.0000000 0.0000000 0.0000000 setrgbcolor
[] 0 setdash
1.2500000 setlinewidth
0 setlinejoin
0 setlinecap
newpath
0.0000000 5.6500000 moveto
0.0000000 -5.6500000 lineto
stroke
grestore
gsave [-0.15268729 0.0000000 0.0000000 -0.15268729 52.661432 13.680809] concat
0.0000000 0.0000000 0.0000000 setrgbcolor
newpath
8.7185878 4.0337352 moveto
-2.2072895 0.016013256 lineto
8.7185884 -4.0017078 lineto
6.9730900 -1.6296469 6.9831476 1.6157441 8.7185878 4.0337352 curveto
closepath
eofill
grestore
grestore
gsave [1.0000000 0.0000000 0.0000000 1.0000000 123.78120 47.608130] concat
0.0000000 0.0000000 0.0000000 setrgbcolor
newpath
57.642433 14.509214 moveto
57.642430 14.816832 57.501805 15.079039 57.220558 15.295835 curveto
56.962743 15.500914 56.675634 15.603453 56.359230 15.603453 curveto
56.253760 15.603453 56.097021 15.584410 55.889015 15.546324 curveto
55.681006 15.505308 55.524268 15.484800 55.418800 15.484800 curveto
55.307471 15.484800 55.232765 15.541929 55.194679 15.656187 curveto
55.023293 15.621031 lineto
54.979347 14.487242 lineto
55.080421 14.469664 lineto
55.341163 15.099547 55.716162 15.414488 56.205421 15.414488 curveto
56.773779 15.414488 57.057958 15.158141 57.057961 14.645445 curveto
57.057958 14.349548 56.880712 14.119567 56.526222 13.955503 curveto
56.198096 13.814880 55.868506 13.674255 55.537453 13.533628 curveto
55.182960 13.316834 55.005714 12.997498 55.005714 12.575621 curveto
55.005714 12.270936 55.155128 12.016054 55.453957 11.810972 curveto
55.717627 11.626406 56.007666 11.534121 56.324074 11.534117 curveto
56.807470 11.534121 57.172216 11.607363 57.418312 11.753843 curveto
57.475441 12.742613 lineto
57.374367 12.760191 lineto
57.186864 12.361757 57.062353 12.125917 57.000832 12.052671 curveto
56.836767 11.853456 56.599462 11.753847 56.288918 11.753843 curveto
56.089697 11.753847 55.912451 11.815371 55.757179 11.938414 curveto
55.587256 12.067323 55.502296 12.228456 55.502296 12.421812 curveto
55.502296 12.659120 55.686866 12.864198 56.056007 13.037046 curveto
56.729833 13.350525 57.072606 13.511658 57.084328 13.520445 curveto
57.456395 13.766540 57.642430 14.096130 57.642433 14.509214 curveto
fill
0.0000000 0.0000000 0.0000000 setrgbcolor
newpath
45.891258 10.177673 moveto
45.451805 10.590759 lineto
45.358052 10.174749 45.062154 9.9667418 44.564110 9.9667358 curveto
44.276998 9.9667418 44.019186 10.053168 43.790672 10.226013 curveto
43.544577 10.413519 43.421530 10.647894 43.421532 10.929138 curveto
43.421532 11.970642 lineto
44.454247 11.970642 lineto
44.454247 12.304626 lineto
43.421532 12.304626 lineto
43.421532 15.213806 lineto
43.421530 15.588807 43.628073 15.776306 44.041161 15.776306 curveto
44.073385 15.776306 44.120260 15.776306 44.181786 15.776306 curveto
44.243307 15.773377 44.288717 15.771912 44.318016 15.771912 curveto
44.318016 15.969666 lineto
42.177879 15.969666 lineto
42.155907 15.842224 lineto
42.396141 15.768982 42.538230 15.720642 42.582176 15.697205 curveto
42.728660 15.618103 42.801902 15.499451 42.801903 15.341248 curveto
42.801903 12.304626 lineto
42.719871 12.313419 42.463523 12.292911 42.032860 12.243103 curveto
42.032860 12.071716 lineto
42.396141 12.071720 42.607078 12.038029 42.665672 11.970642 curveto
42.801903 11.970642 lineto
42.801903 11.838806 lineto
42.801902 11.367131 42.853171 11.027288 42.955711 10.819275 curveto
43.034812 10.664007 43.245749 10.420843 43.588524 10.089783 curveto
43.887350 9.8026795 44.318014 9.6591250 44.880516 9.6591187 curveto
45.182271 9.6591250 45.519184 9.8319764 45.891258 10.177673 curveto
fill
0.0000000 0.0000000 0.0000000 setrgbcolor
[] 0 setdash
0.13880663 setlinewidth
0 setlinejoin
0 setlinecap
newpath
46.980446 13.680809 moveto
51.897996 13.680809 51.897996 13.680809 51.897996 13.680809 curveto
stroke
gsave [0.11104530 0.0000000 0.0000000 0.11104530 46.980446 13.680809] concat
0.0000000 0.0000000 0.0000000 setrgbcolor
[] 0 setdash
1.2500000 setlinewidth
0 setlinejoin
0 setlinecap
newpath
0.0000000 5.6500000 moveto
0.0000000 -5.6500000 lineto
stroke
grestore
gsave [-0.15268729 0.0000000 0.0000000 -0.15268729 52.661432 13.680809] concat
0.0000000 0.0000000 0.0000000 setrgbcolor
newpath
8.7185878 4.0337352 moveto
-2.2072895 0.016013256 lineto
8.7185884 -4.0017078 lineto
6.9730900 -1.6296469 6.9831476 1.6157441 8.7185878 4.0337352 curveto
closepath
eofill
grestore
grestore
gsave [1.0000000 0.0000000 0.0000000 1.0000000 41.931780 42.481110] concat
0.0000000 0.0000000 0.0000000 setrgbcolor
newpath
44.458687 16.523397 moveto
44.458684 16.831015 44.318059 17.093222 44.036812 17.310019 curveto
43.778997 17.515097 43.491888 17.617636 43.175484 17.617636 curveto
43.070013 17.617636 42.913275 17.598593 42.705269 17.560507 curveto
42.497260 17.519491 42.340522 17.498984 42.235054 17.498983 curveto
42.123725 17.498984 42.049018 17.556112 42.010933 17.670370 curveto
41.839546 17.635214 lineto
41.795601 16.501425 lineto
41.896675 16.483847 lineto
42.157417 17.113730 42.532416 17.428671 43.021675 17.428671 curveto
43.590032 17.428671 43.874212 17.172324 43.874214 16.659628 curveto
43.874212 16.363731 43.696966 16.133750 43.342476 15.969687 curveto
43.014349 15.829063 42.684760 15.688438 42.353706 15.547812 curveto
41.999214 15.331017 41.821968 15.011681 41.821968 14.589804 curveto
41.821968 14.285120 41.971382 14.030237 42.270210 13.825155 curveto
42.533881 13.640589 42.823920 13.548304 43.140327 13.548300 curveto
43.623724 13.548304 43.988469 13.621546 44.234566 13.768026 curveto
44.291695 14.756796 lineto
44.190620 14.774374 lineto
44.003118 14.375940 43.878606 14.140100 43.817085 14.066854 curveto
43.653020 13.867639 43.415716 13.768030 43.105171 13.768026 curveto
42.905951 13.768030 42.728705 13.829554 42.573433 13.952597 curveto
42.403510 14.081506 42.318549 14.242639 42.318550 14.435995 curveto
42.318549 14.673303 42.503119 14.878381 42.872261 15.051229 curveto
43.546087 15.364708 43.888860 15.525841 43.900581 15.534628 curveto
44.272649 15.780724 44.458684 16.110313 44.458687 16.523397 curveto
fill
0.0000000 0.0000000 0.0000000 setrgbcolor
newpath
58.525772 11.825640 moveto
58.086319 12.238726 lineto
57.992566 11.822716 57.696667 11.614708 57.198624 11.614702 curveto
56.911512 11.614708 56.653700 11.701134 56.425186 11.873980 curveto
56.179091 12.061485 56.056044 12.295860 56.056046 12.577105 curveto
56.056046 13.618608 lineto
57.088760 13.618608 lineto
57.088760 13.952593 lineto
56.056046 13.952593 lineto
56.056046 16.861773 lineto
56.056044 17.236773 56.262587 17.424273 56.675674 17.424273 curveto
56.707899 17.424273 56.754774 17.424273 56.816299 17.424273 curveto
56.877821 17.421343 56.923231 17.419878 56.952530 17.419878 curveto
56.952530 17.617632 lineto
54.812393 17.617632 lineto
54.790421 17.490191 lineto
55.030654 17.416949 55.172744 17.368609 55.216690 17.345171 curveto
55.363174 17.266070 55.436416 17.147418 55.436417 16.989214 curveto
55.436417 13.952593 lineto
55.354385 13.961386 55.098037 13.940878 54.667374 13.891069 curveto
54.667374 13.719683 lineto
55.030654 13.719687 55.241592 13.685995 55.300186 13.618608 curveto
55.436417 13.618608 lineto
55.436417 13.486773 lineto
55.436416 13.015097 55.487685 12.675254 55.590225 12.467241 curveto
55.669326 12.311973 55.880263 12.068809 56.223038 11.737749 curveto
56.521864 11.450646 56.952528 11.307091 57.515030 11.307085 curveto
57.816784 11.307091 58.153698 11.479943 58.525772 11.825640 curveto
fill
0.0000000 0.0000000 0.0000000 setrgbcolor
[] 0 setdash
0.13880663 setlinewidth
0 setlinejoin
0 setlinecap
newpath
46.797382 15.511884 moveto
51.714932 15.511884 51.714932 15.511884 51.714932 15.511884 curveto
stroke
gsave [0.11104530 0.0000000 0.0000000 0.11104530 46.797382 15.511884] concat
0.0000000 0.0000000 0.0000000 setrgbcolor
[] 0 setdash
1.2500000 setlinewidth
0 setlinejoin
0 setlinecap
newpath
0.0000000 5.6500000 moveto
0.0000000 -5.6500000 lineto
stroke
grestore
gsave [-0.15268729 0.0000000 0.0000000 -0.15268729 52.478368 15.511884] concat
0.0000000 0.0000000 0.0000000 setrgbcolor
newpath
8.7185878 4.0337352 moveto
-2.2072895 0.016013256 lineto
8.7185884 -4.0017078 lineto
6.9730900 -1.6296469 6.9831476 1.6157441 8.7185878 4.0337352 curveto
closepath
eofill
grestore
grestore
grestore
showpage
