%!PS-Adobe-3.0 EPSF-3.0
%%Creator: inkscape 0.44.1
%%Pages: 1
%%Orientation: Portrait
%%BoundingBox: 13 764 141 818
%%HiResBoundingBox: 13.29449 764.76823 140.61557 817.45482
%%DocumentMedia: plain 596 842 0 () ()
%%EndComments
%%Page: 1 1
0 842 translate
0.8 -0.8 scale
gsave [1 0 0 1 0 0] concat
0 0 0 setrgbcolor
[] 0 setdash
0.35433072 setlinewidth
0 setlinejoin
1 setlinecap
newpath
18.147779 45.843429 moveto
20.68257 30.684275 25.930545 26.313544 29.862008 36.087333 curveto
33.793471 45.861121 34.927002 66.096553 32.39221 81.255707 curveto
29.857419 96.414861 24.609445 100.78559 20.677982 91.011804 curveto
16.755711 81.260868 15.61652 61.103832 18.130962 45.944412 curveto
stroke
0 0 0 setrgbcolor
[] 0 setdash
0.35433072 setlinewidth
0 setlinejoin
0 setlinecap
newpath
25.040961 30.874165 moveto
167.04154 30.874165 lineto
stroke
0 0 0 setrgbcolor
[] 0 setdash
0.35433072 setlinewidth
0 setlinejoin
0 setlinecap
newpath
25.19365 96.072279 moveto
167.19423 96.072279 lineto
stroke
gsave [1 0 0 1 141.8479 -0.152689] concat
0 0 0 setrgbcolor
[] 0 setdash
0.35433072 setlinewidth
0 setlinejoin
1 setlinecap
newpath
24.852974 30.913757 moveto
29.52508 30.026156 33.50376 43.926628 33.733956 61.941596 curveto
33.964151 79.956563 30.359122 95.297779 25.687016 96.185379 curveto
25.44227 96.231876 25.23484 96.238345 24.989931 96.207119 curveto
stroke
grestore
gsave [-1 0 0 -1 191.4367 126.9472] concat
0 0 0 setrgbcolor
[2.8346457 2.8346457] 0 setdash
0.35433072 setlinewidth
0 setlinejoin
1 setlinecap
newpath
24.852974 30.913757 moveto
29.52508 30.026156 33.50376 43.926628 33.733956 61.941596 curveto
33.964151 79.956563 30.359122 95.297779 25.687016 96.185379 curveto
25.44227 96.231876 25.23484 96.238345 24.989931 96.207119 curveto
stroke
grestore
gsave
0 0 0 setrgbcolor
newpath
100.51666 86.132744 moveto
100.13092 87.82708 lineto
94.632874 87.82708 lineto
94.632874 87.646416 lineto
95.410868 87.63665 95.799865 87.415296 95.799866 86.982353 curveto
95.799866 81.728447 lineto
95.799865 81.432229 95.692443 81.238545 95.4776 81.147392 curveto
95.353901 81.098571 95.111389 81.074157 94.750061 81.07415 curveto
94.750061 80.903252 lineto
97.850647 80.903252 lineto
97.850647 81.059502 lineto
97.777405 81.054619 lineto
97.526751 81.05137 97.295631 81.100198 97.084045 81.201103 curveto
96.817116 81.328063 96.683653 81.505472 96.683655 81.73333 curveto
96.683655 86.894463 lineto
96.683653 87.255791 96.821999 87.436455 97.098694 87.436455 curveto
99.164124 87.436455 lineto
99.483129 87.436455 99.748428 87.289971 99.960022 86.997002 curveto
100.13254 86.762628 100.25136 86.468032 100.31647 86.113213 curveto
100.51666 86.132744 lineto
fill
grestore
gsave
0 0 0 setrgbcolor
newpath
26.846903 64.948067 moveto
26.846898 65.514474 26.649958 65.952299 26.256083 66.261543 curveto
25.898006 66.544746 25.427629 66.686348 24.84495 66.686348 curveto
24.669166 66.686348 24.405494 66.653796 24.053934 66.588692 curveto
23.705625 66.523588 23.441954 66.491036 23.262918 66.491035 curveto
23.178282 66.491036 23.10504 66.52196 23.043192 66.583809 curveto
22.886942 66.583809 lineto
22.608622 64.869942 lineto
22.794168 64.806465 lineto
22.91461 65.301258 23.150613 65.695138 23.502176 65.988106 curveto
23.856992 66.281075 24.285052 66.427559 24.786356 66.427559 curveto
25.170468 66.427559 25.484595 66.300606 25.728739 66.0467 curveto
25.976131 65.792794 26.099829 65.472156 26.099833 65.084785 curveto
26.099829 64.697418 25.80035 64.288889 25.201395 63.8592 curveto
24.648007 63.471833 24.092995 63.084463 23.536356 62.69709 curveto
22.937397 62.192537 22.637918 61.655428 22.637918 61.085762 curveto
22.637918 60.610508 22.883686 60.232904 23.375223 59.95295 curveto
23.785378 59.718581 24.247617 59.601394 24.761942 59.601387 curveto
24.888892 59.601394 25.069556 59.633946 25.303934 59.699043 curveto
25.541561 59.760899 25.71897 59.791824 25.836161 59.791817 curveto
25.937068 59.791824 26.015193 59.747878 26.070536 59.659981 curveto
26.256083 59.659981 lineto
26.568583 61.720528 lineto
26.348856 61.720528 lineto
26.195857 61.115064 26.0038 60.680495 25.772684 60.416817 curveto
25.473202 60.081537 25.041887 59.913894 24.478739 59.913887 curveto
24.166237 59.913894 23.915586 60.01155 23.726786 60.206856 curveto
23.541237 60.402174 23.448464 60.657708 23.448465 60.973457 curveto
23.448464 61.364088 23.74306 61.764478 24.332254 62.174629 curveto
24.875871 62.548982 25.421118 62.923331 25.967997 63.297676 curveto
26.55393 63.798981 26.846898 64.349111 26.846903 64.948067 curveto
fill
grestore
gsave
0 0 0 setrgbcolor
newpath
fill
grestore
gsave
0 0 0 setrgbcolor
newpath
31.68577 66.129707 moveto
31.685768 66.282702 31.63043 66.414538 31.519754 66.525215 curveto
31.412331 66.632637 31.282123 66.686348 31.129129 66.686348 curveto
30.972879 66.686348 30.839415 66.632637 30.728739 66.525215 curveto
30.621316 66.414538 30.567606 66.282702 30.567606 66.129707 curveto
30.567606 65.973458 30.621316 65.841622 30.728739 65.7342 curveto
30.839415 65.623523 30.972879 65.568185 31.129129 65.568184 curveto
31.282123 65.568185 31.412331 65.623523 31.519754 65.7342 curveto
31.63043 65.841622 31.685768 65.973458 31.68577 66.129707 curveto
31.68577 62.687325 moveto
31.685768 62.840323 31.63043 62.972159 31.519754 63.082832 curveto
31.412331 63.190258 31.282123 63.243969 31.129129 63.243965 curveto
30.972879 63.243969 30.839415 63.190258 30.728739 63.082832 curveto
30.621316 62.972159 30.567606 62.840323 30.567606 62.687325 curveto
30.567606 62.531079 30.621316 62.399243 30.728739 62.291817 curveto
30.839415 62.181144 30.972879 62.125806 31.129129 62.125801 curveto
31.282123 62.125806 31.412331 62.181144 31.519754 62.291817 curveto
31.63043 62.399243 31.685768 62.531079 31.68577 62.687325 curveto
fill
grestore
gsave
0 0 0 setrgbcolor
newpath
fill
grestore
gsave
0 0 0 setrgbcolor
newpath
40.167215 64.948067 moveto
40.167211 65.514474 39.970271 65.952299 39.576395 66.261543 curveto
39.218318 66.544746 38.747941 66.686348 38.165262 66.686348 curveto
37.989478 66.686348 37.725807 66.653796 37.374247 66.588692 curveto
37.025938 66.523588 36.762266 66.491036 36.583231 66.491035 curveto
36.498595 66.491036 36.425352 66.52196 36.363504 66.583809 curveto
36.207254 66.583809 lineto
35.928934 64.869942 lineto
36.114481 64.806465 lineto
36.234923 65.301258 36.470925 65.695138 36.822489 65.988106 curveto
37.177305 66.281075 37.605364 66.427559 38.106668 66.427559 curveto
38.49078 66.427559 38.804907 66.300606 39.049051 66.0467 curveto
39.296443 65.792794 39.420141 65.472156 39.420145 65.084785 curveto
39.420141 64.697418 39.120662 64.288889 38.521708 63.8592 curveto
37.96832 63.471833 37.413307 63.084463 36.856668 62.69709 curveto
36.257709 62.192537 35.95823 61.655428 35.958231 61.085762 curveto
35.95823 60.610508 36.203998 60.232904 36.695536 59.95295 curveto
37.10569 59.718581 37.567929 59.601394 38.082254 59.601387 curveto
38.209205 59.601394 38.389869 59.633946 38.624247 59.699043 curveto
38.861873 59.760899 39.039282 59.791824 39.156473 59.791817 curveto
39.257381 59.791824 39.335506 59.747878 39.390848 59.659981 curveto
39.576395 59.659981 lineto
39.888895 61.720528 lineto
39.669168 61.720528 lineto
39.51617 61.115064 39.324113 60.680495 39.092997 60.416817 curveto
38.793514 60.081537 38.362199 59.913894 37.799051 59.913887 curveto
37.486549 59.913894 37.235898 60.01155 37.047098 60.206856 curveto
36.86155 60.402174 36.768777 60.657708 36.768778 60.973457 curveto
36.768777 61.364088 37.063373 61.764478 37.652567 62.174629 curveto
38.196184 62.548982 38.741431 62.923331 39.288309 63.297676 curveto
39.874242 63.798981 40.167211 64.349111 40.167215 64.948067 curveto
fill
grestore
gsave
0 0 0 setrgbcolor
newpath
44.381083 65.402168 moveto
43.977433 66.261544 43.337785 66.691231 42.462137 66.691231 curveto
41.898985 66.691231 41.423725 66.445463 41.036356 65.953926 curveto
40.675028 65.494943 40.494364 64.977365 40.494364 64.401192 curveto
40.494364 63.746898 40.67991 63.196768 41.051004 62.750801 curveto
41.448139 62.275545 41.967344 62.037915 42.608622 62.03791 curveto
43.119687 62.037915 43.533098 62.192537 43.848856 62.501778 curveto
44.167863 62.811026 44.327368 63.22281 44.327372 63.737129 curveto
41.173075 63.737129 lineto
41.156798 63.873851 41.14866 64.013825 41.148661 64.157051 curveto
41.14866 64.642079 41.296772 65.088042 41.592997 65.494942 curveto
41.918516 65.947416 42.315651 66.173653 42.784403 66.173653 curveto
43.396379 66.173653 43.861873 65.898588 44.180887 65.348457 curveto
44.21995 65.348457 lineto
44.29156 65.345203 44.345271 65.363107 44.381083 65.402168 curveto
43.580301 63.458809 moveto
43.567277 63.126781 43.451718 62.856599 43.233622 62.648262 curveto
43.01552 62.436678 42.738828 62.330883 42.403543 62.330879 curveto
42.126849 62.330883 41.881081 62.452954 41.666239 62.69709 curveto
41.477436 62.911938 41.348855 63.165844 41.280497 63.458809 curveto
43.580301 63.458809 lineto
fill
grestore
gsave
0 0 0 setrgbcolor
newpath
48.71702 65.402168 moveto
48.313371 66.261544 47.673723 66.691231 46.798075 66.691231 curveto
46.234922 66.691231 45.758035 66.464994 45.367411 66.01252 curveto
44.993061 65.579578 44.805887 65.076649 44.805887 64.503731 curveto
44.805887 63.787588 45.053283 63.196768 45.548075 62.73127 curveto
46.033099 62.275545 46.63694 62.047681 47.359598 62.047676 curveto
47.574439 62.047681 47.82509 62.114412 48.111551 62.247871 curveto
48.440324 62.39436 48.604711 62.552237 48.604715 62.721504 curveto
48.604711 63.030753 48.458227 63.185375 48.165262 63.185371 curveto
47.982967 63.185375 47.864152 63.112133 47.808817 62.965645 curveto
47.756731 62.82893 47.706275 62.692211 47.65745 62.555489 curveto
47.550025 62.405753 47.34332 62.330883 47.037333 62.330879 curveto
46.545794 62.330883 46.16168 62.553865 45.884989 62.999825 curveto
45.653868 63.377432 45.538308 63.828278 45.538309 64.352364 curveto
45.538308 64.788563 45.691303 65.195464 45.997293 65.573067 curveto
46.322813 65.973458 46.697161 66.173653 47.12034 66.173653 curveto
47.729061 66.173653 48.194556 65.898588 48.516825 65.348457 curveto
48.650284 65.345203 48.717016 65.363107 48.71702 65.402168 curveto
fill
grestore
gsave
0 0 0 setrgbcolor
newpath
52.134989 65.743965 moveto
51.845273 66.316882 51.44651 66.60334 50.9387 66.60334 curveto
50.635964 66.60334 50.382058 66.510567 50.176981 66.32502 curveto
49.962136 66.129708 49.854715 65.882312 49.854715 65.582832 curveto
49.854715 62.521309 lineto
49.381083 62.521309 lineto
49.30784 62.282051 lineto
49.662658 62.148592 49.921446 61.948397 50.084208 61.681465 curveto
50.204649 61.486158 50.312071 61.170403 50.406473 60.7342 curveto
50.577372 60.7342 lineto
50.577372 62.135567 lineto
52.134989 62.135567 lineto
51.929911 62.521309 lineto
50.577372 62.521309 lineto
50.577372 65.284981 lineto
50.57737 65.454253 50.665261 65.636544 50.841043 65.831856 curveto
51.016823 66.027169 51.189349 66.124825 51.358622 66.124825 curveto
51.472552 66.124825 51.614153 66.035307 51.783426 65.85627 curveto
51.95595 65.673979 52.042213 65.582833 52.042215 65.582832 curveto
52.107317 65.582833 52.138241 65.636544 52.134989 65.743965 curveto
fill
grestore
gsave
0 0 0 setrgbcolor
newpath
55.15745 66.60334 moveto
52.916239 66.60334 lineto
52.896708 66.564278 lineto
52.926004 66.41291 lineto
53.157124 66.412911 53.321512 66.380359 53.419168 66.315254 curveto
53.53961 66.233874 53.599832 66.077625 53.599833 65.846504 curveto
53.599833 62.931465 lineto
53.599832 62.693839 53.482644 62.575024 53.24827 62.57502 curveto
53.160379 62.575024 53.05784 62.589672 52.940653 62.618965 curveto
52.818583 62.423653 lineto
53.437071 62.251131 53.900938 62.067212 54.210184 61.871895 curveto
54.390848 62.003731 lineto
54.390848 65.861153 lineto
54.390846 66.180163 54.63987 66.354317 55.137918 66.383614 curveto
55.15745 66.60334 lineto
54.449442 60.35334 moveto
54.44944 60.49332 54.400612 60.613763 54.302958 60.714668 curveto
54.2053 60.81233 54.086485 60.861158 53.946512 60.861153 curveto
53.806537 60.861158 53.687722 60.81233 53.590067 60.714668 curveto
53.49241 60.613763 53.443582 60.49332 53.443583 60.35334 curveto
53.443582 60.213373 53.49241 60.094558 53.590067 59.996895 curveto
53.687722 59.899245 53.806537 59.850417 53.946512 59.85041 curveto
54.086485 59.850417 54.2053 59.899245 54.302958 59.996895 curveto
54.400612 60.094558 54.44944 60.213373 54.449442 60.35334 curveto
fill
grestore
gsave
0 0 0 setrgbcolor
newpath
60.035379 64.376778 moveto
60.035375 65.053863 59.818904 65.603992 59.385965 66.027168 curveto
58.956274 66.450346 58.401262 66.661934 57.720926 66.661934 curveto
57.10569 66.661934 56.573464 66.445463 56.124247 66.01252 curveto
55.678283 65.576323 55.455301 65.052235 55.455301 64.440254 curveto
55.455301 63.740387 55.660379 63.170726 56.070536 62.73127 curveto
56.483946 62.291821 57.038959 62.072095 57.735575 62.07209 curveto
58.399634 62.072095 58.948136 62.290193 59.381083 62.726387 curveto
59.817276 63.162588 60.035375 63.712718 60.035379 64.376778 curveto
59.15159 64.806465 moveto
59.151587 64.161936 59.050675 63.6232 58.848856 63.190254 curveto
58.578671 62.610831 58.158749 62.321118 57.58909 62.321114 curveto
57.078021 62.321118 56.724831 62.526196 56.52952 62.936348 curveto
56.3928 63.22281 56.324441 63.654124 56.324442 64.230293 curveto
56.324441 64.757639 56.453022 65.232899 56.710184 65.656075 curveto
57.009662 66.147611 57.406797 66.393379 57.90159 66.393379 curveto
58.73492 66.393379 59.151587 65.864409 59.15159 64.806465 curveto
fill
grestore
gsave
0 0 0 setrgbcolor
newpath
65.699442 66.60334 moveto
63.497293 66.60334 lineto
63.497293 66.383614 lineto
63.946509 66.383614 64.171118 66.163887 64.171122 65.724434 curveto
64.171122 63.502754 lineto
64.171118 63.219554 64.112524 62.977042 63.99534 62.775215 curveto
63.852108 62.534334 63.648657 62.413891 63.384989 62.413887 curveto
62.965064 62.413891 62.450742 62.633618 61.84202 63.073067 curveto
61.84202 65.861153 lineto
61.842019 66.180163 62.092669 66.354317 62.593973 66.383614 curveto
62.564676 66.60334 lineto
60.455301 66.60334 lineto
60.43577 66.564278 lineto
60.465067 66.41291 lineto
60.670145 66.412911 60.83616 66.329903 60.963114 66.163887 curveto
61.080301 66.014148 61.138894 65.833484 61.138895 65.621895 curveto
61.138895 62.931465 lineto
61.138894 62.814281 61.036355 62.721508 60.831278 62.653145 curveto
60.805236 62.643383 60.648986 62.607576 60.362528 62.545723 curveto
60.362528 62.423653 lineto
60.509012 62.404126 60.741759 62.326001 61.06077 62.189278 curveto
61.360248 62.059074 61.560443 61.95328 61.661356 61.871895 curveto
61.84202 62.003731 lineto
61.84202 62.882637 lineto
62.802304 62.277173 63.464738 61.974439 63.829325 61.974434 curveto
64.184139 61.974439 64.459203 62.135571 64.65452 62.457832 curveto
64.820531 62.728019 64.903539 63.050284 64.903543 63.424629 curveto
64.903543 65.963692 lineto
64.903539 66.230619 65.159073 66.364083 65.670145 66.364082 curveto
65.699442 66.60334 lineto
fill
grestore
gsave
0 0 0 setrgbcolor
newpath
95.149673 66.756027 moveto
92.537369 66.756027 lineto
92.537369 66.599777 lineto
92.700123 66.599777 92.890552 66.52328 93.108658 66.370285 curveto
93.33977 66.207525 93.450447 66.04802 93.440689 65.891769 curveto
93.054947 61.018723 lineto
90.594009 66.756027 lineto
90.344986 66.756027 lineto
87.771744 60.833176 lineto
87.454361 66.057785 lineto
87.45436 66.214036 87.581313 66.347499 87.83522 66.458176 curveto
88.046807 66.552577 88.243747 66.599777 88.426041 66.599777 curveto
88.440689 66.756027 lineto
86.267838 66.756027 lineto
86.253189 66.599777 lineto
86.764256 66.599777 87.032811 66.36703 87.058853 65.901535 curveto
87.361588 60.613449 lineto
87.361586 60.408377 87.270441 60.253755 87.08815 60.149582 curveto
86.93841 60.064953 86.754491 60.022636 86.536392 60.022629 curveto
86.541275 59.798019 lineto
88.191666 59.798019 lineto
90.652603 65.525558 lineto
93.113541 59.798019 lineto
94.661392 59.798019 lineto
94.661392 60.022629 lineto
94.622321 60.022636 94.563728 60.021008 94.485611 60.017746 curveto
94.407478 60.014498 94.347256 60.01287 94.304947 60.012863 curveto
93.982673 60.01287 93.831306 60.141451 93.850845 60.398605 curveto
94.251236 66.233566 lineto
94.260993 66.337733 94.389574 66.425624 94.636978 66.497238 curveto
94.832282 66.552577 95.00318 66.580246 95.149673 66.580246 curveto
95.149673 66.756027 lineto
fill
grestore
gsave
0 0 0 setrgbcolor
newpath
100.04225 66.267746 moveto
99.716727 66.505376 99.550711 66.627447 99.544205 66.633957 curveto
99.332612 66.764165 99.1373 66.829269 98.958267 66.829269 curveto
98.678316 66.829269 98.486259 66.616053 98.382095 66.189621 curveto
97.988213 66.47608 97.770114 66.630702 97.727798 66.653488 curveto
97.512953 66.773931 97.265557 66.834152 96.985611 66.834152 curveto
96.708917 66.834152 96.474542 66.739751 96.282486 66.550949 curveto
96.093683 66.358892 95.999282 66.126145 95.999283 65.852707 curveto
95.999282 65.510911 96.134373 65.230964 96.404556 65.012863 curveto
96.564061 64.885912 96.848891 64.7378 97.259048 64.568527 curveto
98.362564 64.114426 lineto
98.362564 63.386887 lineto
98.362561 63.129729 98.269788 62.913258 98.084244 62.737473 curveto
97.90195 62.561695 97.680596 62.473805 97.420181 62.473801 curveto
97.006768 62.473805 96.800063 62.693531 96.800064 63.13298 curveto
96.800063 63.162281 96.806573 63.201343 96.819595 63.250168 curveto
96.832615 63.298999 96.839125 63.336434 96.839127 63.362473 curveto
96.839125 63.482919 96.74798 63.59034 96.565689 63.684738 curveto
96.406183 63.769377 96.259699 63.811694 96.126236 63.811691 curveto
96.070897 63.811694 96.043228 63.766121 96.043228 63.674973 curveto
96.043228 63.242033 96.225519 62.887216 96.590103 62.610519 curveto
96.922133 62.356618 97.312758 62.229665 97.761978 62.22966 curveto
98.211194 62.229665 98.53997 62.312672 98.748306 62.478683 curveto
98.979423 62.660979 99.094982 62.970224 99.094986 63.406418 curveto
99.094986 65.921066 lineto
99.094982 66.201015 99.191011 66.340989 99.383072 66.340988 curveto
99.503511 66.340989 99.719982 66.249843 100.03249 66.067551 curveto
100.04225 66.267746 lineto
98.367447 65.862473 moveto
98.362564 64.397629 lineto
97.371353 64.832199 lineto
96.925388 65.027513 96.702407 65.341641 96.702408 65.774582 curveto
96.702407 65.96013 96.762628 66.108241 96.883072 66.218918 curveto
97.003513 66.329595 97.156508 66.384934 97.342056 66.384933 curveto
97.534112 66.384934 97.719658 66.331223 97.898697 66.223801 curveto
97.97682 66.174973 98.133069 66.054531 98.367447 65.862473 curveto
fill
grestore
gsave
0 0 0 setrgbcolor
newpath
102.90846 65.896652 moveto
102.61875 66.469569 102.21998 66.756027 101.71217 66.756027 curveto
101.40944 66.756027 101.15553 66.663254 100.95045 66.477707 curveto
100.73561 66.282395 100.62819 66.034999 100.62819 65.735519 curveto
100.62819 62.673996 lineto
100.15456 62.673996 lineto
100.08131 62.434738 lineto
100.43613 62.301279 100.69492 62.101084 100.85768 61.834152 curveto
100.97812 61.638845 101.08554 61.32309 101.17995 60.886887 curveto
101.35085 60.886887 lineto
101.35085 62.288254 lineto
102.90846 62.288254 lineto
102.70338 62.673996 lineto
101.35085 62.673996 lineto
101.35085 65.437668 lineto
101.35084 65.60694 101.43873 65.789231 101.61452 65.984543 curveto
101.7903 66.179856 101.96282 66.277512 102.1321 66.277512 curveto
102.24603 66.277512 102.38763 66.187994 102.5569 66.008957 curveto
102.72942 65.826666 102.81569 65.73552 102.81569 65.735519 curveto
102.88079 65.73552 102.91171 65.789231 102.90846 65.896652 curveto
fill
grestore
gsave
0 0 0 setrgbcolor
newpath
105.93092 66.756027 moveto
103.68971 66.756027 lineto
103.67018 66.716965 lineto
103.69948 66.565598 lineto
103.9306 66.565598 104.09499 66.533046 104.19264 66.467941 curveto
104.31308 66.386561 104.37331 66.230312 104.37331 65.999191 curveto
104.37331 63.084152 lineto
104.37331 62.846526 104.25612 62.727711 104.02174 62.727707 curveto
103.93385 62.727711 103.83131 62.742359 103.71413 62.771652 curveto
103.59206 62.57634 lineto
104.21055 62.403818 104.67441 62.219899 104.98366 62.024582 curveto
105.16432 62.156418 lineto
105.16432 66.01384 lineto
105.16432 66.332851 105.41334 66.507004 105.91139 66.536301 curveto
105.93092 66.756027 lineto
105.22292 60.506027 moveto
105.22291 60.646007 105.17409 60.76645 105.07643 60.867355 curveto
104.97877 60.965017 104.85996 61.013845 104.71999 61.01384 curveto
104.58001 61.013845 104.4612 60.965017 104.36354 60.867355 curveto
104.26588 60.76645 104.21706 60.646007 104.21706 60.506027 curveto
104.21706 60.36606 104.26588 60.247245 104.36354 60.149582 curveto
104.4612 60.051932 104.58001 60.003104 104.71999 60.003098 curveto
104.85996 60.003104 104.97877 60.051932 105.07643 60.149582 curveto
105.17409 60.247245 105.22291 60.36606 105.22292 60.506027 curveto
fill
grestore
gsave
0 0 0 setrgbcolor
newpath
110.13503 65.554855 moveto
109.73138 66.414231 109.09173 66.843918 108.21608 66.843918 curveto
107.65293 66.843918 107.17767 66.59815 106.7903 66.106613 curveto
106.42897 65.64763 106.24831 65.130052 106.24831 64.553879 curveto
106.24831 63.899585 106.43385 63.349455 106.80495 62.903488 curveto
107.20208 62.428232 107.72129 62.190602 108.36256 62.190598 curveto
108.87363 62.190602 109.28704 62.345224 109.6028 62.654465 curveto
109.92181 62.963713 110.08131 63.375497 110.08131 63.889816 curveto
106.92702 63.889816 lineto
106.91074 64.026538 106.9026 64.166512 106.9026 64.309738 curveto
106.9026 64.794766 107.05071 65.240729 107.34694 65.647629 curveto
107.67246 66.100103 108.06959 66.32634 108.53835 66.32634 curveto
109.15032 66.32634 109.61582 66.051275 109.93483 65.501144 curveto
109.97389 65.501144 lineto
110.0455 65.49789 110.09921 65.515794 110.13503 65.554855 curveto
109.33424 63.611496 moveto
109.32122 63.279468 109.20566 63.009286 108.98756 62.800949 curveto
108.76946 62.589365 108.49277 62.483571 108.15749 62.483566 curveto
107.88079 62.483571 107.63502 62.605641 107.42018 62.849777 curveto
107.23138 63.064625 107.1028 63.318531 107.03444 63.611496 curveto
109.33424 63.611496 lineto
108.68971 61.673019 moveto
108.57253 61.819504 lineto
107.09303 60.003098 lineto
107.94264 59.715012 lineto
108.68971 61.673019 lineto
fill
grestore
gsave
0 0 0 setrgbcolor
newpath
113.79225 62.395676 moveto
113.78248 62.581227 113.68157 62.831877 113.48952 63.147629 curveto
113.08587 62.939299 112.80755 62.835133 112.65456 62.835129 curveto
112.45924 62.835133 112.28672 62.929534 112.13698 63.118332 curveto
112.02304 63.290861 111.91074 63.463387 111.80006 63.63591 curveto
111.80006 66.057785 lineto
111.80006 66.409348 112.01979 66.585129 112.45924 66.585129 curveto
112.50156 66.585129 112.56178 66.583501 112.63991 66.580246 curveto
112.71803 66.576991 112.77337 66.575363 112.80592 66.575363 curveto
112.82545 66.756027 lineto
110.40846 66.756027 lineto
110.40846 66.614426 lineto
110.86745 66.601405 111.09694 66.415858 111.09694 66.057785 curveto
111.09694 63.196457 lineto
111.09694 63.004403 110.86256 62.857919 110.39381 62.757004 curveto
110.39381 62.57634 lineto
110.68027 62.543792 111.08555 62.377776 111.60963 62.078293 curveto
111.80006 62.117355 lineto
111.80006 63.269699 lineto
112.19069 62.540537 112.53899 62.175954 112.84499 62.175949 curveto
113.00123 62.175954 113.31699 62.249196 113.79225 62.395676 curveto
fill
grestore
gsave
0 0 0 setrgbcolor
newpath
118.00612 65.554855 moveto
117.60247 66.414231 116.96282 66.843918 116.08717 66.843918 curveto
115.52402 66.843918 115.04876 66.59815 114.66139 66.106613 curveto
114.30006 65.64763 114.1194 65.130052 114.1194 64.553879 curveto
114.1194 63.899585 114.30495 63.349455 114.67604 62.903488 curveto
115.07318 62.428232 115.59238 62.190602 116.23366 62.190598 curveto
116.74472 62.190602 117.15813 62.345224 117.47389 62.654465 curveto
117.7929 62.963713 117.9524 63.375497 117.95241 63.889816 curveto
114.79811 63.889816 lineto
114.78183 64.026538 114.7737 64.166512 114.7737 64.309738 curveto
114.7737 64.794766 114.92181 65.240729 115.21803 65.647629 curveto
115.54355 66.100103 115.94069 66.32634 116.40944 66.32634 curveto
117.02142 66.32634 117.48691 66.051275 117.80592 65.501144 curveto
117.84499 65.501144 lineto
117.9166 65.49789 117.97031 65.515794 118.00612 65.554855 curveto
117.20534 63.611496 moveto
117.19231 63.279468 117.07675 63.009286 116.85866 62.800949 curveto
116.64056 62.589365 116.36386 62.483571 116.02858 62.483566 curveto
115.75189 62.483571 115.50612 62.605641 115.29128 62.849777 curveto
115.10247 63.064625 114.97389 63.318531 114.90553 63.611496 curveto
117.20534 63.611496 lineto
fill
grestore
gsave
0 0 0 setrgbcolor
newpath
fill
grestore
gsave
0 0 0 setrgbcolor
newpath
122.96706 66.282394 moveto
122.96705 66.43539 122.91172 66.567225 122.80104 66.677902 curveto
122.69362 66.785324 122.56341 66.839035 122.41042 66.839035 curveto
122.25416 66.839035 122.1207 66.785324 122.01003 66.677902 curveto
121.9026 66.567225 121.84889 66.43539 121.84889 66.282394 curveto
121.84889 66.126145 121.9026 65.994309 122.01003 65.886887 curveto
122.1207 65.77621 122.25416 65.720872 122.41042 65.720871 curveto
122.56341 65.720872 122.69362 65.77621 122.80104 65.886887 curveto
122.91172 65.994309 122.96705 66.126145 122.96706 66.282394 curveto
122.96706 62.840012 moveto
122.96705 62.99301 122.91172 63.124846 122.80104 63.235519 curveto
122.69362 63.342945 122.56341 63.396656 122.41042 63.396652 curveto
122.25416 63.396656 122.1207 63.342945 122.01003 63.235519 curveto
121.9026 63.124846 121.84889 62.99301 121.84889 62.840012 curveto
121.84889 62.683766 121.9026 62.55193 122.01003 62.444504 curveto
122.1207 62.333831 122.25416 62.278493 122.41042 62.278488 curveto
122.56341 62.278493 122.69362 62.333831 122.80104 62.444504 curveto
122.91172 62.55193 122.96705 62.683766 122.96706 62.840012 curveto
fill
grestore
gsave
0 0 0 setrgbcolor
newpath
fill
grestore
gsave
0 0 0 setrgbcolor
newpath
131.64381 64.216965 moveto
131.64381 64.864753 131.40618 65.455573 130.93092 65.989426 curveto
130.43613 66.539556 129.86972 66.814621 129.2317 66.814621 curveto
128.89316 66.814621 128.56276 66.721848 128.24049 66.536301 curveto
128.24049 69.10466 lineto
127.53737 69.10466 lineto
127.53737 64.207199 lineto
127.53737 63.406421 127.77012 62.854664 128.23561 62.551926 curveto
128.60019 62.3143 129.19915 62.195485 130.03249 62.19548 curveto
130.50774 62.195485 130.90325 62.420094 131.21901 62.869308 curveto
131.50221 63.272958 131.64381 63.722176 131.64381 64.216965 curveto
130.96022 64.505051 moveto
130.96022 64.039559 130.83815 63.621265 130.59401 63.250168 curveto
130.31731 62.826995 129.95761 62.615406 129.51491 62.615402 curveto
129.11126 62.615406 128.79713 62.727711 128.57253 62.952316 curveto
128.35117 63.173674 128.24049 63.487801 128.24049 63.894699 curveto
128.24049 65.803879 lineto
128.6539 66.21078 129.11614 66.414231 129.62721 66.41423 curveto
129.78997 66.414231 129.97389 66.340989 130.17897 66.194504 curveto
130.35475 66.067551 130.49798 65.92595 130.60866 65.769699 curveto
130.84303 65.431159 130.96022 65.00961 130.96022 64.505051 curveto
fill
grestore
0 0 0 setrgbcolor
[] 0 setdash
0.17716534 setlinewidth
0 setlinejoin
0 setlinecap
newpath
25.040961 89.048595 moveto
167.04154 89.048595 lineto
stroke
gsave [0.17716534 0 0 0.17716534 25.040961 89.048595] concat
1 1 1 setrgbcolor
[] 0 setdash
1.15 setlinewidth
0 setlinejoin
2 setlinecap
newpath
0 0 moveto
2 0 lineto
stroke
gsave
0 0 0 setrgbcolor
newpath
0 0 moveto
13 4 lineto
9 0 lineto
13 -4 lineto
0 0 lineto
closepath
eofill
grestore
0 0 0 setrgbcolor
[] 0 setdash
1 setlinewidth
0 setlinejoin
2 setlinecap
newpath
0 -4 moveto
0 40 lineto
stroke
grestore
gsave [0.17716534 0 0 0.17716534 167.04154 89.048595] concat
1 1 1 setrgbcolor
[] 0 setdash
1.15 setlinewidth
0 setlinejoin
2 setlinecap
newpath
0 0 moveto
-2 0 lineto
stroke
gsave
0 0 0 setrgbcolor
newpath
0 0 moveto
-13 4 lineto
-9 0 lineto
-13 -4 lineto
0 0 lineto
closepath
eofill
grestore
0 0 0 setrgbcolor
[] 0 setdash
1 setlinewidth
0 setlinejoin
2 setlinecap
newpath
0 -4 moveto
0 40 lineto
stroke
grestore
gsave
0 0 0 setrgbcolor
newpath
73.638145 43.069736 moveto
73.584435 43.074619 lineto
73.275184 43.08113 72.920366 42.978591 72.519981 42.767002 curveto
72.122841 42.552159 71.844521 42.312901 71.68502 42.049229 curveto
70.53756 40.15958 lineto
70.381306 40.185625 70.226684 40.198646 70.073692 40.198643 curveto
69.84908 40.198646 69.552857 40.149818 69.18502 40.052158 curveto
69.180138 42.078526 lineto
69.180136 42.37475 69.295695 42.599359 69.526817 42.752354 curveto
69.728638 42.885817 69.982544 42.944411 70.288536 42.928135 curveto
70.322716 43.064854 lineto
70.317833 43.113682 lineto
67.349083 43.113682 lineto
67.37838 42.898838 lineto
67.432091 42.898838 lineto
67.764121 42.902093 67.995241 42.838617 68.12545 42.708408 curveto
68.258913 42.574945 68.325644 42.342198 68.325645 42.010166 curveto
68.325645 36.985752 lineto
68.325644 36.549561 68.009889 36.334717 67.37838 36.341221 curveto
67.37838 36.160557 lineto
67.830853 36.098715 68.496543 36.06779 69.37545 36.067783 curveto
70.352009 36.06779 71.073037 36.160564 71.538536 36.346104 curveto
72.277463 36.639079 72.646929 37.197347 72.646935 38.020908 curveto
72.646929 38.434324 72.518348 38.811928 72.261192 39.153721 curveto
72.026812 39.46948 71.712685 39.721758 71.31881 39.910557 curveto
72.798302 42.205479 lineto
73.065223 42.615635 73.333777 42.822341 73.603966 42.825596 curveto
73.638145 43.069736 lineto
71.621544 38.020908 moveto
71.621539 37.552164 71.47831 37.151774 71.191856 36.819736 curveto
70.889118 36.474691 70.506632 36.302165 70.044395 36.302158 curveto
69.933716 36.302165 69.790487 36.315186 69.614708 36.341221 curveto
69.390096 36.370524 69.246867 36.388428 69.18502 36.394932 curveto
69.18502 39.788486 lineto
69.406372 39.850339 69.733521 39.881263 70.166466 39.88126 curveto
70.67753 39.881263 71.058389 39.690834 71.309044 39.309971 curveto
71.517373 38.990965 71.621539 38.561277 71.621544 38.020908 curveto
fill
grestore
gsave
0 0 0 setrgbcolor
newpath
77.72506 41.888096 moveto
77.32141 42.747471 76.681762 43.177158 75.806114 43.177158 curveto
75.242962 43.177158 74.767702 42.93139 74.380333 42.439854 curveto
74.019005 41.98087 73.838341 41.463293 73.838341 40.887119 curveto
73.838341 40.232825 74.023887 39.682696 74.394981 39.236729 curveto
74.792116 38.761473 75.311321 38.523843 75.952599 38.523838 curveto
76.463664 38.523843 76.877075 38.678465 77.192833 38.987705 curveto
77.51184 39.296954 77.671345 39.708737 77.671349 40.223057 curveto
74.517052 40.223057 lineto
74.500775 40.359778 74.492637 40.499752 74.492638 40.642979 curveto
74.492637 41.128007 74.640749 41.57397 74.936974 41.980869 curveto
75.262493 42.433344 75.659628 42.659581 76.12838 42.65958 curveto
76.740356 42.659581 77.20585 42.384516 77.524864 41.834385 curveto
77.563927 41.834385 lineto
77.635537 41.831131 77.689248 41.849035 77.72506 41.888096 curveto
76.924278 39.944736 moveto
76.911254 39.612709 76.795694 39.342527 76.577599 39.13419 curveto
76.359497 38.922605 76.082805 38.816811 75.74752 38.816807 curveto
75.470826 38.816811 75.225058 38.938881 75.010216 39.183018 curveto
74.821413 39.397865 74.692832 39.651771 74.624474 39.944736 curveto
76.924278 39.944736 lineto
77.06588 36.336338 moveto
75.581505 38.152744 lineto
75.464317 38.00626 lineto
76.21627 36.048252 lineto
77.06588 36.336338 lineto
fill
grestore
gsave
0 0 0 setrgbcolor
newpath
81.343224 41.873447 moveto
81.34322 42.215245 81.18697 42.506586 80.874474 42.747471 curveto
80.588013 42.975336 80.269002 43.089268 79.917442 43.089268 curveto
79.800253 43.089268 79.626099 43.068109 79.394981 43.025791 curveto
79.16386 42.980218 78.989707 42.957432 78.87252 42.957432 curveto
78.748822 42.957432 78.665814 43.020908 78.623497 43.147861 curveto
78.433067 43.108799 lineto
78.384239 41.849033 lineto
78.496544 41.829502 lineto
78.786257 42.529372 79.202923 42.879307 79.746544 42.879307 curveto
80.378052 42.879307 80.693807 42.594477 80.69381 42.024815 curveto
80.693807 41.69604 80.496867 41.440506 80.102989 41.258213 curveto
79.738404 41.101965 79.372193 40.945715 79.004356 40.789463 curveto
78.610475 40.54858 78.413536 40.193763 78.413536 39.72501 curveto
78.413536 39.386472 78.579551 39.103269 78.911583 38.875401 curveto
79.20455 38.670327 79.526816 38.567788 79.87838 38.567783 curveto
80.415487 38.567788 80.82076 38.649168 81.0942 38.811924 curveto
81.157677 39.910557 lineto
81.045372 39.930088 lineto
80.837036 39.487383 80.69869 39.225339 80.630333 39.143955 curveto
80.448039 38.922605 80.184367 38.811928 79.839317 38.811924 curveto
79.617961 38.811928 79.421022 38.880288 79.248497 39.017002 curveto
79.059694 39.160235 78.965293 39.339271 78.965294 39.554111 curveto
78.965293 39.817787 79.170371 40.045651 79.580528 40.237705 curveto
80.329224 40.586015 80.710083 40.765051 80.723106 40.774815 curveto
81.136515 41.048254 81.34322 41.414465 81.343224 41.873447 curveto
fill
grestore
gsave
0 0 0 setrgbcolor
newpath
84.49752 43.089268 moveto
82.25631 43.089268 lineto
82.236778 43.050205 lineto
82.266075 42.898838 lineto
82.497194 42.898838 82.661582 42.866286 82.759239 42.801182 curveto
82.879681 42.719802 82.939902 42.563552 82.939903 42.332432 curveto
82.939903 39.417393 lineto
82.939902 39.179766 82.822715 39.060951 82.588341 39.060947 curveto
82.50045 39.060951 82.397911 39.0756 82.280724 39.104893 curveto
82.158653 38.90958 lineto
82.777142 38.737059 83.241009 38.553139 83.550255 38.357822 curveto
83.730919 38.489658 lineto
83.730919 42.34708 lineto
83.730917 42.666091 83.97994 42.840245 84.477989 42.869541 curveto
84.49752 43.089268 lineto
83.789513 36.839268 moveto
83.789511 36.979248 83.740683 37.09969 83.643028 37.200596 curveto
83.545371 37.298258 83.426556 37.347086 83.286583 37.34708 curveto
83.146608 37.347086 83.027793 37.298258 82.930138 37.200596 curveto
82.832481 37.09969 82.783653 36.979248 82.783653 36.839268 curveto
82.783653 36.6993 82.832481 36.580485 82.930138 36.482822 curveto
83.027793 36.385173 83.146608 36.336345 83.286583 36.336338 curveto
83.426556 36.336345 83.545371 36.385173 83.643028 36.482822 curveto
83.740683 36.580485 83.789511 36.6993 83.789513 36.839268 curveto
fill
grestore
gsave
0 0 0 setrgbcolor
newpath
88.15963 41.873447 moveto
88.159626 42.215245 88.003377 42.506586 87.69088 42.747471 curveto
87.404419 42.975336 87.085409 43.089268 86.733849 43.089268 curveto
86.616659 43.089268 86.442506 43.068109 86.211388 43.025791 curveto
85.980267 42.980218 85.806113 42.957432 85.688927 42.957432 curveto
85.565228 42.957432 85.48222 43.020908 85.439903 43.147861 curveto
85.249474 43.108799 lineto
85.200645 41.849033 lineto
85.31295 41.829502 lineto
85.602663 42.529372 86.019329 42.879307 86.56295 42.879307 curveto
87.194458 42.879307 87.510213 42.594477 87.510216 42.024815 curveto
87.510213 41.69604 87.313273 41.440506 86.919395 41.258213 curveto
86.55481 41.101965 86.1886 40.945715 85.820763 40.789463 curveto
85.426882 40.54858 85.229942 40.193763 85.229942 39.72501 curveto
85.229942 39.386472 85.395957 39.103269 85.727989 38.875401 curveto
86.020957 38.670327 86.343222 38.567788 86.694786 38.567783 curveto
87.231893 38.567788 87.637166 38.649168 87.910606 38.811924 curveto
87.974083 39.910557 lineto
87.861778 39.930088 lineto
87.653442 39.487383 87.515096 39.225339 87.446739 39.143955 curveto
87.264445 38.922605 87.000773 38.811928 86.655724 38.811924 curveto
86.434368 38.811928 86.237428 38.880288 86.064903 39.017002 curveto
85.8761 39.160235 85.781699 39.339271 85.7817 39.554111 curveto
85.781699 39.817787 85.986777 40.045651 86.396935 40.237705 curveto
87.14563 40.586015 87.526489 40.765051 87.539513 40.774815 curveto
87.952921 41.048254 88.159626 41.414465 88.15963 41.873447 curveto
fill
grestore
gsave
0 0 0 setrgbcolor
newpath
91.768028 42.229893 moveto
91.478312 42.80281 91.079549 43.089268 90.571739 43.089268 curveto
90.269003 43.089268 90.015097 42.996494 89.81002 42.810947 curveto
89.595176 42.615635 89.487754 42.36824 89.487755 42.06876 curveto
89.487755 39.007236 lineto
89.014122 39.007236 lineto
88.94088 38.767979 lineto
89.295697 38.63452 89.554486 38.434324 89.717247 38.167393 curveto
89.837689 37.972085 89.945111 37.65633 90.039513 37.220127 curveto
90.210411 37.220127 lineto
90.210411 38.621494 lineto
91.768028 38.621494 lineto
91.56295 39.007236 lineto
90.210411 39.007236 lineto
90.210411 41.770908 lineto
90.21041 41.94018 90.2983 42.122472 90.474083 42.317783 curveto
90.649862 42.513096 90.822388 42.610753 90.991661 42.610752 curveto
91.105591 42.610753 91.247193 42.521234 91.416466 42.342197 curveto
91.588989 42.159907 91.675252 42.068761 91.675255 42.06876 curveto
91.740356 42.068761 91.771281 42.122472 91.768028 42.229893 curveto
fill
grestore
gsave
0 0 0 setrgbcolor
newpath
96.792442 42.600986 moveto
96.466917 42.838617 96.300902 42.960687 96.294395 42.967197 curveto
96.082803 43.097406 95.887491 43.16251 95.708458 43.16251 curveto
95.428507 43.16251 95.23645 42.949294 95.132286 42.522861 curveto
94.738403 42.80932 94.520305 42.963942 94.477989 42.986729 curveto
94.263144 43.107171 94.015748 43.167393 93.735802 43.167393 curveto
93.459108 43.167393 93.224733 43.072992 93.032677 42.88419 curveto
92.843874 42.692133 92.749473 42.459386 92.749474 42.185947 curveto
92.749473 41.844152 92.884564 41.564204 93.154747 41.346104 curveto
93.314251 41.219152 93.599082 41.071041 94.009239 40.901768 curveto
95.112755 40.447666 lineto
95.112755 39.720127 lineto
95.112752 39.462969 95.019979 39.246498 94.834435 39.070713 curveto
94.652141 38.894936 94.430787 38.807045 94.170372 38.807041 curveto
93.756959 38.807045 93.550254 39.026772 93.550255 39.466221 curveto
93.550254 39.495521 93.556764 39.534584 93.569786 39.583408 curveto
93.582806 39.63224 93.589316 39.669675 93.589317 39.695713 curveto
93.589316 39.816159 93.49817 39.923581 93.31588 40.017979 curveto
93.156374 40.102617 93.00989 40.144935 92.876427 40.144932 curveto
92.821088 40.144935 92.793418 40.099362 92.793419 40.008213 curveto
92.793418 39.575274 92.97571 39.220456 93.340294 38.94376 curveto
93.672324 38.689858 94.062948 38.562905 94.512169 38.562901 curveto
94.961385 38.562905 95.290161 38.645913 95.498497 38.811924 curveto
95.729613 38.99422 95.845173 39.303464 95.845177 39.739658 curveto
95.845177 42.254307 lineto
95.845173 42.534255 95.941202 42.674229 96.133263 42.674229 curveto
96.253701 42.674229 96.470173 42.583083 96.782677 42.400791 curveto
96.792442 42.600986 lineto
95.117638 42.195713 moveto
95.112755 40.730869 lineto
94.121544 41.16544 lineto
93.675579 41.360754 93.452597 41.674881 93.452599 42.107822 curveto
93.452597 42.29337 93.512819 42.441482 93.633263 42.552158 curveto
93.753704 42.662836 93.906699 42.718174 94.092247 42.718174 curveto
94.284302 42.718174 94.469849 42.664463 94.648888 42.557041 curveto
94.72701 42.508214 94.88326 42.387771 95.117638 42.195713 curveto
fill
grestore
gsave
0 0 0 setrgbcolor
newpath
102.10983 43.089268 moveto
99.907677 43.089268 lineto
99.907677 42.869541 lineto
100.35689 42.869541 100.5815 42.649815 100.5815 42.210361 curveto
100.5815 39.988682 lineto
100.5815 39.705482 100.52291 39.462969 100.40572 39.261143 curveto
100.26249 39.020261 100.05904 38.899819 99.795372 38.899815 curveto
99.375448 38.899819 98.861125 39.119545 98.252403 39.558994 curveto
98.252403 42.34708 lineto
98.252402 42.666091 98.503053 42.840245 99.004356 42.869541 curveto
98.97506 43.089268 lineto
96.865685 43.089268 lineto
96.846153 43.050205 lineto
96.87545 42.898838 lineto
97.080528 42.898838 97.246543 42.815831 97.373497 42.649815 curveto
97.490684 42.500076 97.549277 42.319412 97.549278 42.107822 curveto
97.549278 39.417393 lineto
97.549277 39.300209 97.446739 39.207436 97.241661 39.139072 curveto
97.215619 39.129311 97.059369 39.093503 96.772911 39.031651 curveto
96.772911 38.90958 lineto
96.919395 38.890053 97.152142 38.811928 97.471153 38.675205 curveto
97.770631 38.545001 97.970827 38.439207 98.071739 38.357822 curveto
98.252403 38.489658 lineto
98.252403 39.368565 lineto
99.212687 38.7631 99.875121 38.460366 100.23971 38.460361 curveto
100.59452 38.460366 100.86959 38.621499 101.0649 38.94376 curveto
101.23091 39.213946 101.31392 39.536211 101.31393 39.910557 curveto
101.31393 42.449619 lineto
101.31392 42.716547 101.56946 42.85001 102.08053 42.85001 curveto
102.10983 43.089268 lineto
fill
grestore
gsave
0 0 0 setrgbcolor
newpath
106.20162 41.888096 moveto
105.79797 42.747471 105.15832 43.177158 104.28268 43.177158 curveto
103.71952 43.177158 103.24264 42.950922 102.85201 42.498447 curveto
102.47766 42.065506 102.29049 41.562577 102.29049 40.989658 curveto
102.29049 40.273515 102.53788 39.682696 103.03268 39.217197 curveto
103.5177 38.761473 104.12154 38.533608 104.8442 38.533604 curveto
105.05904 38.533608 105.30969 38.60034 105.59615 38.733799 curveto
105.92493 38.880288 106.08931 39.038165 106.08932 39.207432 curveto
106.08931 39.51668 105.94283 39.671302 105.64986 39.671299 curveto
105.46757 39.671302 105.34875 39.59806 105.29342 39.451572 curveto
105.24133 39.314857 105.19088 39.178139 105.14205 39.041416 curveto
105.03463 38.891681 104.82792 38.816811 104.52193 38.816807 curveto
104.0304 38.816811 103.64628 39.039793 103.36959 39.485752 curveto
103.13847 39.863359 103.02291 40.314205 103.02291 40.838291 curveto
103.02291 41.274491 103.1759 41.681392 103.4819 42.058994 curveto
103.80741 42.459386 104.18176 42.659581 104.60494 42.65958 curveto
105.21366 42.659581 105.67916 42.384516 106.00143 41.834385 curveto
106.13489 41.831131 106.20162 41.849035 106.20162 41.888096 curveto
fill
grestore
gsave
0 0 0 setrgbcolor
newpath
110.67428 41.888096 moveto
110.27063 42.747471 109.63098 43.177158 108.75533 43.177158 curveto
108.19218 43.177158 107.71692 42.93139 107.32955 42.439854 curveto
106.96822 41.98087 106.78756 41.463293 106.78756 40.887119 curveto
106.78756 40.232825 106.97311 39.682696 107.3442 39.236729 curveto
107.74133 38.761473 108.26054 38.523843 108.90182 38.523838 curveto
109.41288 38.523843 109.82629 38.678465 110.14205 38.987705 curveto
110.46106 39.296954 110.62056 39.708737 110.62057 40.223057 curveto
107.46627 40.223057 lineto
107.44999 40.359778 107.44186 40.499752 107.44186 40.642979 curveto
107.44186 41.128007 107.58997 41.57397 107.88619 41.980869 curveto
108.21171 42.433344 108.60885 42.659581 109.0776 42.65958 curveto
109.68957 42.659581 110.15507 42.384516 110.47408 41.834385 curveto
110.51315 41.834385 lineto
110.58476 41.831131 110.63847 41.849035 110.67428 41.888096 curveto
109.8735 39.944736 moveto
109.86047 39.612709 109.74491 39.342527 109.52682 39.13419 curveto
109.30872 38.922605 109.03202 38.816811 108.69674 38.816807 curveto
108.42004 38.816811 108.17428 38.938881 107.95943 39.183018 curveto
107.77063 39.397865 107.64205 39.651771 107.57369 39.944736 curveto
109.8735 39.944736 lineto
fill
grestore
gsave
0 0 0 setrgbcolor
newpath
fill
grestore
gsave
0 0 0 setrgbcolor
newpath
115.63522 42.615635 moveto
115.63521 42.76863 115.57988 42.900466 115.4692 43.011143 curveto
115.36178 43.118565 115.23157 43.172275 115.07858 43.172276 curveto
114.92232 43.172275 114.78886 43.118565 114.67818 43.011143 curveto
114.57076 42.900466 114.51705 42.76863 114.51705 42.615635 curveto
114.51705 42.459386 114.57076 42.32755 114.67818 42.220127 curveto
114.78886 42.109451 114.92232 42.054113 115.07858 42.054111 curveto
115.23157 42.054113 115.36178 42.109451 115.4692 42.220127 curveto
115.57988 42.32755 115.63521 42.459386 115.63522 42.615635 curveto
115.63522 39.173252 moveto
115.63521 39.326251 115.57988 39.458086 115.4692 39.56876 curveto
115.36178 39.676185 115.23157 39.729896 115.07858 39.729893 curveto
114.92232 39.729896 114.78886 39.676185 114.67818 39.56876 curveto
114.57076 39.458086 114.51705 39.326251 114.51705 39.173252 curveto
114.51705 39.017006 114.57076 38.88517 114.67818 38.777744 curveto
114.78886 38.667072 114.92232 38.611733 115.07858 38.611729 curveto
115.23157 38.611733 115.36178 38.667072 115.4692 38.777744 curveto
115.57988 38.88517 115.63521 39.017006 115.63522 39.173252 curveto
fill
grestore
gsave
0 0 0 setrgbcolor
newpath
fill
grestore
gsave
0 0 0 setrgbcolor
newpath
125.86471 43.069736 moveto
125.811 43.074619 lineto
125.50175 43.08113 125.14693 42.978591 124.74654 42.767002 curveto
124.3494 42.552159 124.07108 42.312901 123.91158 42.049229 curveto
122.76412 40.15958 lineto
122.60787 40.185625 122.45325 40.198646 122.30025 40.198643 curveto
122.07564 40.198646 121.77942 40.149818 121.41158 40.052158 curveto
121.4067 42.078526 lineto
121.4067 42.37475 121.52226 42.599359 121.75338 42.752354 curveto
121.9552 42.885817 122.20911 42.944411 122.5151 42.928135 curveto
122.54928 43.064854 lineto
122.5444 43.113682 lineto
119.57565 43.113682 lineto
119.60494 42.898838 lineto
119.65865 42.898838 lineto
119.99068 42.902093 120.2218 42.838617 120.35201 42.708408 curveto
120.48548 42.574945 120.55221 42.342198 120.55221 42.010166 curveto
120.55221 36.985752 lineto
120.55221 36.549561 120.23645 36.334717 119.60494 36.341221 curveto
119.60494 36.160557 lineto
120.05742 36.098715 120.72311 36.06779 121.60201 36.067783 curveto
122.57857 36.06779 123.2996 36.160564 123.7651 36.346104 curveto
124.50403 36.639079 124.87349 37.197347 124.8735 38.020908 curveto
124.87349 38.434324 124.74491 38.811928 124.48775 39.153721 curveto
124.25337 39.46948 123.93925 39.721758 123.54537 39.910557 curveto
125.02486 42.205479 lineto
125.29179 42.615635 125.56034 42.822341 125.83053 42.825596 curveto
125.86471 43.069736 lineto
123.84811 38.020908 moveto
123.8481 37.552164 123.70487 37.151774 123.41842 36.819736 curveto
123.11568 36.474691 122.73319 36.302165 122.27096 36.302158 curveto
122.16028 36.302165 122.01705 36.315186 121.84127 36.341221 curveto
121.61666 36.370524 121.47343 36.388428 121.41158 36.394932 curveto
121.41158 39.788486 lineto
121.63293 39.850339 121.96008 39.881263 122.39303 39.88126 curveto
122.90409 39.881263 123.28495 39.690834 123.53561 39.309971 curveto
123.74394 38.990965 123.8481 38.561277 123.84811 38.020908 curveto
fill
grestore
grestore
showpage
%%EOF
