%!PS-Adobe-2.0 EPSF-2.0
%%Title: LignesChampPositif.eps
%%Creator: fig2dev Version 3.2 Patchlevel 3d
%%CreationDate: Thu Aug  7 16:03:10 2003
%%For: prof@portable (Vincent Guyot)
%%BoundingBox: 0 0 144 144
%%Magnification: 1.0000
%%EndComments
/$F2psDict 200 dict def
$F2psDict begin
$F2psDict /mtrx matrix put
/col-1 {0 setgray} bind def
/col0 {0.000 0.000 0.000 srgb} bind def
/col1 {0.000 0.000 1.000 srgb} bind def
/col2 {0.000 1.000 0.000 srgb} bind def
/col3 {0.000 1.000 1.000 srgb} bind def
/col4 {1.000 0.000 0.000 srgb} bind def
/col5 {1.000 0.000 1.000 srgb} bind def
/col6 {1.000 1.000 0.000 srgb} bind def
/col7 {1.000 1.000 1.000 srgb} bind def
/col8 {0.000 0.000 0.560 srgb} bind def
/col9 {0.000 0.000 0.690 srgb} bind def
/col10 {0.000 0.000 0.820 srgb} bind def
/col11 {0.530 0.810 1.000 srgb} bind def
/col12 {0.000 0.560 0.000 srgb} bind def
/col13 {0.000 0.690 0.000 srgb} bind def
/col14 {0.000 0.820 0.000 srgb} bind def
/col15 {0.000 0.560 0.560 srgb} bind def
/col16 {0.000 0.690 0.690 srgb} bind def
/col17 {0.000 0.820 0.820 srgb} bind def
/col18 {0.560 0.000 0.000 srgb} bind def
/col19 {0.690 0.000 0.000 srgb} bind def
/col20 {0.820 0.000 0.000 srgb} bind def
/col21 {0.560 0.000 0.560 srgb} bind def
/col22 {0.690 0.000 0.690 srgb} bind def
/col23 {0.820 0.000 0.820 srgb} bind def
/col24 {0.500 0.190 0.000 srgb} bind def
/col25 {0.630 0.250 0.000 srgb} bind def
/col26 {0.750 0.380 0.000 srgb} bind def
/col27 {1.000 0.500 0.500 srgb} bind def
/col28 {1.000 0.630 0.630 srgb} bind def
/col29 {1.000 0.750 0.750 srgb} bind def
/col30 {1.000 0.880 0.880 srgb} bind def
/col31 {1.000 0.840 0.000 srgb} bind def

end
save
newpath 0 144 moveto 0 0 lineto 144 0 lineto 144 144 lineto closepath clip newpath
-14.9 148.1 translate
1 -1 scale

/cp {closepath} bind def
/ef {eofill} bind def
/gr {grestore} bind def
/gs {gsave} bind def
/sa {save} bind def
/rs {restore} bind def
/l {lineto} bind def
/m {moveto} bind def
/rm {rmoveto} bind def
/n {newpath} bind def
/s {stroke} bind def
/sh {show} bind def
/slc {setlinecap} bind def
/slj {setlinejoin} bind def
/slw {setlinewidth} bind def
/srgb {setrgbcolor} bind def
/rot {rotate} bind def
/sc {scale} bind def
/sd {setdash} bind def
/ff {findfont} bind def
/sf {setfont} bind def
/scf {scalefont} bind def
/sw {stringwidth} bind def
/tr {translate} bind def
/tnt {dup dup currentrgbcolor
  4 -2 roll dup 1 exch sub 3 -1 roll mul add
  4 -2 roll dup 1 exch sub 3 -1 roll mul add
  4 -2 roll dup 1 exch sub 3 -1 roll mul add srgb}
  bind def
/shd {dup dup currentrgbcolor 4 -2 roll mul 4 -2 roll mul
  4 -2 roll mul srgb} bind def
 /DrawEllipse {
	/endangle exch def
	/startangle exch def
	/yrad exch def
	/xrad exch def
	/y exch def
	/x exch def
	/savematrix mtrx currentmatrix def
	x y tr xrad yrad sc 0 0 1 startangle endangle arc
	closepath
	savematrix setmatrix
	} def

/$F2psBegin {$F2psDict begin /$F2psEnteredState save def} def
/$F2psEnd {$F2psEnteredState restore end} def

$F2psBegin
10 setmiterlimit
 0.06299 0.06299 sc
%
% Fig objects follow
%
% Polyline
7.500 slw
gs  clippath
1196 89 m 1152 97 l 1177 242 l 1180 128 l 1221 234 l cp
1547 2339 m 1591 2331 l 1566 2186 l 1564 2301 l 1522 2194 l cp
eoclip
n 1567 2321 m
 1177 108 l gs col0 s gr gr

% arrowhead
n 1522 2194 m 1564 2301 l 1566 2186 l 1548 2212 l 1522 2194 l 
 cp gs col7 1.00 shd ef gr  col0 s
% arrowhead
n 1221 234 m 1180 128 l 1177 242 l 1195 216 l 1221 234 l 
 cp gs col7 1.00 shd ef gr  col0 s
% Polyline
gs  clippath
1004 136 m 961 151 l 1012 290 l 995 177 l 1054 275 l cp
1739 2291 m 1782 2276 l 1731 2137 l 1749 2251 l 1689 2152 l cp
eoclip
n 1756 2270 m
 988 158 l gs col0 s gr gr

% arrowhead
n 1689 2152 m 1749 2251 l 1731 2137 l 1718 2166 l 1689 2152 l 
 cp gs col7 1.00 shd ef gr  col0 s
% arrowhead
n 1054 275 m 995 177 l 1012 290 l 1025 261 l 1054 275 l 
 cp gs col7 1.00 shd ef gr  col0 s
% Polyline
gs  clippath
656 327 m 622 355 l 717 468 l 662 368 l 751 439 l cp
2087 2100 m 2121 2072 l 2026 1959 l 2082 2060 l 1992 1988 l cp
eoclip
n 2095 2075 m
 649 353 l gs col0 s gr gr

% arrowhead
n 1992 1988 m 2082 2060 l 2026 1959 l 2024 1991 l 1992 1988 l 
 cp gs col7 1.00 shd ef gr  col0 s
% arrowhead
n 751 439 m 662 368 l 717 468 l 719 436 l 751 439 l 
 cp gs col7 1.00 shd ef gr  col0 s
% Polyline
gs  clippath
396 624 m 373 662 l 501 736 l 415 661 l 523 697 l cp
2346 1803 m 2369 1765 l 2241 1691 l 2328 1767 l 2219 1730 l cp
eoclip
n 2345 1777 m
 398 651 l gs col0 s gr gr

% arrowhead
n 2219 1730 m 2328 1767 l 2241 1691 l 2250 1721 l 2219 1730 l 
 cp gs col7 1.00 shd ef gr  col0 s
% arrowhead
n 523 697 m 415 661 l 501 736 l 492 706 l 523 697 l 
 cp gs col7 1.00 shd ef gr  col0 s
% Polyline
gs  clippath
254 994 m 246 1038 l 391 1063 l 285 1022 l 399 1019 l cp
2488 1434 m 2496 1390 l 2351 1365 l 2458 1407 l 2343 1409 l cp
eoclip
n 2478 1410 m
 265 1019 l gs col0 s gr gr

% arrowhead
n 2343 1409 m 2458 1407 l 2351 1365 l 2369 1391 l 2343 1409 l 
 cp gs col7 1.00 shd ef gr  col0 s
% arrowhead
n 399 1019 m 285 1022 l 391 1063 l 373 1037 l 399 1019 l 
 cp gs col7 1.00 shd ef gr  col0 s
% Polyline
gs  clippath
1394 75 m 1349 75 l 1349 222 l 1372 110 l 1394 222 l cp
1349 2354 m 1394 2354 l 1394 2206 l 1372 2319 l 1349 2206 l cp
eoclip
n 1372 2339 m
 1372 90 l gs col0 s gr gr

% arrowhead
n 1349 2206 m 1372 2319 l 1394 2206 l 1372 2229 l 1349 2206 l 
 cp gs col7 1.00 shd ef gr  col0 s
% arrowhead
n 1394 222 m 1372 110 l 1349 222 l 1372 200 l 1394 222 l 
 cp gs col7 1.00 shd ef gr  col0 s
% Polyline
gs  clippath
233 1191 m 232 1236 l 380 1236 l 268 1214 l 380 1191 l cp
2510 1237 m 2511 1192 l 2363 1192 l 2476 1215 l 2363 1237 l cp
eoclip
n 2496 1215 m
 248 1214 l gs col0 s gr gr

% arrowhead
n 2363 1237 m 2476 1215 l 2363 1192 l 2386 1214 l 2363 1237 l 
 cp gs col7 1.00 shd ef gr  col0 s
% arrowhead
n 380 1191 m 268 1214 l 380 1236 l 357 1214 l 380 1191 l 
 cp gs col7 1.00 shd ef gr  col0 s
% Polyline
gs  clippath
246 1389 m 254 1433 l 399 1408 l 285 1406 l 391 1364 l cp
2497 1039 m 2489 995 l 2344 1020 l 2459 1023 l 2352 1064 l cp
eoclip
n 2479 1020 m
 265 1409 l gs col0 s gr gr

% arrowhead
n 2352 1064 m 2459 1023 l 2344 1020 l 2370 1038 l 2352 1064 l 
 cp gs col7 1.00 shd ef gr  col0 s
% arrowhead
n 391 1364 m 285 1406 l 399 1408 l 373 1390 l 391 1364 l 
 cp gs col7 1.00 shd ef gr  col0 s
% Polyline
gs  clippath
293 1581 m 308 1624 l 447 1573 l 334 1591 l 432 1531 l cp
2449 847 m 2434 804 l 2295 855 l 2409 838 l 2310 897 l cp
eoclip
n 2428 831 m
 315 1598 l gs col0 s gr gr

% arrowhead
n 2310 897 m 2409 838 l 2295 855 l 2324 868 l 2310 897 l 
 cp gs col7 1.00 shd ef gr  col0 s
% arrowhead
n 432 1531 m 334 1591 l 447 1573 l 418 1560 l 432 1531 l 
 cp gs col7 1.00 shd ef gr  col0 s
% Polyline
gs  clippath
373 1764 m 396 1802 l 523 1729 l 415 1766 l 501 1690 l cp
2369 663 m 2346 625 l 2219 698 l 2328 662 l 2241 737 l cp
eoclip
n 2345 652 m
 398 1776 l gs col0 s gr gr

% arrowhead
n 2241 737 m 2328 662 l 2219 698 l 2250 706 l 2241 737 l 
 cp gs col7 1.00 shd ef gr  col0 s
% arrowhead
n 501 1690 m 415 1766 l 523 1729 l 492 1721 l 501 1690 l 
 cp gs col7 1.00 shd ef gr  col0 s
% Polyline
gs  clippath
484 1928 m 512 1962 l 625 1867 l 525 1923 l 596 1833 l cp
2258 499 m 2230 465 l 2117 560 l 2218 505 l 2146 594 l cp
eoclip
n 2233 492 m
 510 1936 l gs col0 s gr gr

% arrowhead
n 2146 594 m 2218 505 l 2117 560 l 2149 562 l 2146 594 l 
 cp gs col7 1.00 shd ef gr  col0 s
% arrowhead
n 596 1833 m 525 1923 l 625 1867 l 593 1865 l 596 1833 l 
 cp gs col7 1.00 shd ef gr  col0 s
% Polyline
gs  clippath
622 2072 m 656 2100 l 751 1988 l 662 2060 l 717 1959 l cp
2121 356 m 2087 328 l 1992 440 l 2082 369 l 2026 469 l cp
eoclip
n 2095 354 m
 649 2075 l gs col0 s gr gr

% arrowhead
n 2026 469 m 2082 369 l 1992 440 l 2024 437 l 2026 469 l 
 cp gs col7 1.00 shd ef gr  col0 s
% arrowhead
n 717 1959 m 662 2060 l 751 1988 l 719 1991 l 717 1959 l 
 cp gs col7 1.00 shd ef gr  col0 s
% Polyline
gs  clippath
782 2188 m 820 2211 l 894 2083 l 819 2170 l 855 2061 l cp
1960 239 m 1922 216 l 1848 344 l 1924 258 l 1887 366 l cp
eoclip
n 1934 241 m
 809 2187 l gs col0 s gr gr

% arrowhead
n 1887 366 m 1924 258 l 1848 344 l 1878 335 l 1887 366 l 
 cp gs col7 1.00 shd ef gr  col0 s
% arrowhead
n 855 2061 m 819 2170 l 894 2083 l 864 2092 l 855 2061 l 
 cp gs col7 1.00 shd ef gr  col0 s
% Polyline
gs  clippath
960 2276 m 1002 2291 l 1053 2153 l 994 2251 l 1011 2137 l cp
1783 152 m 1741 137 l 1690 275 l 1750 178 l 1732 291 l cp
eoclip
n 1757 159 m
 987 2270 l gs col0 s gr gr

% arrowhead
n 1732 291 m 1750 178 l 1690 275 l 1719 262 l 1732 291 l 
 cp gs col7 1.00 shd ef gr  col0 s
% arrowhead
n 1011 2137 m 994 2251 l 1053 2153 l 1024 2166 l 1011 2137 l 
 cp gs col7 1.00 shd ef gr  col0 s
% Polyline
gs  clippath
1151 2331 m 1195 2339 l 1220 2194 l 1179 2301 l 1176 2186 l cp
1592 97 m 1548 89 l 1523 234 l 1565 128 l 1567 242 l cp
eoclip
n 1568 108 m
 1176 2321 l gs col0 s gr gr

% arrowhead
n 1567 242 m 1565 128 l 1523 234 l 1549 216 l 1567 242 l 
 cp gs col7 1.00 shd ef gr  col0 s
% arrowhead
n 1176 2186 m 1179 2301 l 1220 2194 l 1194 2212 l 1176 2186 l 
 cp gs col7 1.00 shd ef gr  col0 s
% Polyline
gs  clippath
823 214 m 784 237 l 857 364 l 821 256 l 896 342 l cp
1920 2213 m 1959 2190 l 1886 2063 l 1923 2172 l 1847 2085 l cp
eoclip
n 1933 2189 m
 811 239 l gs col0 s gr gr

% arrowhead
n 1847 2085 m 1923 2172 l 1886 2063 l 1878 2093 l 1847 2085 l 
 cp gs col7 1.00 shd ef gr  col0 s
% arrowhead
n 896 342 m 821 256 l 857 364 l 865 334 l 896 342 l 
 cp gs col7 1.00 shd ef gr  col0 s
% Polyline
gs  clippath
512 465 m 484 499 l 596 594 l 525 505 l 625 560 l cp
2230 1963 m 2258 1929 l 2146 1834 l 2218 1924 l 2117 1868 l cp
eoclip
n 2233 1937 m
 510 492 l gs col0 s gr gr

% arrowhead
n 2117 1868 m 2218 1924 l 2146 1834 l 2149 1866 l 2117 1868 l 
 cp gs col7 1.00 shd ef gr  col0 s
% arrowhead
n 625 560 m 525 505 l 596 594 l 593 562 l 625 560 l 
 cp gs col7 1.00 shd ef gr  col0 s
% Polyline
gs  clippath
308 802 m 293 844 l 431 895 l 334 836 l 447 853 l cp
2434 1626 m 2449 1584 l 2311 1533 l 2409 1593 l 2295 1575 l cp
eoclip
n 2428 1600 m
 315 829 l gs col0 s gr gr

% arrowhead
n 2295 1575 m 2409 1593 l 2311 1533 l 2324 1562 l 2295 1575 l 
 cp gs col7 1.00 shd ef gr  col0 s
% arrowhead
n 447 853 m 334 836 l 431 895 l 418 866 l 447 853 l 
 cp gs col7 1.00 shd ef gr  col0 s
% Ellipse
n 1372 1214 255 255 0 360 DrawEllipse gs col7 1.00 shd ef gr gs col0 s gr

% Polyline
n 1581 1212 m
 1176 1212 l gs col0 s gr 
% Polyline
n 1361 1004 m
 1361 1409 l gs col0 s gr 
$F2psEnd
rs
