%!PS-Adobe-2.0
%%Creator: inkscape 0.41.1
%%Pages: 1
%%Orientation: Portrait
%%BoundingBox: 3 798 155 831
%%HiResBoundingBox: 3.0809748 798.21516 154.38043 830.27606
%%EndComments
%%Page: 1 1
0 842 translate
0.80000000 -0.80000000 scale
gsave [1.0000000 0.0000000 0.0000000 1.0000000 0.0000000 0.0000000] concat
0.0000000 0.0000000 0.0000000 setrgbcolor
[] 0 setdash
0.35433072 setlinewidth
0 setlinejoin
0 setlinecap
newpath
31.128404 38.675073 moveto
4.0283838 38.675073 4.0283838 38.675073 4.0283838 38.675073 curveto
stroke
gsave [0.38976379 -4.7730721e-17 4.7730721e-17 0.38976379 2.0795648 38.675073] concat
0.0000000 0.0000000 0.0000000 setrgbcolor
newpath
8.7185878 4.0337352 moveto
-2.2072895 0.016013256 lineto
8.7185884 -4.0017078 lineto
6.9730900 -1.6296469 6.9831476 1.6157441 8.7185878 4.0337352 curveto
closepath
eofill
grestore
gsave [1.0000000 0.0000000 0.0000000 1.0000000 116.27370 -17.578390] concat
0.0000000 0.0000000 0.0000000 setrgbcolor
newpath
65.215778 50.567318 moveto
65.020466 52.212826 lineto
59.522419 52.212826 lineto
59.522419 52.032162 lineto
60.300413 52.022396 60.689410 51.801042 60.689411 51.368099 curveto
60.689411 46.104427 lineto
60.689410 45.850527 60.622678 45.679629 60.489216 45.591732 curveto
60.345986 45.497338 60.062783 45.450137 59.639606 45.450130 curveto
59.639606 45.279232 lineto
64.800739 45.279232 lineto
64.854450 46.778255 lineto
64.673786 46.778255 lineto
64.595656 46.026309 64.353143 45.650332 63.946247 45.650326 curveto
61.573200 45.650326 lineto
61.573200 48.404232 lineto
63.462849 48.404232 lineto
63.765579 48.404236 63.960891 48.119405 64.048786 47.549740 curveto
64.209919 47.549740 lineto
64.209919 49.659115 lineto
64.048786 49.659115 lineto
63.941360 49.050394 63.746048 48.746032 63.462849 48.746029 curveto
61.573200 48.746029 lineto
61.573200 51.280209 lineto
61.573198 51.641537 61.711544 51.822201 61.988239 51.822201 curveto
64.053669 51.822201 lineto
64.541945 51.822201 64.864211 51.399025 65.020466 50.552670 curveto
65.215778 50.567318 lineto
fill
0.0000000 0.0000000 0.0000000 setrgbcolor
[] 0 setdash
0.35433072 setlinewidth
0 setlinejoin
0 setlinecap
newpath
58.411522 43.069670 moveto
65.735852 43.069670 65.735852 43.069670 65.735852 43.069670 curveto
stroke
gsave [-0.21259843 0.0000000 0.0000000 -0.21259843 66.798844 43.069670] concat
0.0000000 0.0000000 0.0000000 setrgbcolor
newpath
8.7185878 4.0337352 moveto
-2.2072895 0.016013256 lineto
8.7185884 -4.0017078 lineto
6.9730900 -1.6296469 6.9831476 1.6157441 8.7185878 4.0337352 curveto
closepath
eofill
grestore
grestore
0.0000000 0.0000000 0.0000000 setrgbcolor
newpath
22.412413 48.689911 moveto
22.236631 48.689911 lineto
22.236627 48.042131 21.950169 47.718238 21.377256 47.718231 curveto
19.175108 47.718231 lineto
19.175108 50.340302 lineto
20.996397 50.340302 lineto
21.191706 50.340305 21.346328 50.263808 21.460264 50.110809 curveto
21.557916 49.977350 21.606744 49.806452 21.606749 49.598114 curveto
21.743467 49.598114 lineto
21.743467 51.502411 lineto
21.606749 51.502411 lineto
21.606744 50.968560 21.403294 50.701633 20.996397 50.701630 curveto
19.175108 50.701630 lineto
19.175108 53.352997 lineto
19.175106 53.789195 19.469702 54.007294 20.058897 54.007294 curveto
20.058897 54.227020 lineto
17.505186 54.227020 lineto
17.505186 54.007294 lineto
18.045550 54.007294 18.315732 53.769664 18.315733 53.294403 curveto
18.315733 48.030731 lineto
18.315732 47.675920 18.045550 47.500139 17.505186 47.503387 curveto
17.505186 47.293427 lineto
22.295225 47.293427 lineto
22.412413 48.689911 lineto
fill
0.0000000 0.0000000 0.0000000 setrgbcolor
[] 0 setdash
0.35433072 setlinewidth
0 setlinejoin
0 setlinecap
newpath
16.296632 45.083863 moveto
23.620962 45.083863 23.620962 45.083863 23.620962 45.083863 curveto
stroke
gsave [-0.21259843 0.0000000 0.0000000 -0.21259843 24.683954 45.083863] concat
0.0000000 0.0000000 0.0000000 setrgbcolor
newpath
8.7185878 4.0337352 moveto
-2.2072895 0.016013256 lineto
8.7185884 -4.0017078 lineto
6.9730900 -1.6296469 6.9831476 1.6157441 8.7185878 4.0337352 curveto
closepath
eofill
grestore
0.0000000 0.0000000 0.0000000 setrgbcolor
[] 0 setdash
0.32433730 setlinewidth
0 setlinejoin
0 setlinecap
newpath
31.861247 42.703454 moveto
9.1549877 42.703454 9.1549877 42.703454 9.1549877 42.703454 curveto
stroke
gsave [0.35677103 -4.3690408e-17 4.3690408e-17 0.35677103 7.3711325 42.703454] concat
0.0000000 0.0000000 0.0000000 setrgbcolor
newpath
8.7185878 4.0337352 moveto
-2.2072895 0.016013256 lineto
8.7185884 -4.0017078 lineto
6.9730900 -1.6296469 6.9831476 1.6157441 8.7185878 4.0337352 curveto
closepath
eofill
grestore
0.0000000 0.0000000 0.0000000 setrgbcolor
newpath
31.411554 20.513197 moveto
31.411554 18.335463 lineto
31.411551 18.312679 31.377371 18.231299 31.309015 18.091322 curveto
31.042085 17.534685 30.628674 17.256365 30.068781 17.256361 curveto
29.661878 17.256365 29.308688 17.419126 29.009211 17.744642 curveto
28.745538 18.031104 28.613702 18.538916 28.613703 19.268080 curveto
28.613702 19.743342 28.747165 20.176284 29.014093 20.566908 curveto
29.313571 21.006362 29.691175 21.226088 30.146906 21.226088 curveto
30.358492 21.226088 30.780041 20.988458 31.411554 20.513197 curveto
32.861750 23.721205 moveto
32.847101 23.955580 lineto
30.273859 23.955580 lineto
30.293390 23.721205 lineto
30.713309 23.717947 30.954194 23.704927 31.016047 23.682142 curveto
31.165783 23.626802 31.297619 23.446138 31.411554 23.140150 curveto
31.411554 20.806166 lineto
30.959077 21.167494 30.693778 21.370945 30.615656 21.416517 curveto
30.316174 21.598809 29.992281 21.689955 29.643976 21.689955 curveto
29.145928 21.689955 28.722751 21.455580 28.374445 20.986830 curveto
28.052179 20.557143 27.891046 20.083511 27.891047 19.565931 curveto
27.891046 18.823747 28.102635 18.223161 28.525812 17.764174 curveto
28.984795 17.266131 29.512139 17.017108 30.107843 17.017103 curveto
30.504976 17.017108 31.004650 17.145688 31.606867 17.402845 curveto
31.717540 17.288917 31.807058 17.161964 31.875422 17.021986 curveto
32.100031 17.021986 lineto
32.100031 23.223158 lineto
32.100027 23.555187 32.353933 23.721203 32.861750 23.721205 curveto
fill
0.0000000 0.0000000 0.0000000 setrgbcolor
newpath
fill
0.0000000 0.0000000 0.0000000 setrgbcolor
newpath
40.845148 17.412611 moveto
36.792414 17.412611 lineto
36.792414 16.953627 lineto
40.845148 16.953627 lineto
40.845148 17.412611 lineto
40.845148 19.253431 moveto
36.792414 19.253431 lineto
36.792414 18.789564 lineto
40.845148 18.789564 lineto
40.845148 19.253431 lineto
fill
0.0000000 0.0000000 0.0000000 setrgbcolor
newpath
46.147882 19.580580 moveto
45.010187 19.580580 lineto
45.010187 21.587416 lineto
44.336359 21.587416 lineto
44.336359 19.580580 lineto
41.479914 19.580580 lineto
41.479914 19.272963 lineto
44.766047 14.546400 lineto
45.010187 14.546400 lineto
45.010187 18.965345 lineto
46.147882 18.965345 lineto
46.147882 19.580580 lineto
44.336359 15.684095 moveto
42.095148 18.965345 lineto
44.336359 18.965345 lineto
44.336359 15.684095 lineto
fill
0.0000000 0.0000000 0.0000000 setrgbcolor
newpath
fill
0.0000000 0.0000000 0.0000000 setrgbcolor
newpath
54.477961 20.952650 moveto
54.406341 21.125177 54.261484 21.296075 54.043390 21.465345 curveto
53.815521 21.637871 53.612071 21.724134 53.433039 21.724134 curveto
53.188894 21.724134 53.031017 21.608575 52.959406 21.377455 curveto
52.920340 21.250502 52.905691 21.034031 52.915461 20.728041 curveto
52.306733 21.333510 51.644299 21.636244 50.928156 21.636244 curveto
50.768649 21.636244 50.627048 21.610202 50.503351 21.558119 curveto
50.574964 22.388196 50.610772 22.913912 50.610773 23.135267 curveto
50.610772 23.343599 50.579847 23.543794 50.518000 23.735853 curveto
50.430108 24.002778 50.306410 24.136241 50.146906 24.136244 curveto
50.019952 24.136241 49.912530 23.994640 49.824640 23.711439 curveto
49.759536 23.493338 49.726983 23.301281 49.726984 23.135267 curveto
49.726983 22.881360 49.748142 22.507011 49.790461 22.012220 curveto
49.836033 21.504408 49.860447 21.128432 49.863703 20.884291 curveto
49.863702 20.675958 49.868585 20.260920 49.878351 19.639174 curveto
49.884861 19.121598 49.888116 18.706559 49.888117 18.394056 curveto
49.888116 18.081560 49.849054 17.850440 49.770929 17.700697 curveto
49.656997 17.492368 49.450291 17.388201 49.150812 17.388197 curveto
49.131281 17.188002 lineto
50.586359 16.929213 lineto
50.586359 20.107924 lineto
50.586358 20.387873 50.675876 20.625503 50.854914 20.820814 curveto
51.037204 21.025893 51.266695 21.128432 51.543390 21.128431 curveto
51.823336 21.128432 52.280692 20.897312 52.915461 20.435072 curveto
52.915461 17.749525 lineto
52.915457 17.502133 52.601330 17.362160 51.973078 17.329603 curveto
51.973078 17.168470 lineto
53.613703 16.865736 lineto
53.613703 20.679213 lineto
53.613698 20.959161 53.712982 21.099135 53.911554 21.099134 curveto
53.957122 21.099135 54.025482 21.042169 54.116632 20.928236 curveto
54.214284 20.801284 54.287526 20.731297 54.336359 20.718275 curveto
54.477961 20.952650 lineto
fill
0.0000000 0.0000000 0.0000000 setrgbcolor
newpath
61.494562 19.858900 moveto
61.279712 20.480646 60.968840 20.993341 60.561945 21.396986 curveto
59.565847 21.556491 58.926199 21.636244 58.643000 21.636244 curveto
57.692476 21.636244 56.886813 21.336765 56.226007 20.737806 curveto
55.545668 20.119318 55.205499 19.339697 55.205500 18.398939 curveto
55.205499 17.357277 55.542413 16.473489 56.216242 15.747572 curveto
56.909599 15.005391 57.775484 14.634298 58.813898 14.634291 curveto
59.494232 14.634298 60.104583 14.759623 60.644953 15.010267 curveto
60.817473 15.088399 60.928150 15.127461 60.976984 15.127455 curveto
61.042082 15.127461 61.090910 15.103047 61.123468 15.054213 curveto
61.274836 15.063978 lineto
61.343195 16.538588 lineto
61.162531 16.538588 lineto
61.022551 16.017760 60.729582 15.607604 60.283625 15.308119 curveto
59.860443 15.021667 59.370534 14.878438 58.813898 14.878431 curveto
57.993583 14.878438 57.329521 15.213724 56.821711 15.884291 curveto
56.359470 16.496275 56.128350 17.225441 56.128351 18.071791 curveto
56.128350 18.953955 56.377373 19.715673 56.875422 20.356947 curveto
57.415784 21.053562 58.115653 21.401869 58.975031 21.401869 curveto
59.453542 21.401869 59.915781 21.245619 60.361750 20.933119 curveto
60.797942 20.627130 61.108814 20.249526 61.294367 19.800306 curveto
61.494562 19.858900 lineto
fill
0.0000000 0.0000000 0.0000000 setrgbcolor
newpath
36.708031 27.411728 moveto
34.146019 27.411728 lineto
34.146019 27.257919 lineto
34.767111 27.257919 35.077658 27.007431 35.077660 26.506454 curveto
35.077660 21.865829 lineto
34.919455 21.959585 34.762717 22.053335 34.607445 22.147079 curveto
34.419944 22.252553 34.254417 22.324331 34.110863 22.362411 curveto
34.027367 22.169052 lineto
34.616233 21.876089 35.121603 21.518667 35.543480 21.096786 curveto
35.807152 21.096786 lineto
35.807152 26.506454 lineto
35.807149 26.808213 35.884786 27.013291 36.040062 27.121689 curveto
36.166036 27.212509 36.388692 27.257919 36.708031 27.257919 curveto
36.708031 27.411728 lineto
fill
gsave [1.0000000 0.0000000 0.0000000 1.0000000 -144.10620 -0.36621700] concat
gsave [1.0000000 0.0000000 0.0000000 1.0000000 144.65550 1.0986490] concat
0.0000000 0.0000000 0.0000000 setrgbcolor
[] 0 setdash
0.35433072 setlinewidth
0 setlinejoin
0 setlinecap
newpath
52.918277 38.034195 moveto
52.918277 44.149277 47.955311 49.112243 41.840229 49.112243 curveto
35.725147 49.112243 30.762181 44.149277 30.762181 38.034195 curveto
30.762181 31.919113 35.725147 26.956147 41.840229 26.956147 curveto
47.955311 26.956147 52.918277 31.919113 52.918277 38.034195 curveto
closepath
stroke
grestore
0.0000000 0.0000000 0.0000000 setrgbcolor
[] 0 setdash
0.35433072 setlinewidth
0 setlinejoin
0 setlinecap
newpath
186.49572 47.464267 moveto
186.49572 29.885878 186.49572 30.435203 186.49572 30.435203 curveto
186.49572 30.435203 lineto
stroke
0.0000000 0.0000000 0.0000000 setrgbcolor
[] 0 setdash
0.35433072 setlinewidth
0 setlinejoin
0 setlinecap
newpath
195.46897 39.132844 moveto
177.89059 39.132844 178.43991 39.132844 178.43991 39.132844 curveto
178.43991 39.132844 lineto
stroke
grestore
gsave [1.0000000 0.0000000 0.0000000 1.0000000 0.0000000 -0.062256810] concat
gsave [1.0000000 0.0000000 0.0000000 1.0000000 -26.550690 -0.27466300] concat
gsave [1.0000000 0.0000000 0.0000000 1.0000000 144.65550 1.0986490] concat
0.0000000 0.0000000 0.0000000 setrgbcolor
[] 0 setdash
0.35433072 setlinewidth
0 setlinejoin
0 setlinecap
newpath
52.918277 38.034195 moveto
52.918277 44.149277 47.955311 49.112243 41.840229 49.112243 curveto
35.725147 49.112243 30.762181 44.149277 30.762181 38.034195 curveto
30.762181 31.919113 35.725147 26.956147 41.840229 26.956147 curveto
47.955311 26.956147 52.918277 31.919113 52.918277 38.034195 curveto
closepath
stroke
grestore
0.0000000 0.0000000 0.0000000 setrgbcolor
[] 0 setdash
0.35433072 setlinewidth
0 setlinejoin
0 setlinecap
newpath
186.49572 47.464267 moveto
186.49572 29.885878 186.49572 30.435203 186.49572 30.435203 curveto
186.49572 30.435203 lineto
stroke
0.0000000 0.0000000 0.0000000 setrgbcolor
[] 0 setdash
0.35433072 setlinewidth
0 setlinejoin
0 setlinecap
newpath
195.46897 39.132844 moveto
177.89059 39.132844 178.43991 39.132844 178.43991 39.132844 curveto
178.43991 39.132844 lineto
stroke
grestore
0.0000000 0.0000000 0.0000000 setrgbcolor
newpath
142.92447 20.663343 moveto
142.92447 18.485609 lineto
142.92447 18.462826 142.89029 18.381446 142.82193 18.241468 curveto
142.55500 17.684832 142.14159 17.406512 141.58170 17.406507 curveto
141.17479 17.406512 140.82160 17.569272 140.52213 17.894789 curveto
140.25845 18.181251 140.12662 18.689063 140.12662 19.418226 curveto
140.12662 19.893489 140.26008 20.326431 140.52701 20.717054 curveto
140.82649 21.156508 141.20409 21.376234 141.65982 21.376234 curveto
141.87141 21.376234 142.29296 21.138604 142.92447 20.663343 curveto
144.37466 23.871351 moveto
144.36002 24.105726 lineto
141.78677 24.105726 lineto
141.80630 23.871351 lineto
142.22622 23.868094 142.46711 23.855073 142.52896 23.832289 curveto
142.67870 23.776948 142.81053 23.596284 142.92447 23.290297 curveto
142.92447 20.956312 lineto
142.47199 21.317641 142.20669 21.521091 142.12857 21.566664 curveto
141.82909 21.748955 141.50520 21.840101 141.15689 21.840101 curveto
140.65884 21.840101 140.23567 21.605726 139.88736 21.136976 curveto
139.56509 20.707290 139.40396 20.233657 139.40396 19.716078 curveto
139.40396 18.973893 139.61555 18.373308 140.03873 17.914320 curveto
140.49771 17.416277 141.02505 17.167254 141.62076 17.167250 curveto
142.01789 17.167254 142.51756 17.295835 143.11978 17.552992 curveto
143.23045 17.439064 143.31997 17.312111 143.38834 17.172132 curveto
143.61295 17.172132 lineto
143.61295 23.373304 lineto
143.61294 23.705334 143.86685 23.871349 144.37466 23.871351 curveto
fill
0.0000000 0.0000000 0.0000000 setrgbcolor
newpath
fill
0.0000000 0.0000000 0.0000000 setrgbcolor
newpath
152.35806 17.562757 moveto
148.30533 17.562757 lineto
148.30533 17.103773 lineto
152.35806 17.103773 lineto
152.35806 17.562757 lineto
152.35806 19.403578 moveto
148.30533 19.403578 lineto
148.30533 18.939711 lineto
152.35806 18.939711 lineto
152.35806 19.403578 lineto
fill
0.0000000 0.0000000 0.0000000 setrgbcolor
newpath
157.58755 19.530531 moveto
157.58755 20.145767 157.36294 20.686131 156.91373 21.151625 curveto
156.46450 21.613864 155.93391 21.844984 155.32193 21.844984 curveto
154.56998 21.844984 153.97916 21.508070 153.54947 20.834242 curveto
153.17837 20.251561 152.99283 19.564713 152.99283 18.773695 curveto
152.99283 17.728777 153.36555 16.830341 154.11099 16.078382 curveto
154.73599 15.450134 155.59536 14.950460 156.68912 14.579359 curveto
156.78189 14.799086 lineto
155.14126 15.378519 154.17121 16.472268 153.87173 18.080336 curveto
154.20702 17.803647 154.45279 17.622983 154.60904 17.538343 curveto
154.88573 17.382098 155.17870 17.303973 155.48795 17.303968 curveto
156.03807 17.303973 156.52798 17.538348 156.95767 18.007093 curveto
157.37759 18.466081 157.58755 18.973893 157.58755 19.530531 curveto
156.75259 19.462172 moveto
156.75259 18.996680 156.64680 18.584896 156.43521 18.226820 curveto
156.18456 17.800392 155.84439 17.587176 155.41470 17.587172 curveto
155.13801 17.587176 154.85318 17.673439 154.56021 17.845961 curveto
154.45930 17.904558 154.21516 18.081967 153.82779 18.378187 curveto
153.81802 18.492123 153.81314 18.610938 153.81314 18.734632 curveto
153.81314 20.664972 154.33886 21.630140 155.39029 21.630140 curveto
155.94367 21.630140 156.32616 21.389255 156.53775 20.907484 curveto
156.68098 20.578709 156.75259 20.096939 156.75259 19.462172 curveto
fill
0.0000000 0.0000000 0.0000000 setrgbcolor
newpath
fill
0.0000000 0.0000000 0.0000000 setrgbcolor
newpath
166.02994 21.102797 moveto
165.95832 21.275323 165.81346 21.446221 165.59537 21.615492 curveto
165.36750 21.788018 165.16405 21.874281 164.98502 21.874281 curveto
164.74087 21.874281 164.58299 21.758721 164.51138 21.527601 curveto
164.47232 21.400648 164.45767 21.184177 164.46744 20.878187 curveto
163.85871 21.483656 163.19628 21.786390 162.48013 21.786390 curveto
162.32063 21.786390 162.17902 21.760349 162.05533 21.708265 curveto
162.12694 22.538343 162.16275 23.064058 162.16275 23.285414 curveto
162.16275 23.493745 162.13182 23.693940 162.06998 23.886000 curveto
161.98208 24.152924 161.85839 24.286388 161.69888 24.286390 curveto
161.57193 24.286388 161.46451 24.144786 161.37662 23.861586 curveto
161.31151 23.643485 161.27896 23.451428 161.27896 23.285414 curveto
161.27896 23.031506 161.30012 22.657158 161.34244 22.162367 curveto
161.38801 21.654554 161.41242 21.278578 161.41568 21.034437 curveto
161.41568 20.826105 161.42056 20.411066 161.43033 19.789320 curveto
161.43684 19.271744 161.44009 18.856706 161.44009 18.544203 curveto
161.44009 18.231706 161.40103 18.000587 161.32291 17.850843 curveto
161.20897 17.642514 161.00227 17.538348 160.70279 17.538343 curveto
160.68326 17.338148 lineto
162.13834 17.079359 lineto
162.13834 20.258070 lineto
162.13833 20.538019 162.22785 20.775649 162.40689 20.970961 curveto
162.58918 21.176039 162.81867 21.278578 163.09537 21.278578 curveto
163.37531 21.278578 163.83267 21.047459 164.46744 20.585218 curveto
164.46744 17.899672 lineto
164.46743 17.652280 164.15331 17.512306 163.52505 17.479750 curveto
163.52505 17.318617 lineto
165.16568 17.015882 lineto
165.16568 20.829359 lineto
165.16568 21.109308 165.26496 21.249281 165.46353 21.249281 curveto
165.50910 21.249281 165.57746 21.192315 165.66861 21.078382 curveto
165.76626 20.951430 165.83950 20.881443 165.88834 20.868422 curveto
166.02994 21.102797 lineto
fill
0.0000000 0.0000000 0.0000000 setrgbcolor
newpath
173.04654 20.009047 moveto
172.83169 20.630792 172.52082 21.143487 172.11392 21.547132 curveto
171.11782 21.706638 170.47818 21.786390 170.19498 21.786390 curveto
169.24445 21.786390 168.43879 21.486911 167.77798 20.887953 curveto
167.09765 20.269465 166.75748 19.489843 166.75748 18.549086 curveto
166.75748 17.507423 167.09439 16.623635 167.76822 15.897718 curveto
168.46158 15.155538 169.32746 14.784444 170.36588 14.784437 curveto
171.04621 14.784444 171.65656 14.909770 172.19693 15.160414 curveto
172.36945 15.238545 172.48013 15.277608 172.52896 15.277601 curveto
172.59406 15.277608 172.64289 15.253194 172.67545 15.204359 curveto
172.82681 15.214125 lineto
172.89517 16.688734 lineto
172.71451 16.688734 lineto
172.57453 16.167906 172.28156 15.757750 171.83560 15.458265 curveto
171.41242 15.171814 170.92251 15.028585 170.36588 15.028578 curveto
169.54556 15.028585 168.88150 15.363871 168.37369 16.034437 curveto
167.91145 16.646421 167.68033 17.375587 167.68033 18.221937 curveto
167.68033 19.104101 167.92935 19.865819 168.42740 20.507093 curveto
168.96776 21.203709 169.66763 21.552015 170.52701 21.552015 curveto
171.00552 21.552015 171.46776 21.395766 171.91373 21.083265 curveto
172.34992 20.777277 172.66079 20.399673 172.84634 19.950453 curveto
173.04654 20.009047 lineto
fill
0.0000000 0.0000000 0.0000000 setrgbcolor
newpath
149.81323 26.235458 moveto
149.81323 26.291124 149.68432 26.708604 149.42651 27.487900 curveto
145.74829 27.487900 lineto
145.66479 27.228622 lineto
147.62182 25.649523 148.60034 24.213977 148.60034 22.921982 curveto
148.60034 22.166128 148.25757 21.788198 147.57202 21.788193 curveto
146.81030 21.788198 146.23022 22.147085 145.83179 22.864853 curveto
145.63843 22.781357 lineto
145.79663 22.344839 146.06616 21.977163 146.44702 21.678329 curveto
146.84839 21.361929 147.27319 21.203726 147.72144 21.203720 curveto
148.13452 21.203726 148.48169 21.329703 148.76294 21.581650 curveto
149.05590 21.845327 149.20239 22.180776 149.20239 22.587997 curveto
149.20239 23.891712 148.31909 25.328722 146.55249 26.899033 curveto
148.95630 26.899033 lineto
149.11743 26.899033 149.27124 26.774522 149.41772 26.525497 curveto
149.56420 26.276475 149.63159 26.151964 149.61987 26.151962 curveto
149.64331 26.151964 149.67700 26.165147 149.72095 26.191513 curveto
149.76489 26.214952 149.79565 26.229600 149.81323 26.235458 curveto
fill
grestore
0.0000000 0.0000000 0.0000000 setrgbcolor
[] 0 setdash
0.29215884 setlinewidth
0 setlinejoin
0 setlinecap
newpath
171.14947 38.675073 moveto
189.57373 38.675073 189.57373 38.675073 189.57373 38.675073 curveto
stroke
gsave [-0.32137473 0.0000000 0.0000000 -0.32137473 191.18060 38.675073] concat
0.0000000 0.0000000 0.0000000 setrgbcolor
newpath
8.7185878 4.0337352 moveto
-2.2072895 0.016013256 lineto
8.7185884 -4.0017078 lineto
6.9730900 -1.6296469 6.9831476 1.6157441 8.7185878 4.0337352 curveto
closepath
eofill
grestore
0.0000000 0.0000000 0.0000000 setrgbcolor
newpath
185.20879 37.299572 moveto
182.64677 37.299572 lineto
182.64677 37.145763 lineto
183.26787 37.145764 183.57841 36.895276 183.57841 36.394299 curveto
183.57841 31.753674 lineto
183.42021 31.847429 183.26347 31.941179 183.10820 32.034924 curveto
182.92070 32.140397 182.75517 32.212175 182.61162 32.250256 curveto
182.52812 32.056896 lineto
183.11699 31.763933 183.62236 31.406511 184.04424 30.984631 curveto
184.30791 30.984631 lineto
184.30791 36.394299 lineto
184.30790 36.696057 184.38554 36.901135 184.54082 37.009533 curveto
184.66679 37.100353 184.88945 37.145764 185.20879 37.145763 curveto
185.20879 37.299572 lineto
fill
gsave [1.0000000 0.0000000 0.0000000 1.0000000 -47.791260 -18.127710] concat
0.0000000 0.0000000 0.0000000 setrgbcolor
newpath
65.215778 50.567318 moveto
65.020466 52.212826 lineto
59.522419 52.212826 lineto
59.522419 52.032162 lineto
60.300413 52.022396 60.689410 51.801042 60.689411 51.368099 curveto
60.689411 46.104427 lineto
60.689410 45.850527 60.622678 45.679629 60.489216 45.591732 curveto
60.345986 45.497338 60.062783 45.450137 59.639606 45.450130 curveto
59.639606 45.279232 lineto
64.800739 45.279232 lineto
64.854450 46.778255 lineto
64.673786 46.778255 lineto
64.595656 46.026309 64.353143 45.650332 63.946247 45.650326 curveto
61.573200 45.650326 lineto
61.573200 48.404232 lineto
63.462849 48.404232 lineto
63.765579 48.404236 63.960891 48.119405 64.048786 47.549740 curveto
64.209919 47.549740 lineto
64.209919 49.659115 lineto
64.048786 49.659115 lineto
63.941360 49.050394 63.746048 48.746032 63.462849 48.746029 curveto
61.573200 48.746029 lineto
61.573200 51.280209 lineto
61.573198 51.641537 61.711544 51.822201 61.988239 51.822201 curveto
64.053669 51.822201 lineto
64.541945 51.822201 64.864211 51.399025 65.020466 50.552670 curveto
65.215778 50.567318 lineto
fill
0.0000000 0.0000000 0.0000000 setrgbcolor
[] 0 setdash
0.35433072 setlinewidth
0 setlinejoin
0 setlinecap
newpath
58.411522 43.069670 moveto
65.735852 43.069670 65.735852 43.069670 65.735852 43.069670 curveto
stroke
gsave [-0.21259843 0.0000000 0.0000000 -0.21259843 66.798844 43.069670] concat
0.0000000 0.0000000 0.0000000 setrgbcolor
newpath
8.7185878 4.0337352 moveto
-2.2072895 0.016013256 lineto
8.7185884 -4.0017078 lineto
6.9730900 -1.6296469 6.9831476 1.6157441 8.7185878 4.0337352 curveto
closepath
eofill
grestore
grestore
0.0000000 0.0000000 0.0000000 setrgbcolor
newpath
22.369896 35.502201 moveto
22.369892 35.557866 22.240985 35.975346 21.983177 36.754642 curveto
18.304955 36.754642 lineto
18.221458 36.495365 lineto
20.178487 34.916265 21.157002 33.480720 21.157005 32.188725 curveto
21.157002 31.432870 20.814229 31.054941 20.128685 31.054935 curveto
19.366965 31.054941 18.786887 31.413828 18.388451 32.131596 curveto
18.195091 32.048100 lineto
18.353294 31.611581 18.622825 31.243906 19.003685 30.945072 curveto
19.405051 30.628672 19.829855 30.470469 20.278099 30.470463 curveto
20.691182 30.470469 21.038350 30.596446 21.319603 30.848392 curveto
21.612568 31.112070 21.759052 31.447519 21.759056 31.854740 curveto
21.759052 33.158455 20.875752 34.595465 19.109154 36.165775 curveto
21.512962 36.165775 lineto
21.674091 36.165776 21.827900 36.041264 21.974388 35.792240 curveto
22.120868 35.543218 22.188251 35.418706 22.176537 35.418705 curveto
22.199970 35.418706 22.233661 35.431890 22.277611 35.458256 curveto
22.321552 35.481695 22.352313 35.496343 22.369896 35.502201 curveto
fill
0.0000000 0.0000000 0.0000000 setrgbcolor
[] 0 setdash
0.32433730 setlinewidth
0 setlinejoin
0 setlinecap
newpath
170.10711 43.069671 moveto
192.81337 43.069671 192.81337 43.069671 192.81337 43.069671 curveto
stroke
gsave [-0.35677103 0.0000000 0.0000000 -0.35677103 194.59723 43.069671] concat
0.0000000 0.0000000 0.0000000 setrgbcolor
newpath
8.7185878 4.0337352 moveto
-2.2072895 0.016013256 lineto
8.7185884 -4.0017078 lineto
6.9730900 -1.6296469 6.9831476 1.6157441 8.7185878 4.0337352 curveto
closepath
eofill
grestore
gsave [1.0000000 0.0000000 0.0000000 1.0000000 160.03660 0.36621600] concat
0.0000000 0.0000000 0.0000000 setrgbcolor
newpath
22.412413 48.689911 moveto
22.236631 48.689911 lineto
22.236627 48.042131 21.950169 47.718238 21.377256 47.718231 curveto
19.175108 47.718231 lineto
19.175108 50.340302 lineto
20.996397 50.340302 lineto
21.191706 50.340305 21.346328 50.263808 21.460264 50.110809 curveto
21.557916 49.977350 21.606744 49.806452 21.606749 49.598114 curveto
21.743467 49.598114 lineto
21.743467 51.502411 lineto
21.606749 51.502411 lineto
21.606744 50.968560 21.403294 50.701633 20.996397 50.701630 curveto
19.175108 50.701630 lineto
19.175108 53.352997 lineto
19.175106 53.789195 19.469702 54.007294 20.058897 54.007294 curveto
20.058897 54.227020 lineto
17.505186 54.227020 lineto
17.505186 54.007294 lineto
18.045550 54.007294 18.315732 53.769664 18.315733 53.294403 curveto
18.315733 48.030731 lineto
18.315732 47.675920 18.045550 47.500139 17.505186 47.503387 curveto
17.505186 47.293427 lineto
22.295225 47.293427 lineto
22.412413 48.689911 lineto
fill
0.0000000 0.0000000 0.0000000 setrgbcolor
[] 0 setdash
0.35433072 setlinewidth
0 setlinejoin
0 setlinecap
newpath
16.296632 45.083863 moveto
23.620962 45.083863 23.620962 45.083863 23.620962 45.083863 curveto
stroke
gsave [-0.21259843 0.0000000 0.0000000 -0.21259843 24.683954 45.083863] concat
0.0000000 0.0000000 0.0000000 setrgbcolor
newpath
8.7185878 4.0337352 moveto
-2.2072895 0.016013256 lineto
8.7185884 -4.0017078 lineto
6.9730900 -1.6296469 6.9831476 1.6157441 8.7185878 4.0337352 curveto
closepath
eofill
grestore
grestore
grestore
showpage
