%!PS-Adobe-3.0 EPSF-3.0
%%Creator: inkscape 0.44.1
%%Pages: 1
%%Orientation: Portrait
%%BoundingBox: 2 782 158 829
%%HiResBoundingBox: 2.3101396 782.50454 157.297 828.95019
%%DocumentMedia: plain 596 842 0 () ()
%%EndComments
%%Page: 1 1
0 842 translate
0.8 -0.8 scale
gsave [1 0 0 1 0 0] concat
0 0 0 setrgbcolor
[] 0 setdash
0.70866144 setlinewidth
1 setlinejoin
1 setlinecap
newpath
31.523817 16.52877 moveto
191.8144 16.52877 lineto
194.2811 16.52877 196.26692 29.317465 196.26692 45.202974 curveto
196.26692 61.088483 194.2811 73.877178 191.8144 73.877178 curveto
31.523817 73.877178 lineto
29.057123 73.877178 27.071301 61.088483 27.071301 45.202974 curveto
27.071301 29.317465 29.057123 16.52877 31.523817 16.52877 curveto
closepath
stroke
0 0 0 setrgbcolor
[0.99160096 0.99160096] 0 setdash
0.33053365 setlinewidth
0 setlinejoin
0 setlinecap
newpath
9.6528588 45.202974 moveto
179.02636 45.202974 lineto
stroke
0 0 0 setrgbcolor
[1.0629921 1.0629921] 0 setdash
0.35433072 setlinewidth
0 setlinejoin
0 setlinecap
newpath
174.31662 33.0711 moveto
52.763659 33.0711 lineto
34.772612 41.68866 lineto
23.282531 41.68866 lineto
9.6758568 41.68866 lineto
stroke
0 0 0 setrgbcolor
[1.0629921 1.0629921] 0 setdash
0.35433072 setlinewidth
0 setlinejoin
0 setlinecap
newpath
174.46781 57.411928 moveto
52.914844 57.411928 lineto
34.923797 48.794368 lineto
23.433716 48.794368 lineto
9.6758565 48.794368 lineto
stroke
0 0 0 setrgbcolor
[] 0 setdash
1 setlinewidth
0 setlinejoin
0 setlinecap
newpath
174.44959 69.558239 moveto
175.29557 69.558239 184.51228 58.337898 184.51228 57.269294 curveto
184.51228 33.136655 lineto
184.51228 32.157101 175.20874 20.84771 174.36054 20.84771 curveto
173.51234 20.84771 164.38691 32.335202 164.38691 33.136655 curveto
164.47596 57.358344 lineto
164.47596 58.248847 173.60361 69.558239 174.44959 69.558239 curveto
closepath
stroke
gsave [1.692856 0 0 1.692856 -69.6136 -39.61672] concat
gsave
1 1 1 setrgbcolor
newpath
144.12428 41.998352 moveto
144.66434 41.971743 145.12424 42.388456 145.15085 42.928515 curveto
145.17746 43.468573 144.76075 43.928477 144.22069 43.955086 curveto
143.68063 43.981694 143.22073 43.564982 143.19412 43.024923 curveto
143.16755 42.485763 143.58264 42.026455 144.12172 41.998481 curveto
eofill
grestore
0 0 0 setrgbcolor
[] 0 setdash
0.35433072 setlinewidth
1 setlinejoin
1 setlinecap
newpath
144.12428 41.998352 moveto
144.66434 41.971743 145.12424 42.388456 145.15085 42.928515 curveto
145.17746 43.468573 144.76075 43.928477 144.22069 43.955086 curveto
143.68063 43.981694 143.22073 43.564982 143.19412 43.024923 curveto
143.16755 42.485763 143.58264 42.026455 144.12172 41.998481 curveto
stroke
grestore
gsave [1.692856 0 0 1.692856 -69.6136 -15.39503] concat
gsave
1 1 1 setrgbcolor
newpath
144.12428 41.998352 moveto
144.66434 41.971743 145.12424 42.388456 145.15085 42.928515 curveto
145.17746 43.468573 144.76075 43.928477 144.22069 43.955086 curveto
143.68063 43.981694 143.22073 43.564982 143.19412 43.024923 curveto
143.16755 42.485763 143.58264 42.026455 144.12172 41.998481 curveto
eofill
grestore
0 0 0 setrgbcolor
[] 0 setdash
0.35433072 setlinewidth
1 setlinejoin
1 setlinecap
newpath
144.12428 41.998352 moveto
144.66434 41.971743 145.12424 42.388456 145.15085 42.928515 curveto
145.17746 43.468573 144.76075 43.928477 144.22069 43.955086 curveto
143.68063 43.981694 143.22073 43.564982 143.19412 43.024923 curveto
143.16755 42.485763 143.58264 42.026455 144.12172 41.998481 curveto
stroke
grestore
gsave [1.692856 0 0 1.692856 -64.98298 -27.50587] concat
gsave
1 1 1 setrgbcolor
newpath
144.12428 41.998352 moveto
144.66434 41.971743 145.12424 42.388456 145.15085 42.928515 curveto
145.17746 43.468573 144.76075 43.928477 144.22069 43.955086 curveto
143.68063 43.981694 143.22073 43.564982 143.19412 43.024923 curveto
143.16755 42.485763 143.58264 42.026455 144.12172 41.998481 curveto
eofill
grestore
0 0 0 setrgbcolor
[] 0 setdash
0.35433072 setlinewidth
1 setlinejoin
1 setlinecap
newpath
144.12428 41.998352 moveto
144.66434 41.971743 145.12424 42.388456 145.15085 42.928515 curveto
145.17746 43.468573 144.76075 43.928477 144.22069 43.955086 curveto
143.68063 43.981694 143.22073 43.564982 143.19412 43.024923 curveto
143.16755 42.485763 143.58264 42.026455 144.12172 41.998481 curveto
stroke
grestore
0 0 0 setrgbcolor
[] 0 setdash
1 setlinewidth
0 setlinejoin
0 setlinecap
newpath
142.20239 69.558239 moveto
143.04837 69.558239 152.26508 58.337898 152.26508 57.269294 curveto
152.26508 33.136655 lineto
152.26508 32.157101 142.96154 20.84771 142.11334 20.84771 curveto
141.26514 20.84771 132.13971 32.335202 132.13971 33.136655 curveto
132.22876 57.358344 lineto
132.22876 58.248847 141.35641 69.558239 142.20239 69.558239 curveto
closepath
stroke
gsave [1.692856 0 0 1.692856 -101.8608 -39.61672] concat
gsave
1 1 1 setrgbcolor
newpath
144.12428 41.998352 moveto
144.66434 41.971743 145.12424 42.388456 145.15085 42.928515 curveto
145.17746 43.468573 144.76075 43.928477 144.22069 43.955086 curveto
143.68063 43.981694 143.22073 43.564982 143.19412 43.024923 curveto
143.16755 42.485763 143.58264 42.026455 144.12172 41.998481 curveto
eofill
grestore
0 0 0 setrgbcolor
[] 0 setdash
0.35433072 setlinewidth
1 setlinejoin
1 setlinecap
newpath
144.12428 41.998352 moveto
144.66434 41.971743 145.12424 42.388456 145.15085 42.928515 curveto
145.17746 43.468573 144.76075 43.928477 144.22069 43.955086 curveto
143.68063 43.981694 143.22073 43.564982 143.19412 43.024923 curveto
143.16755 42.485763 143.58264 42.026455 144.12172 41.998481 curveto
stroke
grestore
gsave [1.692856 0 0 1.692856 -101.8608 -15.39503] concat
gsave
1 1 1 setrgbcolor
newpath
144.12428 41.998352 moveto
144.66434 41.971743 145.12424 42.388456 145.15085 42.928515 curveto
145.17746 43.468573 144.76075 43.928477 144.22069 43.955086 curveto
143.68063 43.981694 143.22073 43.564982 143.19412 43.024923 curveto
143.16755 42.485763 143.58264 42.026455 144.12172 41.998481 curveto
eofill
grestore
0 0 0 setrgbcolor
[] 0 setdash
0.35433072 setlinewidth
1 setlinejoin
1 setlinecap
newpath
144.12428 41.998352 moveto
144.66434 41.971743 145.12424 42.388456 145.15085 42.928515 curveto
145.17746 43.468573 144.76075 43.928477 144.22069 43.955086 curveto
143.68063 43.981694 143.22073 43.564982 143.19412 43.024923 curveto
143.16755 42.485763 143.58264 42.026455 144.12172 41.998481 curveto
stroke
grestore
gsave [1.692856 0 0 1.692856 -97.23018 -27.50587] concat
gsave
1 1 1 setrgbcolor
newpath
144.12428 41.998352 moveto
144.66434 41.971743 145.12424 42.388456 145.15085 42.928515 curveto
145.17746 43.468573 144.76075 43.928477 144.22069 43.955086 curveto
143.68063 43.981694 143.22073 43.564982 143.19412 43.024923 curveto
143.16755 42.485763 143.58264 42.026455 144.12172 41.998481 curveto
eofill
grestore
0 0 0 setrgbcolor
[] 0 setdash
0.35433072 setlinewidth
1 setlinejoin
1 setlinecap
newpath
144.12428 41.998352 moveto
144.66434 41.971743 145.12424 42.388456 145.15085 42.928515 curveto
145.17746 43.468573 144.76075 43.928477 144.22069 43.955086 curveto
143.68063 43.981694 143.22073 43.564982 143.19412 43.024923 curveto
143.16755 42.485763 143.58264 42.026455 144.12172 41.998481 curveto
stroke
grestore
0 0 0 setrgbcolor
[] 0 setdash
1 setlinewidth
0 setlinejoin
0 setlinecap
newpath
109.95519 69.558239 moveto
110.80117 69.558239 120.01788 58.337898 120.01788 57.269294 curveto
120.01788 33.136655 lineto
120.01788 32.157101 110.71434 20.84771 109.86614 20.84771 curveto
109.01794 20.84771 99.89251 32.335202 99.89251 33.136655 curveto
99.98156 57.358344 lineto
99.98156 58.248847 109.10921 69.558239 109.95519 69.558239 curveto
closepath
stroke
gsave [1.692856 0 0 1.692856 -134.108 -39.61672] concat
gsave
1 1 1 setrgbcolor
newpath
144.12428 41.998352 moveto
144.66434 41.971743 145.12424 42.388456 145.15085 42.928515 curveto
145.17746 43.468573 144.76075 43.928477 144.22069 43.955086 curveto
143.68063 43.981694 143.22073 43.564982 143.19412 43.024923 curveto
143.16755 42.485763 143.58264 42.026455 144.12172 41.998481 curveto
eofill
grestore
0 0 0 setrgbcolor
[] 0 setdash
0.35433072 setlinewidth
1 setlinejoin
1 setlinecap
newpath
144.12428 41.998352 moveto
144.66434 41.971743 145.12424 42.388456 145.15085 42.928515 curveto
145.17746 43.468573 144.76075 43.928477 144.22069 43.955086 curveto
143.68063 43.981694 143.22073 43.564982 143.19412 43.024923 curveto
143.16755 42.485763 143.58264 42.026455 144.12172 41.998481 curveto
stroke
grestore
gsave [1.692856 0 0 1.692856 -134.108 -15.39503] concat
gsave
1 1 1 setrgbcolor
newpath
144.12428 41.998352 moveto
144.66434 41.971743 145.12424 42.388456 145.15085 42.928515 curveto
145.17746 43.468573 144.76075 43.928477 144.22069 43.955086 curveto
143.68063 43.981694 143.22073 43.564982 143.19412 43.024923 curveto
143.16755 42.485763 143.58264 42.026455 144.12172 41.998481 curveto
eofill
grestore
0 0 0 setrgbcolor
[] 0 setdash
0.35433072 setlinewidth
1 setlinejoin
1 setlinecap
newpath
144.12428 41.998352 moveto
144.66434 41.971743 145.12424 42.388456 145.15085 42.928515 curveto
145.17746 43.468573 144.76075 43.928477 144.22069 43.955086 curveto
143.68063 43.981694 143.22073 43.564982 143.19412 43.024923 curveto
143.16755 42.485763 143.58264 42.026455 144.12172 41.998481 curveto
stroke
grestore
gsave [1.692856 0 0 1.692856 -129.4774 -27.50587] concat
gsave
1 1 1 setrgbcolor
newpath
144.12428 41.998352 moveto
144.66434 41.971743 145.12424 42.388456 145.15085 42.928515 curveto
145.17746 43.468573 144.76075 43.928477 144.22069 43.955086 curveto
143.68063 43.981694 143.22073 43.564982 143.19412 43.024923 curveto
143.16755 42.485763 143.58264 42.026455 144.12172 41.998481 curveto
eofill
grestore
0 0 0 setrgbcolor
[] 0 setdash
0.35433072 setlinewidth
1 setlinejoin
1 setlinecap
newpath
144.12428 41.998352 moveto
144.66434 41.971743 145.12424 42.388456 145.15085 42.928515 curveto
145.17746 43.468573 144.76075 43.928477 144.22069 43.955086 curveto
143.68063 43.981694 143.22073 43.564982 143.19412 43.024923 curveto
143.16755 42.485763 143.58264 42.026455 144.12172 41.998481 curveto
stroke
grestore
0 0 0 setrgbcolor
[] 0 setdash
1 setlinewidth
0 setlinejoin
0 setlinecap
newpath
77.70799 69.558239 moveto
78.55397 69.558239 87.77068 58.337898 87.77068 57.269294 curveto
87.77068 33.136655 lineto
87.77068 32.157101 78.46714 20.84771 77.61894 20.84771 curveto
76.77074 20.84771 67.64531 32.335202 67.64531 33.136655 curveto
67.73436 57.358344 lineto
67.73436 58.248847 76.86201 69.558239 77.70799 69.558239 curveto
closepath
stroke
gsave [1.692856 0 0 1.692856 -166.3552 -39.61672] concat
gsave
1 1 1 setrgbcolor
newpath
144.12428 41.998352 moveto
144.66434 41.971743 145.12424 42.388456 145.15085 42.928515 curveto
145.17746 43.468573 144.76075 43.928477 144.22069 43.955086 curveto
143.68063 43.981694 143.22073 43.564982 143.19412 43.024923 curveto
143.16755 42.485763 143.58264 42.026455 144.12172 41.998481 curveto
eofill
grestore
0 0 0 setrgbcolor
[] 0 setdash
0.35433072 setlinewidth
1 setlinejoin
1 setlinecap
newpath
144.12428 41.998352 moveto
144.66434 41.971743 145.12424 42.388456 145.15085 42.928515 curveto
145.17746 43.468573 144.76075 43.928477 144.22069 43.955086 curveto
143.68063 43.981694 143.22073 43.564982 143.19412 43.024923 curveto
143.16755 42.485763 143.58264 42.026455 144.12172 41.998481 curveto
stroke
grestore
gsave [1.692856 0 0 1.692856 -166.3552 -15.39503] concat
gsave
1 1 1 setrgbcolor
newpath
144.12428 41.998352 moveto
144.66434 41.971743 145.12424 42.388456 145.15085 42.928515 curveto
145.17746 43.468573 144.76075 43.928477 144.22069 43.955086 curveto
143.68063 43.981694 143.22073 43.564982 143.19412 43.024923 curveto
143.16755 42.485763 143.58264 42.026455 144.12172 41.998481 curveto
eofill
grestore
0 0 0 setrgbcolor
[] 0 setdash
0.35433072 setlinewidth
1 setlinejoin
1 setlinecap
newpath
144.12428 41.998352 moveto
144.66434 41.971743 145.12424 42.388456 145.15085 42.928515 curveto
145.17746 43.468573 144.76075 43.928477 144.22069 43.955086 curveto
143.68063 43.981694 143.22073 43.564982 143.19412 43.024923 curveto
143.16755 42.485763 143.58264 42.026455 144.12172 41.998481 curveto
stroke
grestore
gsave [1.692856 0 0 1.692856 -161.7246 -27.50587] concat
gsave
1 1 1 setrgbcolor
newpath
144.12428 41.998352 moveto
144.66434 41.971743 145.12424 42.388456 145.15085 42.928515 curveto
145.17746 43.468573 144.76075 43.928477 144.22069 43.955086 curveto
143.68063 43.981694 143.22073 43.564982 143.19412 43.024923 curveto
143.16755 42.485763 143.58264 42.026455 144.12172 41.998481 curveto
eofill
grestore
0 0 0 setrgbcolor
[] 0 setdash
0.35433072 setlinewidth
1 setlinejoin
1 setlinecap
newpath
144.12428 41.998352 moveto
144.66434 41.971743 145.12424 42.388456 145.15085 42.928515 curveto
145.17746 43.468573 144.76075 43.928477 144.22069 43.955086 curveto
143.68063 43.981694 143.22073 43.564982 143.19412 43.024923 curveto
143.16755 42.485763 143.58264 42.026455 144.12172 41.998481 curveto
stroke
grestore
0 0 0 setrgbcolor
[] 0 setdash
0.70866144 setlinewidth
0 setlinejoin
0 setlinecap
newpath
27.062163 38.81614 moveto
4.5355581 38.664955 lineto
4.5355581 38.664955 1.838535 43.067561 4.2331875 44.863551 curveto
6.6521518 46.677774 3.6284464 51.818073 3.6284464 51.818073 curveto
26.910978 51.969258 lineto
26.910978 51.969258 lineto
stroke
gsave
0 0 0 setrgbcolor
newpath
46.025284 64.215263 moveto
43.823135 64.215263 lineto
43.823135 63.995537 lineto
44.272351 63.995537 44.49696 63.775811 44.496964 63.336357 curveto
44.496964 61.114677 lineto
44.49696 60.831478 44.438366 60.588965 44.321182 60.387138 curveto
44.17795 60.146257 43.974499 60.025814 43.710831 60.02581 curveto
43.290906 60.025814 42.776584 60.245541 42.167862 60.68499 curveto
42.167862 63.473076 lineto
42.16786 63.792087 42.418511 63.96624 42.919815 63.995537 curveto
42.890518 64.215263 lineto
40.781143 64.215263 lineto
40.761612 64.176201 lineto
40.790909 64.024834 lineto
40.995987 64.024834 41.162002 63.941826 41.288956 63.77581 curveto
41.406142 63.626071 41.464736 63.445407 41.464737 63.233818 curveto
41.464737 60.543388 lineto
41.464736 60.426205 41.362197 60.333431 41.15712 60.265068 curveto
41.131078 60.255306 40.974828 60.219499 40.68837 60.157646 curveto
40.68837 60.035576 lineto
40.834854 60.016049 41.067601 59.937924 41.386612 59.801201 curveto
41.68609 59.670997 41.886285 59.565203 41.987198 59.483818 curveto
42.167862 59.615654 lineto
42.167862 60.49456 lineto
43.128146 59.889096 43.79058 59.586362 44.155167 59.586357 curveto
44.50998 59.586362 44.785045 59.747494 44.980362 60.069756 curveto
45.146373 60.339942 45.229381 60.662207 45.229385 61.036552 curveto
45.229385 63.575615 lineto
45.229381 63.842542 45.484914 63.976006 45.995987 63.976006 curveto
46.025284 64.215263 lineto
fill
grestore
gsave
0 0 0 setrgbcolor
newpath
50.117081 63.014091 moveto
49.713431 63.873467 49.073784 64.303154 48.198135 64.303154 curveto
47.634983 64.303154 47.159723 64.057386 46.772354 63.565849 curveto
46.411026 63.106866 46.230362 62.589288 46.230362 62.013115 curveto
46.230362 61.358821 46.415909 60.808691 46.787003 60.362724 curveto
47.184137 59.887468 47.703342 59.649838 48.34462 59.649834 curveto
48.855685 59.649838 49.269096 59.80446 49.584854 60.113701 curveto
49.903861 60.422949 50.063366 60.834733 50.06337 61.349052 curveto
46.909073 61.349052 lineto
46.892796 61.485774 46.884658 61.625748 46.884659 61.768974 curveto
46.884658 62.254002 47.03277 62.699965 47.328995 63.106865 curveto
47.654514 63.55934 48.051649 63.785576 48.520401 63.785576 curveto
49.132377 63.785576 49.597872 63.510511 49.916885 62.960381 curveto
49.955948 62.960381 lineto
50.027559 62.957127 50.081269 62.97503 50.117081 63.014091 curveto
49.316299 61.070732 moveto
49.303275 60.738704 49.187716 60.468522 48.96962 60.260185 curveto
48.751518 60.048601 48.474826 59.942807 48.139542 59.942802 curveto
47.862847 59.942807 47.617079 60.064877 47.402237 60.309013 curveto
47.213434 60.523861 47.084853 60.777767 47.016495 61.070732 curveto
49.316299 61.070732 lineto
fill
grestore
gsave
0 0 0 setrgbcolor
newpath
55.737198 63.614677 moveto
55.727432 63.814873 lineto
54.24794 64.234795 lineto
54.24794 63.355888 lineto
53.639213 63.961357 52.976779 64.264091 52.260635 64.264091 curveto
51.550999 64.264091 51.196182 63.780693 51.196182 62.813896 curveto
51.196182 60.655693 lineto
51.196182 60.457129 51.127822 60.300879 50.991104 60.186943 curveto
50.854385 60.073015 50.685114 60.016049 50.483292 60.016045 curveto
50.46376 59.815849 lineto
51.918839 59.55706 lineto
51.918839 62.735771 lineto
51.918837 63.01572 52.008355 63.25335 52.187393 63.448662 curveto
52.369683 63.65374 52.599175 63.756279 52.87587 63.756279 curveto
53.15256 63.756279 53.609916 63.52516 54.24794 63.06292 curveto
54.24794 60.377373 lineto
54.247936 60.133236 53.933809 59.993262 53.305557 59.957451 curveto
53.305557 59.796318 lineto
54.946182 59.493584 lineto
54.946182 63.30706 lineto
54.946178 63.551202 55.082896 63.673272 55.356339 63.673271 curveto
55.427948 63.673272 55.554901 63.65374 55.737198 63.614677 curveto
fill
grestore
gsave
0 0 0 setrgbcolor
newpath
59.101456 63.355888 moveto
58.81174 63.928805 58.412977 64.215263 57.905167 64.215263 curveto
57.602431 64.215263 57.348525 64.12249 57.143448 63.936943 curveto
56.928603 63.741631 56.821182 63.494235 56.821182 63.194756 curveto
56.821182 60.133232 lineto
56.347549 60.133232 lineto
56.274307 59.893974 lineto
56.629125 59.760515 56.887913 59.56032 57.050674 59.293388 curveto
57.171116 59.098081 57.278538 58.782326 57.37294 58.346123 curveto
57.543839 58.346123 lineto
57.543839 59.74749 lineto
59.101456 59.74749 lineto
58.896378 60.133232 lineto
57.543839 60.133232 lineto
57.543839 62.896904 lineto
57.543837 63.066176 57.631728 63.248467 57.80751 63.443779 curveto
57.98329 63.639092 58.155816 63.736748 58.325089 63.736748 curveto
58.439019 63.736748 58.58062 63.64723 58.749893 63.468193 curveto
58.922417 63.285902 59.008679 63.194757 59.008682 63.194756 curveto
59.073784 63.194757 59.104708 63.248467 59.101456 63.355888 curveto
fill
grestore
gsave
0 0 0 setrgbcolor
newpath
63.149307 59.854912 moveto
63.139538 60.040463 63.038627 60.291114 62.846573 60.606865 curveto
62.442924 60.398535 62.164604 60.294369 62.011612 60.294365 curveto
61.816297 60.294369 61.643771 60.38877 61.494034 60.577568 curveto
61.3801 60.750098 61.267795 60.922623 61.15712 61.095146 curveto
61.15712 63.517021 lineto
61.157118 63.868584 61.376845 64.044365 61.816299 64.044365 curveto
61.858615 64.044365 61.918836 64.042737 61.996964 64.039482 curveto
62.075086 64.036227 62.130425 64.034599 62.162979 64.034599 curveto
62.18251 64.215263 lineto
59.765518 64.215263 lineto
59.765518 64.073662 lineto
60.224502 64.060641 60.453994 63.875094 60.453995 63.517021 curveto
60.453995 60.655693 lineto
60.453994 60.46364 60.219619 60.317155 59.75087 60.21624 curveto
59.75087 60.035576 lineto
60.037328 60.003028 60.442601 59.837013 60.96669 59.537529 curveto
61.15712 59.576591 lineto
61.15712 60.728935 lineto
61.547743 59.999773 61.89605 59.63519 62.202042 59.635185 curveto
62.358289 59.63519 62.674044 59.708432 63.149307 59.854912 curveto
fill
grestore
gsave
0 0 0 setrgbcolor
newpath
67.363174 63.014091 moveto
66.959525 63.873467 66.319877 64.303154 65.444229 64.303154 curveto
64.881077 64.303154 64.405817 64.057386 64.018448 63.565849 curveto
63.657119 63.106866 63.476456 62.589288 63.476456 62.013115 curveto
63.476456 61.358821 63.662002 60.808691 64.033096 60.362724 curveto
64.430231 59.887468 64.949436 59.649838 65.590714 59.649834 curveto
66.101779 59.649838 66.51519 59.80446 66.830948 60.113701 curveto
67.149955 60.422949 67.30946 60.834733 67.309464 61.349052 curveto
64.155167 61.349052 lineto
64.13889 61.485774 64.130752 61.625748 64.130753 61.768974 curveto
64.130752 62.254002 64.278864 62.699965 64.575089 63.106865 curveto
64.900608 63.55934 65.297743 63.785576 65.766495 63.785576 curveto
66.378471 63.785576 66.843965 63.510511 67.162979 62.960381 curveto
67.202042 62.960381 lineto
67.273652 62.957127 67.327363 62.97503 67.363174 63.014091 curveto
66.562393 61.070732 moveto
66.549369 60.738704 66.433809 60.468522 66.215714 60.260185 curveto
65.997612 60.048601 65.72092 59.942807 65.385635 59.942802 curveto
65.108941 59.942807 64.863173 60.064877 64.648331 60.309013 curveto
64.459528 60.523861 64.330947 60.777767 64.262589 61.070732 curveto
66.562393 61.070732 lineto
fill
grestore
gsave
0 0 0 setrgbcolor
newpath
49.199627 26.298851 moveto
49.199622 26.946639 48.960364 27.537459 48.481853 28.071312 curveto
47.990313 28.621442 47.425535 28.896507 46.787518 28.896507 curveto
46.448974 28.896507 46.11857 28.803734 45.796307 28.618187 curveto
45.796307 30.205101 lineto
45.796305 30.660828 46.144612 30.914734 46.841228 30.96682 curveto
46.831463 31.206078 lineto
44.297283 31.206078 lineto
44.238689 31.05471 lineto
44.277752 30.986351 lineto
44.821371 30.970073 45.093181 30.810568 45.093182 30.507835 curveto
45.093182 25.576195 lineto
45.093181 25.306016 45.047608 25.130235 44.956463 25.048851 curveto
44.868572 24.967475 44.68628 24.917019 44.409588 24.897484 curveto
44.355877 24.658226 lineto
44.541424 24.625678 44.764405 24.545926 45.024822 24.418968 curveto
45.275472 24.295275 45.475667 24.169949 45.625408 24.042992 curveto
45.796307 24.101585 lineto
45.796307 25.039085 lineto
46.492919 24.531277 47.090249 24.277371 47.588299 24.277367 curveto
48.063555 24.277371 48.459063 24.50198 48.774822 24.951195 curveto
49.058021 25.358099 49.199622 25.807318 49.199627 26.298851 curveto
48.516033 26.586937 moveto
48.516029 26.121445 48.395586 25.703151 48.154705 25.332054 curveto
47.878009 24.908881 47.516681 24.697293 47.070721 24.697289 curveto
46.618244 24.697293 46.19344 24.887722 45.796307 25.268578 curveto
45.796307 27.885765 lineto
46.209716 28.292667 46.671955 28.496117 47.183025 28.496117 curveto
47.342528 28.496117 47.526447 28.422875 47.734783 28.27639 curveto
47.913816 28.146182 48.057045 28.004581 48.164471 27.851585 curveto
48.398842 27.513045 48.516029 27.091496 48.516033 26.586937 curveto
fill
grestore
gsave
0 0 0 setrgbcolor
newpath
54.79533 28.837914 moveto
52.593182 28.837914 lineto
52.593182 28.618187 lineto
53.042397 28.618187 53.267006 28.398461 53.26701 27.959007 curveto
53.26701 25.893578 lineto
53.267006 25.616888 53.20353 25.37112 53.07658 25.156273 curveto
52.923582 24.899115 52.718504 24.770535 52.461346 24.770531 curveto
52.126057 24.770535 51.618245 25.003282 50.937908 25.468773 curveto
50.937908 28.095726 lineto
50.937907 28.414737 51.188558 28.58889 51.689861 28.618187 curveto
51.787518 28.837914 lineto
49.551189 28.837914 lineto
49.536541 28.798851 lineto
49.560955 28.647484 lineto
49.831137 28.647484 50.015056 28.58238 50.112713 28.452171 curveto
50.197348 28.341495 50.239665 28.142927 50.239666 27.856468 curveto
50.239666 22.65139 lineto
50.239665 22.527698 50.177816 22.428415 50.054119 22.353539 curveto
49.953207 22.291696 49.837648 22.260772 49.707439 22.260765 curveto
49.707439 22.260772 49.624432 22.277048 49.458416 22.309593 curveto
49.458416 22.293324 49.460044 22.26891 49.463299 22.236351 curveto
49.466554 22.203806 49.468182 22.177764 49.468182 22.158226 curveto
49.468182 22.11266 49.515382 22.073597 49.609783 22.041039 curveto
49.798585 21.985707 49.987387 21.930368 50.176189 21.875023 curveto
50.378012 21.809926 50.563558 21.71878 50.73283 21.601585 curveto
50.937908 21.601585 lineto
50.937908 25.175804 lineto
51.728922 24.57685 52.394611 24.277371 52.934978 24.277367 curveto
53.299558 24.277371 53.577878 24.451525 53.769939 24.799828 curveto
53.92293 25.079779 53.999427 25.418321 53.999432 25.815453 curveto
53.999432 28.198265 lineto
53.999427 28.465193 54.256588 28.598656 54.770916 28.598656 curveto
54.79533 28.837914 lineto
fill
grestore
gsave
0 0 0 setrgbcolor
newpath
59.707439 28.349632 moveto
59.381914 28.587263 59.215899 28.709333 59.209393 28.715843 curveto
58.9978 28.846052 58.802488 28.911156 58.623455 28.911156 curveto
58.343504 28.911156 58.151447 28.69794 58.047283 28.271507 curveto
57.653401 28.557966 57.435302 28.712588 57.392986 28.735374 curveto
57.178141 28.855817 56.930745 28.916038 56.650799 28.916039 curveto
56.374105 28.916038 56.13973 28.821637 55.947674 28.632835 curveto
55.758871 28.440778 55.66447 28.208031 55.664471 27.934593 curveto
55.66447 27.592798 55.799561 27.31285 56.069744 27.094749 curveto
56.229248 26.967798 56.514079 26.819686 56.924236 26.650414 curveto
58.027752 26.196312 lineto
58.027752 25.468773 lineto
58.027749 25.211615 57.934976 24.995144 57.749432 24.819359 curveto
57.567138 24.643582 57.345784 24.555691 57.085369 24.555687 curveto
56.671956 24.555691 56.465251 24.775418 56.465252 25.214867 curveto
56.465251 25.244167 56.471761 25.28323 56.484783 25.332054 curveto
56.497803 25.380886 56.504313 25.418321 56.504314 25.444359 curveto
56.504313 25.564805 56.413167 25.672227 56.230877 25.766624 curveto
56.071371 25.851263 55.924887 25.893581 55.791424 25.893578 curveto
55.736085 25.893581 55.708416 25.848008 55.708416 25.756859 curveto
55.708416 25.32392 55.890707 24.969102 56.255291 24.692406 curveto
56.587321 24.438504 56.977946 24.311551 57.427166 24.311546 curveto
57.876382 24.311551 58.205158 24.394559 58.413494 24.56057 curveto
58.644611 24.742866 58.76017 25.05211 58.760174 25.488304 curveto
58.760174 28.002953 lineto
58.76017 28.282901 58.856199 28.422875 59.04826 28.422874 curveto
59.168699 28.422875 59.38517 28.331729 59.697674 28.149437 curveto
59.707439 28.349632 lineto
58.032635 27.944359 moveto
58.027752 26.479515 lineto
57.036541 26.914085 lineto
56.590576 27.1094 56.367595 27.423527 56.367596 27.856468 curveto
56.367595 28.042016 56.427816 28.190128 56.54826 28.300804 curveto
56.668701 28.411482 56.821696 28.46682 57.007244 28.46682 curveto
57.199299 28.46682 57.384846 28.413109 57.563885 28.305687 curveto
57.642007 28.256859 57.798257 28.136417 58.032635 27.944359 curveto
fill
grestore
gsave
0 0 0 setrgbcolor
newpath
63.086346 27.622093 moveto
63.086342 27.963891 62.930092 28.255232 62.617596 28.496117 curveto
62.331135 28.723981 62.012125 28.837914 61.660564 28.837914 curveto
61.543375 28.837914 61.369222 28.816755 61.138103 28.774437 curveto
60.906982 28.728864 60.732829 28.706078 60.615643 28.706078 curveto
60.491944 28.706078 60.408936 28.769554 60.366619 28.896507 curveto
60.176189 28.857445 lineto
60.127361 27.597679 lineto
60.239666 27.578148 lineto
60.529379 28.278018 60.946045 28.627953 61.489666 28.627953 curveto
62.121174 28.627953 62.436929 28.343122 62.436932 27.77346 curveto
62.436929 27.444686 62.239989 27.189152 61.846111 27.006859 curveto
61.481526 26.850611 61.115316 26.694361 60.747478 26.538109 curveto
60.353598 26.297226 60.156658 25.942409 60.156658 25.473656 curveto
60.156658 25.135118 60.322673 24.851915 60.654705 24.624046 curveto
60.947673 24.418973 61.269938 24.316434 61.621502 24.316429 curveto
62.158609 24.316434 62.563882 24.397814 62.837322 24.56057 curveto
62.900799 25.659203 lineto
62.788494 25.678734 lineto
62.580158 25.236029 62.441812 24.973985 62.373455 24.892601 curveto
62.191161 24.671251 61.927489 24.560574 61.582439 24.56057 curveto
61.361084 24.560574 61.164144 24.628933 60.991619 24.765648 curveto
60.802816 24.908881 60.708415 25.087917 60.708416 25.302757 curveto
60.708415 25.566432 60.913493 25.794297 61.32365 25.986351 curveto
62.072346 26.334661 62.453205 26.513697 62.466228 26.52346 curveto
62.879637 26.7969 63.086342 27.163111 63.086346 27.622093 curveto
fill
grestore
gsave
0 0 0 setrgbcolor
newpath
67.749432 27.636742 moveto
67.345782 28.496117 66.706134 28.925804 65.830486 28.925804 curveto
65.267334 28.925804 64.792074 28.680036 64.404705 28.188499 curveto
64.043377 27.729516 63.862713 27.211939 63.862713 26.635765 curveto
63.862713 25.981471 64.048259 25.431341 64.419353 24.985374 curveto
64.816488 24.510118 65.335693 24.272488 65.976971 24.272484 curveto
66.488036 24.272488 66.901447 24.427111 67.217205 24.736351 curveto
67.536212 25.0456 67.695717 25.457383 67.695721 25.971703 curveto
64.541424 25.971703 lineto
64.525147 26.108424 64.517009 26.248398 64.51701 26.391624 curveto
64.517009 26.876652 64.665121 27.322616 64.961346 27.729515 curveto
65.286865 28.18199 65.684 28.408226 66.152752 28.408226 curveto
66.764728 28.408226 67.230222 28.133162 67.549236 27.583031 curveto
67.588299 27.583031 lineto
67.65991 27.579777 67.71362 27.59768 67.749432 27.636742 curveto
66.94865 25.693382 moveto
66.935626 25.361354 66.820067 25.091172 66.601971 24.882835 curveto
66.383869 24.671251 66.107177 24.565457 65.771893 24.565453 curveto
65.495198 24.565457 65.24943 24.687527 65.034588 24.931664 curveto
64.845785 25.146511 64.717204 25.400417 64.648846 25.693382 curveto
66.94865 25.693382 lineto
fill
grestore
gsave
0 0 0 setrgbcolor
newpath
49.167969 43.248249 moveto
48.878253 43.821166 48.47949 44.107624 47.97168 44.107624 curveto
47.668944 44.107624 47.415038 44.014851 47.209961 43.829304 curveto
46.995116 43.633992 46.887695 43.386596 46.887695 43.087116 curveto
46.887695 40.025593 lineto
46.414062 40.025593 lineto
46.34082 39.786335 lineto
46.695638 39.652876 46.954426 39.452681 47.117188 39.185749 curveto
47.237629 38.990442 47.345051 38.674687 47.439453 38.238483 curveto
47.610352 38.238483 lineto
47.610352 39.639851 lineto
49.167969 39.639851 lineto
48.962891 40.025593 lineto
47.610352 40.025593 lineto
47.610352 42.789265 lineto
47.61035 42.958537 47.698241 43.140828 47.874023 43.33614 curveto
48.049803 43.531453 48.222329 43.629109 48.391602 43.629108 curveto
48.505532 43.629109 48.647133 43.539591 48.816406 43.360554 curveto
48.98893 43.178263 49.075192 43.087117 49.075195 43.087116 curveto
49.140297 43.087117 49.171221 43.140828 49.167969 43.248249 curveto
fill
grestore
gsave
0 0 0 setrgbcolor
newpath
53.699219 42.906452 moveto
53.295569 43.765828 52.655922 44.195515 51.780273 44.195515 curveto
51.217121 44.195515 50.741861 43.949747 50.354492 43.45821 curveto
49.993164 42.999227 49.8125 42.481649 49.8125 41.905476 curveto
49.8125 41.251182 49.998047 40.701052 50.369141 40.255085 curveto
50.766275 39.779829 51.28548 39.542199 51.926758 39.542194 curveto
52.437823 39.542199 52.851234 39.696821 53.166992 40.006062 curveto
53.485999 40.31531 53.645504 40.727094 53.645508 41.241413 curveto
50.491211 41.241413 lineto
50.474934 41.378135 50.466796 41.518108 50.466797 41.661335 curveto
50.466796 42.146363 50.614908 42.592326 50.911133 42.999226 curveto
51.236652 43.4517 51.633787 43.677937 52.102539 43.677937 curveto
52.714515 43.677937 53.18001 43.402872 53.499023 42.852741 curveto
53.538086 42.852741 lineto
53.609697 42.849487 53.663408 42.867391 53.699219 42.906452 curveto
52.898438 40.963093 moveto
52.885414 40.631065 52.769854 40.360883 52.551758 40.152546 curveto
52.333656 39.940962 52.056964 39.835167 51.72168 39.835163 curveto
51.444985 39.835167 51.199217 39.957238 50.984375 40.201374 curveto
50.795572 40.416221 50.666991 40.670127 50.598633 40.963093 curveto
52.898438 40.963093 lineto
fill
grestore
gsave
0 0 0 setrgbcolor
newpath
57.551758 39.747272 moveto
57.541989 39.932824 57.441077 40.183474 57.249023 40.499226 curveto
56.845375 40.290896 56.567055 40.18673 56.414062 40.186726 curveto
56.218748 40.18673 56.046222 40.28113 55.896484 40.469929 curveto
55.78255 40.642458 55.670246 40.814984 55.55957 40.987507 curveto
55.55957 43.409382 lineto
55.559569 43.760945 55.779295 43.936726 56.21875 43.936726 curveto
56.261066 43.936726 56.321287 43.935098 56.399414 43.931843 curveto
56.477537 43.928588 56.532875 43.92696 56.56543 43.92696 curveto
56.584961 44.107624 lineto
54.167969 44.107624 lineto
54.167969 43.966022 lineto
54.626953 43.953002 54.856445 43.767455 54.856445 43.409382 curveto
54.856445 40.548054 lineto
54.856445 40.356 54.62207 40.209516 54.15332 40.108601 curveto
54.15332 39.927937 lineto
54.439778 39.895389 54.845051 39.729373 55.369141 39.42989 curveto
55.55957 39.468952 lineto
55.55957 40.621296 lineto
55.950193 39.892133 56.2985 39.527551 56.604492 39.527546 curveto
56.76074 39.527551 57.076494 39.600793 57.551758 39.747272 curveto
fill
grestore
gsave
0 0 0 setrgbcolor
newpath
61.282227 39.747272 moveto
61.272457 39.932824 61.171546 40.183474 60.979492 40.499226 curveto
60.575844 40.290896 60.297524 40.18673 60.144531 40.186726 curveto
59.949217 40.18673 59.776691 40.28113 59.626953 40.469929 curveto
59.513019 40.642458 59.400715 40.814984 59.290039 40.987507 curveto
59.290039 43.409382 lineto
59.290038 43.760945 59.509764 43.936726 59.949219 43.936726 curveto
59.991534 43.936726 60.051756 43.935098 60.129883 43.931843 curveto
60.208005 43.928588 60.263344 43.92696 60.295898 43.92696 curveto
60.31543 44.107624 lineto
57.898438 44.107624 lineto
57.898438 43.966022 lineto
58.357421 43.953002 58.586913 43.767455 58.586914 43.409382 curveto
58.586914 40.548054 lineto
58.586913 40.356 58.352539 40.209516 57.883789 40.108601 curveto
57.883789 39.927937 lineto
58.170247 39.895389 58.57552 39.729373 59.099609 39.42989 curveto
59.290039 39.468952 lineto
59.290039 40.621296 lineto
59.680662 39.892133 60.028969 39.527551 60.334961 39.527546 curveto
60.491208 39.527551 60.806963 39.600793 61.282227 39.747272 curveto
fill
grestore
gsave
0 0 0 setrgbcolor
newpath
65.496094 42.906452 moveto
65.092444 43.765828 64.452797 44.195515 63.577148 44.195515 curveto
63.013996 44.195515 62.538736 43.949747 62.151367 43.45821 curveto
61.790039 42.999227 61.609375 42.481649 61.609375 41.905476 curveto
61.609375 41.251182 61.794922 40.701052 62.166016 40.255085 curveto
62.56315 39.779829 63.082355 39.542199 63.723633 39.542194 curveto
64.234698 39.542199 64.648109 39.696821 64.963867 40.006062 curveto
65.282874 40.31531 65.442379 40.727094 65.442383 41.241413 curveto
62.288086 41.241413 lineto
62.271809 41.378135 62.263671 41.518108 62.263672 41.661335 curveto
62.263671 42.146363 62.411783 42.592326 62.708008 42.999226 curveto
63.033527 43.4517 63.430662 43.677937 63.899414 43.677937 curveto
64.51139 43.677937 64.976885 43.402872 65.295898 42.852741 curveto
65.334961 42.852741 lineto
65.406572 42.849487 65.460283 42.867391 65.496094 42.906452 curveto
64.695312 40.963093 moveto
64.682289 40.631065 64.566729 40.360883 64.348633 40.152546 curveto
64.130531 39.940962 63.853839 39.835167 63.518555 39.835163 curveto
63.24186 39.835167 62.996092 39.957238 62.78125 40.201374 curveto
62.592447 40.416221 62.463866 40.670127 62.395508 40.963093 curveto
64.695312 40.963093 lineto
fill
grestore
grestore
showpage
%%EOF
