%!PS-Adobe-2.0 EPSF-2.0
%%Title: NuageEclair.fig
%%Creator: fig2dev Version 3.2 Patchlevel 5-alpha5
%%CreationDate: Tue Dec 14 21:25:32 2004
%%For: guyotv@localhost ()
%%BoundingBox: 0 0 164 246
%Magnification: 1.0000
%%EndComments
/$F2psDict 200 dict def
$F2psDict begin
$F2psDict /mtrx matrix put
/col-1 {0 setgray} bind def
/col0 {0.000 0.000 0.000 srgb} bind def
/col1 {0.000 0.000 1.000 srgb} bind def
/col2 {0.000 1.000 0.000 srgb} bind def
/col3 {0.000 1.000 1.000 srgb} bind def
/col4 {1.000 0.000 0.000 srgb} bind def
/col5 {1.000 0.000 1.000 srgb} bind def
/col6 {1.000 1.000 0.000 srgb} bind def
/col7 {1.000 1.000 1.000 srgb} bind def
/col8 {0.000 0.000 0.560 srgb} bind def
/col9 {0.000 0.000 0.690 srgb} bind def
/col10 {0.000 0.000 0.820 srgb} bind def
/col11 {0.530 0.810 1.000 srgb} bind def
/col12 {0.000 0.560 0.000 srgb} bind def
/col13 {0.000 0.690 0.000 srgb} bind def
/col14 {0.000 0.820 0.000 srgb} bind def
/col15 {0.000 0.560 0.560 srgb} bind def
/col16 {0.000 0.690 0.690 srgb} bind def
/col17 {0.000 0.820 0.820 srgb} bind def
/col18 {0.560 0.000 0.000 srgb} bind def
/col19 {0.690 0.000 0.000 srgb} bind def
/col20 {0.820 0.000 0.000 srgb} bind def
/col21 {0.560 0.000 0.560 srgb} bind def
/col22 {0.690 0.000 0.690 srgb} bind def
/col23 {0.820 0.000 0.820 srgb} bind def
/col24 {0.500 0.190 0.000 srgb} bind def
/col25 {0.630 0.250 0.000 srgb} bind def
/col26 {0.750 0.380 0.000 srgb} bind def
/col27 {1.000 0.500 0.500 srgb} bind def
/col28 {1.000 0.630 0.630 srgb} bind def
/col29 {1.000 0.750 0.750 srgb} bind def
/col30 {1.000 0.880 0.880 srgb} bind def
/col31 {1.000 0.840 0.000 srgb} bind def

end
save
newpath 0 246 moveto 0 0 lineto 164 0 lineto 164 246 lineto closepath clip newpath
-21.9 261.5 translate
1 -1 scale

/cp {closepath} bind def
/ef {eofill} bind def
/gr {grestore} bind def
/gs {gsave} bind def
/sa {save} bind def
/rs {restore} bind def
/l {lineto} bind def
/m {moveto} bind def
/rm {rmoveto} bind def
/n {newpath} bind def
/s {stroke} bind def
/sh {show} bind def
/slc {setlinecap} bind def
/slj {setlinejoin} bind def
/slw {setlinewidth} bind def
/srgb {setrgbcolor} bind def
/rot {rotate} bind def
/sc {scale} bind def
/sd {setdash} bind def
/ff {findfont} bind def
/sf {setfont} bind def
/scf {scalefont} bind def
/sw {stringwidth} bind def
/tr {translate} bind def
/tnt {dup dup currentrgbcolor
  4 -2 roll dup 1 exch sub 3 -1 roll mul add
  4 -2 roll dup 1 exch sub 3 -1 roll mul add
  4 -2 roll dup 1 exch sub 3 -1 roll mul add srgb}
  bind def
/shd {dup dup currentrgbcolor 4 -2 roll mul 4 -2 roll mul
  4 -2 roll mul srgb} bind def
 /DrawEllipse {
	/endangle exch def
	/startangle exch def
	/yrad exch def
	/xrad exch def
	/y exch def
	/x exch def
	/savematrix mtrx currentmatrix def
	x y tr xrad yrad sc 0 0 1 startangle endangle arc
	closepath
	savematrix setmatrix
	} def

/$F2psBegin {$F2psDict begin /$F2psEnteredState save def} def
/$F2psEnd {$F2psEnteredState restore end} def

$F2psBegin
10 setmiterlimit
0 slj 0 slc
 0.06299 0.06299 sc
%
% Fig objects follow
%
% 
% here starts figure with depth 50
% Ellipse
7.500 slw
n 855 540 45 45 0 360 DrawEllipse gs col0 s gr

% Polyline
0 slj
0 slc
n 855 495 m
 855 585 l gs col0 s gr 
% Polyline
n 810 540 m
 900 540 l gs col0 s gr 
% Ellipse
n 1080 585 45 45 0 360 DrawEllipse gs col0 s gr

% Polyline
n 1080 540 m
 1080 630 l gs col0 s gr 
% Polyline
n 1035 585 m
 1125 585 l gs col0 s gr 
% Ellipse
n 1035 810 45 45 0 360 DrawEllipse gs col0 s gr

% Polyline
n 1035 765 m
 1035 855 l gs col0 s gr 
% Polyline
n 990 810 m
 1080 810 l gs col0 s gr 
% Ellipse
n 1260 855 45 45 0 360 DrawEllipse gs col0 s gr

% Polyline
n 1260 810 m
 1260 900 l gs col0 s gr 
% Polyline
n 1215 855 m
 1305 855 l gs col0 s gr 
% Ellipse
n 1575 720 45 45 0 360 DrawEllipse gs col0 s gr

% Polyline
n 1575 675 m
 1575 765 l gs col0 s gr 
% Polyline
n 1530 720 m
 1620 720 l gs col0 s gr 
% Ellipse
n 1800 630 45 45 0 360 DrawEllipse gs col0 s gr

% Polyline
n 1800 585 m
 1800 675 l gs col0 s gr 
% Polyline
n 1755 630 m
 1845 630 l gs col0 s gr 
% Ellipse
n 1845 900 45 45 0 360 DrawEllipse gs col0 s gr

% Polyline
n 1845 855 m
 1845 945 l gs col0 s gr 
% Polyline
n 1800 900 m
 1890 900 l gs col0 s gr 
% Ellipse
n 1575 1035 45 45 0 360 DrawEllipse gs col0 s gr

% Polyline
n 1575 990 m
 1575 1080 l gs col0 s gr 
% Polyline
n 1530 1035 m
 1620 1035 l gs col0 s gr 
% Ellipse
n 2070 720 45 45 0 360 DrawEllipse gs col0 s gr

% Polyline
n 2070 675 m
 2070 765 l gs col0 s gr 
% Polyline
n 2025 720 m
 2115 720 l gs col0 s gr 
% Ellipse
n 720 810 45 45 0 360 DrawEllipse gs col0 s gr

% Polyline
n 720 765 m
 720 855 l gs col0 s gr 
% Polyline
n 675 810 m
 765 810 l gs col0 s gr 
% Ellipse
n 2295 585 45 45 0 360 DrawEllipse gs col0 s gr

% Polyline
n 2295 540 m
 2295 630 l gs col0 s gr 
% Polyline
n 2250 585 m
 2340 585 l gs col0 s gr 
% Ellipse
n 2340 855 45 45 0 360 DrawEllipse gs col0 s gr

% Polyline
n 2340 810 m
 2340 900 l gs col0 s gr 
% Polyline
n 2295 855 m
 2385 855 l gs col0 s gr 
% Ellipse
n 1350 2115 45 45 0 360 DrawEllipse gs col0 s gr

% Polyline
n 1305 2115 m
 1395 2115 l gs col0 s gr 
% Ellipse
n 1170 2205 45 45 0 360 DrawEllipse gs col0 s gr

% Polyline
n 1125 2205 m
 1215 2205 l gs col0 s gr 
% Ellipse
n 810 2430 45 45 0 360 DrawEllipse gs col0 s gr

% Polyline
n 765 2430 m
 855 2430 l gs col0 s gr 
% Ellipse
n 945 2475 45 45 0 360 DrawEllipse gs col0 s gr

% Polyline
n 900 2475 m
 990 2475 l gs col0 s gr 
% Ellipse
n 945 2655 45 45 0 360 DrawEllipse gs col0 s gr

% Polyline
n 900 2655 m
 990 2655 l gs col0 s gr 
% Ellipse
n 1395 2520 45 45 0 360 DrawEllipse gs col0 s gr

% Polyline
n 1350 2520 m
 1440 2520 l gs col0 s gr 
% Ellipse
n 1845 2475 45 45 0 360 DrawEllipse gs col0 s gr

% Polyline
n 1800 2475 m
 1890 2475 l gs col0 s gr 
% Ellipse
n 2025 2340 45 45 0 360 DrawEllipse gs col0 s gr

% Polyline
n 1980 2340 m
 2070 2340 l gs col0 s gr 
% Ellipse
n 1620 2340 45 45 0 360 DrawEllipse gs col0 s gr

% Polyline
n 1575 2340 m
 1665 2340 l gs col0 s gr 
% Ellipse
n 1710 2610 45 45 0 360 DrawEllipse gs col0 s gr

% Polyline
n 1665 2610 m
 1755 2610 l gs col0 s gr 
% Ellipse
n 2205 2565 45 45 0 360 DrawEllipse gs col0 s gr

% Polyline
n 2160 2565 m
 2250 2565 l gs col0 s gr 
% Ellipse
n 2430 2430 45 45 0 360 DrawEllipse gs col0 s gr

% Polyline
n 2385 2430 m
 2475 2430 l gs col0 s gr 
% Ellipse
n 2520 2520 45 45 0 360 DrawEllipse gs col0 s gr

% Polyline
n 2475 2520 m
 2565 2520 l gs col0 s gr 
% Ellipse
n 450 4050 45 45 0 360 DrawEllipse gs col0 s gr

% Polyline
n 450 4005 m
 450 4095 l gs col0 s gr 
% Polyline
n 405 4050 m
 495 4050 l gs col0 s gr 
% Ellipse
n 630 4005 45 45 0 360 DrawEllipse gs col0 s gr

% Polyline
n 630 3960 m
 630 4050 l gs col0 s gr 
% Polyline
n 585 4005 m
 675 4005 l gs col0 s gr 
% Ellipse
n 810 4050 45 45 0 360 DrawEllipse gs col0 s gr

% Polyline
n 810 4005 m
 810 4095 l gs col0 s gr 
% Polyline
n 765 4050 m
 855 4050 l gs col0 s gr 
% Ellipse
n 1035 4095 45 45 0 360 DrawEllipse gs col0 s gr

% Polyline
n 1035 4050 m
 1035 4140 l gs col0 s gr 
% Polyline
n 990 4095 m
 1080 4095 l gs col0 s gr 
% Ellipse
n 1170 4005 45 45 0 360 DrawEllipse gs col0 s gr

% Polyline
n 1170 3960 m
 1170 4050 l gs col0 s gr 
% Polyline
n 1125 4005 m
 1215 4005 l gs col0 s gr 
% Ellipse
n 1305 4095 45 45 0 360 DrawEllipse gs col0 s gr

% Polyline
n 1305 4050 m
 1305 4140 l gs col0 s gr 
% Polyline
n 1260 4095 m
 1350 4095 l gs col0 s gr 
% Ellipse
n 1530 4050 45 45 0 360 DrawEllipse gs col0 s gr

% Polyline
n 1530 4005 m
 1530 4095 l gs col0 s gr 
% Polyline
n 1485 4050 m
 1575 4050 l gs col0 s gr 
% Ellipse
n 1800 4050 45 45 0 360 DrawEllipse gs col0 s gr

% Polyline
n 1800 4005 m
 1800 4095 l gs col0 s gr 
% Polyline
n 1755 4050 m
 1845 4050 l gs col0 s gr 
% Ellipse
n 1935 4005 45 45 0 360 DrawEllipse gs col0 s gr

% Polyline
n 1935 3960 m
 1935 4050 l gs col0 s gr 
% Polyline
n 1890 4005 m
 1980 4005 l gs col0 s gr 
% Ellipse
n 2070 4095 45 45 0 360 DrawEllipse gs col0 s gr

% Polyline
n 2070 4050 m
 2070 4140 l gs col0 s gr 
% Polyline
n 2025 4095 m
 2115 4095 l gs col0 s gr 
% Ellipse
n 2250 4095 45 45 0 360 DrawEllipse gs col0 s gr

% Polyline
n 2250 4050 m
 2250 4140 l gs col0 s gr 
% Polyline
n 2205 4095 m
 2295 4095 l gs col0 s gr 
% Ellipse
n 2385 4005 45 45 0 360 DrawEllipse gs col0 s gr

% Polyline
n 2385 3960 m
 2385 4050 l gs col0 s gr 
% Polyline
n 2340 4005 m
 2430 4005 l gs col0 s gr 
% Ellipse
n 2565 4050 45 45 0 360 DrawEllipse gs col0 s gr

% Polyline
n 2565 4005 m
 2565 4095 l gs col0 s gr 
% Polyline
n 2520 4050 m
 2610 4050 l gs col0 s gr 
% Ellipse
n 2700 4095 45 45 0 360 DrawEllipse gs col0 s gr

% Polyline
n 2700 4050 m
 2700 4140 l gs col0 s gr 
% Polyline
n 2655 4095 m
 2745 4095 l gs col0 s gr 
% Ellipse
n 2835 4005 45 45 0 360 DrawEllipse gs col0 s gr

% Polyline
n 2835 3960 m
 2835 4050 l gs col0 s gr 
% Polyline
n 2790 4005 m
 2880 4005 l gs col0 s gr 
% Polyline
n 360 3960 m
 2925 3960 l gs col0 s gr 
% Polyline
n 1125 2340 m 1260 2475 l 1170 2565 l 1260 2700 l 1350 2745 l 1350 2880 l
 1215 2970 l 1350 3060 l 1170 3195 l 1305 3285 l
 1170 3465 l gs col0 s gr 
% Polyline
n 675 3960 m 675 3780 l 630 3780 l 765 3645 l 900 3780 l 855 3780 l

 855 3960 l gs col0 s gr 
% Polyline
n 765 3645 m 900 3555 l
 945 3555 l gs col0 s gr 
% Polyline
n 1350 3060 m 1485 3240 l 1440 3375 l 1620 3465 l 1575 3780 l 1710 3870 l

 1710 3960 l gs col0 s gr 
% Polyline
15.000 slw
n 1125 2340 m 1260 2475 l 1170 2565 l 1260 2700 l 1350 2745 l 1350 2880 l
 1215 2970 l 1350 3060 l 1485 3240 l 1440 3375 l 1620 3465 l
 1575 3780 l 1710 3870 l
 1710 3960 l gs col0 s gr 
% Polyline
7.500 slw
gs  clippath
1200 1450 m 1200 1245 l 1140 1245 l 1140 1450 l 1140 1450 l 1170 1300 l 1200 1450 l cp
eoclip
n 1170 1890 m
 1170 1260 l gs col0 s gr gr

% arrowhead
n 1200 1450 m 1170 1300 l 1140 1450 l 1170 1420 l 1200 1450 l 
 cp gs 0.00 setgray ef gr  col0 s
% Polyline
gs  clippath
1605 1450 m 1605 1245 l 1545 1245 l 1545 1450 l 1545 1450 l 1575 1300 l 1605 1450 l cp
eoclip
n 1575 1890 m
 1575 1260 l gs col0 s gr gr

% arrowhead
n 1605 1450 m 1575 1300 l 1545 1450 l 1575 1420 l 1605 1450 l 
 cp gs 0.00 setgray ef gr  col0 s
% Polyline
gs  clippath
1365 1700 m 1365 1905 l 1425 1905 l 1425 1700 l 1425 1700 l 1395 1850 l 1365 1700 l cp
eoclip
n 1395 1260 m
 1395 1890 l gs col0 s gr gr

% arrowhead
n 1365 1700 m 1395 1850 l 1425 1700 l 1395 1730 l 1365 1700 l 
 cp gs 0.00 setgray ef gr  col0 s
% Polyline
2 slj
n 495 765 m 496 794 l 500 816 l 503 831 l 507 839 l 510 844 l
 514 848 l 518 855 l 524 866 l 531 882 l 540 900 l
 547 913 l 553 923 l 556 929 l 557 933 l 556 934 l
 555 934 l 554 934 l 557 935 l 562 937 l 572 941 l
 585 945 l 604 948 l 621 949 l 634 948 l 644 945 l
 653 941 l 661 938 l 671 935 l 684 935 l 701 938 l
 720 945 l 733 953 l 743 962 l 749 969 l 753 974 l
 754 979 l 754 983 l 754 986 l 754 992 l 755 998 l
 757 1008 l 761 1020 l 765 1035 l 769 1056 l 769 1071 l
 766 1079 l 761 1084 l 757 1088 l 755 1096 l 757 1108 l
 765 1125 l 775 1137 l 786 1145 l 796 1148 l 805 1149 l
 814 1147 l 822 1146 l 831 1147 l 840 1150 l 848 1158 l
 855 1170 l 857 1184 l 856 1195 l 852 1204 l 848 1210 l
 844 1215 l 839 1220 l 833 1226 l 827 1235 l 819 1246 l
 810 1260 l 796 1278 l 787 1285 l 780 1286 l 774 1287 l
 768 1292 l 765 1305 l 767 1315 l 770 1322 l 771 1324 l
 773 1324 l 775 1324 l 780 1327 l 791 1335 l 810 1350 l
 826 1361 l 841 1371 l 855 1379 l 868 1385 l 879 1388 l
 889 1391 l 898 1394 l 908 1398 l 919 1404 l 929 1413 l
 939 1425 l 945 1440 l 946 1457 l 940 1469 l 932 1476 l
 922 1478 l 911 1477 l 900 1478 l 889 1481 l 877 1489 l
 865 1506 l 855 1530 l 849 1553 l 845 1574 l 842 1590 l
 841 1603 l 840 1612 l 840 1620 l 840 1628 l 841 1637 l
 842 1650 l 845 1666 l 849 1687 l 855 1710 l 865 1734 l
 876 1751 l 886 1759 l 895 1762 l 904 1762 l 912 1762 l
 921 1764 l 930 1771 l 938 1783 l 945 1800 l 947 1814 l
 947 1826 l 945 1835 l 943 1840 l 940 1843 l 937 1845 l
 934 1847 l 931 1850 l 926 1855 l 919 1864 l 910 1876 l
 900 1890 l 886 1907 l 875 1921 l 866 1930 l 860 1935 l
 855 1939 l 850 1942 l 844 1947 l 835 1955 l 824 1966 l
 810 1980 l 798 1992 l 788 2000 l 781 2003 l 776 2004 l
 772 2002 l 769 2001 l 766 2002 l 764 2005 l 763 2013 l
 765 2025 l 772 2039 l 780 2050 l 788 2058 l 795 2063 l
 803 2066 l 810 2070 l 818 2075 l 829 2084 l 841 2098 l
 855 2115 l 867 2132 l 877 2146 l 884 2156 l 889 2163 l
 893 2168 l 896 2172 l 899 2178 l 901 2185 l 902 2195 l
 900 2205 l 892 2213 l 884 2216 l 878 2215 l 874 2213 l
 869 2209 l 858 2207 l 840 2205 l 810 2205 l 787 2205 l
 766 2205 l 748 2204 l 734 2203 l 722 2202 l 712 2201 l
 703 2200 l 692 2200 l 679 2199 l 664 2200 l 647 2202 l
 630 2205 l 618 2209 l 611 2213 l 609 2217 l 610 2220 l
 614 2222 l 619 2224 l 624 2226 l 629 2228 l 632 2232 l
 634 2237 l 633 2243 l 630 2250 l 622 2263 l 617 2268 l
 615 2269 l 612 2270 l 603 2277 l 585 2295 l 571 2309 l
 559 2320 l 548 2329 l 540 2335 l 532 2340 l 525 2345 l
 518 2351 l 510 2360 l 502 2371 l 495 2385 l 494 2403 l
 501 2409 l 510 2407 l 520 2406 l 531 2412 l 540 2430 l
 544 2447 l 545 2459 l 543 2467 l 540 2471 l 537 2476 l
 535 2484 l 536 2499 l 540 2520 l 544 2535 l 547 2547 l
 549 2556 l 550 2562 l 549 2566 l 547 2569 l 547 2572 l
 547 2575 l 550 2581 l 557 2589 l 568 2599 l 585 2610 l
 605 2620 l 624 2628 l 640 2632 l 652 2634 l 663 2634 l
 671 2632 l 680 2631 l 691 2631 l 704 2633 l 721 2637 l
 742 2645 l 765 2655 l 789 2669 l 805 2681 l 813 2690 l
 815 2698 l 814 2704 l 812 2710 l 814 2716 l 821 2725 l
 835 2735 l 855 2745 l 871 2751 l 886 2755 l 898 2758 l
 907 2761 l 913 2763 l 918 2766 l 923 2768 l 927 2769 l
 932 2770 l 938 2770 l 947 2768 l 959 2763 l 974 2756 l
 990 2745 l 1005 2731 l 1017 2715 l 1023 2699 l 1026 2684 l
 1025 2670 l 1021 2657 l 1016 2644 l 1012 2631 l 1009 2618 l
 1010 2606 l 1017 2593 l 1030 2581 l 1051 2571 l 1080 2565 l
 1106 2564 l 1132 2566 l 1156 2571 l 1176 2576 l 1193 2582 l
 1206 2589 l 1217 2596 l 1226 2603 l 1234 2610 l 1242 2617 l
 1252 2625 l 1264 2633 l 1280 2642 l 1301 2652 l 1328 2663 l
 1360 2675 l 1398 2687 l 1440 2700 l 1478 2711 l 1514 2721 l
 1545 2730 l 1571 2738 l 1593 2745 l 1610 2750 l 1622 2756 l
 1632 2760 l 1640 2764 l 1646 2768 l 1653 2771 l 1660 2774 l
 1670 2777 l 1682 2781 l 1699 2784 l 1719 2787 l 1745 2789 l
 1775 2791 l 1809 2791 l 1845 2790 l 1884 2786 l 1919 2781 l
 1948 2774 l 1971 2766 l 1989 2758 l 2001 2750 l 2010 2742 l
 2016 2734 l 2021 2726 l 2026 2718 l 2032 2710 l 2039 2702 l
 2050 2694 l 2064 2685 l 2083 2677 l 2106 2668 l 2132 2661 l
 2160 2655 l 2198 2650 l 2228 2649 l 2247 2652 l 2258 2657 l
 2263 2663 l 2265 2670 l 2267 2677 l 2270 2684 l 2278 2690 l
 2293 2695 l 2314 2699 l 2340 2700 l 2369 2699 l 2391 2695 l
 2403 2692 l 2409 2688 l 2411 2685 l 2413 2681 l 2419 2677 l
 2430 2671 l 2449 2664 l 2475 2655 l 2501 2647 l 2521 2641 l
 2534 2638 l 2541 2639 l 2546 2640 l 2551 2641 l 2558 2640 l
 2570 2636 l 2588 2626 l 2610 2610 l 2628 2594 l 2642 2580 l
 2653 2569 l 2661 2561 l 2666 2555 l 2670 2550 l 2674 2545 l
 2678 2539 l 2683 2529 l 2689 2515 l 2695 2497 l 2700 2475 l
 2702 2456 l 2703 2440 l 2703 2428 l 2704 2420 l 2705 2415 l
 2706 2413 l 2708 2411 l 2708 2410 l 2708 2407 l 2705 2402 l
 2699 2393 l 2690 2379 l 2675 2361 l 2655 2340 l 2637 2322 l
 2618 2306 l 2600 2290 l 2584 2277 l 2570 2265 l 2558 2255 l
 2548 2246 l 2539 2238 l 2531 2231 l 2523 2224 l 2514 2217 l
 2503 2210 l 2490 2201 l 2475 2193 l 2456 2184 l 2434 2175 l
 2410 2166 l 2385 2160 l 2355 2156 l 2330 2157 l 2312 2162 l
 2300 2169 l 2294 2178 l 2292 2187 l 2291 2198 l 2291 2208 l
 2289 2218 l 2283 2228 l 2272 2236 l 2256 2243 l 2233 2248 l
 2205 2250 l 2176 2248 l 2151 2244 l 2130 2238 l 2113 2231 l
 2101 2224 l 2092 2216 l 2085 2209 l 2078 2201 l 2069 2193 l
 2058 2185 l 2044 2178 l 2025 2171 l 2003 2164 l 1980 2160 l
 1952 2158 l 1933 2161 l 1922 2168 l 1918 2177 l 1916 2186 l
 1915 2196 l 1913 2204 l 1908 2209 l 1900 2210 l 1890 2205 l
 1883 2194 l 1881 2181 l 1883 2171 l 1888 2163 l 1894 2156 l
 1900 2149 l 1904 2138 l 1905 2122 l 1901 2100 l 1890 2070 l
 1879 2048 l 1868 2027 l 1856 2011 l 1846 1998 l 1836 1989 l
 1827 1982 l 1819 1976 l 1810 1971 l 1802 1964 l 1792 1955 l
 1783 1943 l 1773 1928 l 1763 1910 l 1755 1890 l 1751 1876 l
 1749 1864 l 1747 1855 l 1747 1849 l 1747 1846 l 1747 1847 l
 1747 1850 l 1748 1853 l 1748 1855 l 1750 1858 l 1752 1858 l
 1755 1857 l 1760 1853 l 1766 1845 l 1775 1834 l 1786 1819 l
 1800 1800 l 1816 1779 l 1833 1758 l 1849 1739 l 1865 1721 l
 1880 1706 l 1894 1693 l 1907 1681 l 1919 1671 l 1931 1661 l
 1943 1652 l 1955 1641 l 1967 1630 l 1978 1617 l 1990 1603 l
 2002 1586 l 2012 1568 l 2020 1548 l 2025 1530 l 2024 1507 l
 2015 1493 l 2002 1487 l 1987 1486 l 1970 1490 l 1954 1496 l
 1937 1503 l 1919 1507 l 1900 1509 l 1881 1506 l 1862 1498 l
 1845 1485 l 1834 1472 l 1826 1459 l 1822 1448 l 1819 1439 l
 1818 1432 l 1818 1426 l 1819 1421 l 1820 1416 l 1821 1410 l
 1824 1403 l 1827 1393 l 1831 1381 l 1837 1366 l 1845 1350 l
 1858 1332 l 1871 1319 l 1884 1311 l 1896 1306 l 1906 1305 l
 1916 1305 l 1926 1305 l 1936 1304 l 1947 1299 l 1959 1291 l
 1971 1278 l 1980 1260 l 1985 1238 l 1984 1220 l 1978 1207 l
 1968 1198 l 1957 1192 l 1947 1187 l 1937 1178 l 1931 1165 l
 1930 1147 l 1935 1125 l 1943 1110 l 1952 1097 l 1960 1087 l
 1967 1081 l 1972 1077 l 1976 1074 l 1980 1072 l 1984 1071 l
 1990 1069 l 1998 1066 l 2009 1061 l 2025 1054 l 2046 1045 l
 2070 1035 l 2096 1026 l 2119 1019 l 2138 1015 l 2151 1013 l
 2160 1013 l 2167 1014 l 2171 1016 l 2176 1018 l 2183 1019 l
 2193 1019 l 2209 1016 l 2232 1010 l 2261 1002 l 2295 990 l
 2326 978 l 2354 967 l 2378 956 l 2396 947 l 2411 940 l
 2422 933 l 2430 928 l 2438 923 l 2445 917 l 2453 912 l
 2463 905 l 2476 898 l 2494 889 l 2515 878 l 2539 867 l
 2565 855 l 2601 840 l 2627 831 l 2642 829 l 2649 831 l
 2651 836 l 2653 841 l 2658 843 l 2667 840 l 2682 829 l
 2700 810 l 2709 797 l 2718 784 l 2725 772 l 2732 762 l
 2738 753 l 2744 746 l 2750 740 l 2755 736 l 2760 731 l
 2764 727 l 2768 722 l 2771 715 l 2773 707 l 2774 697 l
 2771 684 l 2766 668 l 2758 650 l 2745 630 l 2728 610 l
 2709 592 l 2690 576 l 2672 563 l 2656 553 l 2641 545 l
 2627 538 l 2615 533 l 2602 529 l 2590 524 l 2577 520 l
 2562 514 l 2546 507 l 2527 498 l 2505 488 l 2481 476 l
 2456 463 l 2430 450 l 2390 431 l 2364 418 l 2352 412 l
 2349 409 l 2351 409 l 2354 409 l 2353 409 l 2344 408 l
 2324 406 l 2295 405 l 2269 406 l 2247 409 l 2231 414 l
 2220 419 l 2213 425 l 2209 431 l 2204 437 l 2197 443 l
 2185 447 l 2168 451 l 2144 452 l 2115 450 l 2090 446 l
 2068 440 l 2051 434 l 2039 428 l 2031 423 l 2025 417 l
 2021 412 l 2017 407 l 2012 402 l 2004 395 l 1993 388 l
 1977 379 l 1957 370 l 1935 360 l 1910 349 l 1891 341 l
 1877 334 l 1869 328 l 1866 323 l 1864 319 l 1862 315 l
 1858 312 l 1851 309 l 1839 308 l 1822 310 l 1800 315 l
 1778 325 l 1762 337 l 1751 350 l 1747 364 l 1746 377 l
 1748 390 l 1749 403 l 1747 415 l 1739 428 l 1724 438 l
 1699 447 l 1665 450 l 1639 448 l 1614 444 l 1592 438 l
 1572 430 l 1556 421 l 1543 412 l 1532 402 l 1523 392 l
 1515 382 l 1507 373 l 1498 363 l 1486 353 l 1472 344 l
 1455 335 l 1434 327 l 1409 321 l 1380 317 l 1350 315 l
 1318 317 l 1290 322 l 1267 329 l 1251 338 l 1240 348 l
 1233 358 l 1229 368 l 1226 379 l 1224 389 l 1220 400 l
 1214 410 l 1205 420 l 1191 430 l 1173 439 l 1150 446 l
 1125 450 l 1097 451 l 1074 449 l 1056 445 l 1045 440 l
 1037 435 l 1034 430 l 1031 424 l 1029 418 l 1025 411 l
 1019 403 l 1008 395 l 991 384 l 970 373 l 945 360 l
 920 347 l 898 335 l 881 325 l 869 315 l 861 307 l
 855 300 l 851 292 l 847 286 l 842 280 l 834 274 l
 823 269 l 807 266 l 787 266 l 765 270 l 744 279 l
 726 291 l 712 304 l 703 317 l 698 331 l 695 344 l
 694 356 l 692 369 l 690 382 l 685 396 l 677 410 l
 665 425 l 649 438 l 630 450 l 604 459 l 582 459 l
 566 453 l 554 443 l 544 431 l 535 419 l 525 409 l
 514 402 l 503 400 l 495 405 l 494 414 l 498 426 l
 505 437 l 513 447 l 523 456 l 533 465 l 543 474 l
 553 484 l 563 495 l 572 509 l 580 524 l 585 540 l
 586 562 l 581 566 l 574 559 l 565 552 l 554 558 l
 540 585 l 533 605 l 526 623 l 521 639 l 517 651 l
 513 660 l 510 668 l 507 675 l 504 685 l 501 698 l
 498 716 l 496 739 l
 cp gs col0 s gr 
/Times-Roman ff 158.75 scf sf
405 3510 m
gs 1 -1 sc (Traceur) col0 sh gr
/Times-Roman ff 158.75 scf sf
1530 3375 m
gs 1 -1 sc (Eclair) col0 sh gr
/Times-Roman ff 158.75 scf sf
1620 1755 m
gs 1 -1 sc (Frottements) col0 sh gr
% here ends figure;
$F2psEnd
rs
showpage
%%Trailer
%EOF
