%!PS-Adobe-2.0 EPSF-2.0
%%Title: Ondesem.fig
%%Creator: fig2dev Version 3.2 Patchlevel 5-alpha5
%%CreationDate: Tue Aug  2 21:57:56 2005
%%For: guyotv@debian ()
%%BoundingBox: 0 0 178 186
%Magnification: 1.0000
%%EndComments
/$F2psDict 200 dict def
$F2psDict begin
$F2psDict /mtrx matrix put
/col-1 {0 setgray} bind def
/col0 {0.000 0.000 0.000 srgb} bind def
/col1 {0.000 0.000 1.000 srgb} bind def
/col2 {0.000 1.000 0.000 srgb} bind def
/col3 {0.000 1.000 1.000 srgb} bind def
/col4 {1.000 0.000 0.000 srgb} bind def
/col5 {1.000 0.000 1.000 srgb} bind def
/col6 {1.000 1.000 0.000 srgb} bind def
/col7 {1.000 1.000 1.000 srgb} bind def
/col8 {0.000 0.000 0.560 srgb} bind def
/col9 {0.000 0.000 0.690 srgb} bind def
/col10 {0.000 0.000 0.820 srgb} bind def
/col11 {0.530 0.810 1.000 srgb} bind def
/col12 {0.000 0.560 0.000 srgb} bind def
/col13 {0.000 0.690 0.000 srgb} bind def
/col14 {0.000 0.820 0.000 srgb} bind def
/col15 {0.000 0.560 0.560 srgb} bind def
/col16 {0.000 0.690 0.690 srgb} bind def
/col17 {0.000 0.820 0.820 srgb} bind def
/col18 {0.560 0.000 0.000 srgb} bind def
/col19 {0.690 0.000 0.000 srgb} bind def
/col20 {0.820 0.000 0.000 srgb} bind def
/col21 {0.560 0.000 0.560 srgb} bind def
/col22 {0.690 0.000 0.690 srgb} bind def
/col23 {0.820 0.000 0.820 srgb} bind def
/col24 {0.500 0.190 0.000 srgb} bind def
/col25 {0.630 0.250 0.000 srgb} bind def
/col26 {0.750 0.380 0.000 srgb} bind def
/col27 {1.000 0.500 0.500 srgb} bind def
/col28 {1.000 0.630 0.630 srgb} bind def
/col29 {1.000 0.750 0.750 srgb} bind def
/col30 {1.000 0.880 0.880 srgb} bind def
/col31 {1.000 0.840 0.000 srgb} bind def

end
save
newpath 0 186 moveto 0 0 lineto 178 0 lineto 178 186 lineto closepath clip newpath
0.9 196.0 translate
1 -1 scale

/cp {closepath} bind def
/ef {eofill} bind def
/gr {grestore} bind def
/gs {gsave} bind def
/sa {save} bind def
/rs {restore} bind def
/l {lineto} bind def
/m {moveto} bind def
/rm {rmoveto} bind def
/n {newpath} bind def
/s {stroke} bind def
/sh {show} bind def
/slc {setlinecap} bind def
/slj {setlinejoin} bind def
/slw {setlinewidth} bind def
/srgb {setrgbcolor} bind def
/rot {rotate} bind def
/sc {scale} bind def
/sd {setdash} bind def
/ff {findfont} bind def
/sf {setfont} bind def
/scf {scalefont} bind def
/sw {stringwidth} bind def
/tr {translate} bind def
/tnt {dup dup currentrgbcolor
  4 -2 roll dup 1 exch sub 3 -1 roll mul add
  4 -2 roll dup 1 exch sub 3 -1 roll mul add
  4 -2 roll dup 1 exch sub 3 -1 roll mul add srgb}
  bind def
/shd {dup dup currentrgbcolor 4 -2 roll mul 4 -2 roll mul
  4 -2 roll mul srgb} bind def
/reencdict 12 dict def /ReEncode { reencdict begin
/newcodesandnames exch def /newfontname exch def /basefontname exch def
/basefontdict basefontname findfont def /newfont basefontdict maxlength dict def
basefontdict { exch dup /FID ne { dup /Encoding eq
{ exch dup length array copy newfont 3 1 roll put }
{ exch newfont 3 1 roll put } ifelse } { pop pop } ifelse } forall
newfont /FontName newfontname put newcodesandnames aload pop
128 1 255 { newfont /Encoding get exch /.notdef put } for
newcodesandnames length 2 idiv { newfont /Encoding get 3 1 roll put } repeat
newfontname newfont definefont pop end } def
/isovec [
8#055 /minus 8#200 /grave 8#201 /acute 8#202 /circumflex 8#203 /tilde
8#204 /macron 8#205 /breve 8#206 /dotaccent 8#207 /dieresis
8#210 /ring 8#211 /cedilla 8#212 /hungarumlaut 8#213 /ogonek 8#214 /caron
8#220 /dotlessi 8#230 /oe 8#231 /OE
8#240 /space 8#241 /exclamdown 8#242 /cent 8#243 /sterling
8#244 /currency 8#245 /yen 8#246 /brokenbar 8#247 /section 8#250 /dieresis
8#251 /copyright 8#252 /ordfeminine 8#253 /guillemotleft 8#254 /logicalnot
8#255 /hyphen 8#256 /registered 8#257 /macron 8#260 /degree 8#261 /plusminus
8#262 /twosuperior 8#263 /threesuperior 8#264 /acute 8#265 /mu 8#266 /paragraph
8#267 /periodcentered 8#270 /cedilla 8#271 /onesuperior 8#272 /ordmasculine
8#273 /guillemotright 8#274 /onequarter 8#275 /onehalf
8#276 /threequarters 8#277 /questiondown 8#300 /Agrave 8#301 /Aacute
8#302 /Acircumflex 8#303 /Atilde 8#304 /Adieresis 8#305 /Aring
8#306 /AE 8#307 /Ccedilla 8#310 /Egrave 8#311 /Eacute
8#312 /Ecircumflex 8#313 /Edieresis 8#314 /Igrave 8#315 /Iacute
8#316 /Icircumflex 8#317 /Idieresis 8#320 /Eth 8#321 /Ntilde 8#322 /Ograve
8#323 /Oacute 8#324 /Ocircumflex 8#325 /Otilde 8#326 /Odieresis 8#327 /multiply
8#330 /Oslash 8#331 /Ugrave 8#332 /Uacute 8#333 /Ucircumflex
8#334 /Udieresis 8#335 /Yacute 8#336 /Thorn 8#337 /germandbls 8#340 /agrave
8#341 /aacute 8#342 /acircumflex 8#343 /atilde 8#344 /adieresis 8#345 /aring
8#346 /ae 8#347 /ccedilla 8#350 /egrave 8#351 /eacute
8#352 /ecircumflex 8#353 /edieresis 8#354 /igrave 8#355 /iacute
8#356 /icircumflex 8#357 /idieresis 8#360 /eth 8#361 /ntilde 8#362 /ograve
8#363 /oacute 8#364 /ocircumflex 8#365 /otilde 8#366 /odieresis 8#367 /divide
8#370 /oslash 8#371 /ugrave 8#372 /uacute 8#373 /ucircumflex
8#374 /udieresis 8#375 /yacute 8#376 /thorn 8#377 /ydieresis] def
/Times-Roman /Times-Roman-iso isovec ReEncode
/$F2psBegin {$F2psDict begin /$F2psEnteredState save def} def
/$F2psEnd {$F2psEnteredState restore end} def

$F2psBegin
10 setmiterlimit
0 slj 0 slc
 0.06299 0.06299 sc
%
% Fig objects follow
%
% 
% here starts figure with depth 51
% Polyline
0 slj
0 slc
7.500 slw
n 135 1125 m 630 1125 l 630 1305 l 135 1305 l
 cp gs col7 0.90 shd ef gr gs col7 s gr 
% Polyline
n 495 1575 m 765 1575 l 765 1755 l 495 1755 l
 cp gs col7 0.90 shd ef gr gs col7 s gr 
% Polyline
n 1215 1035 m 1530 1035 l 1530 1215 l 1215 1215 l
 cp gs col7 0.90 shd ef gr gs col7 s gr 
% Polyline
n 675 1395 m 945 1395 l 945 1575 l 675 1575 l
 cp gs col7 0.90 shd ef gr gs col7 s gr 
% Polyline
n 1890 1215 m 2205 1215 l 2205 1395 l 1890 1395 l
 cp gs col7 0.90 shd ef gr gs col7 s gr 
% Polyline
n 2295 1440 m 2790 1440 l 2790 1620 l 2295 1620 l
 cp gs col7 0.90 shd ef gr gs col7 s gr 
% Polyline
n 721 1190 m 1171 1190 l 1171 1370 l 721 1370 l
 cp gs col7 0.90 shd ef gr gs col7 s gr 
% Polyline
n 1620 1035 m 1755 1035 l 1755 1215 l 1620 1215 l
 cp gs col7 0.90 shd ef gr gs col7 s gr 
% Polyline
2 slj
n 0 315 m 2 313 l 5 309 l 12 303 l 21 294 l 34 283 l
 48 270 l 64 256 l 82 242 l 101 229 l 122 216 l
 144 205 l 169 195 l 196 187 l 226 182 l 258 180 l
 290 182 l 320 187 l 347 195 l 372 205 l 395 216 l
 415 229 l 435 242 l 453 256 l 469 270 l 484 283 l
 496 294 l 506 303 l 512 309 l 516 313 l
 518 315 l gs col0 s gr 
% Polyline
n 518 315 m 520 317 l 524 321 l 530 327 l 540 336 l 552 347 l
 566 360 l 583 374 l 601 388 l 620 401 l 641 414 l
 663 425 l 688 435 l 715 443 l 745 448 l 777 450 l
 809 448 l 839 443 l 866 435 l 891 425 l 913 414 l
 934 401 l 953 388 l 971 374 l 987 360 l 1001 347 l
 1014 336 l 1023 327 l 1030 321 l 1033 317 l
 1035 315 l gs col0 s gr 
% Polyline
n 1035 315 m 1037 312 l 1041 307 l 1048 298 l 1057 286 l 1069 272 l
 1083 256 l 1098 240 l 1114 225 l 1132 211 l 1152 199 l
 1174 189 l 1199 183 l 1226 180 l 1253 183 l 1278 189 l
 1300 199 l 1320 211 l 1338 225 l 1354 240 l 1369 256 l
 1383 272 l 1395 286 l 1404 298 l 1411 307 l 1415 312 l

 1417 315 l gs col0 s gr 
% Polyline
n 1417 315 m 1419 318 l 1423 323 l 1430 332 l 1439 344 l 1451 358 l
 1465 374 l 1480 390 l 1497 405 l 1515 419 l 1535 431 l
 1557 441 l 1582 447 l 1609 450 l 1636 447 l 1661 441 l
 1683 431 l 1703 419 l 1721 405 l 1737 390 l 1752 374 l
 1766 358 l 1778 344 l 1787 332 l 1794 323 l 1798 318 l

 1800 315 l gs col0 s gr 
% Polyline
n 1800 315 m 1800 314 l 1801 311 l 1804 303 l 1809 290 l 1815 274 l
 1823 256 l 1831 238 l 1840 220 l 1850 205 l 1862 192 l
 1875 183 l 1890 180 l 1905 183 l 1918 192 l 1930 205 l
 1940 220 l 1949 238 l 1958 256 l 1965 274 l 1971 290 l
 1976 303 l 1979 311 l 1980 314 l
 1980 315 l gs col0 s gr 
% Polyline
n 1980 315 m 1980 316 l 1981 319 l 1984 327 l 1989 340 l 1995 356 l
 2003 374 l 2011 392 l 2020 410 l 2030 425 l 2042 438 l
 2055 447 l 2070 450 l 2085 447 l 2098 438 l 2110 425 l
 2120 410 l 2129 392 l 2138 374 l 2145 356 l 2151 340 l
 2156 327 l 2159 319 l 2160 316 l
 2160 315 l gs col0 s gr 
% Polyline
n 2160 315 m 2160 314 l 2161 311 l 2163 303 l 2167 290 l 2171 274 l
 2177 256 l 2183 238 l 2190 220 l 2198 205 l 2207 192 l
 2217 183 l 2228 180 l 2239 183 l 2249 192 l 2258 205 l
 2265 220 l 2272 238 l 2278 256 l 2284 274 l 2288 290 l
 2292 303 l 2294 311 l 2295 314 l
 2295 315 l gs col0 s gr 
% Polyline
n 2295 315 m 2295 316 l 2296 319 l 2298 327 l 2302 340 l 2306 356 l
 2312 374 l 2318 392 l 2325 410 l 2333 425 l 2342 438 l
 2352 447 l 2363 450 l 2374 447 l 2384 438 l 2393 425 l
 2400 410 l 2407 392 l 2413 374 l 2419 356 l 2423 340 l
 2427 327 l 2429 319 l 2430 316 l
 2430 315 l gs col0 s gr 
% Polyline
n 2430 315 m 2430 314 l 2431 308 l 2433 296 l 2437 278 l 2441 256 l
 2446 234 l 2452 214 l 2459 197 l 2466 185 l 2475 180 l
 2484 185 l 2491 197 l 2498 214 l 2504 234 l 2509 256 l
 2513 278 l 2517 296 l 2519 308 l 2520 314 l
 2520 315 l gs col0 s gr 
% Polyline
n 2520 315 m 2520 316 l 2521 322 l 2523 334 l 2527 352 l 2531 374 l
 2536 396 l 2542 416 l 2549 433 l 2556 445 l 2565 450 l
 2574 445 l 2581 433 l 2588 416 l 2594 396 l 2599 374 l
 2603 352 l 2607 334 l 2609 322 l 2610 316 l
 2610 315 l gs col0 s gr 
% Polyline
n 2610 315 m 2610 314 l 2611 308 l 2612 296 l 2614 278 l 2616 256 l
 2618 234 l 2621 214 l 2625 197 l 2629 185 l 2633 180 l
 2637 185 l 2641 197 l 2644 214 l 2647 234 l 2650 256 l
 2652 278 l 2653 296 l 2654 308 l 2655 314 l
 2655 315 l gs col0 s gr 
% Polyline
n 2655 315 m 2655 316 l 2656 322 l 2657 334 l 2659 352 l 2661 374 l
 2663 396 l 2666 416 l 2670 433 l 2674 445 l 2678 450 l
 2682 445 l 2686 433 l 2689 416 l 2692 396 l 2695 374 l
 2697 352 l 2698 334 l 2699 322 l 2700 316 l
 2700 315 l gs col0 s gr 
% Arc
n 909.6 1129.8 626.2 7.8182 86.7631 arc
gs col0 s gr

% Arc
n 2240.4 1129.8 626.2 172.1818 93.2369 arcn
gs col0 s gr

% Arc
n 2169.6 2376.2 626.2 -7.8182 -86.7631 arcn
gs col0 s gr

% Arc
n 980.4 2375.2 626.2 -172.1818 -93.2369 arc
gs col0 s gr

% Polyline
0 slj
n 135 900 m
 135 765 l gs col0 s gr 
% Polyline
n 405 900 m
 405 765 l gs col0 s gr 
% Polyline
n 675 900 m
 675 765 l gs col0 s gr 
% Polyline
n 945 900 m
 945 765 l gs col0 s gr 
% Polyline
n 1215 900 m
 1215 765 l gs col0 s gr 
% Polyline
n 1485 900 m
 1485 765 l gs col0 s gr 
% Polyline
n 1755 900 m
 1755 765 l gs col0 s gr 
% Polyline
n 2025 900 m
 2025 765 l gs col0 s gr 
% Polyline
n 2295 900 m
 2295 765 l gs col0 s gr 
% Polyline
n 2565 900 m
 2565 765 l gs col0 s gr 
% Polyline
90.000 slw
gs  clippath
1650 1031 m 1650 930 l 1500 930 l 1500 1031 l 1500 1031 l 1575 956 l 1650 1031 l cp
eoclip
n 1575 1215 m
 1575 945 l gs col0 s gr gr

% arrowhead
7.500 slw
n 1650 1031 m 1575 956 l 1500 1031 l 1575 1016 l 1650 1031 l 
 cp gs 0.00 setgray ef gr  col0 s
% Polyline
gs  clippath
2623 930 m 2715 930 l 2715 870 l 2623 870 l 2623 870 l 2683 900 l 2623 930 l cp
eoclip
n 0 900 m
 2700 900 l gs col0 s gr gr

% arrowhead
n 2623 930 m 2683 900 l 2623 870 l 2623 930 l  cp gs 0.00 setgray ef gr  col0 s
% Polyline
gs  clippath
276 2490 m 184 2490 l 184 2550 l 276 2550 l 276 2550 l 216 2520 l 276 2490 l cp
eoclip
n 2787 2520 m
 199 2520 l gs col0 s gr gr

% arrowhead
n 276 2490 m 216 2520 l 276 2550 l 276 2490 l  cp gs 0.00 setgray ef gr  col0 s
% Polyline
n 2475 2520 m
 2475 2398 l gs col0 s gr 
% Polyline
n 1981 2516 m
 1981 2394 l gs col0 s gr 
% Polyline
n 1483 2523 m
 1483 2401 l gs col0 s gr 
% Polyline
n 990 2516 m
 990 2394 l gs col0 s gr 
% Polyline
n 496 2516 m
 496 2394 l gs col0 s gr 
% Polyline
gs  clippath
662 2902 m 570 2902 l 570 2947 l 662 2947 l 662 2947 l 606 2925 l 662 2902 l cp
912 2947 m 1005 2947 l 1005 2902 l 912 2902 l 912 2902 l 969 2925 l 912 2947 l cp
eoclip
n 990 2925 m
 585 2925 l gs col0 s gr gr

% arrowhead
n 912 2947 m 969 2925 l 912 2902 l 924 2925 l 912 2947 l 
 cp gs 0.00 setgray ef gr  col0 s
% arrowhead
n 662 2902 m 606 2925 l 662 2947 l 651 2925 l 662 2902 l 
 cp gs 0.00 setgray ef gr  col0 s
% Polyline
gs  clippath
1067 2902 m 975 2902 l 975 2947 l 1067 2947 l 1067 2947 l 1011 2925 l 1067 2902 l cp
1317 2947 m 1410 2947 l 1410 2902 l 1317 2902 l 1317 2902 l 1374 2925 l 1317 2947 l cp
eoclip
n 1395 2925 m
 990 2925 l gs col0 s gr gr

% arrowhead
n 1317 2947 m 1374 2925 l 1317 2902 l 1329 2925 l 1317 2947 l 
 cp gs 0.00 setgray ef gr  col0 s
% arrowhead
n 1067 2902 m 1011 2925 l 1067 2947 l 1056 2925 l 1067 2902 l 
 cp gs 0.00 setgray ef gr  col0 s
% Polyline
gs  clippath
1472 2902 m 1380 2902 l 1380 2947 l 1472 2947 l 1472 2947 l 1416 2925 l 1472 2902 l cp
1722 2947 m 1815 2947 l 1815 2902 l 1722 2902 l 1722 2902 l 1779 2925 l 1722 2947 l cp
eoclip
n 1800 2925 m
 1395 2925 l gs col0 s gr gr

% arrowhead
n 1722 2947 m 1779 2925 l 1722 2902 l 1734 2925 l 1722 2947 l 
 cp gs 0.00 setgray ef gr  col0 s
% arrowhead
n 1472 2902 m 1416 2925 l 1472 2947 l 1461 2925 l 1472 2902 l 
 cp gs 0.00 setgray ef gr  col0 s
% Polyline
gs  clippath
1877 2902 m 1785 2902 l 1785 2947 l 1877 2947 l 1877 2947 l 1821 2925 l 1877 2902 l cp
2037 2947 m 2130 2947 l 2130 2902 l 2037 2902 l 2037 2902 l 2094 2925 l 2037 2947 l cp
eoclip
n 2115 2925 m
 1800 2925 l gs col0 s gr gr

% arrowhead
n 2037 2947 m 2094 2925 l 2037 2902 l 2049 2925 l 2037 2947 l 
 cp gs 0.00 setgray ef gr  col0 s
% arrowhead
n 1877 2902 m 1821 2925 l 1877 2947 l 1866 2925 l 1877 2902 l 
 cp gs 0.00 setgray ef gr  col0 s
% Polyline
gs  clippath
2192 2902 m 2100 2902 l 2100 2947 l 2192 2947 l 2192 2947 l 2136 2925 l 2192 2902 l cp
2352 2947 m 2445 2947 l 2445 2902 l 2352 2902 l 2352 2902 l 2409 2925 l 2352 2947 l cp
eoclip
n 2430 2925 m
 2115 2925 l gs col0 s gr gr

% arrowhead
n 2352 2947 m 2409 2925 l 2352 2902 l 2364 2925 l 2352 2947 l 
 cp gs 0.00 setgray ef gr  col0 s
% arrowhead
n 2192 2902 m 2136 2925 l 2192 2947 l 2181 2925 l 2192 2902 l 
 cp gs 0.00 setgray ef gr  col0 s
% Polyline
gs  clippath
2507 2902 m 2415 2902 l 2415 2947 l 2507 2947 l 2507 2947 l 2451 2925 l 2507 2902 l cp
2667 2947 m 2760 2947 l 2760 2902 l 2667 2902 l 2667 2902 l 2724 2925 l 2667 2947 l cp
eoclip
n 2745 2925 m
 2430 2925 l gs col0 s gr gr

% arrowhead
n 2667 2947 m 2724 2925 l 2667 2902 l 2679 2925 l 2667 2947 l 
 cp gs 0.00 setgray ef gr  col0 s
% arrowhead
n 2507 2902 m 2451 2925 l 2507 2947 l 2496 2925 l 2507 2902 l 
 cp gs 0.00 setgray ef gr  col0 s
/Times-Roman-iso ff 158.75 scf sf
0 720 m
gs 1 -1 sc (10) col0 sh gr
/Times-Roman-iso ff 158.75 scf sf
1080 720 m
gs 1 -1 sc (10) col0 sh gr
/Times-Roman-iso ff 158.75 scf sf
1620 720 m
gs 1 -1 sc (10) col0 sh gr
/Times-Roman-iso ff 158.75 scf sf
2160 720 m
gs 1 -1 sc (10) col0 sh gr
/Times-Roman-iso ff 127.00 scf sf
1260 630 m
gs 1 -1 sc (12) col0 sh gr
/Times-Roman-iso ff 158.75 scf sf
540 720 m
gs 1 -1 sc (10) col0 sh gr
/Times-Roman-iso ff 127.00 scf sf
720 630 m
gs 1 -1 sc (8) col0 sh gr
/Times-Roman-iso ff 127.00 scf sf
180 630 m
gs 1 -1 sc (4) col0 sh gr
/Times-Roman-iso ff 127.00 scf sf
1800 630 m
gs 1 -1 sc (16) col0 sh gr
/Times-Roman-iso ff 127.00 scf sf
2340 630 m
gs 1 -1 sc (20) col0 sh gr
/Times-Roman-iso ff 158.75 scf sf
2340 1080 m
gs 1 -1 sc (\(Hz\)) col0 sh gr
/Times-Roman-iso ff 95.25 scf sf
45 1035 m
gs 1 -1 sc (\(\351chelle logarithmique\)) col0 sh gr
/Times-Roman-iso ff 158.75 scf sf
405 2340 m
gs 1 -1 sc (800) col0 sh gr
/Times-Roman-iso ff 158.75 scf sf
900 2340 m
gs 1 -1 sc (700) col0 sh gr
/Times-Roman-iso ff 158.75 scf sf
1395 2340 m
gs 1 -1 sc (600) col0 sh gr
/Times-Roman-iso ff 158.75 scf sf
1890 2340 m
gs 1 -1 sc (500) col0 sh gr
/Times-Roman-iso ff 158.75 scf sf
2385 2340 m
gs 1 -1 sc (400) col0 sh gr
/Times-Roman-iso ff 158.75 scf sf
450 2745 m
gs 1 -1 sc (\(nm\)) col0 sh gr
/Symbol ff 158.75 scf sf
315 2745 m
gs 1 -1 sc (l) col0 sh gr
/Symbol ff 158.75 scf sf
2205 1080 m
gs 1 -1 sc (n) col0 sh gr
/Times-Roman-iso ff 127.00 scf sf
675 3060 m
gs 1 -1 sc (rouge) col0 sh gr
/Times-Roman-iso ff 127.00 scf sf
1035 3060 m
gs 1 -1 sc (orange) col0 sh gr
/Times-Roman-iso ff 127.00 scf sf
1485 3060 m
gs 1 -1 sc (jaune) col0 sh gr
/Times-Roman-iso ff 127.00 scf sf
1845 3060 m
gs 1 -1 sc (vert) col0 sh gr
/Times-Roman-iso ff 127.00 scf sf
2160 3060 m
gs 1 -1 sc (bleu) col0 sh gr
/Times-Roman-iso ff 127.00 scf sf
2430 3060 m
gs 1 -1 sc (violet) col0 sh gr
/Times-Roman-iso ff 158.75 scf sf
1350 1845 m
gs 1 -1 sc (visible) col0 sh gr
/Times-Roman-iso ff 127.00 scf sf
585 1710 m
gs 1 -1 sc (tv) col0 sh gr
/Times-Roman-iso ff 127.00 scf sf
2340 1575 m
gs 1 -1 sc (rayons) col0 sh gr
/Symbol ff 127.00 scf sf
2700 1575 m
gs 1 -1 sc (g) col0 sh gr
/Times-Roman-iso ff 127.00 scf sf
675 1318 m
gs 1 -1 sc (micro-ondes) col0 sh gr
/Times-Roman-iso ff 127.00 scf sf
945 1157 m
gs 1 -1 sc (infra rouge) col0 sh gr
/Times-Roman-iso ff 127.00 scf sf
1643 1170 m
gs 1 -1 sc (uv) col0 sh gr
/Times-Roman-iso ff 127.00 scf sf
1845 1346 m
gs 1 -1 sc (rayons x) col0 sh gr
/Times-Roman-iso ff 127.00 scf sf
264 1260 m
gs 1 -1 sc (radio) col0 sh gr
/Times-Roman-iso ff 127.00 scf sf
684 1526 m
gs 1 -1 sc (radar) col0 sh gr
% here ends figure;
$F2psEnd
rs
showpage
%%Trailer
%EOF
