%!PS-Adobe-3.0 EPSF-3.0
%%Creator: inkscape 0.44.1
%%Pages: 1
%%Orientation: Portrait
%%BoundingBox: 17 4 562 138
%%HiResBoundingBox: 17.042771 4.0547237 561.62478 137.35846
%%DocumentMedia: plain 572 142 0 () ()
%%EndComments
%%Page: 1 1
0 142 translate
0.8 -0.8 scale
gsave [1 0 0 1 0 0] concat
gsave [1 0 0 1 -65.48225 -664.2161] concat
0 0 0 setrgbcolor
[8 2 1 2] 0 setdash
1 setlinewidth
0 setlinejoin
0 setlinecap
newpath
87.285714 753.43361 moveto
639.96428 753.25504 lineto
stroke
0 0 0 setrgbcolor
[8 2 1 2] 0 setdash
1 setlinewidth
0 setlinejoin
0 setlinecap
newpath
113.74017 834.90917 moveto
113.67486 669.2795 lineto
stroke
0 0 0 setrgbcolor
[] 0 setdash
2 setlinewidth
0 setlinejoin
1 setlinecap
newpath
648.71422 753.49868 moveto
608.8523 753.39161 lineto
637.62283 759.03328 moveto
648.85346 753.38625 lineto
636.52801 747.33969 lineto
stroke
gsave
0 0 0 setrgbcolor
newpath
484.76846 695.43883 moveto
477.84409 699.43127 lineto
477.85283 691.43127 lineto
484.76846 695.43883 lineto
closepath
235.05425 694.65643 moveto
235.05425 695.65643 lineto
480.148 695.93768 lineto
480.148 694.93768 lineto
235.05425 694.65643 lineto
closepath
230.44718 695.1609 moveto
237.37155 691.16846 lineto
237.36281 699.16846 lineto
230.44718 695.1609 lineto
closepath
229.875 694.66071 moveto
229.875 695.66071 lineto
485.25 696.03571 lineto
485.25 695.03571 lineto
229.875 694.66071 lineto
closepath
229.87829 699.68594 moveto
229.89093 690.64594 lineto
485.23543 700.04308 moveto
485.24807 691.00308 lineto
eofill
grestore
0 0 0 setrgbcolor
[] 0 setdash
1 setlinewidth
0 setlinejoin
0 setlinecap
newpath
484.76846 695.43883 moveto
477.84409 699.43127 lineto
477.85283 691.43127 lineto
484.76846 695.43883 lineto
closepath
235.05425 694.65643 moveto
235.05425 695.65643 lineto
480.148 695.93768 lineto
480.148 694.93768 lineto
235.05425 694.65643 lineto
closepath
230.44718 695.1609 moveto
237.37155 691.16846 lineto
237.36281 699.16846 lineto
230.44718 695.1609 lineto
closepath
229.875 694.66071 moveto
229.875 695.66071 lineto
485.25 696.03571 lineto
485.25 695.03571 lineto
229.875 694.66071 lineto
closepath
229.87829 699.68594 moveto
229.89093 690.64594 lineto
485.23543 700.04308 moveto
485.24807 691.00308 lineto
stroke
gsave
0 0 0 setrgbcolor
newpath
354.98099 678.53949 moveto
354.7401 677.94054 354.50898 677.54341 354.28763 677.34808 curveto
354.05976 677.14627 353.7733 677.04536 353.42825 677.04535 curveto
353.03762 677.04536 352.75117 677.13976 352.56888 677.32855 curveto
352.38007 677.52388 352.26614 677.84289 352.22708 678.28558 curveto
351.30911 678.28558 lineto
351.30911 676.30316 lineto
351.63463 676.20552 351.9569 676.13065 352.27591 676.07855 curveto
352.60143 676.02648 352.91718 676.00044 353.22318 676.00043 curveto
353.94583 676.00044 354.50572 676.15018 354.90286 676.44965 curveto
355.29999 676.74263 355.66132 677.29276 355.98685 678.10004 curveto
360.74271 690.25824 lineto
361.90482 690.25824 lineto
361.90482 691.30316 lineto
358.00833 691.30316 lineto
358.00833 690.25824 lineto
359.56107 690.25824 lineto
356.79739 683.09027 lineto
353.72122 690.25824 lineto
355.38138 690.25824 lineto
355.38138 691.30316 lineto
350.60599 691.30316 lineto
350.60599 690.25824 lineto
351.78763 690.25824 lineto
355.82083 680.71722 lineto
354.98099 678.53949 lineto
fill
grestore
gsave [1 0 0 1 -97.71429 20] concat
1 0.33333334 0.33333334 setrgbcolor
[] 0 setdash
1.5 setlinewidth
0 setlinejoin
1 setlinecap
newpath
802.24017 735.02661 moveto
842.10209 734.91954 lineto
813.33156 740.56121 moveto
802.10093 734.91418 lineto
814.42638 728.86762 lineto
stroke
0.16470589 0.1882353 0.9254902 setrgbcolor
[] 0 setdash
1.5 setlinewidth
0 setlinejoin
1 setlinecap
newpath
852.19864 678.34907 moveto
852.30574 722.85389 lineto
845.92809 690.52727 moveto
852.22175 678.29907 lineto
858.35764 690.53527 lineto
stroke
gsave [-0.571749 -0.820429 0.820429 -0.571749 160.8527 893.0072] concat
0.16470589 0.1882353 0.9254902 setrgbcolor
[] 0 setdash
0.98231149 setlinewidth
0 setlinejoin
1 setlinecap
newpath
-205.29962 714.75344 moveto
-194.50474 699.21722 lineto
-198.03809 710.16217 moveto
-205.4119 714.7963 lineto
-203.34078 705.49718 lineto
stroke
grestore
gsave
0.16470589 0.1882353 0.9254902 setrgbcolor
newpath
847.10577 657.6391 moveto
856.32452 657.6391 lineto
856.32452 659.29926 lineto
849.07843 659.29926 lineto
849.07843 663.61566 lineto
856.02179 663.61566 lineto
856.02179 665.27582 lineto
849.07843 665.27582 lineto
849.07843 670.55902 lineto
856.50031 670.55902 lineto
856.50031 672.21918 lineto
847.10577 672.21918 lineto
847.10577 657.6391 lineto
fill
grestore
gsave [-0.571749 -0.820429 0.820429 -0.571749 91.7623 964.0543] concat
1 0.33333334 0.33333334 setrgbcolor
[] 0 setdash
0.98231149 setlinewidth
0 setlinejoin
1 setlinecap
newpath
-205.29962 714.75344 moveto
-194.50474 699.21722 lineto
-198.03809 710.16217 moveto
-205.4119 714.7963 lineto
-203.34078 705.49718 lineto
stroke
grestore
gsave
1 0.33333334 0.33333334 setrgbcolor
newpath
779.86884 736.12891 moveto
779.86884 741.4707 lineto
783.0329 741.4707 lineto
784.09409 741.4707 784.87859 741.25261 785.38641 740.81641 curveto
785.90073 740.3737 786.15789 739.69987 786.1579 738.79492 curveto
786.15789 737.88347 785.90073 737.2129 785.38641 736.7832 curveto
784.87859 736.34701 784.09409 736.12891 783.0329 736.12891 curveto
779.86884 736.12891 lineto
779.86884 730.13281 moveto
779.86884 734.52734 lineto
782.78876 734.52734 lineto
783.75229 734.52735 784.46844 734.34832 784.93719 733.99023 curveto
785.41245 733.62566 785.65008 733.07228 785.65009 732.33008 curveto
785.65008 731.59441 785.41245 731.04428 784.93719 730.67969 curveto
784.46844 730.31512 783.75229 730.13283 782.78876 730.13281 curveto
779.86884 730.13281 lineto
777.89618 728.51172 moveto
782.93524 728.51172 lineto
784.43914 728.51173 785.59799 728.82423 786.4118 729.44922 curveto
787.22559 730.07423 787.6325 730.9629 787.63251 732.11523 curveto
787.6325 733.00717 787.42416 733.71681 787.00751 734.24414 curveto
786.59083 734.77149 785.97885 735.10027 785.17157 735.23047 curveto
786.14161 735.43881 786.89356 735.87501 787.42743 736.53906 curveto
787.96778 737.19662 788.23796 738.02019 788.23798 739.00977 curveto
788.23796 740.31185 787.79526 741.31771 786.90985 742.02734 curveto
786.02442 742.73698 784.76466 743.0918 783.13055 743.0918 curveto
777.89618 743.0918 lineto
777.89618 728.51172 lineto
fill
grestore
gsave [-0.411557 -0.497537 0.590562 -0.346729 351.2183 897.4204] concat
0 0 0 setrgbcolor
[] 0 setdash
1.5 setlinewidth
0 setlinejoin
1 setlinecap
newpath
-207.54346 722.71896 moveto
-192.44103 700.9709 lineto
-196.65184 716.8009 moveto
-207.71539 722.76864 lineto
-205.60762 709.20269 lineto
stroke
grestore
gsave
0 0 0 setrgbcolor
newpath
849.39996 753.44916 moveto
851.19684 753.44916 lineto
849.47809 762.30658 lineto
855.6402 757.70697 lineto
857.97418 757.70697 lineto
851.09918 762.94135 lineto
856.11871 768.64447 lineto
853.94098 768.64447 lineto
849.27301 763.30267 lineto
848.23785 768.64447 lineto
846.44098 768.64447 lineto
849.39996 753.44916 lineto
fill
grestore
gsave [1 0 0 1 24.28571 -117.8571] concat
gsave [1 0 0 1 0 18.92857] concat
0 0 0 setrgbcolor
[] 0 setdash
1 setlinewidth
0 setlinejoin
1 setlinecap
newpath
835.71426 832.36218 moveto
835.71426 836.69933 832.19426 840.21933 827.85712 840.21933 curveto
823.51997 840.21933 819.99997 836.69933 819.99997 832.36218 curveto
819.99997 828.02504 823.51997 824.50504 827.85712 824.50504 curveto
832.19426 824.50504 835.71426 828.02504 835.71426 832.36218 curveto
closepath
stroke
grestore
gsave [1 0 0 1 3.571411 -25.35714] concat
gsave
0 0 0 setrgbcolor
newpath
825.71428 876.64789 moveto
825.71428 877.43646 825.07428 878.07646 824.28571 878.07646 curveto
823.49713 878.07646 822.85713 877.43646 822.85713 876.64789 curveto
822.85713 875.85932 823.49713 875.21932 824.28571 875.21932 curveto
825.07428 875.21932 825.71428 875.85932 825.71428 876.64789 curveto
closepath
fill
grestore
0 0 0 setrgbcolor
[] 0 setdash
1 setlinewidth
0 setlinejoin
1 setlinecap
newpath
825.71428 876.64789 moveto
825.71428 877.43646 825.07428 878.07646 824.28571 878.07646 curveto
823.49713 878.07646 822.85713 877.43646 822.85713 876.64789 curveto
822.85713 875.85932 823.49713 875.21932 824.28571 875.21932 curveto
825.07428 875.21932 825.71428 875.85932 825.71428 876.64789 curveto
closepath
stroke
grestore
grestore
grestore
gsave [1 0 0 1 -229.5366 12.06741] concat
gsave [-0.411557 -0.497537 0.590562 -0.346729 351.2183 897.4204] concat
0 0 0 setrgbcolor
[] 0 setdash
1.5 setlinewidth
0 setlinejoin
1 setlinecap
newpath
-207.54346 722.71896 moveto
-192.44103 700.9709 lineto
-196.65184 716.8009 moveto
-207.71539 722.76864 lineto
-205.60762 709.20269 lineto
stroke
grestore
gsave
0 0 0 setrgbcolor
newpath
849.39996 753.44916 moveto
851.19684 753.44916 lineto
849.47809 762.30658 lineto
855.6402 757.70697 lineto
857.97418 757.70697 lineto
851.09918 762.94135 lineto
856.11871 768.64447 lineto
853.94098 768.64447 lineto
849.27301 763.30267 lineto
848.23785 768.64447 lineto
846.44098 768.64447 lineto
849.39996 753.44916 lineto
fill
grestore
grestore
grestore
gsave [1 0 0 1 -65.48225 -664.2161] concat
0.16470589 0.1882353 0.9254902 setrgbcolor
[12 1] 0 setdash
1 setlinewidth
0 setlinejoin
0 setlinecap
newpath
625.91133 811.94587 moveto
625.91133 811.94587 595.00184 814.92192 552.67528 753.35703 curveto
505.92781 685.36183 453.87033 694.20176 421.35544 751.8418 curveto
388.02041 810.93573 361.75644 850.07913 296.09653 753.10449 curveto
230.43661 656.12984 185.23229 724.69395 158.71578 753.60957 curveto
stroke
0.16470589 0.1882353 0.9254902 setrgbcolor
[] 0 setdash
1.5 setlinewidth
0 setlinejoin
1 setlinecap
newpath
195.82363 718.43837 moveto
195.71938 753.07525 lineto
189.55308 730.61657 moveto
195.84674 718.38837 lineto
201.98263 730.62457 lineto
stroke
0.16470589 0.1882353 0.9254902 setrgbcolor
[] 0 setdash
1.5 setlinewidth
0 setlinejoin
1 setlinecap
newpath
220.73435 706.56337 moveto
220.59462 752.98776 lineto
214.4638 718.74157 moveto
220.75746 706.51337 lineto
226.89335 718.74957 lineto
stroke
0.16470589 0.1882353 0.9254902 setrgbcolor
[] 0 setdash
1.5 setlinewidth
0 setlinejoin
1 setlinecap
newpath
245.46649 708.52765 moveto
245.33187 753.25455 lineto
239.19594 720.70585 moveto
245.4896 708.47765 lineto
251.62549 720.71385 lineto
stroke
0.16470589 0.1882353 0.9254902 setrgbcolor
[] 0 setdash
1.5 setlinewidth
0 setlinejoin
1 setlinecap
newpath
268.5022 723.34908 moveto
268.41273 753.07664 lineto
262.23165 735.52728 moveto
268.52531 723.29908 lineto
274.6612 735.53528 lineto
stroke
0.16470589 0.1882353 0.9254902 setrgbcolor
[] 0 setdash
1.5 setlinewidth
0 setlinejoin
1 setlinecap
newpath
443.77006 725.1348 moveto
443.68436 753.60987 lineto
437.49951 737.313 moveto
443.79317 725.0848 lineto
449.92906 737.321 lineto
stroke
0.16470589 0.1882353 0.9254902 setrgbcolor
[] 0 setdash
1.5 setlinewidth
0 setlinejoin
1 setlinecap
newpath
467.34149 710.67051 moveto
467.21263 753.48373 lineto
461.07094 722.84871 moveto
467.3646 710.62051 lineto
473.50049 722.85671 lineto
stroke
0.16470589 0.1882353 0.9254902 setrgbcolor
[] 0 setdash
1.5 setlinewidth
0 setlinejoin
1 setlinecap
newpath
489.30577 708.17051 moveto
489.16939 753.48369 lineto
483.03522 720.34871 moveto
489.32888 708.12051 lineto
495.46477 720.35671 lineto
stroke
0.16470589 0.1882353 0.9254902 setrgbcolor
[] 0 setdash
1.5 setlinewidth
0 setlinejoin
1 setlinecap
newpath
510.55578 715.49194 moveto
510.44106 753.60939 lineto
504.28523 727.67014 moveto
510.57889 715.44194 lineto
516.71478 727.67814 lineto
stroke
0.16470589 0.1882353 0.9254902 setrgbcolor
[] 0 setdash
1.5 setlinewidth
0 setlinejoin
1 setlinecap
newpath
530.02005 729.24193 moveto
529.94785 753.23114 lineto
523.7495 741.42013 moveto
530.04316 729.19193 lineto
536.17905 741.42813 lineto
stroke
0.16470589 0.1882353 0.9254902 setrgbcolor
[] 0 setdash
1.5 setlinewidth
0 setlinejoin
1 setlinecap
newpath
575.91291 779.41099 moveto
575.83259 752.72514 lineto
569.64236 767.23279 moveto
575.93602 779.46099 lineto
582.07191 767.22479 lineto
stroke
0.16470589 0.1882353 0.9254902 setrgbcolor
[] 0 setdash
1.5 setlinewidth
0 setlinejoin
1 setlinecap
newpath
594.84149 796.37529 moveto
594.70973 752.59946 lineto
588.57094 784.19709 moveto
594.8646 796.42529 lineto
601.00049 784.18909 lineto
stroke
0.16470589 0.1882353 0.9254902 setrgbcolor
[] 0 setdash
1.5 setlinewidth
0 setlinejoin
1 setlinecap
newpath
348.41292 805.66099 moveto
348.2536 752.72566 lineto
342.14237 793.48279 moveto
348.43603 805.71099 lineto
354.57192 793.47479 lineto
stroke
0.16470589 0.1882353 0.9254902 setrgbcolor
[] 0 setdash
1.5 setlinewidth
0 setlinejoin
1 setlinecap
newpath
371.44863 808.161 moveto
371.28254 752.9773 lineto
365.17808 795.9828 moveto
371.47174 808.211 lineto
377.60763 795.9748 lineto
stroke
0.16470589 0.1882353 0.9254902 setrgbcolor
[] 0 setdash
1.5 setlinewidth
0 setlinejoin
1 setlinecap
newpath
395.73435 788.87528 moveto
395.62707 753.23104 lineto
389.4638 776.69708 moveto
395.75746 788.92528 lineto
401.89335 776.68908 lineto
stroke
0.16470589 0.1882353 0.9254902 setrgbcolor
[] 0 setdash
1.5 setlinewidth
0 setlinejoin
1 setlinecap
newpath
324.30578 786.286 moveto
324.07736 753.10427 lineto
318.03523 774.1078 moveto
324.32889 786.336 lineto
330.46478 774.0998 lineto
stroke
grestore
gsave [1 0 0 1 -65.48225 -664.2161] concat
gsave [1 0 0 1 380.5656 63.43995] concat
1 0.33333334 0.33333334 setrgbcolor
[] 0 setdash
1.5 setlinewidth
0 setlinejoin
1 setlinecap
newpath
-207.54346 722.71896 moveto
-184.78845 689.98986 lineto
-196.65184 716.8009 moveto
-207.71539 722.76864 lineto
-205.60762 709.20269 lineto
stroke
grestore
1 0.33333334 0.33333334 setrgbcolor
[12 1] 0 setdash
1 setlinewidth
0 setlinejoin
0 setlinecap
newpath
158.71429 753.07647 moveto
175.85714 793.07647 168.84116 843.24795 296.57143 753.07647 curveto
400.7531 679.52918 415.70062 736.49186 420.81382 752.74471 curveto
431.52732 786.7987 424.00391 840.51051 552.61748 753.16313 curveto
613.89796 711.58769 625.0921 716.39536 625.0921 716.39536 curveto
stroke
gsave [1 0 0 1 396.0376 77.41149] concat
1 0.33333334 0.33333334 setrgbcolor
[] 0 setdash
1.5 setlinewidth
0 setlinejoin
1 setlinecap
newpath
-207.54346 722.71896 moveto
-175.14559 676.06129 lineto
-196.65184 716.8009 moveto
-207.71539 722.76864 lineto
-205.60762 709.20269 lineto
stroke
grestore
gsave [1 0 0 1 421.9305 75.44722] concat
1 0.33333334 0.33333334 setrgbcolor
[] 0 setdash
1.5 setlinewidth
0 setlinejoin
1 setlinecap
newpath
-207.54346 722.71896 moveto
-176.57416 678.02557 lineto
-196.65184 716.8009 moveto
-207.71539 722.76864 lineto
-205.60762 709.20269 lineto
stroke
grestore
gsave [1 0 0 1 455.8591 59.73294] concat
1 0.33333334 0.33333334 setrgbcolor
[] 0 setdash
1.5 setlinewidth
0 setlinejoin
1 setlinecap
newpath
-207.54346 722.71896 moveto
-187.35374 693.67958 lineto
-196.65184 716.8009 moveto
-207.71539 722.76864 lineto
-205.60762 709.20269 lineto
stroke
grestore
gsave [-1.029111 0 0 -1.029111 129.0915 1470.467] concat
1 0.33333334 0.33333334 setrgbcolor
[] 0 setdash
1 setlinewidth
0 setlinejoin
1 setlinecap
newpath
-207.54346 722.71896 moveto
-189.91557 697.74349 lineto
-196.65184 716.8009 moveto
-207.71539 722.76864 lineto
-205.60762 709.20269 lineto
stroke
grestore
gsave [-1.025625 0 0 -1.025625 159.3608 1459.427] concat
1 0.33333334 0.33333334 setrgbcolor
[] 0 setdash
1 setlinewidth
0 setlinejoin
1 setlinecap
newpath
-207.54346 722.71896 moveto
-184.25274 689.27557 lineto
-196.65184 716.8009 moveto
-207.71539 722.76864 lineto
-205.60762 709.20269 lineto
stroke
grestore
gsave [-1.034745 0 0 -1.034745 179.8028 1467.914] concat
1 0.33333334 0.33333334 setrgbcolor
[] 0 setdash
1 setlinewidth
0 setlinejoin
1 setlinecap
newpath
-207.54346 722.71896 moveto
-184.96702 691.06129 lineto
-196.65184 716.8009 moveto
-207.71539 722.76864 lineto
-205.60762 709.20269 lineto
stroke
grestore
gsave [-1.048904 0 0 -1.048904 192.2938 1490.423] concat
1 0.33333334 0.33333334 setrgbcolor
[] 0 setdash
1 setlinewidth
0 setlinejoin
1 setlinecap
newpath
-207.54346 722.71896 moveto
-193.82712 703.11273 lineto
-196.65184 716.8009 moveto
-207.71539 722.76864 lineto
-205.60762 709.20269 lineto
stroke
grestore
gsave [1 0 0 1 636.0376 52.4115] concat
1 0.33333334 0.33333334 setrgbcolor
[] 0 setdash
1.5 setlinewidth
0 setlinejoin
1 setlinecap
newpath
-207.54346 722.71896 moveto
-192.49825 701.07906 lineto
-196.65184 716.8009 moveto
-207.71539 722.76864 lineto
-205.60762 709.20269 lineto
stroke
grestore
gsave [1 0 0 1 646.5734 70.80437] concat
1 0.33333334 0.33333334 setrgbcolor
[] 0 setdash
1.5 setlinewidth
0 setlinejoin
1 setlinecap
newpath
-207.54346 722.71896 moveto
-179.43131 682.66843 lineto
-196.65184 716.8009 moveto
-207.71539 722.76864 lineto
-205.60762 709.20269 lineto
stroke
grestore
gsave [1 0 0 1 666.0376 75.62576] concat
1 0.33333334 0.33333334 setrgbcolor
[] 0 setdash
1.5 setlinewidth
0 setlinejoin
1 setlinecap
newpath
-207.54346 722.71896 moveto
-176.93131 678.38272 lineto
-196.65184 716.8009 moveto
-207.71539 722.76864 lineto
-205.60762 709.20269 lineto
stroke
grestore
gsave [1 0 0 1 692.8233 67.59011] concat
1 0.33333334 0.33333334 setrgbcolor
[] 0 setdash
1.5 setlinewidth
0 setlinejoin
1 setlinecap
newpath
-207.54346 722.71896 moveto
-182.46702 686.06129 lineto
-196.65184 716.8009 moveto
-207.71539 722.76864 lineto
-205.60762 709.20269 lineto
stroke
grestore
gsave [1 0 0 1 721.7519 53.30431] concat
1 0.33333334 0.33333334 setrgbcolor
[] 0 setdash
1.5 setlinewidth
0 setlinejoin
1 setlinecap
newpath
-207.54346 722.71896 moveto
-191.78884 700.0587 lineto
-196.65184 716.8009 moveto
-207.71539 722.76864 lineto
-205.60762 709.20269 lineto
stroke
grestore
gsave [-1.045788 0 0 -1.045788 375.1466 1485.488] concat
1 0.33333334 0.33333334 setrgbcolor
[] 0 setdash
1 setlinewidth
0 setlinejoin
1 setlinecap
newpath
-207.54346 722.71896 moveto
-192.16918 700.7476 lineto
-196.65184 716.8009 moveto
-207.71539 722.76864 lineto
-205.60762 709.20269 lineto
stroke
grestore
gsave [-1.033026 0 0 -1.033026 404.0649 1464.77] concat
1 0.33333334 0.33333334 setrgbcolor
[] 0 setdash
1 setlinewidth
0 setlinejoin
1 setlinecap
newpath
-207.54346 722.71896 moveto
-184.53591 689.35851 lineto
-196.65184 716.8009 moveto
-207.71539 722.76864 lineto
-205.60762 709.20269 lineto
stroke
grestore
gsave [0.999983 0.005864788 -0.005864788 0.999983 0 0] concat
gsave
0 0 0 setrgbcolor
newpath
132.20108 779.70634 moveto
132.20108 784.60186 lineto
137.0966 784.60186 lineto
137.0966 786.096 lineto
132.20108 786.096 lineto
132.20108 790.99152 lineto
130.72451 790.99152 lineto
130.72451 786.096 lineto
125.829 786.096 lineto
125.829 784.60186 lineto
130.72451 784.60186 lineto
130.72451 779.70634 lineto
132.20108 779.70634 lineto
fill
grestore
gsave
0 0 0 setrgbcolor
newpath
146.5097 789.51495 moveto
146.0761 790.08331 145.5634 790.51398 144.97161 790.80695 curveto
144.38566 791.09991 143.73527 791.2464 143.02043 791.2464 curveto
142.02434 791.2464 141.24211 790.91241 140.67375 790.24444 curveto
140.11125 789.57062 139.83 788.64483 139.83 787.4671 curveto
139.83 786.51788 140.00285 785.60089 140.34855 784.71611 curveto
140.70012 783.83135 141.20109 783.03741 141.85149 782.33427 curveto
142.27336 781.87725 142.75676 781.52569 143.30168 781.27959 curveto
143.85246 781.0335 144.42961 780.91045 145.03313 780.91044 curveto
145.75969 780.91045 146.35735 781.05401 146.8261 781.34111 curveto
147.29485 781.62823 147.63469 782.06182 147.84564 782.64189 curveto
148.12689 781.16533 lineto
149.75287 781.16533 lineto
147.12493 794.70051 lineto
145.49895 794.70051 lineto
146.5097 789.51495 lineto
141.50871 787.22979 moveto
141.50871 788.09698 141.69035 788.75909 142.05364 789.21612 curveto
142.41691 789.6673 142.94133 789.89288 143.62688 789.89288 curveto
144.64641 789.89288 145.51653 789.40655 146.23724 788.43389 curveto
146.95793 787.45538 147.31828 786.26886 147.31829 784.87432 curveto
147.31828 784.03057 147.13078 783.38604 146.75579 782.94072 curveto
146.38664 782.48956 145.85344 782.26397 145.15618 782.26396 curveto
144.64641 782.26397 144.17473 782.38409 143.74114 782.62431 curveto
143.30754 782.8587 142.92961 783.2044 142.60735 783.66143 curveto
142.2675 784.1419 141.99797 784.7044 141.79875 785.34893 curveto
141.60539 785.99347 141.50871 786.62042 141.50871 787.22979 curveto
fill
grestore
grestore
gsave [1 0 0 1 -12 0] concat
gsave [0.39069 -0.266453 0.266453 0.39069 14.26121 409.9407] concat
0.16470589 0.1882353 0.9254902 setrgbcolor
[] 0 setdash
3.1719077 setlinewidth
0 setlinejoin
1 setlinecap
newpath
-207.54346 722.71896 moveto
-189.45696 695.99408 lineto
-196.65184 716.8009 moveto
-207.71539 722.76864 lineto
-205.60762 709.20269 lineto
stroke
grestore
gsave [-0.39069 0.266453 -0.266453 -0.39069 237.2342 1041.262] concat
0.16470589 0.1882353 0.9254902 setrgbcolor
[] 0 setdash
3.1719077 setlinewidth
0 setlinejoin
1 setlinecap
newpath
-207.54346 722.71896 moveto
-188.9768 695.71157 lineto
-196.65184 716.8009 moveto
-207.50981 723.13738 lineto
-205.60762 709.20269 lineto
stroke
grestore
gsave [1.635763 -1.115601 1.115601 1.635763 -917.6152 -502.1117] concat
gsave
0.16470589 0.1882353 0.9254902 setrgbcolor
newpath
88.38835 809.16797 moveto
88.38835 810.56198 87.256979 811.69335 85.862968 811.69335 curveto
84.468958 811.69335 83.337587 810.56198 83.337587 809.16797 curveto
83.337587 807.77396 84.468958 806.64259 85.862968 806.64259 curveto
87.256979 806.64259 88.38835 807.77396 88.38835 809.16797 curveto
closepath
fill
grestore
grestore
grestore
gsave [0.99999 0.004523404 -0.004523404 0.99999 0 0] concat
gsave
0 0 0 setrgbcolor
newpath
124.65965 724.93296 moveto
129.39697 724.93296 lineto
129.12451 726.37438 lineto
124.36961 726.37438 lineto
124.65965 724.93296 lineto
fill
grestore
gsave
0 0 0 setrgbcolor
newpath
137.57083 729.10778 moveto
137.13722 729.67615 136.62453 730.10681 136.03273 730.39978 curveto
135.44679 730.69275 134.7964 730.83923 134.08156 730.83923 curveto
133.08546 730.83923 132.30323 730.50525 131.73487 729.83728 curveto
131.17236 729.16345 130.89111 728.23767 130.89112 727.05992 curveto
130.89111 726.11071 131.06397 725.19371 131.40967 724.30894 curveto
131.76123 723.42418 132.26221 722.63023 132.91261 721.92709 curveto
133.33448 721.47007 133.81788 721.11851 134.36281 720.8724 curveto
134.91358 720.62632 135.49073 720.50327 136.09426 720.50326 curveto
136.82082 720.50327 137.41847 720.64683 137.88723 720.93393 curveto
138.35598 721.22105 138.69582 721.65464 138.90677 722.23471 curveto
139.18802 720.75815 lineto
140.814 720.75815 lineto
138.18606 734.29335 lineto
136.56008 734.29335 lineto
137.57083 729.10778 lineto
132.56983 726.82262 moveto
132.56983 727.68981 132.75147 728.35192 133.11476 728.80895 curveto
133.47803 729.26013 134.00245 729.48572 134.688 729.48571 curveto
135.70753 729.48572 136.57765 728.99939 137.29836 728.02672 curveto
138.01906 727.04821 138.37941 725.86168 138.37942 724.46714 curveto
138.37941 723.6234 138.19191 722.97886 137.81692 722.53354 curveto
137.44777 722.08238 136.91457 721.85679 136.21731 721.85678 curveto
135.70753 721.85679 135.23585 721.97691 134.80226 722.21713 curveto
134.36866 722.45152 133.99073 722.79722 133.66847 723.25425 curveto
133.32862 723.73472 133.05909 724.29723 132.85987 724.94175 curveto
132.66651 725.58629 132.56983 726.21325 132.56983 726.82262 curveto
fill
grestore
grestore
gsave [1 0 0 1 -11.95853 59.61501] concat
gsave [0.39069 -0.266453 0.266453 0.39069 14.26121 409.9407] concat
0.16470589 0.1882353 0.9254902 setrgbcolor
[] 0 setdash
3.1719077 setlinewidth
0 setlinejoin
1 setlinecap
newpath
-207.54346 722.71896 moveto
-189.45696 695.99408 lineto
-196.65184 716.8009 moveto
-207.71539 722.76864 lineto
-205.60762 709.20269 lineto
stroke
grestore
gsave [-0.39069 0.266453 -0.266453 -0.39069 237.2342 1041.262] concat
0.16470589 0.1882353 0.9254902 setrgbcolor
[] 0 setdash
3.1719077 setlinewidth
0 setlinejoin
1 setlinecap
newpath
-207.54346 722.71896 moveto
-188.9768 695.71157 lineto
-196.65184 716.8009 moveto
-207.50981 723.13738 lineto
-205.60762 709.20269 lineto
stroke
grestore
gsave [1.635763 -1.115601 1.115601 1.635763 -917.6152 -502.1117] concat
gsave
0.16470589 0.1882353 0.9254902 setrgbcolor
newpath
88.38835 809.16797 moveto
88.38835 810.56198 87.256979 811.69335 85.862968 811.69335 curveto
84.468958 811.69335 83.337587 810.56198 83.337587 809.16797 curveto
83.337587 807.77396 84.468958 806.64259 85.862968 806.64259 curveto
87.256979 806.64259 88.38835 807.77396 88.38835 809.16797 curveto
closepath
fill
grestore
grestore
grestore
grestore
grestore
showpage
%%EOF
