%!PS-Adobe-2.0 EPSF-2.0
%%Title: Parallele.eps
%%Creator: fig2dev Version 3.2 Patchlevel 3d
%%CreationDate: Wed Aug  6 23:19:16 2003
%%For: prof@portable (Vincent Guyot)
%%BoundingBox: 0 0 122 94
%%Magnification: 1.0000
%%EndComments
/$F2psDict 200 dict def
$F2psDict begin
$F2psDict /mtrx matrix put
/col-1 {0 setgray} bind def
/col0 {0.000 0.000 0.000 srgb} bind def
/col1 {0.000 0.000 1.000 srgb} bind def
/col2 {0.000 1.000 0.000 srgb} bind def
/col3 {0.000 1.000 1.000 srgb} bind def
/col4 {1.000 0.000 0.000 srgb} bind def
/col5 {1.000 0.000 1.000 srgb} bind def
/col6 {1.000 1.000 0.000 srgb} bind def
/col7 {1.000 1.000 1.000 srgb} bind def
/col8 {0.000 0.000 0.560 srgb} bind def
/col9 {0.000 0.000 0.690 srgb} bind def
/col10 {0.000 0.000 0.820 srgb} bind def
/col11 {0.530 0.810 1.000 srgb} bind def
/col12 {0.000 0.560 0.000 srgb} bind def
/col13 {0.000 0.690 0.000 srgb} bind def
/col14 {0.000 0.820 0.000 srgb} bind def
/col15 {0.000 0.560 0.560 srgb} bind def
/col16 {0.000 0.690 0.690 srgb} bind def
/col17 {0.000 0.820 0.820 srgb} bind def
/col18 {0.560 0.000 0.000 srgb} bind def
/col19 {0.690 0.000 0.000 srgb} bind def
/col20 {0.820 0.000 0.000 srgb} bind def
/col21 {0.560 0.000 0.560 srgb} bind def
/col22 {0.690 0.000 0.690 srgb} bind def
/col23 {0.820 0.000 0.820 srgb} bind def
/col24 {0.500 0.190 0.000 srgb} bind def
/col25 {0.630 0.250 0.000 srgb} bind def
/col26 {0.750 0.380 0.000 srgb} bind def
/col27 {1.000 0.500 0.500 srgb} bind def
/col28 {1.000 0.630 0.630 srgb} bind def
/col29 {1.000 0.750 0.750 srgb} bind def
/col30 {1.000 0.880 0.880 srgb} bind def
/col31 {1.000 0.840 0.000 srgb} bind def

end
save
newpath 0 94 moveto 0 0 lineto 122 0 lineto 122 94 lineto closepath clip newpath
-22.3 121.5 translate
1 -1 scale

/cp {closepath} bind def
/ef {eofill} bind def
/gr {grestore} bind def
/gs {gsave} bind def
/sa {save} bind def
/rs {restore} bind def
/l {lineto} bind def
/m {moveto} bind def
/rm {rmoveto} bind def
/n {newpath} bind def
/s {stroke} bind def
/sh {show} bind def
/slc {setlinecap} bind def
/slj {setlinejoin} bind def
/slw {setlinewidth} bind def
/srgb {setrgbcolor} bind def
/rot {rotate} bind def
/sc {scale} bind def
/sd {setdash} bind def
/ff {findfont} bind def
/sf {setfont} bind def
/scf {scalefont} bind def
/sw {stringwidth} bind def
/tr {translate} bind def
/tnt {dup dup currentrgbcolor
  4 -2 roll dup 1 exch sub 3 -1 roll mul add
  4 -2 roll dup 1 exch sub 3 -1 roll mul add
  4 -2 roll dup 1 exch sub 3 -1 roll mul add srgb}
  bind def
/shd {dup dup currentrgbcolor 4 -2 roll mul 4 -2 roll mul
  4 -2 roll mul srgb} bind def
/$F2psBegin {$F2psDict begin /$F2psEnteredState save def} def
/$F2psEnd {$F2psEnteredState restore end} def

$F2psBegin
10 setmiterlimit
 0.06299 0.06299 sc
%
% Fig objects follow
%
% Polyline
7.500 slw
n 1872 625 m 2155 625 l 2155 1569 l
 1872 1569 l gs col0 s gr 
% Polyline
n 516 1002 m 516 492 l 1869 492 l 1869 625 l 1570 625 l 1570 1569 l
 1872 1569 l 1872 1917 l 522 1917 l
 522 1054 l gs col0 s gr 
% Polyline
n 1466 1025 m 1675 1025 l 1675 1471 l 1466 1471 l
 cp gs col7 1.00 shd ef gr gs col0 s gr 
% Polyline
n 2057 1019 m 2266 1019 l 2266 1465 l 2057 1465 l
 cp gs col7 1.00 shd ef gr gs col0 s gr 
/Times-Roman ff 180.00 scf sf
1484 1287 m
gs 1 -1 sc (R) col0 sh gr
/Times-Roman ff 120.00 scf sf
1605 1321 m
gs 1 -1 sc (1) col0 sh gr
/Times-Roman ff 180.00 scf sf
2075 1273 m
gs 1 -1 sc (R) col0 sh gr
/Times-Roman ff 120.00 scf sf
2197 1314 m
gs 1 -1 sc (2) col0 sh gr
% Polyline
n 434 1054 m
 619 1054 l gs col0 s gr 
% Polyline
n 366 1002 m
 678 1002 l gs col0 s gr 
% Polyline
15.000 slw
gs  clippath
1406 522 m 1406 462 l 1221 462 l 1371 492 l 1221 522 l cp
eoclip
n 933 492 m
 1391 492 l gs col0 s gr gr

% arrowhead
7.500 slw
n 1221 522 m 1371 492 l 1221 462 l 1251 492 l 1221 522 l 
 cp gs 0.00 setgray ef gr  col0 s
% Polyline
15.000 slw
gs  clippath
1547 976 m 1592 976 l 1592 828 l 1570 941 l 1547 828 l cp
eoclip
n 1570 671 m
 1570 961 l gs col0 s gr gr

% arrowhead
7.500 slw
n 1547 828 m 1570 941 l 1592 828 l 1570 851 l 1547 828 l 
 cp gs 0.00 setgray ef gr  col0 s
% Polyline
15.000 slw
gs  clippath
2132 976 m 2177 976 l 2177 828 l 2155 941 l 2132 828 l cp
eoclip
n 2155 671 m
 2155 961 l gs col0 s gr gr

% arrowhead
7.500 slw
n 2132 828 m 2155 941 l 2177 828 l 2155 851 l 2132 828 l 
 cp gs 0.00 setgray ef gr  col0 s
/Times-Roman ff 180.00 scf sf
702 1089 m
gs 1 -1 sc (U) col0 sh gr
/Times-Roman ff 180.00 scf sf
1072 666 m
gs 1 -1 sc (I) col0 sh gr
/Times-Roman ff 180.00 scf sf
1385 805 m
gs 1 -1 sc (I) col0 sh gr
/Times-Roman ff 180.00 scf sf
1970 794 m
gs 1 -1 sc (I) col0 sh gr
/Times-Roman ff 120.00 scf sf
1443 845 m
gs 1 -1 sc (1) col0 sh gr
/Times-Roman ff 120.00 scf sf
2034 834 m
gs 1 -1 sc (2) col0 sh gr
/Times-Roman ff 180.00 scf sf
1291 1286 m
gs 1 -1 sc (U) col0 sh gr
/Times-Roman ff 180.00 scf sf
1876 1281 m
gs 1 -1 sc (U) col0 sh gr
$F2psEnd
rs
