%!PS-Adobe-2.0 EPSF-2.0
%%Title: PileDaniell.eps
%%Creator: fig2dev Version 3.2 Patchlevel 3d
%%CreationDate: Fri Aug  1 11:47:47 2003
%%For: prof@portable (Vincent Guyot)
%%BoundingBox: 0 0 402 197
%%Magnification: 1.0000
%%EndComments
/$F2psDict 200 dict def
$F2psDict begin
$F2psDict /mtrx matrix put
/col-1 {0 setgray} bind def
/col0 {0.000 0.000 0.000 srgb} bind def
/col1 {0.000 0.000 1.000 srgb} bind def
/col2 {0.000 1.000 0.000 srgb} bind def
/col3 {0.000 1.000 1.000 srgb} bind def
/col4 {1.000 0.000 0.000 srgb} bind def
/col5 {1.000 0.000 1.000 srgb} bind def
/col6 {1.000 1.000 0.000 srgb} bind def
/col7 {1.000 1.000 1.000 srgb} bind def
/col8 {0.000 0.000 0.560 srgb} bind def
/col9 {0.000 0.000 0.690 srgb} bind def
/col10 {0.000 0.000 0.820 srgb} bind def
/col11 {0.530 0.810 1.000 srgb} bind def
/col12 {0.000 0.560 0.000 srgb} bind def
/col13 {0.000 0.690 0.000 srgb} bind def
/col14 {0.000 0.820 0.000 srgb} bind def
/col15 {0.000 0.560 0.560 srgb} bind def
/col16 {0.000 0.690 0.690 srgb} bind def
/col17 {0.000 0.820 0.820 srgb} bind def
/col18 {0.560 0.000 0.000 srgb} bind def
/col19 {0.690 0.000 0.000 srgb} bind def
/col20 {0.820 0.000 0.000 srgb} bind def
/col21 {0.560 0.000 0.560 srgb} bind def
/col22 {0.690 0.000 0.690 srgb} bind def
/col23 {0.820 0.000 0.820 srgb} bind def
/col24 {0.500 0.190 0.000 srgb} bind def
/col25 {0.630 0.250 0.000 srgb} bind def
/col26 {0.750 0.380 0.000 srgb} bind def
/col27 {1.000 0.500 0.500 srgb} bind def
/col28 {1.000 0.630 0.630 srgb} bind def
/col29 {1.000 0.750 0.750 srgb} bind def
/col30 {1.000 0.880 0.880 srgb} bind def
/col31 {1.000 0.840 0.000 srgb} bind def

end
save
newpath 0 197 moveto 0 0 lineto 402 0 lineto 402 197 lineto closepath clip newpath
-24.8 303.3 translate
1 -1 scale

/cp {closepath} bind def
/ef {eofill} bind def
/gr {grestore} bind def
/gs {gsave} bind def
/sa {save} bind def
/rs {restore} bind def
/l {lineto} bind def
/m {moveto} bind def
/rm {rmoveto} bind def
/n {newpath} bind def
/s {stroke} bind def
/sh {show} bind def
/slc {setlinecap} bind def
/slj {setlinejoin} bind def
/slw {setlinewidth} bind def
/srgb {setrgbcolor} bind def
/rot {rotate} bind def
/sc {scale} bind def
/sd {setdash} bind def
/ff {findfont} bind def
/sf {setfont} bind def
/scf {scalefont} bind def
/sw {stringwidth} bind def
/tr {translate} bind def
/tnt {dup dup currentrgbcolor
  4 -2 roll dup 1 exch sub 3 -1 roll mul add
  4 -2 roll dup 1 exch sub 3 -1 roll mul add
  4 -2 roll dup 1 exch sub 3 -1 roll mul add srgb}
  bind def
/shd {dup dup currentrgbcolor 4 -2 roll mul 4 -2 roll mul
  4 -2 roll mul srgb} bind def
/reencdict 12 dict def /ReEncode { reencdict begin
/newcodesandnames exch def /newfontname exch def /basefontname exch def
/basefontdict basefontname findfont def /newfont basefontdict maxlength dict def
basefontdict { exch dup /FID ne { dup /Encoding eq
{ exch dup length array copy newfont 3 1 roll put }
{ exch newfont 3 1 roll put } ifelse } { pop pop } ifelse } forall
newfont /FontName newfontname put newcodesandnames aload pop
128 1 255 { newfont /Encoding get exch /.notdef put } for
newcodesandnames length 2 idiv { newfont /Encoding get 3 1 roll put } repeat
newfontname newfont definefont pop end } def
/isovec [
8#055 /minus 8#200 /grave 8#201 /acute 8#202 /circumflex 8#203 /tilde
8#204 /macron 8#205 /breve 8#206 /dotaccent 8#207 /dieresis
8#210 /ring 8#211 /cedilla 8#212 /hungarumlaut 8#213 /ogonek 8#214 /caron
8#220 /dotlessi 8#230 /oe 8#231 /OE
8#240 /space 8#241 /exclamdown 8#242 /cent 8#243 /sterling
8#244 /currency 8#245 /yen 8#246 /brokenbar 8#247 /section 8#250 /dieresis
8#251 /copyright 8#252 /ordfeminine 8#253 /guillemotleft 8#254 /logicalnot
8#255 /hyphen 8#256 /registered 8#257 /macron 8#260 /degree 8#261 /plusminus
8#262 /twosuperior 8#263 /threesuperior 8#264 /acute 8#265 /mu 8#266 /paragraph
8#267 /periodcentered 8#270 /cedilla 8#271 /onesuperior 8#272 /ordmasculine
8#273 /guillemotright 8#274 /onequarter 8#275 /onehalf
8#276 /threequarters 8#277 /questiondown 8#300 /Agrave 8#301 /Aacute
8#302 /Acircumflex 8#303 /Atilde 8#304 /Adieresis 8#305 /Aring
8#306 /AE 8#307 /Ccedilla 8#310 /Egrave 8#311 /Eacute
8#312 /Ecircumflex 8#313 /Edieresis 8#314 /Igrave 8#315 /Iacute
8#316 /Icircumflex 8#317 /Idieresis 8#320 /Eth 8#321 /Ntilde 8#322 /Ograve
8#323 /Oacute 8#324 /Ocircumflex 8#325 /Otilde 8#326 /Odieresis 8#327 /multiply
8#330 /Oslash 8#331 /Ugrave 8#332 /Uacute 8#333 /Ucircumflex
8#334 /Udieresis 8#335 /Yacute 8#336 /Thorn 8#337 /germandbls 8#340 /agrave
8#341 /aacute 8#342 /acircumflex 8#343 /atilde 8#344 /adieresis 8#345 /aring
8#346 /ae 8#347 /ccedilla 8#350 /egrave 8#351 /eacute
8#352 /ecircumflex 8#353 /edieresis 8#354 /igrave 8#355 /iacute
8#356 /icircumflex 8#357 /idieresis 8#360 /eth 8#361 /ntilde 8#362 /ograve
8#363 /oacute 8#364 /ocircumflex 8#365 /otilde 8#366 /odieresis 8#367 /divide
8#370 /oslash 8#371 /ugrave 8#372 /uacute 8#373 /ucircumflex
8#374 /udieresis 8#375 /yacute 8#376 /thorn 8#377 /ydieresis] def
/Times-Roman /Times-Roman-iso isovec ReEncode
/$F2psBegin {$F2psDict begin /$F2psEnteredState save def} def
/$F2psEnd {$F2psEnteredState restore end} def

$F2psBegin
10 setmiterlimit
 0.06299 0.06299 sc
%
% Fig objects follow
%
% Polyline
7.500 slw
n 585 3870 m 585 2565 l 810 2565 l 810 1980 l 1530 1980 l 1890 1710 l
 2430 2115 l 2970 1755 l
 3600 2160 l gs col0 s gr 
% Polyline
n 3600 2295 m 2970 1890 l 2430 2250 l 1890 1845 l 1530 2115 l 945 2115 l
 945 2565 l 1170 2565 l 1170 3870 l
 585 3870 l gs col0 s gr 
% Polyline
n 6615 3870 m 6615 2565 l 6390 2565 l 6390 1980 l 5670 1980 l 5310 1710 l
 4770 2115 l 4230 1755 l
 3600 2160 l gs col0 s gr 
% Polyline
n 3600 2295 m 4230 1890 l 4770 2250 l 5310 1845 l 5670 2115 l 6255 2115 l
 6255 2565 l 6030 2565 l 6030 3870 l
 6615 3870 l gs col0 s gr 
/Times-Roman-iso ff 180.00 scf sf
1395 3285 m
gs 1 -1 sc (Zn) col0 sh gr
/Times-Roman-iso ff 120.00 scf sf
1575 3195 m
gs 1 -1 sc (2+) col0 sh gr
/Times-Roman-iso ff 180.00 scf sf
4230 3780 m
gs 1 -1 sc (SO) col0 sh gr
/Times-Roman-iso ff 120.00 scf sf
4455 3825 m
gs 1 -1 sc (4) col0 sh gr
/Times-Roman-iso ff 120.00 scf sf
4455 3690 m
gs 1 -1 sc (2-) col0 sh gr
/Times-Roman-iso ff 180.00 scf sf
5130 3690 m
gs 1 -1 sc (Cu) col0 sh gr
/Times-Roman-iso ff 120.00 scf sf
5355 3600 m
gs 1 -1 sc (2+) col0 sh gr
/Times-Roman-iso ff 180.00 scf sf
5400 3285 m
gs 1 -1 sc (Cu) col0 sh gr
/Times-Roman-iso ff 120.00 scf sf
5625 3195 m
gs 1 -1 sc (2+) col0 sh gr
/Times-Roman-iso ff 180.00 scf sf
1518 3885 m
gs 1 -1 sc (Zn) col0 sh gr
/Times-Roman-iso ff 120.00 scf sf
1698 3795 m
gs 1 -1 sc (2+) col0 sh gr
/Times-Roman-iso ff 180.00 scf sf
2474 3564 m
gs 1 -1 sc (SO) col0 sh gr
/Times-Roman-iso ff 120.00 scf sf
2699 3609 m
gs 1 -1 sc (4) col0 sh gr
/Times-Roman-iso ff 120.00 scf sf
2699 3474 m
gs 1 -1 sc (2-) col0 sh gr
% Polyline
n 405 2790 m 405 4050 l 3105 4050 l
 3105 2745 l gs col0 s gr 
% Polyline
n 4050 2745 m 4050 2790 l 4050 4050 l 6750 4050 l
 6750 2745 l gs col0 s gr 
% Polyline
n 2250 3510 m 2250 2475 l 4950 2475 l
 4950 3510 l gs col0 s gr 
% Polyline
n 2430 3510 m 2430 2655 l 4770 2655 l
 4770 3510 l gs col0 s gr 
% Polyline
n 405 2970 m
 585 2970 l gs col0 s gr 
% Polyline
n 1170 2970 m
 2250 2970 l gs col0 s gr 
% Polyline
n 2430 2970 m
 3105 2970 l gs col0 s gr 
% Polyline
n 4050 2970 m
 4770 2970 l gs col0 s gr 
% Polyline
n 4950 2970 m
 6030 2970 l gs col0 s gr 
% Polyline
n 6615 2970 m
 6750 2970 l gs col0 s gr 
% Polyline
gs  clippath
918 2904 m 874 2915 l 899 3016 l 903 2938 l 943 3005 l cp
eoclip
n 945 3105 m
 900 2925 l gs col0 s gr gr

% arrowhead
n 943 3005 m 903 2938 l 899 3016 l 917 2996 l 943 3005 l 
 cp gs 0.00 setgray ef gr  col0 s
% Polyline
gs  clippath
972 3103 m 933 3080 l 868 3187 l 936 3119 l 907 3210 l cp
eoclip
n 945 3105 m
 810 3330 l gs col0 s gr gr

% arrowhead
n 907 3210 m 936 3119 l 868 3187 l 897 3183 l 907 3210 l 
 cp gs 0.00 setgray ef gr  col0 s
% Polyline
gs  clippath
891 2236 m 846 2236 l 846 2383 l 869 2271 l 891 2383 l cp
eoclip
n 869 2701 m
 869 2251 l gs col0 s gr gr

% arrowhead
n 891 2383 m 869 2271 l 846 2383 l 869 2361 l 891 2383 l 
 cp gs 0.00 setgray ef gr  col0 s
% Polyline
gs  clippath
6295 2732 m 6340 2732 l 6340 2584 l 6318 2697 l 6295 2584 l cp
eoclip
n 6318 2279 m
 6318 2717 l gs col0 s gr gr

% arrowhead
n 6295 2584 m 6318 2697 l 6340 2584 l 6318 2607 l 6295 2584 l 
 cp gs 0.00 setgray ef gr  col0 s
% Polyline
gs  clippath
6311 3202 m 6356 3202 l 6356 3098 l 6334 3173 l 6311 3098 l cp
eoclip
n 6334 2977 m
 6334 3187 l gs col0 s gr gr

% arrowhead
n 6311 3098 m 6334 3173 l 6356 3098 l 6334 3113 l 6311 3098 l 
 cp gs 0.00 setgray ef gr  col0 s
% Polyline
gs  clippath
6432 3469 m 6473 3451 l 6423 3337 l 6440 3432 l 6381 3354 l cp
eoclip
n 6334 3187 m
 6447 3447 l gs col0 s gr gr

% arrowhead
n 6381 3354 m 6440 3432 l 6423 3337 l 6410 3363 l 6381 3354 l 
 cp gs 0.00 setgray ef gr  col0 s
% Polyline
gs  clippath
6350 3208 m 6347 3163 l 6200 3172 l 6314 3188 l 6203 3217 l cp
eoclip
n 6334 3187 m
 5831 3220 l gs col0 s gr gr

% arrowhead
n 6203 3217 m 6314 3188 l 6200 3172 l 6224 3193 l 6203 3217 l 
 cp gs 0.00 setgray ef gr  col0 s
% Polyline
gs  clippath
1380 3253 m 1392 3210 l 1250 3172 l 1353 3223 l 1238 3215 l cp
eoclip
n 939 3112 m
 1372 3228 l gs col0 s gr gr

% arrowhead
n 1238 3215 m 1353 3223 l 1250 3172 l 1266 3199 l 1238 3215 l 
 cp gs 0.00 setgray ef gr  col0 s
% Polyline
gs  clippath
991 3640 m 947 3630 l 915 3773 l 962 3669 l 959 3783 l cp
eoclip
n 853 4152 m
 966 3650 l gs col0 s gr gr

% arrowhead
n 959 3783 m 962 3669 l 915 3773 l 942 3756 l 959 3783 l 
 cp gs 0.00 setgray ef gr  col0 s
% Polyline
gs  clippath
2395 3776 m 2351 3786 l 2384 3929 l 2381 3815 l 2427 3919 l cp
eoclip
n 2458 4152 m
 2377 3796 l gs col0 s gr gr

% arrowhead
n 2427 3919 m 2381 3815 l 2384 3929 l 2400 3902 l 2427 3919 l 
 cp gs 0.00 setgray ef gr  col0 s
% Polyline
gs  clippath
4754 3847 m 4721 3817 l 4623 3928 l 4715 3859 l 4657 3958 l cp
eoclip
n 4485 4120 m
 4728 3844 l gs col0 s gr gr

% arrowhead
n 4657 3958 m 4715 3859 l 4623 3928 l 4655 3926 l 4657 3958 l 
 cp gs 0.00 setgray ef gr  col0 s
% Polyline
gs  clippath
6247 3682 m 6209 3657 l 6127 3780 l 6209 3699 l 6165 3805 l cp
eoclip
n 5928 4120 m
 6220 3682 l gs col0 s gr gr

% arrowhead
n 6165 3805 m 6209 3699 l 6127 3780 l 6159 3773 l 6165 3805 l 
 cp gs 0.00 setgray ef gr  col0 s
% Polyline
2 slj
gs  clippath
4886 3307 m 4826 3312 l 4838 3454 l 4859 3340 l 4898 3449 l cp
eoclip
n 4599 3731 m 4602 3731 l 4609 3732 l 4619 3733 l 4633 3734 l 4649 3734 l
 4666 3734 l 4684 3734 l 4702 3732 l 4721 3728 l 4741 3722 l
 4761 3714 l 4778 3704 l 4791 3695 l 4799 3687 l 4803 3682 l
 4804 3679 l 4804 3676 l 4804 3673 l 4805 3669 l 4807 3662 l
 4811 3651 l 4818 3636 l 4826 3617 l 4833 3597 l 4839 3580 l
 4843 3567 l 4845 3558 l 4847 3552 l 4847 3548 l 4848 3544 l
 4849 3538 l 4850 3528 l 4852 3514 l 4855 3495 l 4858 3471 l
 4860 3447 l 4862 3426 l 4862 3407 l 4862 3390 l 4862 3375 l
 4861 3361 l 4860 3349 l
 4858 3325 l gs col0 s gr gr

% arrowhead
0 slj
n 4898 3449 m 4859 3340 l 4838 3454 l 4866 3429 l 4898 3449 l 
 cp gs 0.00 setgray ef gr  col0 s
% Polyline
2 slj
gs  clippath
1892 3502 m 1863 3554 l 1986 3624 l 1904 3543 l 2016 3572 l cp
eoclip
n 1891 3536 m 1912 3548 l 1923 3554 l 1935 3560 l 1949 3567 l 1966 3574 l
 1986 3583 l 2009 3592 l 2036 3601 l 2060 3609 l 2082 3616 l
 2100 3621 l 2114 3626 l 2124 3629 l 2132 3631 l 2139 3634 l
 2145 3636 l 2153 3638 l 2163 3640 l 2175 3643 l 2192 3646 l
 2211 3648 l 2231 3650 l 2252 3650 l 2267 3650 l 2277 3648 l
 2283 3647 l 2285 3646 l 2285 3644 l 2285 3643 l 2286 3641 l
 2289 3637 l 2294 3632 l 2302 3626 l 2312 3617 l 2322 3606 l
 2329 3597 l 2333 3591 l 2335 3589 l 2336 3588 l 2336 3584 l
 2338 3575 l 2341 3559 l 2345 3536 l 2347 3514 l 2349 3495 l
 2349 3480 l 2349 3470 l 2348 3463 l 2348 3458 l 2347 3453 l
 2346 3445 l 2346 3433 l 2345 3414 l 2345 3389 l 2345 3358 l
 2345 3330 l 2345 3304 l 2345 3281 l 2345 3259 l 2345 3239 l
 2345 3220 l 2345 3203 l 2345 3187 l 2345 3173 l 2345 3162 l
 2345 3154 l 2345 3149 l
 2345 3147 l gs col0 s gr gr

% arrowhead
0 slj
n 2016 3572 m 1904 3543 l 1986 3624 l 1982 3587 l 2016 3572 l 
 cp gs 0.00 setgray ef gr  col0 s
/Times-Roman-iso ff 180.00 scf sf
3285 2835 m
gs 1 -1 sc (Pont) col0 sh gr
/Times-Roman-iso ff 180.00 scf sf
3285 3045 m
gs 1 -1 sc (ionique) col0 sh gr
/Times-Roman-iso ff 180.00 scf sf
3240 1845 m
gs 1 -1 sc (R\351sistance) col0 sh gr
/Times-Roman-iso ff 180.00 scf sf
5355 4320 m
gs 1 -1 sc (Electrode de cuivre) col0 sh gr
/Times-Roman-iso ff 180.00 scf sf
405 4320 m
gs 1 -1 sc (Electrode de zinc) col0 sh gr
/Times-Roman-iso ff 180.00 scf sf
4095 4545 m
gs 1 -1 sc (et dissoci\351 en) col0 sh gr
/Times-Roman-iso ff 120.00 scf sf
4815 4815 m
gs 1 -1 sc (4) col0 sh gr
/Times-Roman-iso ff 120.00 scf sf
4860 4680 m
gs 1 -1 sc (2-) col0 sh gr
/Times-Roman-iso ff 180.00 scf sf
4095 4320 m
gs 1 -1 sc (CuSO) col0 sh gr
/Times-Roman-iso ff 120.00 scf sf
4545 4365 m
gs 1 -1 sc (4) col0 sh gr
/Times-Roman-iso ff 180.00 scf sf
4635 4320 m
gs 1 -1 sc (dilu\351) col0 sh gr
/Times-Roman-iso ff 180.00 scf sf
4095 4770 m
gs 1 -1 sc (Cu   et SO) col0 sh gr
/Times-Roman-iso ff 120.00 scf sf
4320 4680 m
gs 1 -1 sc (2+) col0 sh gr
/Times-Roman-iso ff 180.00 scf sf
765 2880 m
gs 1 -1 sc (2e) col0 sh gr
/Times-Roman-iso ff 180.00 scf sf
2070 4320 m
gs 1 -1 sc (ZnSO) col0 sh gr
/Times-Roman-iso ff 120.00 scf sf
2475 4365 m
gs 1 -1 sc (4) col0 sh gr
/Times-Roman-iso ff 180.00 scf sf
2565 4320 m
gs 1 -1 sc (dilu\351) col0 sh gr
/Times-Roman-iso ff 180.00 scf sf
2070 4545 m
gs 1 -1 sc (et dissoci\351 en) col0 sh gr
/Times-Roman-iso ff 120.00 scf sf
2790 4815 m
gs 1 -1 sc (4) col0 sh gr
/Times-Roman-iso ff 120.00 scf sf
2835 4680 m
gs 1 -1 sc (2-) col0 sh gr
/Times-Roman-iso ff 180.00 scf sf
2070 4770 m
gs 1 -1 sc (Zn   et SO) col0 sh gr
/Times-Roman-iso ff 120.00 scf sf
2250 4680 m
gs 1 -1 sc (2+) col0 sh gr
/Times-Roman-iso ff 180.00 scf sf
675 3465 m
gs 1 -1 sc (Zn) col0 sh gr
/Times-Roman-iso ff 180.00 scf sf
6345 3645 m
gs 1 -1 sc (Cu) col0 sh gr
/Times-Roman-iso ff 180.00 scf sf
6255 2925 m
gs 1 -1 sc (2e) col0 sh gr
/Times-Roman-iso ff 120.00 scf sf
945 2790 m
gs 1 -1 sc (-) col0 sh gr
/Times-Roman-iso ff 120.00 scf sf
6435 2835 m
gs 1 -1 sc (-) col0 sh gr
$F2psEnd
rs
