%!PS-Adobe-2.0 EPSF-2.0
%%Title: PotE.eps
%%Creator: fig2dev Version 3.2 Patchlevel 3d
%%CreationDate: Thu Aug  7 01:04:02 2003
%%For: prof@portable (Vincent Guyot)
%%BoundingBox: 0 0 123 92
%%Magnification: 1.0000
%%EndComments
/$F2psDict 200 dict def
$F2psDict begin
$F2psDict /mtrx matrix put
/col-1 {0 setgray} bind def
/col0 {0.000 0.000 0.000 srgb} bind def
/col1 {0.000 0.000 1.000 srgb} bind def
/col2 {0.000 1.000 0.000 srgb} bind def
/col3 {0.000 1.000 1.000 srgb} bind def
/col4 {1.000 0.000 0.000 srgb} bind def
/col5 {1.000 0.000 1.000 srgb} bind def
/col6 {1.000 1.000 0.000 srgb} bind def
/col7 {1.000 1.000 1.000 srgb} bind def
/col8 {0.000 0.000 0.560 srgb} bind def
/col9 {0.000 0.000 0.690 srgb} bind def
/col10 {0.000 0.000 0.820 srgb} bind def
/col11 {0.530 0.810 1.000 srgb} bind def
/col12 {0.000 0.560 0.000 srgb} bind def
/col13 {0.000 0.690 0.000 srgb} bind def
/col14 {0.000 0.820 0.000 srgb} bind def
/col15 {0.000 0.560 0.560 srgb} bind def
/col16 {0.000 0.690 0.690 srgb} bind def
/col17 {0.000 0.820 0.820 srgb} bind def
/col18 {0.560 0.000 0.000 srgb} bind def
/col19 {0.690 0.000 0.000 srgb} bind def
/col20 {0.820 0.000 0.000 srgb} bind def
/col21 {0.560 0.000 0.560 srgb} bind def
/col22 {0.690 0.000 0.690 srgb} bind def
/col23 {0.820 0.000 0.820 srgb} bind def
/col24 {0.500 0.190 0.000 srgb} bind def
/col25 {0.630 0.250 0.000 srgb} bind def
/col26 {0.750 0.380 0.000 srgb} bind def
/col27 {1.000 0.500 0.500 srgb} bind def
/col28 {1.000 0.630 0.630 srgb} bind def
/col29 {1.000 0.750 0.750 srgb} bind def
/col30 {1.000 0.880 0.880 srgb} bind def
/col31 {1.000 0.840 0.000 srgb} bind def

end
save
newpath 0 92 moveto 0 0 lineto 123 0 lineto 123 92 lineto closepath clip newpath
-19.9 122.6 translate
1 -1 scale

/cp {closepath} bind def
/ef {eofill} bind def
/gr {grestore} bind def
/gs {gsave} bind def
/sa {save} bind def
/rs {restore} bind def
/l {lineto} bind def
/m {moveto} bind def
/rm {rmoveto} bind def
/n {newpath} bind def
/s {stroke} bind def
/sh {show} bind def
/slc {setlinecap} bind def
/slj {setlinejoin} bind def
/slw {setlinewidth} bind def
/srgb {setrgbcolor} bind def
/rot {rotate} bind def
/sc {scale} bind def
/sd {setdash} bind def
/ff {findfont} bind def
/sf {setfont} bind def
/scf {scalefont} bind def
/sw {stringwidth} bind def
/tr {translate} bind def
/tnt {dup dup currentrgbcolor
  4 -2 roll dup 1 exch sub 3 -1 roll mul add
  4 -2 roll dup 1 exch sub 3 -1 roll mul add
  4 -2 roll dup 1 exch sub 3 -1 roll mul add srgb}
  bind def
/shd {dup dup currentrgbcolor 4 -2 roll mul 4 -2 roll mul
  4 -2 roll mul srgb} bind def
 /DrawEllipse {
	/endangle exch def
	/startangle exch def
	/yrad exch def
	/xrad exch def
	/y exch def
	/x exch def
	/savematrix mtrx currentmatrix def
	x y tr xrad yrad sc 0 0 1 startangle endangle arc
	closepath
	savematrix setmatrix
	} def

/$F2psBegin {$F2psDict begin /$F2psEnteredState save def} def
/$F2psEnd {$F2psEnteredState restore end} def

$F2psBegin
10 setmiterlimit
 0.06299 0.06299 sc
%
% Fig objects follow
%
% Polyline
7.500 slw
n 509 575 m
 585 575 l gs col0 s gr 
% Polyline
n 544 540 m
 544 616 l gs col0 s gr 
% Polyline
n 644 575 m
 720 575 l gs col0 s gr 
% Polyline
n 679 540 m
 679 616 l gs col0 s gr 
% Polyline
n 779 575 m
 855 575 l gs col0 s gr 
% Polyline
n 814 540 m
 814 616 l gs col0 s gr 
% Polyline
n 914 575 m
 990 575 l gs col0 s gr 
% Polyline
n 949 540 m
 949 616 l gs col0 s gr 
% Polyline
n 1049 575 m
 1125 575 l gs col0 s gr 
% Polyline
n 1084 540 m
 1084 616 l gs col0 s gr 
% Polyline
n 1184 575 m
 1260 575 l gs col0 s gr 
% Polyline
n 1219 540 m
 1219 616 l gs col0 s gr 
% Polyline
n 1319 575 m
 1395 575 l gs col0 s gr 
% Polyline
n 1354 540 m
 1354 616 l gs col0 s gr 
% Polyline
n 1454 575 m
 1530 575 l gs col0 s gr 
% Polyline
n 1489 540 m
 1489 616 l gs col0 s gr 
% Polyline
n 1589 575 m
 1665 575 l gs col0 s gr 
% Polyline
n 1624 540 m
 1624 616 l gs col0 s gr 
% Polyline
n 1724 575 m
 1800 575 l gs col0 s gr 
% Polyline
n 1759 540 m
 1759 616 l gs col0 s gr 
% Polyline
n 1859 575 m
 1935 575 l gs col0 s gr 
% Polyline
n 1894 540 m
 1894 616 l gs col0 s gr 
% Polyline
n 1994 575 m
 2070 575 l gs col0 s gr 
% Polyline
n 2029 540 m
 2029 616 l gs col0 s gr 
% Polyline
n 2129 575 m
 2205 575 l gs col0 s gr 
% Polyline
n 2164 540 m
 2164 616 l gs col0 s gr 
% Ellipse
n 1151 1117 70 70 0 360 DrawEllipse gs col0 s gr

% Polyline
gs  clippath
379 483 m 334 483 l 334 630 l 357 518 l 379 630 l cp
eoclip
n 357 1934 m
 357 498 l gs col0 s gr gr

% arrowhead
n 379 630 m 357 518 l 334 630 l 357 608 l 379 630 l 
 cp gs 0.00 setgray ef gr  col0 s
% Polyline
n 509 1845 m
 585 1845 l gs col0 s gr 
% Polyline
n 689 1845 m
 765 1845 l gs col0 s gr 
% Polyline
n 869 1845 m
 945 1845 l gs col0 s gr 
% Polyline
n 1049 1845 m
 1125 1845 l gs col0 s gr 
% Polyline
n 1229 1845 m
 1305 1845 l gs col0 s gr 
% Polyline
n 1409 1845 m
 1485 1845 l gs col0 s gr 
% Polyline
n 1589 1845 m
 1665 1845 l gs col0 s gr 
% Polyline
n 1769 1845 m
 1845 1845 l gs col0 s gr 
% Polyline
n 1949 1845 m
 2025 1845 l gs col0 s gr 
% Polyline
n 2129 1845 m
 2205 1845 l gs col0 s gr 
% Polyline
n 473 514 m 2239 514 l 2239 643 l 473 643 l
 cp gs col0 s gr 
% Polyline
n 468 1783 m 2251 1783 l 2251 1905 l 468 1905 l
 cp gs col0 s gr 
% Polyline
 [60] 0 sd
n 328 828 m
 1353 828 l gs col0 s gr  [] 0 sd
% Polyline
 [60] 0 sd
n 328 1610 m
 1353 1610 l gs col0 s gr  [] 0 sd
% Polyline
gs  clippath
705 1630 m 750 1630 l 750 1482 l 728 1595 l 705 1482 l cp
eoclip
n 728 834 m
 728 1615 l gs col0 s gr gr

% arrowhead
n 705 1482 m 728 1595 l 750 1482 l 728 1505 l 705 1482 l 
 cp gs 0.00 setgray ef gr  col0 s
% Polyline
gs  clippath
1128 1439 m 1173 1439 l 1173 1335 l 1151 1410 l 1128 1335 l cp
eoclip
n 1151 1187 m
 1151 1424 l gs col0 s gr gr

% arrowhead
n 1128 1335 m 1151 1410 l 1173 1335 l 1151 1350 l 1128 1335 l 
 cp gs 0.00 setgray ef gr  col0 s
% Polyline
gs  clippath
1944 1185 m 1989 1185 l 1989 1037 l 1967 1150 l 1944 1037 l cp
eoclip
n 1967 753 m
 1967 1170 l gs col0 s gr gr

% arrowhead
n 1944 1037 m 1967 1150 l 1989 1037 l 1967 1060 l 1944 1037 l 
 cp gs 0.00 setgray ef gr  col0 s
% Polyline
gs  clippath
714 1093 m 714 1048 l 662 1048 l 692 1071 l 662 1093 l cp
eoclip
n 583 1071 m
 699 1071 l gs col0 s gr gr

% arrowhead
n 662 1093 m 692 1071 l 662 1048 l  col0 s
% Polyline
gs  clippath
1363 1255 m 1363 1210 l 1311 1210 l 1341 1233 l 1311 1255 l cp
eoclip
n 1232 1233 m
 1348 1233 l gs col0 s gr gr

% arrowhead
n 1311 1255 m 1341 1233 l 1311 1210 l  col0 s
% Polyline
gs  clippath
1652 1255 m 1652 1210 l 1600 1210 l 1630 1233 l 1600 1255 l cp
eoclip
n 1521 1233 m
 1637 1233 l gs col0 s gr gr

% arrowhead
n 1600 1255 m 1630 1233 l 1600 1210 l  col0 s
% Polyline
gs  clippath
2173 867 m 2173 822 l 2121 822 l 2151 845 l 2121 867 l cp
eoclip
n 2042 845 m
 2158 845 l gs col0 s gr gr

% arrowhead
n 2121 867 m 2151 845 l 2121 822 l  col0 s
/Times-Roman ff 180.00 scf sf
600 1233 m
gs 1 -1 sc (h) col0 sh gr
/Times-Roman ff 180.00 scf sf
1237 1390 m
gs 1 -1 sc (F=qE) col0 sh gr
/Times-Roman ff 180.00 scf sf
1255 1065 m
gs 1 -1 sc (q>0) col0 sh gr
/Times-Roman ff 180.00 scf sf
2048 1002 m
gs 1 -1 sc (E) col0 sh gr
/Times-Roman ff 180.00 scf sf
386 973 m
gs 1 -1 sc (h) col0 sh gr
/Times-Roman ff 180.00 scf sf
380 1523 m
gs 1 -1 sc (h) col0 sh gr
/Times-Roman ff 120.00 scf sf
485 1019 m
gs 1 -1 sc (i) col0 sh gr
/Times-Roman ff 120.00 scf sf
479 1569 m
gs 1 -1 sc (f) col0 sh gr
$F2psEnd
rs
