%!PS-Adobe-2.0 EPSF-2.0
%%Title: Prise.eps
%%Creator: fig2dev Version 3.2 Patchlevel 3d
%%CreationDate: Mon Aug  4 00:53:52 2003
%%For: prof@portable (Vincent Guyot)
%%BoundingBox: 0 0 432 174
%%Magnification: 1.0000
%%EndComments
/$F2psDict 200 dict def
$F2psDict begin
$F2psDict /mtrx matrix put
/col-1 {0 setgray} bind def
/col0 {0.000 0.000 0.000 srgb} bind def
/col1 {0.000 0.000 1.000 srgb} bind def
/col2 {0.000 1.000 0.000 srgb} bind def
/col3 {0.000 1.000 1.000 srgb} bind def
/col4 {1.000 0.000 0.000 srgb} bind def
/col5 {1.000 0.000 1.000 srgb} bind def
/col6 {1.000 1.000 0.000 srgb} bind def
/col7 {1.000 1.000 1.000 srgb} bind def
/col8 {0.000 0.000 0.560 srgb} bind def
/col9 {0.000 0.000 0.690 srgb} bind def
/col10 {0.000 0.000 0.820 srgb} bind def
/col11 {0.530 0.810 1.000 srgb} bind def
/col12 {0.000 0.560 0.000 srgb} bind def
/col13 {0.000 0.690 0.000 srgb} bind def
/col14 {0.000 0.820 0.000 srgb} bind def
/col15 {0.000 0.560 0.560 srgb} bind def
/col16 {0.000 0.690 0.690 srgb} bind def
/col17 {0.000 0.820 0.820 srgb} bind def
/col18 {0.560 0.000 0.000 srgb} bind def
/col19 {0.690 0.000 0.000 srgb} bind def
/col20 {0.820 0.000 0.000 srgb} bind def
/col21 {0.560 0.000 0.560 srgb} bind def
/col22 {0.690 0.000 0.690 srgb} bind def
/col23 {0.820 0.000 0.820 srgb} bind def
/col24 {0.500 0.190 0.000 srgb} bind def
/col25 {0.630 0.250 0.000 srgb} bind def
/col26 {0.750 0.380 0.000 srgb} bind def
/col27 {1.000 0.500 0.500 srgb} bind def
/col28 {1.000 0.630 0.630 srgb} bind def
/col29 {1.000 0.750 0.750 srgb} bind def
/col30 {1.000 0.880 0.880 srgb} bind def
/col31 {1.000 0.840 0.000 srgb} bind def

end
save
newpath 0 174 moveto 0 0 lineto 432 0 lineto 432 174 lineto closepath clip newpath
-7.5 179.6 translate
1 -1 scale

/cp {closepath} bind def
/ef {eofill} bind def
/gr {grestore} bind def
/gs {gsave} bind def
/sa {save} bind def
/rs {restore} bind def
/l {lineto} bind def
/m {moveto} bind def
/rm {rmoveto} bind def
/n {newpath} bind def
/s {stroke} bind def
/sh {show} bind def
/slc {setlinecap} bind def
/slj {setlinejoin} bind def
/slw {setlinewidth} bind def
/srgb {setrgbcolor} bind def
/rot {rotate} bind def
/sc {scale} bind def
/sd {setdash} bind def
/ff {findfont} bind def
/sf {setfont} bind def
/scf {scalefont} bind def
/sw {stringwidth} bind def
/tr {translate} bind def
/tnt {dup dup currentrgbcolor
  4 -2 roll dup 1 exch sub 3 -1 roll mul add
  4 -2 roll dup 1 exch sub 3 -1 roll mul add
  4 -2 roll dup 1 exch sub 3 -1 roll mul add srgb}
  bind def
/shd {dup dup currentrgbcolor 4 -2 roll mul 4 -2 roll mul
  4 -2 roll mul srgb} bind def
 /DrawEllipse {
	/endangle exch def
	/startangle exch def
	/yrad exch def
	/xrad exch def
	/y exch def
	/x exch def
	/savematrix mtrx currentmatrix def
	x y tr xrad yrad sc 0 0 1 startangle endangle arc
	closepath
	savematrix setmatrix
	} def

/$F2psBegin {$F2psDict begin /$F2psEnteredState save def} def
/$F2psEnd {$F2psEnteredState restore end} def

$F2psBegin
10 setmiterlimit
 0.06299 0.06299 sc
%
% Fig objects follow
%
7.500 slw
% Rotated Ellipse
gs
6255 2025 tr
-9.998 rot
n 0 0 495 180 0 360 DrawEllipse  9.998 rot
gs col0 s gr
gr

% Ellipse
n 2792 1916 321 321 0 360 DrawEllipse gs col0 s gr

% Polyline
n 585 675 m 900 675 l 900 1215 l 585 1215 l
 cp gs col0 s gr 
% Polyline
n 3510 720 m 4005 720 l 4005 900 l 3510 900 l
 cp gs col0 s gr 
% Polyline
n 3510 810 m
 4005 810 l gs col0 s gr 
% Polyline
60.000 slw
n 180 810 m
 585 810 l gs col0 s gr 
% Polyline
30.000 slw
n 900 810 m
 3510 810 l gs col0 s gr 
% Polyline
7.500 slw
n 5310 450 m 6210 450 l 6345 585 l 6075 1080 l 5445 1080 l 5175 585 l

 5310 450 l  cp gs col7 0.75 shd ef gr gs col0 s gr 
% Polyline
n 5760 1080 m 5760 1350 l 4050 1350 l
 4050 1665 l gs col0 s gr 
% Polyline
n 3915 1665 m
 4185 1665 l gs col0 s gr 
% Polyline
n 3960 1710 m
 4140 1710 l gs col0 s gr 
% Polyline
n 4005 1755 m
 4095 1755 l gs col0 s gr 
% Polyline
n 5759 2108 m
 5625 1800 l gs col0 s gr 
% Polyline
n 6741 1932 m
 6620 1573 l gs col0 s gr 
% Polyline
n 5715 1710 m
 5625 1440 l gs col0 s gr 
% Polyline
n 5760 1665 m
 5670 1395 l gs col0 s gr 
% Polyline
n 6070 1502 m
 6030 1382 l gs col0 s gr 
% Polyline
n 6469 1510 m
 6390 1260 l gs col0 s gr 
% Polyline
n 6019 1516 m
 5974 1393 l gs col0 s gr 
% Polyline
n 6404 1492 m
 6328 1258 l gs col0 s gr 
% Polyline
30.000 slw
n 900 1080 m 4905 1080 l 4905 360 l 5445 360 l
 5445 450 l gs col0 s gr 
% Polyline
n 4005 810 m 4725 810 l 4725 135 l 6075 135 l
 6075 450 l gs col0 s gr 
% Polyline
7.500 slw
gs  clippath
5562 591 m 5574 634 l 5716 596 l 5602 604 l 5704 553 l cp
eoclip
n 6337 408 m
 5583 609 l gs col0 s gr gr

% arrowhead
n 5704 553 m 5602 604 l 5716 596 l 5688 580 l 5704 553 l 
 cp gs 0.00 setgray ef gr  col0 s
% Polyline
gs  clippath
5924 868 m 5915 913 l 6059 942 l 5954 898 l 6068 898 l cp
eoclip
n 6337 977 m
 5935 894 l gs col0 s gr gr

% arrowhead
n 6068 898 m 5954 898 l 6059 942 l 6042 916 l 6068 898 l 
 cp gs 0.00 setgray ef gr  col0 s
% Polyline
gs  clippath
6169 663 m 6164 707 l 6311 722 l 6202 689 l 6316 677 l cp
eoclip
n 6496 718 m
 6182 687 l gs col0 s gr gr

% arrowhead
n 6316 677 m 6202 689 l 6311 722 l 6291 697 l 6316 677 l 
 cp gs 0.00 setgray ef gr  col0 s
% Polyline
2 slj
n 5625 1800 m 5626 1799 l 5628 1797 l 5633 1792 l 5639 1786 l 5648 1777 l
 5660 1765 l 5673 1752 l 5690 1737 l 5708 1720 l 5727 1702 l
 5749 1683 l 5771 1664 l 5795 1645 l 5820 1626 l 5846 1608 l
 5873 1590 l 5902 1572 l 5933 1555 l 5966 1538 l 6002 1523 l
 6039 1508 l 6079 1496 l 6120 1485 l 6165 1476 l 6208 1471 l
 6248 1469 l 6286 1469 l 6321 1471 l 6354 1475 l 6384 1481 l
 6413 1488 l 6441 1496 l 6467 1505 l 6491 1515 l 6514 1524 l
 6536 1534 l 6555 1543 l 6572 1552 l 6586 1559 l 6597 1565 l
 6605 1570 l 6611 1573 l 6614 1574 l
 6615 1575 l gs col0 s gr 
% Polyline
n 5632 1454 m 5632 1453 l 5630 1448 l 5628 1438 l 5627 1427 l 5628 1417 l
 5632 1406 l 5638 1400 l 5644 1397 l 5651 1396 l 5658 1396 l
 5664 1397 l 5668 1398 l
 5671 1398 l gs col0 s gr 
% Polyline
n 5975 1406 m 5975 1405 l 5977 1400 l 5980 1391 l 5985 1381 l 5991 1372 l
 5999 1366 l 6008 1365 l 6015 1368 l 6022 1373 l 6027 1378 l
 6029 1381 l
 6030 1382 l gs col0 s gr 
% Polyline
n 6397 1262 m 6396 1261 l 6393 1256 l 6386 1248 l 6378 1240 l 6368 1233 l
 6358 1230 l 6351 1232 l 6346 1236 l 6342 1242 l 6339 1248 l
 6336 1254 l 6335 1259 l
 6334 1262 l gs col0 s gr 
/Times-Roman ff 180.00 scf sf
236 592 m
gs 1 -1 sc (Transformateur) col0 sh gr
/Times-Roman ff 180.00 scf sf
119 1212 m
gs 1 -1 sc (Haute) col0 sh gr
/Times-Roman ff 180.00 scf sf
136 1362 m
gs 1 -1 sc (tension) col0 sh gr
/Times-Roman ff 180.00 scf sf
1460 726 m
gs 1 -1 sc (Ligne de phase 230 V) col0 sh gr
/Times-Roman ff 180.00 scf sf
6387 441 m
gs 1 -1 sc (Neutre) col0 sh gr
/Times-Roman ff 180.00 scf sf
4845 2620 m
gs 1 -1 sc (Terre) col0 sh gr
/Times-Roman ff 180.00 scf sf
4124 2821 m
gs 1 -1 sc (Phase) col0 sh gr
/Times-Roman ff 180.00 scf sf
4124 2301 m
gs 1 -1 sc (Neutre) col0 sh gr
/Times-Roman ff 180.00 scf sf
4141 1514 m
gs 1 -1 sc (Ligne de terre) col0 sh gr
/Times-Roman ff 180.00 scf sf
1896 1279 m
gs 1 -1 sc (Ligne neutre 0 V) col0 sh gr
/Times-Roman ff 180.00 scf sf
3505 659 m
gs 1 -1 sc (Fusible) col0 sh gr
/Times-Roman ff 180.00 scf sf
6370 1027 m
gs 1 -1 sc (Terre) col0 sh gr
/Times-Roman ff 180.00 scf sf
6538 759 m
gs 1 -1 sc (Phase) col0 sh gr
% Polyline
0 slj
n 3080 2200 m 3440 2839 l 2176 2839 l 2547 2199 l
 3080 2200 l  cp gs col7 1.00 shd ef gr gs col0 s gr 
% Polyline
30.000 slw
n 5901 2081 m 5901 2367 l
 2986 2369 l gs col0 s gr 
% Polyline
7.500 slw
n 6255 2148 m 6255 2485 l
 3238 2485 l gs col0 s gr 
% Polyline
30.000 slw
n 6626 1980 m 6626 2654 l 2803 2650 l
 2803 2553 l gs col0 s gr 
% Polyline
7.500 slw
n 2803 2553 m 2695 2391 l 2695 2197 l 2695 1916 l 2630 1776 l 2684 1733 l
 2716 1797 l 2760 1733 l 2792 1819 l 2846 1733 l 2878 1819 l
 2932 1743 l 2975 1787 l 2878 1895 l 2878 2197 l 2878 2369 l

 2975 2369 l gs col0 s gr 
% Polyline
n 2630 2207 m 2630 2272 l 2587 2305 l 2641 2326 l 2587 2369 l 2630 2402 l
 2587 2434 l 2630 2466 l 2587 2499 l 2619 2553 l 2965 2553 l
 2997 2488 l 2954 2477 l 2997 2434 l 2943 2402 l 2997 2369 l
 2943 2326 l 2986 2294 l 2943 2283 l
 2943 2197 l gs col0 s gr 
% Ellipse
n 5466 676 64 64 0 360 DrawEllipse gs col7 1.00 shd ef gr gs col0 s gr

% Ellipse
n 6086 682 64 64 0 360 DrawEllipse gs col7 1.00 shd ef gr gs col0 s gr

% Ellipse
n 5800 867 64 64 0 360 DrawEllipse gs col7 1.00 shd ef gr gs col0 s gr

$F2psEnd
rs
