%!PS-Adobe-2.0
%%Creator: inkscape 0.41.1
%%Pages: 1
%%Orientation: Portrait
%%BoundingBox: 47 736 125 838
%%HiResBoundingBox: 47.501110 736.31770 124.18116 837.11851
%%EndComments
%%Page: 1 1
0 842 translate
0.80000000 -0.80000000 scale
gsave [1.0000000 0.0000000 0.0000000 1.0000000 0.0000000 0.0000000] concat
0.0000000 0.0000000 0.0000000 setrgbcolor
[] 0 setdash
0.35433072 setlinewidth
0 setlinejoin
0 setlinecap
newpath
104.00547 50.027785 moveto
104.00547 22.927761 104.00547 22.927761 104.00547 22.927761 curveto
stroke
gsave [-2.3865361e-17 0.38976379 -0.38976379 -2.3865361e-17 104.00547 20.978942] concat
0.0000000 0.0000000 0.0000000 setrgbcolor
newpath
8.7185878 4.0337352 moveto
-2.2072895 0.016013256 lineto
8.7185884 -4.0017078 lineto
6.9730900 -1.6296469 6.9831476 1.6157441 8.7185878 4.0337352 curveto
closepath
eofill
grestore
gsave [1.0000000 0.0000000 0.0000000 1.0000000 35.339880 -11.902030] concat
0.0000000 0.0000000 0.0000000 setrgbcolor
newpath
65.215778 50.567318 moveto
65.020466 52.212826 lineto
59.522419 52.212826 lineto
59.522419 52.032162 lineto
60.300413 52.022396 60.689410 51.801042 60.689411 51.368099 curveto
60.689411 46.104427 lineto
60.689410 45.850527 60.622678 45.679629 60.489216 45.591732 curveto
60.345986 45.497338 60.062783 45.450137 59.639606 45.450130 curveto
59.639606 45.279232 lineto
64.800739 45.279232 lineto
64.854450 46.778255 lineto
64.673786 46.778255 lineto
64.595656 46.026309 64.353143 45.650332 63.946247 45.650326 curveto
61.573200 45.650326 lineto
61.573200 48.404232 lineto
63.462849 48.404232 lineto
63.765579 48.404236 63.960891 48.119405 64.048786 47.549740 curveto
64.209919 47.549740 lineto
64.209919 49.659115 lineto
64.048786 49.659115 lineto
63.941360 49.050394 63.746048 48.746032 63.462849 48.746029 curveto
61.573200 48.746029 lineto
61.573200 51.280209 lineto
61.573198 51.641537 61.711544 51.822201 61.988239 51.822201 curveto
64.053669 51.822201 lineto
64.541945 51.822201 64.864211 51.399025 65.020466 50.552670 curveto
65.215778 50.567318 lineto
fill
0.0000000 0.0000000 0.0000000 setrgbcolor
[] 0 setdash
0.35433072 setlinewidth
0 setlinejoin
0 setlinecap
newpath
58.411522 43.069670 moveto
65.735852 43.069670 65.735852 43.069670 65.735852 43.069670 curveto
stroke
gsave [-0.21259843 0.0000000 0.0000000 -0.21259843 66.798844 43.069670] concat
0.0000000 0.0000000 0.0000000 setrgbcolor
newpath
8.7185878 4.0337352 moveto
-2.2072895 0.016013256 lineto
8.7185884 -4.0017078 lineto
6.9730900 -1.6296469 6.9831476 1.6157441 8.7185878 4.0337352 curveto
closepath
eofill
grestore
grestore
gsave [1.0000000 0.0000000 0.0000000 1.0000000 -79.652070 21.789880] concat
gsave [1.0000000 0.0000000 0.0000000 1.0000000 144.65550 1.0986490] concat
0.0000000 0.0000000 0.0000000 setrgbcolor
[] 0 setdash
0.35433072 setlinewidth
0 setlinejoin
0 setlinecap
newpath
52.918277 38.034195 moveto
52.918277 44.149277 47.955311 49.112243 41.840229 49.112243 curveto
35.725147 49.112243 30.762181 44.149277 30.762181 38.034195 curveto
30.762181 31.919113 35.725147 26.956147 41.840229 26.956147 curveto
47.955311 26.956147 52.918277 31.919113 52.918277 38.034195 curveto
closepath
stroke
grestore
0.0000000 0.0000000 0.0000000 setrgbcolor
[] 0 setdash
0.35433072 setlinewidth
0 setlinejoin
0 setlinecap
newpath
186.49572 47.464267 moveto
186.49572 29.885878 186.49572 30.435203 186.49572 30.435203 curveto
186.49572 30.435203 lineto
stroke
0.0000000 0.0000000 0.0000000 setrgbcolor
[] 0 setdash
0.35433072 setlinewidth
0 setlinejoin
0 setlinecap
newpath
195.46897 39.132844 moveto
177.89059 39.132844 178.43991 39.132844 178.43991 39.132844 curveto
178.43991 39.132844 lineto
stroke
grestore
0.0000000 0.0000000 0.0000000 setrgbcolor
[] 0 setdash
0.44823322 setlinewidth
0 setlinejoin
0 setlinecap
newpath
106.75209 49.555216 moveto
106.75209 6.1881593 106.75209 6.1881593 106.75209 6.1881593 curveto
stroke
gsave [-3.0190009e-17 0.49305654 -0.49305654 -3.0190009e-17 106.75209 3.7228766] concat
0.0000000 0.0000000 0.0000000 setrgbcolor
newpath
8.7185878 4.0337352 moveto
-2.2072895 0.016013256 lineto
8.7185884 -4.0017078 lineto
6.9730900 -1.6296469 6.9831476 1.6157441 8.7185878 4.0337352 curveto
closepath
eofill
grestore
gsave [1.0000000 0.0000000 0.0000000 1.0000000 94.117620 -43.762860] concat
0.0000000 0.0000000 0.0000000 setrgbcolor
newpath
20.947542 58.943970 moveto
20.771761 58.943970 lineto
20.771756 58.296189 20.485298 57.972297 19.912386 57.972290 curveto
17.710238 57.972290 lineto
17.710238 60.594360 lineto
19.531527 60.594360 lineto
19.726835 60.594364 19.881458 60.517867 19.995394 60.364868 curveto
20.093046 60.231409 20.141874 60.060511 20.141878 59.852173 curveto
20.278597 59.852173 lineto
20.278597 61.756470 lineto
20.141878 61.756470 lineto
20.141874 61.222619 19.938424 60.955692 19.531527 60.955688 curveto
17.710238 60.955688 lineto
17.710238 63.607056 lineto
17.710236 64.043254 18.004832 64.261353 18.594027 64.261353 curveto
18.594027 64.481079 lineto
16.040316 64.481079 lineto
16.040316 64.261353 lineto
16.580680 64.261353 16.850862 64.023723 16.850863 63.548462 curveto
16.850863 58.284790 lineto
16.850862 57.929979 16.580680 57.754198 16.040316 57.757446 curveto
16.040316 57.547485 lineto
20.830355 57.547485 lineto
20.947542 58.943970 lineto
fill
0.0000000 0.0000000 0.0000000 setrgbcolor
newpath
25.727816 60.306274 moveto
21.675081 60.306274 lineto
21.675081 59.847290 lineto
25.727816 59.847290 lineto
25.727816 60.306274 lineto
25.727816 62.147095 moveto
21.675081 62.147095 lineto
21.675081 61.683228 lineto
25.727816 61.683228 lineto
25.727816 62.147095 lineto
fill
0.0000000 0.0000000 0.0000000 setrgbcolor
newpath
29.829378 63.406860 moveto
29.829378 61.229126 lineto
29.829375 61.206343 29.795195 61.124963 29.726839 60.984985 curveto
29.459909 60.428349 29.046498 60.150029 28.486605 60.150024 curveto
28.079702 60.150029 27.726512 60.312789 27.427034 60.638306 curveto
27.163362 60.924768 27.031526 61.432580 27.031527 62.161743 curveto
27.031526 62.637005 27.164989 63.069948 27.431917 63.460571 curveto
27.731395 63.900025 28.108999 64.119751 28.564730 64.119751 curveto
28.776316 64.119751 29.197865 63.882121 29.829378 63.406860 curveto
31.279573 66.614868 moveto
31.264925 66.849243 lineto
28.691683 66.849243 lineto
28.711214 66.614868 lineto
29.131133 66.611611 29.372018 66.598590 29.433870 66.575806 curveto
29.583607 66.520465 29.715442 66.339801 29.829378 66.033813 curveto
29.829378 63.699829 lineto
29.376901 64.061158 29.111602 64.264608 29.033480 64.310181 curveto
28.733998 64.492472 28.410105 64.583618 28.061800 64.583618 curveto
27.563752 64.583618 27.140575 64.349243 26.792269 63.880493 curveto
26.470003 63.450807 26.308870 62.977174 26.308870 62.459595 curveto
26.308870 61.717410 26.520459 61.116825 26.943636 60.657837 curveto
27.402619 60.159794 27.929962 59.910771 28.525667 59.910767 curveto
28.922800 59.910771 29.422474 60.039352 30.024691 60.296509 curveto
30.135364 60.182581 30.224882 60.055628 30.293245 59.915649 curveto
30.517855 59.915649 lineto
30.517855 66.116821 lineto
30.517850 66.448851 30.771756 66.614866 31.279573 66.614868 curveto
fill
0.0000000 0.0000000 0.0000000 setrgbcolor
newpath
37.339144 62.835571 moveto
37.143831 64.481079 lineto
31.645784 64.481079 lineto
31.645784 64.300415 lineto
32.423778 64.290650 32.812775 64.069296 32.812777 63.636353 curveto
32.812777 58.372681 lineto
32.812775 58.118781 32.746044 57.947883 32.612581 57.859985 curveto
32.469351 57.765591 32.186148 57.718391 31.762972 57.718384 curveto
31.762972 57.547485 lineto
36.924105 57.547485 lineto
36.977816 59.046509 lineto
36.797152 59.046509 lineto
36.719022 58.294562 36.476509 57.918586 36.069613 57.918579 curveto
33.696566 57.918579 lineto
33.696566 60.672485 lineto
35.586214 60.672485 lineto
35.888944 60.672489 36.084257 60.387659 36.172152 59.817993 curveto
36.333284 59.817993 lineto
36.333284 61.927368 lineto
36.172152 61.927368 lineto
36.064725 61.318647 35.869413 61.014286 35.586214 61.014282 curveto
33.696566 61.014282 lineto
33.696566 63.548462 lineto
33.696564 63.909791 33.834910 64.090454 34.111605 64.090454 curveto
36.177034 64.090454 lineto
36.665311 64.090454 36.987576 63.667278 37.143831 62.820923 curveto
37.339144 62.835571 lineto
fill
0.0000000 0.0000000 0.0000000 setrgbcolor
[] 0 setdash
0.35433072 setlinewidth
0 setlinejoin
0 setlinecap
newpath
14.831762 55.337920 moveto
22.156092 55.337920 22.156092 55.337920 22.156092 55.337920 curveto
stroke
gsave [-0.21259843 0.0000000 0.0000000 -0.21259843 23.219084 55.337920] concat
0.0000000 0.0000000 0.0000000 setrgbcolor
newpath
8.7185878 4.0337352 moveto
-2.2072895 0.016013256 lineto
8.7185884 -4.0017078 lineto
6.9730900 -1.6296469 6.9831476 1.6157441 8.7185878 4.0337352 curveto
closepath
eofill
grestore
0.0000000 0.0000000 0.0000000 setrgbcolor
[] 0 setdash
0.35433072 setlinewidth
0 setlinejoin
0 setlinecap
newpath
30.762180 55.337929 moveto
38.086510 55.337929 38.086510 55.337929 38.086510 55.337929 curveto
stroke
gsave [-0.21259843 0.0000000 0.0000000 -0.21259843 39.149502 55.337929] concat
0.0000000 0.0000000 0.0000000 setrgbcolor
newpath
8.7185878 4.0337352 moveto
-2.2072895 0.016013256 lineto
8.7185884 -4.0017078 lineto
6.9730900 -1.6296469 6.9831476 1.6157441 8.7185878 4.0337352 curveto
closepath
eofill
grestore
grestore
0.0000000 0.0000000 0.0000000 setrgbcolor
[] 0 setdash
0.44823322 setlinewidth
0 setlinejoin
0 setlinecap
newpath
106.93520 71.924010 moveto
106.93520 115.29107 106.93520 115.29107 106.93520 115.29107 curveto
stroke
gsave [-3.0190009e-17 -0.49305654 0.49305654 -3.0190009e-17 106.93520 117.75635] concat
0.0000000 0.0000000 0.0000000 setrgbcolor
newpath
8.7185878 4.0337352 moveto
-2.2072895 0.016013256 lineto
8.7185884 -4.0017078 lineto
6.9730900 -1.6296469 6.9831476 1.6157441 8.7185878 4.0337352 curveto
closepath
eofill
grestore
0.0000000 0.0000000 0.0000000 setrgbcolor
newpath
117.38940 94.569496 moveto
117.38940 95.197756 117.11108 95.726727 116.55444 96.156410 curveto
116.04337 96.550294 115.46395 96.747233 114.81616 96.747231 curveto
114.59481 96.747233 114.29858 96.698405 113.92749 96.600746 curveto
113.92261 98.627113 lineto
113.92261 98.923338 114.03817 99.147947 114.26929 99.300941 curveto
114.47111 99.434405 114.72501 99.492999 115.03101 99.476723 curveto
115.06519 99.613441 lineto
115.06030 99.662270 lineto
112.09155 99.662270 lineto
112.12085 99.447426 lineto
112.17456 99.447426 lineto
112.50659 99.450681 112.73771 99.387205 112.86792 99.256996 curveto
113.00138 99.123533 113.06811 98.890786 113.06812 98.558754 curveto
113.06812 93.534340 lineto
113.06811 93.101404 112.75236 92.886560 112.12085 92.889809 curveto
112.12085 92.709145 lineto
112.57332 92.647303 113.23901 92.616378 114.11792 92.616371 curveto
115.09773 92.616378 115.82039 92.709152 116.28589 92.894691 curveto
117.02156 93.187667 117.38940 93.745934 117.38940 94.569496 curveto
116.36401 94.569496 moveto
116.36401 94.097496 116.22078 93.697106 115.93433 93.368324 curveto
115.63484 93.023279 115.25236 92.850753 114.78687 92.850746 curveto
114.67619 92.850753 114.53296 92.863774 114.35718 92.889809 curveto
114.13908 92.919112 113.99585 92.937016 113.92749 92.943520 curveto
113.92749 96.337074 lineto
114.14884 96.398926 114.47599 96.429851 114.90894 96.429848 curveto
115.42000 96.429851 115.80086 96.241049 116.05151 95.863441 curveto
116.25984 95.544435 116.36401 95.113120 116.36401 94.569496 curveto
fill
0.0000000 0.0000000 0.0000000 setrgbcolor
newpath
122.32104 95.463051 moveto
118.26831 95.463051 lineto
118.26831 95.004066 lineto
122.32104 95.004066 lineto
122.32104 95.463051 lineto
122.32104 97.303871 moveto
118.26831 97.303871 lineto
118.26831 96.840004 lineto
122.32104 96.840004 lineto
122.32104 97.303871 lineto
fill
0.0000000 0.0000000 0.0000000 setrgbcolor
newpath
130.99780 99.637856 moveto
128.83472 99.637856 lineto
128.83472 99.418129 lineto
129.27742 99.418129 129.49877 99.198403 129.49878 98.758949 curveto
129.49878 96.537270 lineto
129.49877 96.260580 129.43204 96.018067 129.29858 95.809731 curveto
129.14233 95.568849 128.93237 95.448407 128.66870 95.448402 curveto
128.26505 95.448407 127.78491 95.651857 127.22827 96.058754 curveto
127.22827 98.998207 lineto
127.22827 99.265135 127.48868 99.398598 128.00952 99.398598 curveto
128.03394 99.637856 lineto
125.87573 99.637856 lineto
125.87573 99.418129 lineto
126.31518 99.418129 126.53491 99.198403 126.53491 98.758949 curveto
126.53491 96.537270 lineto
126.53491 96.257325 126.47794 96.016440 126.36401 95.814613 curveto
126.22404 95.570477 126.02384 95.448407 125.76343 95.448402 curveto
125.35327 95.448407 124.85034 95.668133 124.25464 96.107582 curveto
124.25464 98.895668 lineto
124.25464 99.214679 124.50041 99.388832 124.99194 99.418129 curveto
124.96265 99.637856 lineto
122.89722 99.637856 lineto
122.87769 99.598793 lineto
122.90698 99.447426 lineto
123.10881 99.447426 123.27157 99.364418 123.39526 99.198402 curveto
123.50920 99.045408 123.56616 98.864744 123.56616 98.656410 curveto
123.56616 95.965981 lineto
123.56616 95.848797 123.46525 95.756023 123.26343 95.687660 curveto
123.23739 95.677899 123.08439 95.642091 122.80444 95.580238 curveto
122.80444 95.458168 lineto
122.83700 95.422365 122.87769 95.396323 122.92651 95.380043 curveto
123.18367 95.292157 123.56779 95.134279 124.07886 94.906410 curveto
124.25464 95.038246 lineto
124.25464 95.917152 lineto
125.19539 95.311688 125.84480 95.008954 126.20288 95.008949 curveto
126.42098 95.008954 126.62443 95.109865 126.81323 95.311684 curveto
126.97273 95.484214 127.08829 95.686037 127.15991 95.917152 curveto
128.10066 95.311688 128.75008 95.008954 129.10815 95.008949 curveto
129.45645 95.008954 129.73478 95.170087 129.94312 95.492348 curveto
130.12540 95.772299 130.21655 96.094565 130.21655 96.459145 curveto
130.21655 98.998207 lineto
130.21655 99.265135 130.46720 99.398598 130.96851 99.398598 curveto
130.99780 99.637856 lineto
fill
0.0000000 0.0000000 0.0000000 setrgbcolor
newpath
135.99292 95.961098 moveto
134.81128 95.834145 lineto
134.99031 96.104330 135.07983 96.408692 135.07983 96.747231 curveto
135.07983 97.186686 134.86987 97.538248 134.44995 97.801918 curveto
134.09188 98.026529 133.67846 98.138834 133.20972 98.138832 curveto
133.00138 98.138834 132.78166 98.116047 132.55054 98.070473 curveto
132.11434 98.301594 131.89624 98.508299 131.89624 98.690590 curveto
131.89624 98.898924 132.24617 99.025877 132.94604 99.071449 curveto
133.95516 99.139809 134.60457 99.214679 134.89429 99.296059 curveto
135.59415 99.491371 135.94409 99.877113 135.94409 100.45329 curveto
135.94409 100.95133 135.58927 101.36637 134.87964 101.69840 curveto
134.29370 101.97509 133.71753 102.11344 133.15112 102.11344 curveto
132.71167 102.11344 132.32430 102.05647 131.98901 101.94254 curveto
131.51050 101.77653 131.27124 101.51936 131.27124 101.17106 curveto
131.27124 100.67952 131.62606 100.17985 132.33569 99.672035 curveto
132.32267 99.642738 132.22502 99.603676 132.04272 99.554848 curveto
131.82463 99.499509 131.66512 99.437660 131.56421 99.369301 curveto
131.39494 99.255369 131.31030 99.100747 131.31030 98.905434 curveto
131.31030 98.706867 131.37215 98.555500 131.49585 98.451332 curveto
131.56421 98.392740 131.70418 98.324380 131.91577 98.246254 curveto
132.11434 98.171386 132.25757 98.093261 132.34546 98.011879 curveto
131.69767 97.800292 131.37378 97.359212 131.37378 96.688637 curveto
131.37378 96.219890 131.55282 95.826010 131.91089 95.506996 curveto
132.25594 95.201011 132.66610 95.048016 133.14136 95.048012 curveto
133.70776 95.048016 134.15372 95.197756 134.47925 95.497231 curveto
135.96362 95.399574 lineto
135.96687 95.510255 135.97664 95.697430 135.99292 95.961098 curveto
134.34741 96.727699 moveto
134.34741 96.372885 134.23673 96.053875 134.01538 95.770668 curveto
133.77449 95.464683 133.48152 95.311688 133.13647 95.311684 curveto
132.78491 95.311688 132.51636 95.471193 132.33081 95.790199 curveto
132.17781 96.053875 132.10132 96.374512 132.10132 96.752113 curveto
132.10132 97.504069 132.47729 97.880045 133.22925 97.880043 curveto
133.97469 97.880045 134.34741 97.495931 134.34741 96.727699 curveto
135.28491 100.55582 moveto
135.28491 100.21728 135.06193 99.981280 134.61597 99.847816 curveto
134.38159 99.779457 134.02026 99.733884 133.53198 99.711098 curveto
133.31714 99.691566 132.99324 99.672035 132.56030 99.652504 curveto
132.10132 100.01709 131.87183 100.45979 131.87183 100.98063 curveto
131.87183 101.46565 132.43498 101.70817 133.56128 101.70817 curveto
133.89982 101.70817 134.25952 101.60074 134.64038 101.38590 curveto
135.07006 101.14176 135.28491 100.86507 135.28491 100.55582 curveto
fill
0.0000000 0.0000000 0.0000000 setrgbcolor
[] 0 setdash
0.35433072 setlinewidth
0 setlinejoin
0 setlinecap
newpath
110.78046 90.494700 moveto
118.10479 90.494700 118.10479 90.494700 118.10479 90.494700 curveto
stroke
gsave [-0.21259843 0.0000000 0.0000000 -0.21259843 119.16778 90.494700] concat
0.0000000 0.0000000 0.0000000 setrgbcolor
newpath
8.7185878 4.0337352 moveto
-2.2072895 0.016013256 lineto
8.7185884 -4.0017078 lineto
6.9730900 -1.6296469 6.9831476 1.6157441 8.7185878 4.0337352 curveto
closepath
eofill
grestore
0.0000000 0.0000000 0.0000000 setrgbcolor
[] 0 setdash
0.35433072 setlinewidth
0 setlinejoin
0 setlinecap
newpath
129.27440 90.677817 moveto
136.59873 90.677817 136.59873 90.677817 136.59873 90.677817 curveto
stroke
gsave [-0.21259843 0.0000000 0.0000000 -0.21259843 137.66172 90.677817] concat
0.0000000 0.0000000 0.0000000 setrgbcolor
newpath
8.7185878 4.0337352 moveto
-2.2072895 0.016013256 lineto
8.7185884 -4.0017078 lineto
6.9730900 -1.6296469 6.9831476 1.6157441 8.7185878 4.0337352 curveto
closepath
eofill
grestore
0.0000000 0.0000000 0.0000000 setrgbcolor
[] 0 setdash
1.0000000 setlinewidth
0 setlinejoin
0 setlinecap
newpath
59.876388 129.31365 moveto
74.891262 125.34631 87.708837 122.84383 107.11831 122.90486 curveto
126.64985 122.78279 139.58950 125.22424 154.72645 128.58122 curveto
stroke
0.0000000 0.0000000 0.0000000 setrgbcolor
newpath
100.50195 131.01779 moveto
100.21224 131.59071 99.813474 131.87717 99.305664 131.87717 curveto
99.002928 131.87717 98.749022 131.78439 98.543945 131.59885 curveto
98.329101 131.40353 98.221679 131.15614 98.221680 130.85666 curveto
98.221680 127.79514 lineto
97.748047 127.79514 lineto
97.674805 127.55588 lineto
98.029622 127.42242 98.288411 127.22222 98.451172 126.95529 curveto
98.571614 126.75998 98.679035 126.44423 98.773438 126.00803 curveto
98.944336 126.00803 lineto
98.944336 127.40939 lineto
100.50195 127.40939 lineto
100.29688 127.79514 lineto
98.944336 127.79514 lineto
98.944336 130.55881 lineto
98.944335 130.72808 99.032225 130.91037 99.208008 131.10568 curveto
99.383787 131.30100 99.556313 131.39865 99.725586 131.39865 curveto
99.839516 131.39865 99.981117 131.30913 100.15039 131.13010 curveto
100.32291 130.94781 100.40918 130.85666 100.40918 130.85666 curveto
100.47428 130.85666 100.50521 130.91037 100.50195 131.01779 curveto
fill
0.0000000 0.0000000 0.0000000 setrgbcolor
newpath
105.03320 130.67599 moveto
104.62955 131.53537 103.98991 131.96506 103.11426 131.96506 curveto
102.55111 131.96506 102.07585 131.71929 101.68848 131.22775 curveto
101.32715 130.76877 101.14648 130.25119 101.14648 129.67502 curveto
101.14648 129.02072 101.33203 128.47059 101.70312 128.02463 curveto
102.10026 127.54937 102.61946 127.31174 103.26074 127.31174 curveto
103.77181 127.31174 104.18522 127.46636 104.50098 127.77560 curveto
104.81998 128.08485 104.97949 128.49664 104.97949 129.01096 curveto
101.82520 129.01096 lineto
101.80892 129.14768 101.80078 129.28765 101.80078 129.43088 curveto
101.80078 129.91591 101.94889 130.36187 102.24512 130.76877 curveto
102.57064 131.22124 102.96777 131.44748 103.43652 131.44748 curveto
104.04850 131.44748 104.51399 131.17241 104.83301 130.62228 curveto
104.87207 130.62228 lineto
104.94368 130.61903 104.99739 130.63693 105.03320 130.67599 curveto
104.23242 128.73264 moveto
104.21940 128.40061 104.10384 128.13043 103.88574 127.92209 curveto
103.66764 127.71050 103.39095 127.60471 103.05566 127.60471 curveto
102.77897 127.60471 102.53320 127.72678 102.31836 127.97092 curveto
102.12956 128.18576 102.00098 128.43967 101.93262 128.73264 curveto
104.23242 128.73264 lineto
fill
0.0000000 0.0000000 0.0000000 setrgbcolor
newpath
108.88574 127.51682 moveto
108.87597 127.70237 108.77506 127.95302 108.58301 128.26877 curveto
108.17936 128.06044 107.90104 127.95627 107.74805 127.95627 curveto
107.55273 127.95627 107.38021 128.05067 107.23047 128.23947 curveto
107.11653 128.41200 107.00423 128.58453 106.89355 128.75705 curveto
106.89355 131.17892 lineto
106.89355 131.53049 107.11328 131.70627 107.55273 131.70627 curveto
107.59505 131.70627 107.65527 131.70464 107.73340 131.70139 curveto
107.81152 131.69813 107.86686 131.69650 107.89941 131.69650 curveto
107.91895 131.87717 lineto
105.50195 131.87717 lineto
105.50195 131.73557 lineto
105.96094 131.72254 106.19043 131.53700 106.19043 131.17892 curveto
106.19043 128.31760 lineto
106.19043 128.12554 105.95605 127.97906 105.48730 127.87814 curveto
105.48730 127.69748 lineto
105.77376 127.66493 106.17904 127.49892 106.70312 127.19943 curveto
106.89355 127.23849 lineto
106.89355 128.39084 lineto
107.28418 127.66168 107.63248 127.29709 107.93848 127.29709 curveto
108.09472 127.29709 108.41048 127.37034 108.88574 127.51682 curveto
fill
0.0000000 0.0000000 0.0000000 setrgbcolor
newpath
112.61621 127.51682 moveto
112.60644 127.70237 112.50553 127.95302 112.31348 128.26877 curveto
111.90983 128.06044 111.63151 127.95627 111.47852 127.95627 curveto
111.28320 127.95627 111.11068 128.05067 110.96094 128.23947 curveto
110.84700 128.41200 110.73470 128.58453 110.62402 128.75705 curveto
110.62402 131.17892 lineto
110.62402 131.53049 110.84375 131.70627 111.28320 131.70627 curveto
111.32552 131.70627 111.38574 131.70464 111.46387 131.70139 curveto
111.54199 131.69813 111.59733 131.69650 111.62988 131.69650 curveto
111.64941 131.87717 lineto
109.23242 131.87717 lineto
109.23242 131.73557 lineto
109.69141 131.72254 109.92090 131.53700 109.92090 131.17892 curveto
109.92090 128.31760 lineto
109.92090 128.12554 109.68652 127.97906 109.21777 127.87814 curveto
109.21777 127.69748 lineto
109.50423 127.66493 109.90950 127.49892 110.43359 127.19943 curveto
110.62402 127.23849 lineto
110.62402 128.39084 lineto
111.01465 127.66168 111.36295 127.29709 111.66895 127.29709 curveto
111.82519 127.29709 112.14095 127.37034 112.61621 127.51682 curveto
fill
0.0000000 0.0000000 0.0000000 setrgbcolor
newpath
116.83008 130.67599 moveto
116.42643 131.53537 115.78678 131.96506 114.91113 131.96506 curveto
114.34798 131.96506 113.87272 131.71929 113.48535 131.22775 curveto
113.12402 130.76877 112.94336 130.25119 112.94336 129.67502 curveto
112.94336 129.02072 113.12891 128.47059 113.50000 128.02463 curveto
113.89713 127.54937 114.41634 127.31174 115.05762 127.31174 curveto
115.56868 127.31174 115.98209 127.46636 116.29785 127.77560 curveto
116.61686 128.08485 116.77636 128.49664 116.77637 129.01096 curveto
113.62207 129.01096 lineto
113.60579 129.14768 113.59766 129.28765 113.59766 129.43088 curveto
113.59766 129.91591 113.74577 130.36187 114.04199 130.76877 curveto
114.36751 131.22124 114.76465 131.44748 115.23340 131.44748 curveto
115.84537 131.44748 116.31087 131.17241 116.62988 130.62228 curveto
116.66895 130.62228 lineto
116.74056 130.61903 116.79427 130.63693 116.83008 130.67599 curveto
116.02930 128.73264 moveto
116.01627 128.40061 115.90071 128.13043 115.68262 127.92209 curveto
115.46452 127.71050 115.18782 127.60471 114.85254 127.60471 curveto
114.57584 127.60471 114.33008 127.72678 114.11523 127.97092 curveto
113.92643 128.18576 113.79785 128.43967 113.72949 128.73264 curveto
116.02930 128.73264 lineto
fill
grestore
showpage
