%!PS-Adobe-2.0
%%Creator: inkscape 0.41.1
%%Pages: 1
%%Orientation: Portrait
%%BoundingBox: 22 806 78 834
%%HiResBoundingBox: 22.856653 806.79536 77.193660 833.21089
%%EndComments
%%Page: 1 1
0 842 translate
0.80000000 -0.80000000 scale
gsave [1.0000000 0.0000000 0.0000000 1.0000000 0.0000000 0.0000000] concat
0.0000000 0.0000000 0.0000000 setrgbcolor
[] 0 setdash
0.35433072 setlinewidth
0 setlinejoin
0 setlinecap
newpath
49.256109 21.829115 moveto
76.356131 21.829115 76.356131 21.829115 76.356131 21.829115 curveto
stroke
gsave [-0.38976379 0.0000000 0.0000000 -0.38976379 78.304950 21.829115] concat
0.0000000 0.0000000 0.0000000 setrgbcolor
newpath
8.7185878 4.0337352 moveto
-2.2072895 0.016013256 lineto
8.7185884 -4.0017078 lineto
6.9730900 -1.6296469 6.9831476 1.6157441 8.7185878 4.0337352 curveto
closepath
eofill
grestore
gsave [1.0000000 0.0000000 0.0000000 1.0000000 2.5635090 -32.043930] concat
0.0000000 0.0000000 0.0000000 setrgbcolor
newpath
65.215778 50.567318 moveto
65.020466 52.212826 lineto
59.522419 52.212826 lineto
59.522419 52.032162 lineto
60.300413 52.022396 60.689410 51.801042 60.689411 51.368099 curveto
60.689411 46.104427 lineto
60.689410 45.850527 60.622678 45.679629 60.489216 45.591732 curveto
60.345986 45.497338 60.062783 45.450137 59.639606 45.450130 curveto
59.639606 45.279232 lineto
64.800739 45.279232 lineto
64.854450 46.778255 lineto
64.673786 46.778255 lineto
64.595656 46.026309 64.353143 45.650332 63.946247 45.650326 curveto
61.573200 45.650326 lineto
61.573200 48.404232 lineto
63.462849 48.404232 lineto
63.765579 48.404236 63.960891 48.119405 64.048786 47.549740 curveto
64.209919 47.549740 lineto
64.209919 49.659115 lineto
64.048786 49.659115 lineto
63.941360 49.050394 63.746048 48.746032 63.462849 48.746029 curveto
61.573200 48.746029 lineto
61.573200 51.280209 lineto
61.573198 51.641537 61.711544 51.822201 61.988239 51.822201 curveto
64.053669 51.822201 lineto
64.541945 51.822201 64.864211 51.399025 65.020466 50.552670 curveto
65.215778 50.567318 lineto
fill
0.0000000 0.0000000 0.0000000 setrgbcolor
[] 0 setdash
0.35433072 setlinewidth
0 setlinejoin
0 setlinecap
newpath
58.411522 43.069670 moveto
65.735852 43.069670 65.735852 43.069670 65.735852 43.069670 curveto
stroke
gsave [-0.21259843 0.0000000 0.0000000 -0.21259843 66.798844 43.069670] concat
0.0000000 0.0000000 0.0000000 setrgbcolor
newpath
8.7185878 4.0337352 moveto
-2.2072895 0.016013256 lineto
8.7185884 -4.0017078 lineto
6.9730900 -1.6296469 6.9831476 1.6157441 8.7185878 4.0337352 curveto
closepath
eofill
grestore
grestore
gsave [1.0000000 0.0000000 0.0000000 1.0000000 -146.66970 -10.986490] concat
gsave [1.0000000 0.0000000 0.0000000 1.0000000 144.65550 1.0986490] concat
0.0000000 0.0000000 0.0000000 setrgbcolor
[] 0 setdash
0.35433072 setlinewidth
0 setlinejoin
0 setlinecap
newpath
52.918277 38.034195 moveto
52.918277 44.149277 47.955311 49.112243 41.840229 49.112243 curveto
35.725147 49.112243 30.762181 44.149277 30.762181 38.034195 curveto
30.762181 31.919113 35.725147 26.956147 41.840229 26.956147 curveto
47.955311 26.956147 52.918277 31.919113 52.918277 38.034195 curveto
closepath
stroke
grestore
0.0000000 0.0000000 0.0000000 setrgbcolor
[] 0 setdash
0.35433072 setlinewidth
0 setlinejoin
0 setlinecap
newpath
186.49572 47.464267 moveto
186.49572 29.885878 186.49572 30.435203 186.49572 30.435203 curveto
186.49572 30.435203 lineto
stroke
0.0000000 0.0000000 0.0000000 setrgbcolor
[] 0 setdash
0.35433072 setlinewidth
0 setlinejoin
0 setlinecap
newpath
195.46897 39.132844 moveto
177.89059 39.132844 178.43991 39.132844 178.43991 39.132844 curveto
178.43991 39.132844 lineto
stroke
grestore
0.0000000 0.0000000 0.0000000 setrgbcolor
[] 0 setdash
0.44823322 setlinewidth
0 setlinejoin
0 setlinecap
newpath
51.193541 28.237904 moveto
94.560599 28.237904 94.560599 28.237904 94.560599 28.237904 curveto
stroke
gsave [-0.49305654 0.0000000 0.0000000 -0.49305654 97.025882 28.237904] concat
0.0000000 0.0000000 0.0000000 setrgbcolor
newpath
8.7185878 4.0337352 moveto
-2.2072895 0.016013256 lineto
8.7185884 -4.0017078 lineto
6.9730900 -1.6296469 6.9831476 1.6157441 8.7185878 4.0337352 curveto
closepath
eofill
grestore
gsave [1.0000000 0.0000000 0.0000000 1.0000000 -19.958800 4.2114890] concat
0.0000000 0.0000000 0.0000000 setrgbcolor
newpath
115.06516 15.181110 moveto
114.88938 15.181110 lineto
114.88938 14.533330 114.60292 14.209437 114.03001 14.209431 curveto
111.82786 14.209431 lineto
111.82786 16.831501 lineto
113.64915 16.831501 lineto
113.84446 16.831505 113.99908 16.755008 114.11301 16.602009 curveto
114.21067 16.468550 114.25949 16.297651 114.25950 16.089314 curveto
114.39622 16.089314 lineto
114.39622 17.993610 lineto
114.25950 17.993610 lineto
114.25949 17.459759 114.05604 17.192833 113.64915 17.192829 curveto
111.82786 17.192829 lineto
111.82786 19.844196 lineto
111.82786 20.280395 112.12245 20.498493 112.71165 20.498493 curveto
112.71165 20.718220 lineto
110.15794 20.718220 lineto
110.15794 20.498493 lineto
110.69830 20.498493 110.96848 20.260863 110.96848 19.785603 curveto
110.96848 14.521931 lineto
110.96848 14.167120 110.69830 13.991338 110.15794 13.994587 curveto
110.15794 13.784626 lineto
114.94798 13.784626 lineto
115.06516 15.181110 lineto
fill
0.0000000 0.0000000 0.0000000 setrgbcolor
[] 0 setdash
0.35433072 setlinewidth
0 setlinejoin
0 setlinecap
newpath
108.94938 11.575060 moveto
116.27371 11.575060 116.27371 11.575060 116.27371 11.575060 curveto
stroke
gsave [-0.21259843 0.0000000 0.0000000 -0.21259843 117.33670 11.575060] concat
0.0000000 0.0000000 0.0000000 setrgbcolor
newpath
8.7185878 4.0337352 moveto
-2.2072895 0.016013256 lineto
8.7185884 -4.0017078 lineto
6.9730900 -1.6296469 6.9831476 1.6157441 8.7185878 4.0337352 curveto
closepath
eofill
grestore
grestore
0.0000000 0.0000000 0.0000000 setrgbcolor
[] 0 setdash
0.39437357 setlinewidth
0 setlinejoin
0 setlinecap
newpath
49.682657 33.731152 moveto
83.253913 33.731152 83.253913 33.731152 83.253913 33.731152 curveto
stroke
gsave [-0.43381092 0.0000000 0.0000000 -0.43381092 85.422968 33.731152] concat
0.0000000 0.0000000 0.0000000 setrgbcolor
newpath
8.7185878 4.0337352 moveto
-2.2072895 0.016013256 lineto
8.7185884 -4.0017078 lineto
6.9730900 -1.6296469 6.9831476 1.6157441 8.7185878 4.0337352 curveto
closepath
eofill
grestore
0.0000000 0.0000000 0.0000000 setrgbcolor
newpath
69.869171 43.301579 moveto
69.543646 43.539209 69.377631 43.661279 69.371124 43.667789 curveto
69.159532 43.797998 68.964220 43.863102 68.785187 43.863102 curveto
68.505236 43.863102 68.313179 43.649886 68.209015 43.223454 curveto
67.815132 43.509912 67.597034 43.664534 67.554718 43.687321 curveto
67.339872 43.807763 67.092477 43.867985 66.812531 43.867985 curveto
66.535837 43.867985 66.301462 43.773584 66.109406 43.584782 curveto
65.920603 43.392725 65.826202 43.159978 65.826202 42.886539 curveto
65.826202 42.544744 65.961293 42.264796 66.231476 42.046696 curveto
66.390980 41.919744 66.675811 41.771633 67.085968 41.602360 curveto
68.189484 41.148258 lineto
68.189484 40.420719 lineto
68.189481 40.163561 68.096708 39.947090 67.911163 39.771305 curveto
67.728869 39.595528 67.507515 39.507637 67.247101 39.507633 curveto
66.833688 39.507637 66.626982 39.727364 66.626984 40.166813 curveto
66.626982 40.196113 66.633493 40.235176 66.646515 40.284000 curveto
66.659534 40.332832 66.666045 40.370267 66.666046 40.396305 curveto
66.666045 40.516751 66.574899 40.624173 66.392609 40.718571 curveto
66.233103 40.803209 66.086618 40.845527 65.953156 40.845524 curveto
65.897816 40.845527 65.870147 40.799954 65.870148 40.708805 curveto
65.870147 40.275866 66.052439 39.921049 66.417023 39.644352 curveto
66.749053 39.390450 67.139677 39.263497 67.588898 39.263493 curveto
68.038114 39.263497 68.366890 39.346505 68.575226 39.512516 curveto
68.806342 39.694812 68.921902 40.004056 68.921906 40.440250 curveto
68.921906 42.954899 lineto
68.921902 43.234847 69.017931 43.374821 69.209991 43.374821 curveto
69.330430 43.374821 69.546901 43.283675 69.859406 43.101383 curveto
69.869171 43.301579 lineto
68.194366 42.896305 moveto
68.189484 41.431461 lineto
67.198273 41.866032 lineto
66.752308 42.061346 66.529326 42.375473 66.529327 42.808414 curveto
66.529326 42.993962 66.589548 43.142074 66.709991 43.252750 curveto
66.830433 43.363428 66.983427 43.418766 67.168976 43.418766 curveto
67.361031 43.418766 67.546578 43.365056 67.725616 43.257633 curveto
67.803739 43.208806 67.959989 43.088363 68.194366 42.896305 curveto
fill
0.0000000 0.0000000 0.0000000 setrgbcolor
[] 0 setdash
0.35433072 setlinewidth
0 setlinejoin
0 setlinecap
newpath
63.904750 36.477780 moveto
71.229080 36.477780 71.229080 36.477780 71.229080 36.477780 curveto
stroke
gsave [-0.21259843 0.0000000 0.0000000 -0.21259843 72.292072 36.477780] concat
0.0000000 0.0000000 0.0000000 setrgbcolor
newpath
8.7185878 4.0337352 moveto
-2.2072895 0.016013256 lineto
8.7185884 -4.0017078 lineto
6.9730900 -1.6296469 6.9831476 1.6157441 8.7185878 4.0337352 curveto
closepath
eofill
grestore
grestore
showpage
