%!PS-Adobe-2.0
%%Creator: inkscape 0.41.1
%%Pages: 1
%%Orientation: Portrait
%%BoundingBox: 21 769 135 832
%%HiResBoundingBox: 21.275710 769.28109 134.31545 831.85780
%%EndComments
%%Page: 1 1
0 842 translate
0.80000000 -0.80000000 scale
gsave [1.0000000 0.0000000 0.0000000 1.0000000 0.0000000 0.0000000] concat
0.0000000 0.0000000 0.0000000 setrgbcolor
[] 0 setdash
0.37325650 setlinewidth
0 setlinejoin
0 setlinecap
newpath
27.302556 60.281845 moveto
167.70769 60.281852 lineto
stroke
0.0000000 0.0000000 0.0000000 setrgbcolor
[] 0 setdash
1.0000000 setlinewidth
0 setlinejoin
0 setlinecap
newpath
56.031115 89.212950 moveto
129.27440 34.280484 lineto
stroke
gsave [0.32000000 -0.24000001 0.24000001 0.32000000 56.031115 89.212950] concat
0.0000000 0.0000000 0.0000000 setrgbcolor
[] 0 setdash
1.2500000 setlinewidth
0 setlinejoin
0 setlinecap
newpath
0.0000000 5.6500000 moveto
0.0000000 -5.6500000 lineto
stroke
grestore
gsave [-0.47999999 0.36000001 -0.36000001 -0.47999999 131.67440 32.480484] concat
0.0000000 0.0000000 0.0000000 setrgbcolor
newpath
8.7185878 4.0337352 moveto
-2.2072895 0.016013256 lineto
8.7185884 -4.0017078 lineto
6.9730900 -1.6296469 6.9831476 1.6157441 8.7185878 4.0337352 curveto
closepath
eofill
grestore
0.0000000 0.0000000 0.0000000 setrgbcolor
[] 0 setdash
1.0000000 setlinewidth
0 setlinejoin
0 setlinecap
newpath
39.917588 74.930503 moveto
56.397325 70.719019 lineto
stroke
gsave [-0.58131771 0.14855882 -0.14855882 -0.58131771 59.303914 69.976225] concat
0.0000000 0.0000000 0.0000000 setrgbcolor
newpath
8.7185878 4.0337352 moveto
-2.2072895 0.016013256 lineto
8.7185884 -4.0017078 lineto
6.9730900 -1.6296469 6.9831476 1.6157441 8.7185878 4.0337352 curveto
closepath
eofill
grestore
0.0000000 0.0000000 0.0000000 setrgbcolor
[] 0 setdash
1.0000000 setlinewidth
0 setlinejoin
0 setlinecap
newpath
94.483845 60.281851 moveto
94.483845 13.039935 lineto
stroke
gsave [2.4492127e-17 -0.40000000 0.40000000 2.4492127e-17 94.483845 60.281851] concat
0.0000000 0.0000000 0.0000000 setrgbcolor
[] 0 setdash
1.2500000 setlinewidth
0 setlinejoin
0 setlinecap
newpath
0.0000000 5.6500000 moveto
0.0000000 -5.6500000 lineto
stroke
grestore
gsave [-3.6738191e-17 0.60000000 -0.60000000 -3.6738191e-17 94.483845 10.039935] concat
0.0000000 0.0000000 0.0000000 setrgbcolor
newpath
8.7185878 4.0337352 moveto
-2.2072895 0.016013256 lineto
8.7185884 -4.0017078 lineto
6.9730900 -1.6296469 6.9831476 1.6157441 8.7185878 4.0337352 curveto
closepath
eofill
grestore
0.0000000 0.0000000 0.0000000 setrgbcolor
[] 0 setdash
1.2921926 setlinewidth
0 setlinejoin
0 setlinecap
newpath
37.751617 75.662941 moveto
160.92079 41.971029 lineto
stroke
gsave [0.49856104 -0.13637726 0.13637726 0.49856104 37.751617 75.662941] concat
0.0000000 0.0000000 0.0000000 setrgbcolor
[] 0 setdash
1.2500000 setlinewidth
0 setlinejoin
0 setlinecap
newpath
0.0000000 5.6500000 moveto
0.0000000 -5.6500000 lineto
stroke
grestore
gsave [-0.74784156 0.20456589 -0.20456589 -0.74784156 164.66000 40.948200] concat
0.0000000 0.0000000 0.0000000 setrgbcolor
newpath
8.7185878 4.0337352 moveto
-2.2072895 0.016013256 lineto
8.7185884 -4.0017078 lineto
6.9730900 -1.6296469 6.9831476 1.6157441 8.7185878 4.0337352 curveto
closepath
eofill
grestore
0.0000000 0.0000000 0.0000000 setrgbcolor
newpath
45.339989 64.688751 moveto
44.669413 64.688758 44.334127 64.967078 44.334129 65.523712 curveto
44.334129 70.440704 lineto
44.334127 70.775991 44.422018 71.005483 44.597801 71.129181 curveto
44.741028 71.230093 44.986796 71.278921 45.335106 71.275665 curveto
45.335106 71.446564 lineto
42.488426 71.446564 lineto
42.488426 71.275665 lineto
43.178529 71.275665 43.523581 70.997345 43.523582 70.440704 curveto
43.523582 65.523712 lineto
43.523581 65.188432 43.437318 64.958940 43.264793 64.835236 curveto
43.121563 64.734331 42.874168 64.685503 42.522606 64.688751 curveto
42.522606 64.517853 lineto
45.339989 64.517853 lineto
45.339989 64.688751 lineto
fill
gsave [1.0000000 0.0000000 0.0000000 1.0000000 72.693950 15.014870] concat
0.0000000 0.0000000 0.0000000 setrgbcolor
newpath
35.347120 30.589050 moveto
35.347114 31.253114 35.054146 31.746278 34.468214 32.068542 curveto
34.002715 32.322449 33.405384 32.449402 32.676222 32.449402 curveto
29.233839 32.449402 lineto
29.282667 32.268738 lineto
29.728630 32.262228 30.018344 32.229676 30.151808 32.171082 curveto
30.405713 32.060405 30.532666 31.811382 30.532667 31.424011 curveto
30.532667 26.448425 lineto
30.532666 26.002468 30.151807 25.779487 29.390089 25.779480 curveto
29.390089 25.554871 lineto
30.203890 25.499539 31.214631 25.471870 32.422316 25.471863 curveto
33.034291 25.471870 33.584421 25.584174 34.072706 25.808777 curveto
34.687935 26.095242 34.995552 26.498887 34.995558 27.019714 curveto
34.995552 27.892115 34.500761 28.401554 33.511183 28.548035 curveto
34.142688 28.684757 34.596789 28.896346 34.873487 29.182800 curveto
35.189237 29.501814 35.347114 29.970563 35.347120 30.589050 curveto
34.072706 27.239441 moveto
34.072701 26.236843 33.576283 25.735541 32.583448 25.735535 curveto
31.372511 25.735535 lineto
31.372511 28.499207 lineto
32.285597 28.499207 lineto
32.858510 28.499210 33.270293 28.435734 33.520948 28.308777 curveto
33.888782 28.123234 34.072701 27.766789 34.072706 27.239441 curveto
34.394972 30.549988 moveto
34.394967 29.990094 34.264759 29.550642 34.004347 29.231628 curveto
33.717884 28.886580 33.301218 28.714054 32.754347 28.714050 curveto
31.372511 28.714050 lineto
31.372511 31.472839 lineto
31.372509 31.974142 31.758251 32.224793 32.529737 32.224792 curveto
33.047312 32.224793 33.481882 32.076681 33.833448 31.780457 curveto
34.207792 31.467958 34.394967 31.057802 34.394972 30.549988 curveto
fill
0.0000000 0.0000000 0.0000000 setrgbcolor
[] 0 setdash
0.35433072 setlinewidth
0 setlinejoin
0 setlinecap
newpath
27.466233 23.110883 moveto
35.706103 23.110883 35.706103 23.110883 35.706103 23.110883 curveto
stroke
gsave [-0.21259843 0.0000000 0.0000000 -0.21259843 36.769095 23.110883] concat
0.0000000 0.0000000 0.0000000 setrgbcolor
newpath
8.7185878 4.0337352 moveto
-2.2072895 0.016013256 lineto
8.7185884 -4.0017078 lineto
6.9730900 -1.6296469 6.9831476 1.6157441 8.7185878 4.0337352 curveto
closepath
eofill
grestore
grestore
gsave [1.0000000 0.0000000 0.0000000 1.0000000 36.255390 -5.1270280] concat
0.0000000 0.0000000 0.0000000 setrgbcolor
newpath
53.677490 29.109592 moveto
53.501709 29.109592 lineto
53.501704 28.461812 53.215246 28.137919 52.642334 28.137913 curveto
50.440186 28.137913 lineto
50.440186 30.759983 lineto
52.261475 30.759983 lineto
52.456783 30.759987 52.611406 30.683490 52.725342 30.530491 curveto
52.822994 30.397032 52.871822 30.226133 52.871826 30.017796 curveto
53.008545 30.017796 lineto
53.008545 31.922092 lineto
52.871826 31.922092 lineto
52.871822 31.388242 52.668372 31.121315 52.261475 31.121311 curveto
50.440186 31.121311 lineto
50.440186 33.772678 lineto
50.440184 34.208877 50.734780 34.426975 51.323975 34.426975 curveto
51.323975 34.646702 lineto
48.770264 34.646702 lineto
48.770264 34.426975 lineto
49.310628 34.426975 49.580810 34.189345 49.580811 33.714085 curveto
49.580811 28.450413 lineto
49.580810 28.095602 49.310628 27.919821 48.770264 27.923069 curveto
48.770264 27.713108 lineto
53.560303 27.713108 lineto
53.677490 29.109592 lineto
fill
0.0000000 0.0000000 0.0000000 setrgbcolor
[] 0 setdash
0.35433072 setlinewidth
0 setlinejoin
0 setlinecap
newpath
46.326380 25.308182 moveto
54.566250 25.308182 54.566250 25.308182 54.566250 25.308182 curveto
stroke
gsave [-0.21259843 0.0000000 0.0000000 -0.21259843 55.629242 25.308182] concat
0.0000000 0.0000000 0.0000000 setrgbcolor
newpath
8.7185878 4.0337352 moveto
-2.2072895 0.016013256 lineto
8.7185884 -4.0017078 lineto
6.9730900 -1.6296469 6.9831476 1.6157441 8.7185878 4.0337352 curveto
closepath
eofill
grestore
grestore
gsave [1.0000000 0.0000000 0.0000000 1.0000000 103.82230 3.6621640] concat
0.0000000 0.0000000 0.0000000 setrgbcolor
newpath
48.880043 52.178726 moveto
48.494301 53.873062 lineto
42.996254 53.873062 lineto
42.996254 53.692398 lineto
43.774248 53.682633 44.163245 53.461279 44.163246 53.028336 curveto
44.163246 47.774429 lineto
44.163245 47.478212 44.055823 47.284527 43.840981 47.193375 curveto
43.717282 47.144553 43.474769 47.120139 43.113441 47.120132 curveto
43.113441 46.949234 lineto
46.214027 46.949234 lineto
46.214027 47.105484 lineto
46.140785 47.100601 lineto
45.890131 47.097353 45.659012 47.146181 45.447426 47.247086 curveto
45.180497 47.374045 45.047033 47.551454 45.047035 47.779312 curveto
45.047035 52.940445 lineto
45.047033 53.301774 45.185379 53.482438 45.462074 53.482437 curveto
47.527504 53.482437 lineto
47.846510 53.482438 48.111809 53.335953 48.323402 53.042984 curveto
48.495923 52.808610 48.614738 52.514014 48.679848 52.159195 curveto
48.880043 52.178726 lineto
fill
0.0000000 0.0000000 0.0000000 setrgbcolor
[] 0 setdash
0.35433072 setlinewidth
0 setlinejoin
0 setlinecap
newpath
41.199350 44.534545 moveto
49.439220 44.534545 49.439220 44.534545 49.439220 44.534545 curveto
stroke
gsave [-0.21259843 0.0000000 0.0000000 -0.21259843 50.502212 44.534545] concat
0.0000000 0.0000000 0.0000000 setrgbcolor
newpath
8.7185878 4.0337352 moveto
-2.2072895 0.016013256 lineto
8.7185884 -4.0017078 lineto
6.9730900 -1.6296469 6.9831476 1.6157441 8.7185878 4.0337352 curveto
closepath
eofill
grestore
grestore
0.0000000 0.0000000 0.0000000 setrgbcolor
newpath
135.07027 22.105112 moveto
135.07026 22.160457 135.06538 22.220679 135.05562 22.285776 curveto
134.70079 22.328100 134.50711 22.355770 134.47456 22.368784 curveto
134.30203 22.437150 134.21577 22.596655 134.21577 22.847300 curveto
134.21577 28.970346 lineto
134.00093 28.970346 lineto
128.75679 23.091440 lineto
128.75679 28.150034 lineto
128.75679 28.573211 129.03511 28.784800 129.59175 28.784800 curveto
129.66662 28.784800 129.73986 28.779917 129.81148 28.770151 curveto
129.81148 28.970346 lineto
127.60933 28.970346 lineto
127.55074 28.770151 lineto
128.08784 28.770151 128.35640 28.635060 128.35640 28.364878 curveto
128.35640 22.813120 lineto
128.35640 22.650366 128.25874 22.516902 128.06343 22.412729 curveto
127.91369 22.331356 127.74279 22.279272 127.55074 22.256479 curveto
127.58003 22.046518 lineto
129.13277 22.046518 lineto
133.78609 27.495737 lineto
133.78609 22.847300 lineto
133.78608 22.648738 133.68517 22.498999 133.48335 22.398081 curveto
133.32059 22.316707 133.13178 22.279272 132.91695 22.285776 curveto
132.91695 22.046518 lineto
135.05562 22.046518 lineto
135.06538 22.085588 135.07026 22.105119 135.07027 22.105112 curveto
fill
0.0000000 0.0000000 0.0000000 setrgbcolor
newpath
51.216511 89.022537 moveto
51.216506 89.588945 51.019566 90.026770 50.625690 90.336014 curveto
50.267614 90.619217 49.797237 90.760818 49.214558 90.760818 curveto
49.038774 90.760818 48.775102 90.728266 48.423542 90.663162 curveto
48.075233 90.598058 47.811562 90.565506 47.632526 90.565506 curveto
47.547890 90.565506 47.474648 90.596431 47.412800 90.658279 curveto
47.256550 90.658279 lineto
46.978230 88.944412 lineto
47.163776 88.880936 lineto
47.284218 89.375729 47.520221 89.769608 47.871784 90.062576 curveto
48.226600 90.355545 48.654660 90.502030 49.155964 90.502029 curveto
49.540075 90.502030 49.854203 90.375077 50.098347 90.121170 curveto
50.345739 89.867265 50.469437 89.546627 50.469440 89.159256 curveto
50.469437 88.771888 50.169958 88.363360 49.571003 87.933670 curveto
49.017615 87.546303 48.462603 87.158934 47.905964 86.771561 curveto
47.307005 86.267008 47.007526 85.729899 47.007526 85.160233 curveto
47.007526 84.684978 47.253294 84.307374 47.744831 84.027420 curveto
48.154986 83.793052 48.617225 83.675865 49.131550 83.675858 curveto
49.258500 83.675865 49.439164 83.708417 49.673542 83.773514 curveto
49.911169 83.835370 50.088578 83.866294 50.205769 83.866287 curveto
50.306676 83.866294 50.384801 83.822349 50.440144 83.734451 curveto
50.625690 83.734451 lineto
50.938190 85.794998 lineto
50.718464 85.794998 lineto
50.565465 85.189535 50.373408 84.754965 50.142292 84.491287 curveto
49.842810 84.156007 49.411495 83.988364 48.848347 83.988358 curveto
48.535845 83.988364 48.285194 84.086020 48.096394 84.281326 curveto
47.910845 84.476645 47.818072 84.732179 47.818073 85.047928 curveto
47.818072 85.438558 48.112668 85.838948 48.701862 86.249100 curveto
49.245479 86.623453 49.790726 86.997801 50.337605 87.372147 curveto
50.923538 87.873451 51.216506 88.423581 51.216511 89.022537 curveto
fill
0.0000000 0.0000000 0.0000000 setrgbcolor
newpath
167.89307 67.425545 moveto
167.69775 69.071053 lineto
162.19971 69.071053 lineto
162.19971 68.890388 lineto
162.97770 68.880623 163.36670 68.659269 163.36670 68.226326 curveto
163.36670 62.962654 lineto
163.36670 62.708754 163.29997 62.537856 163.16650 62.449959 curveto
163.02327 62.355564 162.74007 62.308364 162.31689 62.308357 curveto
162.31689 62.137459 lineto
167.47803 62.137459 lineto
167.53174 63.636482 lineto
167.35107 63.636482 lineto
167.27294 62.884535 167.03043 62.508559 166.62354 62.508553 curveto
164.25049 62.508553 lineto
164.25049 65.262459 lineto
166.14014 65.262459 lineto
166.44287 65.262463 166.63818 64.977632 166.72607 64.407967 curveto
166.88721 64.407967 lineto
166.88721 66.517342 lineto
166.72607 66.517342 lineto
166.61865 65.908621 166.42334 65.604259 166.14014 65.604256 curveto
164.25049 65.604256 lineto
164.25049 68.138435 lineto
164.25049 68.499764 164.38883 68.680428 164.66553 68.680428 curveto
166.73096 68.680428 lineto
167.21923 68.680428 167.54150 68.257251 167.69775 67.410896 curveto
167.89307 67.425545 lineto
fill
0.0000000 0.0000000 0.0000000 setrgbcolor
newpath
33.767488 54.581139 moveto
33.767481 55.652105 33.443588 56.539148 32.795809 57.242271 curveto
32.128486 57.964928 31.264229 58.326256 30.203035 58.326256 curveto
29.161366 58.326256 28.308502 58.034915 27.644442 57.452232 curveto
26.944571 56.840255 26.594637 56.023198 26.594637 55.001060 curveto
26.594637 53.930101 26.915275 53.043058 27.556551 52.339928 curveto
28.220612 51.617278 29.083241 51.255950 30.144442 51.255943 curveto
31.186104 51.255950 32.042223 51.547291 32.712801 52.129967 curveto
33.415919 52.741951 33.767481 53.559008 33.767488 54.581139 curveto
32.781160 54.942467 moveto
32.781154 54.063565 32.559800 53.298591 32.117098 52.647545 curveto
31.612536 51.905364 30.940336 51.534270 30.100496 51.534264 curveto
29.260650 51.534270 28.622630 51.863046 28.186434 52.520592 curveto
27.815339 53.083748 27.629792 53.808031 27.629793 54.693443 curveto
27.629792 55.565842 27.846263 56.319422 28.279207 56.954185 curveto
28.773997 57.676842 29.438059 58.038170 30.271395 58.038170 curveto
31.117744 58.038170 31.762275 57.724043 32.204988 57.095787 curveto
32.589097 56.545659 32.781154 55.827886 32.781160 54.942467 curveto
fill
0.0000000 0.0000000 0.0000000 setrgbcolor
[] 0 setdash
0.35433072 setlinewidth
0 setlinejoin
0 setlinecap
newpath
124.51359 60.281850 moveto
124.51359 60.281850 124.69669 55.521037 122.31629 52.225089 curveto
stroke
0.0000000 0.0000000 0.0000000 setrgbcolor
newpath
132.01608 57.068947 moveto
132.01608 57.599547 131.83704 58.089456 131.47897 58.538673 curveto
131.09811 59.020444 130.65052 59.261330 130.13620 59.261330 curveto
129.66094 59.261330 129.42331 59.013934 129.42331 58.519142 curveto
129.42331 58.401955 129.46562 58.286396 129.55026 58.172462 curveto
129.63815 58.055276 129.73906 57.996682 129.85300 57.996681 curveto
130.12318 57.996682 130.25827 58.113870 130.25827 58.348244 curveto
130.25827 58.410093 130.21920 58.481708 130.14108 58.563087 curveto
130.06621 58.641213 130.02878 58.681903 130.02878 58.685158 curveto
130.02878 58.743752 130.07923 58.799090 130.18015 58.851173 curveto
130.26803 58.896747 130.34453 58.919533 130.40964 58.919533 curveto
130.78724 58.919533 131.03626 58.711200 131.15671 58.294533 curveto
131.21530 58.082945 131.24459 57.718362 131.24460 57.200783 curveto
131.24459 56.178650 130.74818 55.667583 129.75534 55.667580 curveto
129.65117 55.667583 129.54049 55.672466 129.42331 55.682228 curveto
129.45261 55.374611 lineto
130.27617 55.123964 130.68795 54.557558 130.68796 53.675392 curveto
130.68795 53.349877 130.61146 53.087833 130.45847 52.889259 curveto
130.28919 52.671167 130.04668 52.562118 129.73093 52.562111 curveto
129.34030 52.562118 129.08477 52.744409 128.96432 53.108986 curveto
128.89922 53.304304 128.86667 53.647728 128.86667 54.139259 curveto
128.86667 59.183205 lineto
127.35300 59.183205 lineto
127.35300 58.983009 lineto
127.41159 58.987892 lineto
127.55482 58.994403 127.69317 58.953713 127.82663 58.865822 curveto
127.96335 58.777932 128.03171 58.662372 128.03171 58.519142 curveto
128.03171 53.860939 lineto
128.03171 53.411726 128.17494 53.024357 128.46140 52.698830 curveto
128.75762 52.360295 129.12708 52.191024 129.56979 52.191017 curveto
130.04831 52.191024 130.46172 52.298446 130.81003 52.513283 curveto
131.22344 52.763940 131.43014 53.110620 131.43015 53.553322 curveto
131.43014 53.917910 131.30644 54.280866 131.05905 54.642189 curveto
130.81165 55.000266 130.51217 55.244407 130.16061 55.374611 curveto
130.31361 55.338807 130.45846 55.320904 130.59518 55.320900 curveto
131.05416 55.320904 131.41224 55.501568 131.66940 55.862892 curveto
131.90052 56.185161 132.01608 56.587179 132.01608 57.068947 curveto
fill
grestore
showpage
