%!PS-Adobe-2.0 EPSF-2.0
%%Title: Serie.eps
%%Creator: fig2dev Version 3.2 Patchlevel 3d
%%CreationDate: Wed Aug  6 22:51:49 2003
%%For: prof@portable (Vincent Guyot)
%%BoundingBox: 0 0 121 94
%%Magnification: 1.0000
%%EndComments
/$F2psDict 200 dict def
$F2psDict begin
$F2psDict /mtrx matrix put
/col-1 {0 setgray} bind def
/col0 {0.000 0.000 0.000 srgb} bind def
/col1 {0.000 0.000 1.000 srgb} bind def
/col2 {0.000 1.000 0.000 srgb} bind def
/col3 {0.000 1.000 1.000 srgb} bind def
/col4 {1.000 0.000 0.000 srgb} bind def
/col5 {1.000 0.000 1.000 srgb} bind def
/col6 {1.000 1.000 0.000 srgb} bind def
/col7 {1.000 1.000 1.000 srgb} bind def
/col8 {0.000 0.000 0.560 srgb} bind def
/col9 {0.000 0.000 0.690 srgb} bind def
/col10 {0.000 0.000 0.820 srgb} bind def
/col11 {0.530 0.810 1.000 srgb} bind def
/col12 {0.000 0.560 0.000 srgb} bind def
/col13 {0.000 0.690 0.000 srgb} bind def
/col14 {0.000 0.820 0.000 srgb} bind def
/col15 {0.000 0.560 0.560 srgb} bind def
/col16 {0.000 0.690 0.690 srgb} bind def
/col17 {0.000 0.820 0.820 srgb} bind def
/col18 {0.560 0.000 0.000 srgb} bind def
/col19 {0.690 0.000 0.000 srgb} bind def
/col20 {0.820 0.000 0.000 srgb} bind def
/col21 {0.560 0.000 0.560 srgb} bind def
/col22 {0.690 0.000 0.690 srgb} bind def
/col23 {0.820 0.000 0.820 srgb} bind def
/col24 {0.500 0.190 0.000 srgb} bind def
/col25 {0.630 0.250 0.000 srgb} bind def
/col26 {0.750 0.380 0.000 srgb} bind def
/col27 {1.000 0.500 0.500 srgb} bind def
/col28 {1.000 0.630 0.630 srgb} bind def
/col29 {1.000 0.750 0.750 srgb} bind def
/col30 {1.000 0.880 0.880 srgb} bind def
/col31 {1.000 0.840 0.000 srgb} bind def

end
save
newpath 0 94 moveto 0 0 lineto 121 0 lineto 121 94 lineto closepath clip newpath
-22.3 121.5 translate
1 -1 scale

/cp {closepath} bind def
/ef {eofill} bind def
/gr {grestore} bind def
/gs {gsave} bind def
/sa {save} bind def
/rs {restore} bind def
/l {lineto} bind def
/m {moveto} bind def
/rm {rmoveto} bind def
/n {newpath} bind def
/s {stroke} bind def
/sh {show} bind def
/slc {setlinecap} bind def
/slj {setlinejoin} bind def
/slw {setlinewidth} bind def
/srgb {setrgbcolor} bind def
/rot {rotate} bind def
/sc {scale} bind def
/sd {setdash} bind def
/ff {findfont} bind def
/sf {setfont} bind def
/scf {scalefont} bind def
/sw {stringwidth} bind def
/tr {translate} bind def
/tnt {dup dup currentrgbcolor
  4 -2 roll dup 1 exch sub 3 -1 roll mul add
  4 -2 roll dup 1 exch sub 3 -1 roll mul add
  4 -2 roll dup 1 exch sub 3 -1 roll mul add srgb}
  bind def
/shd {dup dup currentrgbcolor 4 -2 roll mul 4 -2 roll mul
  4 -2 roll mul srgb} bind def
/$F2psBegin {$F2psDict begin /$F2psEnteredState save def} def
/$F2psEnd {$F2psEnteredState restore end} def

$F2psBegin
10 setmiterlimit
 0.06299 0.06299 sc
%
% Fig objects follow
%
% Polyline
7.500 slw
n 516 1002 m 516 492 l 2150 492 l 2150 1917 l 522 1917 l
 522 1054 l gs col0 s gr 
% Polyline
n 2045 677 m 2254 677 l 2254 1123 l 2045 1123 l
 cp gs col7 1.00 shd ef gr gs col0 s gr 
% Polyline
n 2045 1239 m 2254 1239 l 2254 1685 l 2045 1685 l
 cp gs col7 1.00 shd ef gr gs col0 s gr 
/Times-Roman ff 180.00 scf sf
2063 939 m
gs 1 -1 sc (R) col0 sh gr
/Times-Roman ff 120.00 scf sf
2184 973 m
gs 1 -1 sc (1) col0 sh gr
/Times-Roman ff 180.00 scf sf
2063 1493 m
gs 1 -1 sc (R) col0 sh gr
/Times-Roman ff 120.00 scf sf
2185 1534 m
gs 1 -1 sc (2) col0 sh gr
/Times-Roman ff 180.00 scf sf
1785 944 m
gs 1 -1 sc (U) col0 sh gr
/Times-Roman ff 120.00 scf sf
1901 978 m
gs 1 -1 sc (1) col0 sh gr
/Times-Roman ff 180.00 scf sf
1796 1500 m
gs 1 -1 sc (U) col0 sh gr
/Times-Roman ff 120.00 scf sf
1912 1534 m
gs 1 -1 sc (2) col0 sh gr
% Polyline
n 434 1054 m
 619 1054 l gs col0 s gr 
% Polyline
n 366 1002 m
 678 1002 l gs col0 s gr 
% Polyline
15.000 slw
gs  clippath
1406 522 m 1406 462 l 1221 462 l 1371 492 l 1221 522 l cp
eoclip
n 933 492 m
 1391 492 l gs col0 s gr gr

% arrowhead
7.500 slw
n 1221 522 m 1371 492 l 1221 462 l 1251 492 l 1221 522 l 
 cp gs 0.00 setgray ef gr  col0 s
/Times-Roman ff 180.00 scf sf
702 1089 m
gs 1 -1 sc (U) col0 sh gr
/Times-Roman ff 180.00 scf sf
1072 666 m
gs 1 -1 sc (I) col0 sh gr
$F2psEnd
rs
