%!PS-Adobe-2.0 EPSF-2.0
%%Title: Signal.eps
%%Creator: fig2dev Version 3.2 Patchlevel 3d
%%CreationDate: Wed Aug  6 22:18:49 2003
%%For: prof@portable (Vincent Guyot)
%%BoundingBox: 0 0 146 36
%%Magnification: 1.0000
%%EndComments
/$F2psDict 200 dict def
$F2psDict begin
$F2psDict /mtrx matrix put
/col-1 {0 setgray} bind def
/col0 {0.000 0.000 0.000 srgb} bind def
/col1 {0.000 0.000 1.000 srgb} bind def
/col2 {0.000 1.000 0.000 srgb} bind def
/col3 {0.000 1.000 1.000 srgb} bind def
/col4 {1.000 0.000 0.000 srgb} bind def
/col5 {1.000 0.000 1.000 srgb} bind def
/col6 {1.000 1.000 0.000 srgb} bind def
/col7 {1.000 1.000 1.000 srgb} bind def
/col8 {0.000 0.000 0.560 srgb} bind def
/col9 {0.000 0.000 0.690 srgb} bind def
/col10 {0.000 0.000 0.820 srgb} bind def
/col11 {0.530 0.810 1.000 srgb} bind def
/col12 {0.000 0.560 0.000 srgb} bind def
/col13 {0.000 0.690 0.000 srgb} bind def
/col14 {0.000 0.820 0.000 srgb} bind def
/col15 {0.000 0.560 0.560 srgb} bind def
/col16 {0.000 0.690 0.690 srgb} bind def
/col17 {0.000 0.820 0.820 srgb} bind def
/col18 {0.560 0.000 0.000 srgb} bind def
/col19 {0.690 0.000 0.000 srgb} bind def
/col20 {0.820 0.000 0.000 srgb} bind def
/col21 {0.560 0.000 0.560 srgb} bind def
/col22 {0.690 0.000 0.690 srgb} bind def
/col23 {0.820 0.000 0.820 srgb} bind def
/col24 {0.500 0.190 0.000 srgb} bind def
/col25 {0.630 0.250 0.000 srgb} bind def
/col26 {0.750 0.380 0.000 srgb} bind def
/col27 {1.000 0.500 0.500 srgb} bind def
/col28 {1.000 0.630 0.630 srgb} bind def
/col29 {1.000 0.750 0.750 srgb} bind def
/col30 {1.000 0.880 0.880 srgb} bind def
/col31 {1.000 0.840 0.000 srgb} bind def

end
save
newpath 0 36 moveto 0 0 lineto 146 0 lineto 146 36 lineto closepath clip newpath
-16.3 60.3 translate
1 -1 scale

/cp {closepath} bind def
/ef {eofill} bind def
/gr {grestore} bind def
/gs {gsave} bind def
/sa {save} bind def
/rs {restore} bind def
/l {lineto} bind def
/m {moveto} bind def
/rm {rmoveto} bind def
/n {newpath} bind def
/s {stroke} bind def
/sh {show} bind def
/slc {setlinecap} bind def
/slj {setlinejoin} bind def
/slw {setlinewidth} bind def
/srgb {setrgbcolor} bind def
/rot {rotate} bind def
/sc {scale} bind def
/sd {setdash} bind def
/ff {findfont} bind def
/sf {setfont} bind def
/scf {scalefont} bind def
/sw {stringwidth} bind def
/tr {translate} bind def
/tnt {dup dup currentrgbcolor
  4 -2 roll dup 1 exch sub 3 -1 roll mul add
  4 -2 roll dup 1 exch sub 3 -1 roll mul add
  4 -2 roll dup 1 exch sub 3 -1 roll mul add srgb}
  bind def
/shd {dup dup currentrgbcolor 4 -2 roll mul 4 -2 roll mul
  4 -2 roll mul srgb} bind def
/$F2psBegin {$F2psDict begin /$F2psEnteredState save def} def
/$F2psEnd {$F2psEnteredState restore end} def

$F2psBegin
10 setmiterlimit
 0.06299 0.06299 sc
%
% Fig objects follow
%
% Polyline
7.500 slw
n 270 399 m
 2520 399 l gs col0 s gr 
% Polyline
n 2144 401 m 2384 401 l 2384 791 l 2144 791 l
 cp gs col7 0.75 shd ef gr gs col0 s gr 
% Polyline
n 954 401 m 2144 401 l 2144 791 l 954 791 l
 cp gs col7 0.90 shd ef gr gs col0 s gr 
% Polyline
n 274 797 m
 2524 797 l gs col0 s gr 
% Polyline
gs  clippath
777 706 m 777 646 l 660 646 l 750 676 l 660 706 l cp
eoclip
n 308 676 m
 762 676 l gs col0 s gr gr

% arrowhead
n 660 706 m 750 676 l 660 646 l 630 676 l 660 706 l 
 cp gs 0.00 setgray ef gr  col0 s
% Polyline
n 809 401 m 1049 401 l 1049 791 l 809 791 l
 cp gs col7 0.75 shd ef gr gs col0 s gr 
/Times-Roman ff 180.00 scf sf
1966 958 m
gs 1 -1 sc (Piston 2) col0 sh gr
/Times-Roman ff 180.00 scf sf
590 958 m
gs 1 -1 sc (Piston 1) col0 sh gr
/Times-Roman ff 180.00 scf sf
302 572 m
gs 1 -1 sc (Signal) col0 sh gr
/Times-Roman ff 180.00 scf sf
1436 647 m
gs 1 -1 sc (Eau) col0 sh gr
$F2psEnd
rs
