%!PS-Adobe-2.0 EPSF-2.0
%%Title: Solenoide.eps
%%Creator: fig2dev Version 3.2 Patchlevel 3d
%%CreationDate: Sat Aug  9 00:07:21 2003
%%For: prof@portable (Vincent Guyot)
%%BoundingBox: 0 0 157 145
%%Magnification: 1.0000
%%EndComments
/$F2psDict 200 dict def
$F2psDict begin
$F2psDict /mtrx matrix put
/col-1 {0 setgray} bind def
/col0 {0.000 0.000 0.000 srgb} bind def
/col1 {0.000 0.000 1.000 srgb} bind def
/col2 {0.000 1.000 0.000 srgb} bind def
/col3 {0.000 1.000 1.000 srgb} bind def
/col4 {1.000 0.000 0.000 srgb} bind def
/col5 {1.000 0.000 1.000 srgb} bind def
/col6 {1.000 1.000 0.000 srgb} bind def
/col7 {1.000 1.000 1.000 srgb} bind def
/col8 {0.000 0.000 0.560 srgb} bind def
/col9 {0.000 0.000 0.690 srgb} bind def
/col10 {0.000 0.000 0.820 srgb} bind def
/col11 {0.530 0.810 1.000 srgb} bind def
/col12 {0.000 0.560 0.000 srgb} bind def
/col13 {0.000 0.690 0.000 srgb} bind def
/col14 {0.000 0.820 0.000 srgb} bind def
/col15 {0.000 0.560 0.560 srgb} bind def
/col16 {0.000 0.690 0.690 srgb} bind def
/col17 {0.000 0.820 0.820 srgb} bind def
/col18 {0.560 0.000 0.000 srgb} bind def
/col19 {0.690 0.000 0.000 srgb} bind def
/col20 {0.820 0.000 0.000 srgb} bind def
/col21 {0.560 0.000 0.560 srgb} bind def
/col22 {0.690 0.000 0.690 srgb} bind def
/col23 {0.820 0.000 0.820 srgb} bind def
/col24 {0.500 0.190 0.000 srgb} bind def
/col25 {0.630 0.250 0.000 srgb} bind def
/col26 {0.750 0.380 0.000 srgb} bind def
/col27 {1.000 0.500 0.500 srgb} bind def
/col28 {1.000 0.630 0.630 srgb} bind def
/col29 {1.000 0.750 0.750 srgb} bind def
/col30 {1.000 0.880 0.880 srgb} bind def
/col31 {1.000 0.840 0.000 srgb} bind def

end
save
newpath 0 145 moveto 0 0 lineto 157 0 lineto 157 145 lineto closepath clip newpath
-21.0 161.2 translate
1 -1 scale

/cp {closepath} bind def
/ef {eofill} bind def
/gr {grestore} bind def
/gs {gsave} bind def
/sa {save} bind def
/rs {restore} bind def
/l {lineto} bind def
/m {moveto} bind def
/rm {rmoveto} bind def
/n {newpath} bind def
/s {stroke} bind def
/sh {show} bind def
/slc {setlinecap} bind def
/slj {setlinejoin} bind def
/slw {setlinewidth} bind def
/srgb {setrgbcolor} bind def
/rot {rotate} bind def
/sc {scale} bind def
/sd {setdash} bind def
/ff {findfont} bind def
/sf {setfont} bind def
/scf {scalefont} bind def
/sw {stringwidth} bind def
/tr {translate} bind def
/tnt {dup dup currentrgbcolor
  4 -2 roll dup 1 exch sub 3 -1 roll mul add
  4 -2 roll dup 1 exch sub 3 -1 roll mul add
  4 -2 roll dup 1 exch sub 3 -1 roll mul add srgb}
  bind def
/shd {dup dup currentrgbcolor 4 -2 roll mul 4 -2 roll mul
  4 -2 roll mul srgb} bind def
/reencdict 12 dict def /ReEncode { reencdict begin
/newcodesandnames exch def /newfontname exch def /basefontname exch def
/basefontdict basefontname findfont def /newfont basefontdict maxlength dict def
basefontdict { exch dup /FID ne { dup /Encoding eq
{ exch dup length array copy newfont 3 1 roll put }
{ exch newfont 3 1 roll put } ifelse } { pop pop } ifelse } forall
newfont /FontName newfontname put newcodesandnames aload pop
128 1 255 { newfont /Encoding get exch /.notdef put } for
newcodesandnames length 2 idiv { newfont /Encoding get 3 1 roll put } repeat
newfontname newfont definefont pop end } def
/isovec [
8#055 /minus 8#200 /grave 8#201 /acute 8#202 /circumflex 8#203 /tilde
8#204 /macron 8#205 /breve 8#206 /dotaccent 8#207 /dieresis
8#210 /ring 8#211 /cedilla 8#212 /hungarumlaut 8#213 /ogonek 8#214 /caron
8#220 /dotlessi 8#230 /oe 8#231 /OE
8#240 /space 8#241 /exclamdown 8#242 /cent 8#243 /sterling
8#244 /currency 8#245 /yen 8#246 /brokenbar 8#247 /section 8#250 /dieresis
8#251 /copyright 8#252 /ordfeminine 8#253 /guillemotleft 8#254 /logicalnot
8#255 /hyphen 8#256 /registered 8#257 /macron 8#260 /degree 8#261 /plusminus
8#262 /twosuperior 8#263 /threesuperior 8#264 /acute 8#265 /mu 8#266 /paragraph
8#267 /periodcentered 8#270 /cedilla 8#271 /onesuperior 8#272 /ordmasculine
8#273 /guillemotright 8#274 /onequarter 8#275 /onehalf
8#276 /threequarters 8#277 /questiondown 8#300 /Agrave 8#301 /Aacute
8#302 /Acircumflex 8#303 /Atilde 8#304 /Adieresis 8#305 /Aring
8#306 /AE 8#307 /Ccedilla 8#310 /Egrave 8#311 /Eacute
8#312 /Ecircumflex 8#313 /Edieresis 8#314 /Igrave 8#315 /Iacute
8#316 /Icircumflex 8#317 /Idieresis 8#320 /Eth 8#321 /Ntilde 8#322 /Ograve
8#323 /Oacute 8#324 /Ocircumflex 8#325 /Otilde 8#326 /Odieresis 8#327 /multiply
8#330 /Oslash 8#331 /Ugrave 8#332 /Uacute 8#333 /Ucircumflex
8#334 /Udieresis 8#335 /Yacute 8#336 /Thorn 8#337 /germandbls 8#340 /agrave
8#341 /aacute 8#342 /acircumflex 8#343 /atilde 8#344 /adieresis 8#345 /aring
8#346 /ae 8#347 /ccedilla 8#350 /egrave 8#351 /eacute
8#352 /ecircumflex 8#353 /edieresis 8#354 /igrave 8#355 /iacute
8#356 /icircumflex 8#357 /idieresis 8#360 /eth 8#361 /ntilde 8#362 /ograve
8#363 /oacute 8#364 /ocircumflex 8#365 /otilde 8#366 /odieresis 8#367 /divide
8#370 /oslash 8#371 /ugrave 8#372 /uacute 8#373 /ucircumflex
8#374 /udieresis 8#375 /yacute 8#376 /thorn 8#377 /ydieresis] def
/Times-Roman /Times-Roman-iso isovec ReEncode
 /DrawEllipse {
	/endangle exch def
	/startangle exch def
	/yrad exch def
	/xrad exch def
	/y exch def
	/x exch def
	/savematrix mtrx currentmatrix def
	x y tr xrad yrad sc 0 0 1 startangle endangle arc
	closepath
	savematrix setmatrix
	} def

/$F2psBegin {$F2psDict begin /$F2psEnteredState save def} def
/$F2psEnd {$F2psEnteredState restore end} def

$F2psBegin
10 setmiterlimit
 0.06299 0.06299 sc
%
% Fig objects follow
%
7.500 slw
% Ellipse
n 1523 778 890 192 0 360 DrawEllipse gs col0 s gr

% Ellipse
n 1583 1781 890 192 0 360 DrawEllipse gs col0 s gr

% Ellipse
n 1546 790 1083 331 0 360 DrawEllipse gs col0 s gr

% Ellipse
n 1583 1794 1083 331 0 360 DrawEllipse gs col0 s gr

% Ellipse
n 1578 1853 1235 506 0 360 DrawEllipse gs col0 s gr

% Ellipse
n 1576 777 1235 506 0 360 DrawEllipse gs col0 s gr

% Ellipse
n 2032 1252 120 540 0 360 DrawEllipse gs col7 1.00 shd ef gr gs col0 s gr

% Ellipse
n 1942 1252 120 540 0 360 DrawEllipse gs col7 1.00 shd ef gr gs col0 s gr

% Polyline
n 948 924 m
 1135 942 l gs col0 s gr 
% Polyline
n 2153 1317 m
 2783 1317 l gs col0 s gr 
% Polyline
gs  clippath
503 1294 m 503 1339 l 650 1339 l 538 1317 l 650 1294 l cp
eoclip
n 608 1317 m
 518 1317 l gs col0 s gr gr

% arrowhead
n 650 1294 m 538 1317 l 650 1339 l 628 1317 l 650 1294 l 
 cp gs 0.00 setgray ef gr  col0 s
% Polyline
gs  clippath
1013 1294 m 1013 1339 l 1160 1339 l 1048 1317 l 1160 1294 l cp
eoclip
n 1118 1317 m
 1028 1317 l gs col0 s gr gr

% arrowhead
n 1160 1294 m 1048 1317 l 1160 1339 l 1138 1317 l 1160 1294 l 
 cp gs 0.00 setgray ef gr  col0 s
/Times-Roman-iso ff 180.00 scf sf
541 2510 m
gs 1 -1 sc (Lignes de champ magn\351tique) col0 sh gr
% Ellipse
n 1822 1252 120 540 0 360 DrawEllipse gs col7 1.00 shd ef gr gs col0 s gr

% Ellipse
n 1732 1252 120 540 0 360 DrawEllipse gs col7 1.00 shd ef gr gs col0 s gr

% Ellipse
n 1612 1252 120 540 0 360 DrawEllipse gs col7 1.00 shd ef gr gs col0 s gr

% Ellipse
n 1522 1252 120 540 0 360 DrawEllipse gs col7 1.00 shd ef gr gs col0 s gr

% Ellipse
n 1432 1252 120 540 0 360 DrawEllipse gs col7 1.00 shd ef gr gs col0 s gr

% Ellipse
n 1342 1252 120 540 0 360 DrawEllipse gs col7 1.00 shd ef gr gs col0 s gr

% Ellipse
n 1252 1252 120 540 0 360 DrawEllipse gs col7 1.00 shd ef gr gs col0 s gr

% Ellipse
n 1132 1252 120 540 0 360 DrawEllipse gs col7 1.00 shd ef gr gs col0 s gr

% Ellipse
n 1042 1252 120 540 0 360 DrawEllipse gs col7 1.00 shd ef gr gs col0 s gr

% Polyline
n 368 1317 m
 1163 1317 l gs col0 s gr 
/Times-Roman-iso ff 180.00 scf sf
1246 1932 m
gs 1 -1 sc (Sol\351noide) col0 sh gr
% Polyline
n 930 1060 m
 1156 1085 l gs col0 s gr 
% Polyline
n 945 924 m
 1141 949 l gs col0 s gr 
% Polyline
n 922 1202 m
 1163 1227 l gs col0 s gr 
% Polyline
n 930 1420 m
 1156 1400 l gs col0 s gr 
% Polyline
n 937 1525 m
 1148 1505 l gs col0 s gr 
% Polyline
n 960 1645 m
 1126 1625 l gs col0 s gr 
% Polyline
gs  clippath
2228 1294 m 2228 1339 l 2375 1339 l 2263 1317 l 2375 1294 l cp
eoclip
n 2333 1317 m
 2243 1317 l gs col0 s gr gr

% arrowhead
n 2375 1294 m 2263 1317 l 2375 1339 l 2353 1317 l 2375 1294 l 
 cp gs 0.00 setgray ef gr  col0 s
% Polyline
gs  clippath
1658 2149 m 1658 2104 l 1510 2104 l 1623 2127 l 1510 2149 l cp
eoclip
n 1553 2127 m
 1643 2127 l gs col0 s gr gr

% arrowhead
n 1510 2149 m 1623 2127 l 1510 2104 l 1533 2127 l 1510 2149 l 
 cp gs 0.00 setgray ef gr  col0 s
% Polyline
gs  clippath
1636 484 m 1636 439 l 1488 439 l 1601 462 l 1488 484 l cp
eoclip
n 1531 462 m
 1621 462 l gs col0 s gr gr

% arrowhead
n 1488 484 m 1601 462 l 1488 439 l 1511 462 l 1488 484 l 
 cp gs 0.00 setgray ef gr  col0 s
% Polyline
gs  clippath
2342 722 m 2357 680 l 2219 629 l 2317 689 l 2203 671 l cp
eoclip
n 2251 665 m
 2336 696 l gs col0 s gr gr

% arrowhead
n 2203 671 m 2317 689 l 2219 629 l 2232 658 l 2203 671 l 
 cp gs 0.00 setgray ef gr  col0 s
% Polyline
gs  clippath
2477 452 m 2492 410 l 2354 359 l 2452 419 l 2338 401 l cp
eoclip
n 2386 395 m
 2471 426 l gs col0 s gr gr

% arrowhead
n 2338 401 m 2452 419 l 2354 359 l 2367 388 l 2338 401 l 
 cp gs 0.00 setgray ef gr  col0 s
% Polyline
gs  clippath
834 1907 m 849 1865 l 711 1814 l 809 1874 l 695 1856 l cp
eoclip
n 743 1850 m
 828 1881 l gs col0 s gr gr

% arrowhead
n 695 1856 m 809 1874 l 711 1814 l 724 1843 l 695 1856 l 
 cp gs 0.00 setgray ef gr  col0 s
% Polyline
gs  clippath
789 2267 m 804 2225 l 666 2174 l 764 2234 l 650 2216 l cp
eoclip
n 698 2210 m
 783 2241 l gs col0 s gr gr

% arrowhead
n 650 2216 m 764 2234 l 666 2174 l 679 2203 l 650 2216 l 
 cp gs 0.00 setgray ef gr  col0 s
% Polyline
gs  clippath
2331 995 m 2346 1037 l 2485 986 l 2372 1004 l 2469 944 l cp
eoclip
n 2438 980 m
 2353 1011 l gs col0 s gr gr

% arrowhead
n 2469 944 m 2372 1004 l 2485 986 l 2456 973 l 2469 944 l 
 cp gs 0.00 setgray ef gr  col0 s
% Polyline
gs  clippath
636 1602 m 651 1644 l 790 1593 l 677 1611 l 774 1551 l cp
eoclip
n 743 1587 m
 658 1618 l gs col0 s gr gr

% arrowhead
n 774 1551 m 677 1611 l 790 1593 l 761 1580 l 774 1551 l 
 cp gs 0.00 setgray ef gr  col0 s
% Polyline
gs  clippath
2484 2006 m 2469 1964 l 2330 2015 l 2444 1998 l 2346 2057 l cp
eoclip
n 2378 2022 m
 2463 1991 l gs col0 s gr gr

% arrowhead
n 2346 2057 m 2444 1998 l 2330 2015 l 2359 2028 l 2346 2057 l 
 cp gs 0.00 setgray ef gr  col0 s
% Polyline
gs  clippath
804 686 m 789 644 l 650 695 l 764 678 l 666 737 l cp
eoclip
n 698 702 m
 783 671 l gs col0 s gr gr

% arrowhead
n 666 737 m 764 678 l 650 695 l 679 708 l 666 737 l 
 cp gs 0.00 setgray ef gr  col0 s
% Polyline
gs  clippath
819 401 m 804 359 l 665 410 l 779 393 l 681 452 l cp
eoclip
n 713 417 m
 798 386 l gs col0 s gr gr

% arrowhead
n 681 452 m 779 393 l 665 410 l 694 423 l 681 452 l 
 cp gs 0.00 setgray ef gr  col0 s
% Polyline
gs  clippath
2369 1544 m 2354 1586 l 2492 1637 l 2395 1578 l 2508 1595 l cp
eoclip
n 2461 1602 m
 2376 1571 l gs col0 s gr gr

% arrowhead
n 2508 1595 m 2395 1578 l 2492 1637 l 2479 1608 l 2508 1595 l 
 cp gs 0.00 setgray ef gr  col0 s
$F2psEnd
rs
