%!PS-Adobe-2.0 EPSF-2.0
%%Title: Spectro.eps
%%Creator: fig2dev Version 3.2 Patchlevel 3d
%%CreationDate: Tue Aug 12 22:49:16 2003
%%For: prof@portable (Vincent Guyot)
%%BoundingBox: 0 0 152 164
%%Magnification: 1.0000
%%EndComments
/$F2psDict 200 dict def
$F2psDict begin
$F2psDict /mtrx matrix put
/col-1 {0 setgray} bind def
/col0 {0.000 0.000 0.000 srgb} bind def
/col1 {0.000 0.000 1.000 srgb} bind def
/col2 {0.000 1.000 0.000 srgb} bind def
/col3 {0.000 1.000 1.000 srgb} bind def
/col4 {1.000 0.000 0.000 srgb} bind def
/col5 {1.000 0.000 1.000 srgb} bind def
/col6 {1.000 1.000 0.000 srgb} bind def
/col7 {1.000 1.000 1.000 srgb} bind def
/col8 {0.000 0.000 0.560 srgb} bind def
/col9 {0.000 0.000 0.690 srgb} bind def
/col10 {0.000 0.000 0.820 srgb} bind def
/col11 {0.530 0.810 1.000 srgb} bind def
/col12 {0.000 0.560 0.000 srgb} bind def
/col13 {0.000 0.690 0.000 srgb} bind def
/col14 {0.000 0.820 0.000 srgb} bind def
/col15 {0.000 0.560 0.560 srgb} bind def
/col16 {0.000 0.690 0.690 srgb} bind def
/col17 {0.000 0.820 0.820 srgb} bind def
/col18 {0.560 0.000 0.000 srgb} bind def
/col19 {0.690 0.000 0.000 srgb} bind def
/col20 {0.820 0.000 0.000 srgb} bind def
/col21 {0.560 0.000 0.560 srgb} bind def
/col22 {0.690 0.000 0.690 srgb} bind def
/col23 {0.820 0.000 0.820 srgb} bind def
/col24 {0.500 0.190 0.000 srgb} bind def
/col25 {0.630 0.250 0.000 srgb} bind def
/col26 {0.750 0.380 0.000 srgb} bind def
/col27 {1.000 0.500 0.500 srgb} bind def
/col28 {1.000 0.630 0.630 srgb} bind def
/col29 {1.000 0.750 0.750 srgb} bind def
/col30 {1.000 0.880 0.880 srgb} bind def
/col31 {1.000 0.840 0.000 srgb} bind def

end
save
newpath 0 164 moveto 0 0 lineto 152 0 lineto 152 164 lineto closepath clip newpath
-19.1 168.0 translate
1 -1 scale

/cp {closepath} bind def
/ef {eofill} bind def
/gr {grestore} bind def
/gs {gsave} bind def
/sa {save} bind def
/rs {restore} bind def
/l {lineto} bind def
/m {moveto} bind def
/rm {rmoveto} bind def
/n {newpath} bind def
/s {stroke} bind def
/sh {show} bind def
/slc {setlinecap} bind def
/slj {setlinejoin} bind def
/slw {setlinewidth} bind def
/srgb {setrgbcolor} bind def
/rot {rotate} bind def
/sc {scale} bind def
/sd {setdash} bind def
/ff {findfont} bind def
/sf {setfont} bind def
/scf {scalefont} bind def
/sw {stringwidth} bind def
/tr {translate} bind def
/tnt {dup dup currentrgbcolor
  4 -2 roll dup 1 exch sub 3 -1 roll mul add
  4 -2 roll dup 1 exch sub 3 -1 roll mul add
  4 -2 roll dup 1 exch sub 3 -1 roll mul add srgb}
  bind def
/shd {dup dup currentrgbcolor 4 -2 roll mul 4 -2 roll mul
  4 -2 roll mul srgb} bind def
/reencdict 12 dict def /ReEncode { reencdict begin
/newcodesandnames exch def /newfontname exch def /basefontname exch def
/basefontdict basefontname findfont def /newfont basefontdict maxlength dict def
basefontdict { exch dup /FID ne { dup /Encoding eq
{ exch dup length array copy newfont 3 1 roll put }
{ exch newfont 3 1 roll put } ifelse } { pop pop } ifelse } forall
newfont /FontName newfontname put newcodesandnames aload pop
128 1 255 { newfont /Encoding get exch /.notdef put } for
newcodesandnames length 2 idiv { newfont /Encoding get 3 1 roll put } repeat
newfontname newfont definefont pop end } def
/isovec [
8#055 /minus 8#200 /grave 8#201 /acute 8#202 /circumflex 8#203 /tilde
8#204 /macron 8#205 /breve 8#206 /dotaccent 8#207 /dieresis
8#210 /ring 8#211 /cedilla 8#212 /hungarumlaut 8#213 /ogonek 8#214 /caron
8#220 /dotlessi 8#230 /oe 8#231 /OE
8#240 /space 8#241 /exclamdown 8#242 /cent 8#243 /sterling
8#244 /currency 8#245 /yen 8#246 /brokenbar 8#247 /section 8#250 /dieresis
8#251 /copyright 8#252 /ordfeminine 8#253 /guillemotleft 8#254 /logicalnot
8#255 /hyphen 8#256 /registered 8#257 /macron 8#260 /degree 8#261 /plusminus
8#262 /twosuperior 8#263 /threesuperior 8#264 /acute 8#265 /mu 8#266 /paragraph
8#267 /periodcentered 8#270 /cedilla 8#271 /onesuperior 8#272 /ordmasculine
8#273 /guillemotright 8#274 /onequarter 8#275 /onehalf
8#276 /threequarters 8#277 /questiondown 8#300 /Agrave 8#301 /Aacute
8#302 /Acircumflex 8#303 /Atilde 8#304 /Adieresis 8#305 /Aring
8#306 /AE 8#307 /Ccedilla 8#310 /Egrave 8#311 /Eacute
8#312 /Ecircumflex 8#313 /Edieresis 8#314 /Igrave 8#315 /Iacute
8#316 /Icircumflex 8#317 /Idieresis 8#320 /Eth 8#321 /Ntilde 8#322 /Ograve
8#323 /Oacute 8#324 /Ocircumflex 8#325 /Otilde 8#326 /Odieresis 8#327 /multiply
8#330 /Oslash 8#331 /Ugrave 8#332 /Uacute 8#333 /Ucircumflex
8#334 /Udieresis 8#335 /Yacute 8#336 /Thorn 8#337 /germandbls 8#340 /agrave
8#341 /aacute 8#342 /acircumflex 8#343 /atilde 8#344 /adieresis 8#345 /aring
8#346 /ae 8#347 /ccedilla 8#350 /egrave 8#351 /eacute
8#352 /ecircumflex 8#353 /edieresis 8#354 /igrave 8#355 /iacute
8#356 /icircumflex 8#357 /idieresis 8#360 /eth 8#361 /ntilde 8#362 /ograve
8#363 /oacute 8#364 /ocircumflex 8#365 /otilde 8#366 /odieresis 8#367 /divide
8#370 /oslash 8#371 /ugrave 8#372 /uacute 8#373 /ucircumflex
8#374 /udieresis 8#375 /yacute 8#376 /thorn 8#377 /ydieresis] def
/Times-Roman /Times-Roman-iso isovec ReEncode
 /DrawEllipse {
	/endangle exch def
	/startangle exch def
	/yrad exch def
	/xrad exch def
	/y exch def
	/x exch def
	/savematrix mtrx currentmatrix def
	x y tr xrad yrad sc 0 0 1 startangle endangle arc
	closepath
	savematrix setmatrix
	} def

/$F2psBegin {$F2psDict begin /$F2psEnteredState save def} def
/$F2psEnd {$F2psEnteredState restore end} def

$F2psBegin
10 setmiterlimit
 0.06299 0.06299 sc
%
% Fig objects follow
%
/Times-Roman-iso ff 180.00 scf sf
859 347 m
gs 1 -1 sc (v) col0 sh gr
/Times-Roman-iso ff 180.00 scf sf
885 1476 m
gs 1 -1 sc (R) col0 sh gr
/Times-Roman-iso ff 120.00 scf sf
999 1520 m
gs 1 -1 sc (1) col0 sh gr
/Times-Roman-iso ff 180.00 scf sf
384 1565 m
gs 1 -1 sc (m) col0 sh gr
/Times-Roman-iso ff 120.00 scf sf
534 1609 m
gs 1 -1 sc (1) col0 sh gr
/Times-Roman-iso ff 180.00 scf sf
393 1318 m
gs 1 -1 sc (q) col0 sh gr
/Times-Roman-iso ff 120.00 scf sf
481 1389 m
gs 1 -1 sc (1) col0 sh gr
% Polyline
7.500 slw
n 393 1424 m
 516 1424 l gs col0 s gr 
/Times-Roman-iso ff 180.00 scf sf
393 2041 m
gs 1 -1 sc (m) col0 sh gr
% Polyline
n 315 270 m 720 270 l 720 540 l 315 540 l
 cp gs col0 s gr 
% Polyline
gs  clippath
1095 427 m 1095 382 l 947 382 l 1060 405 l 947 427 l cp
eoclip
n 720 405 m
 1080 405 l gs col0 s gr gr

% arrowhead
n 947 427 m 1060 405 l 947 382 l 970 405 l 947 427 l 
 cp gs 0.00 setgray ef gr  col0 s
% Polyline
 [15 45] 45 sd
n 1080 90 m 2700 90 l 2700 2655 l 1080 2655 l
 cp gs col7 0.95 shd ef gr gs col0 s gr  [] 0 sd
% Polyline
gs  clippath
1091 1800 m 1136 1800 l 1136 1696 l 1114 1771 l 1091 1696 l cp
1136 1082 m 1091 1082 l 1091 1186 l 1114 1111 l 1136 1186 l cp
eoclip
n 1114 1097 m
 1114 1785 l gs col0 s gr gr

% arrowhead
n 1136 1186 m 1114 1111 l 1091 1186 l  col0 s
% arrowhead
n 1091 1696 m 1114 1771 l 1136 1696 l  col0 s
% Polyline
gs  clippath
605 1400 m 605 1445 l 727 1445 l 637 1423 l 727 1400 l cp
eoclip
n 832 1423 m
 620 1423 l gs col0 s gr gr

% arrowhead
n 727 1400 m 637 1423 l 727 1445 l  col0 s
% Polyline
gs  clippath
1136 2100 m 1181 2100 l 1181 1996 l 1159 2071 l 1136 1996 l cp
1181 1240 m 1136 1240 l 1136 1344 l 1159 1269 l 1181 1344 l cp
eoclip
n 1159 1255 m
 1159 2085 l gs col0 s gr gr

% arrowhead
n 1181 1344 m 1159 1269 l 1136 1344 l  col0 s
% arrowhead
n 1136 1996 m 1159 2071 l 1181 1996 l  col0 s
% Polyline
gs  clippath
605 1877 m 605 1922 l 727 1922 l 637 1900 l 727 1877 l cp
eoclip
n 832 1900 m
 620 1900 l gs col0 s gr gr

% arrowhead
n 727 1877 m 637 1900 l 727 1922 l  col0 s
% Polyline
n 402 1900 m
 525 1900 l gs col0 s gr 
/Times-Roman-iso ff 180.00 scf sf
315 720 m
gs 1 -1 sc (S\351lecteur) col0 sh gr
/Times-Roman-iso ff 180.00 scf sf
315 900 m
gs 1 -1 sc (de vitesse) col0 sh gr
/Times-Roman-iso ff 180.00 scf sf
876 1962 m
gs 1 -1 sc (R) col0 sh gr
/Times-Roman-iso ff 180.00 scf sf
402 1794 m
gs 1 -1 sc (q) col0 sh gr
/Times-Roman-iso ff 120.00 scf sf
490 1865 m
gs 1 -1 sc (2) col0 sh gr
/Times-Roman-iso ff 120.00 scf sf
543 2085 m
gs 1 -1 sc (2) col0 sh gr
/Times-Roman-iso ff 120.00 scf sf
990 2006 m
gs 1 -1 sc (2) col0 sh gr
% Ellipse
n 1824 396 101 101 0 360 DrawEllipse gs col0 s gr

% Ellipse
n 1831 399 20 20 0 360 DrawEllipse gs 0.00 setgray ef gr gs col0 s gr

% Ellipse
n 2301 872 101 101 0 360 DrawEllipse gs col0 s gr

% Ellipse
n 2308 875 20 20 0 360 DrawEllipse gs 0.00 setgray ef gr gs col0 s gr

% Ellipse
n 1515 1216 101 101 0 360 DrawEllipse gs col0 s gr

% Ellipse
n 1522 1219 20 20 0 360 DrawEllipse gs 0.00 setgray ef gr gs col0 s gr

% Ellipse
n 2274 1852 101 101 0 360 DrawEllipse gs col0 s gr

% Ellipse
n 2281 1855 20 20 0 360 DrawEllipse gs 0.00 setgray ef gr gs col0 s gr

% Ellipse
n 1789 2399 101 101 0 360 DrawEllipse gs col0 s gr

% Ellipse
n 1796 2402 20 20 0 360 DrawEllipse gs 0.00 setgray ef gr gs col0 s gr

% Polyline
gs  clippath
2374 581 m 2374 536 l 2305 536 l 2350 559 l 2305 581 l cp
eoclip
n 2235 559 m
 2359 559 l gs col0 s gr gr

% arrowhead
n 2305 581 m 2350 559 l 2305 536 l  col0 s
/Times-Roman-iso ff 180.00 scf sf
2235 709 m
gs 1 -1 sc (B) col0 sh gr
% Polyline
gs  clippath
2436 1595 m 2436 1550 l 2367 1550 l 2412 1573 l 2367 1595 l cp
eoclip
n 2297 1573 m
 2421 1573 l gs col0 s gr gr

% arrowhead
n 2367 1595 m 2412 1573 l 2367 1550 l  col0 s
/Times-Roman-iso ff 180.00 scf sf
2297 1723 m
gs 1 -1 sc (B) col0 sh gr
% Polyline
gs  clippath
2065 2345 m 2065 2300 l 1996 2300 l 2041 2323 l 1996 2345 l cp
eoclip
n 1926 2323 m
 2050 2323 l gs col0 s gr gr

% arrowhead
n 1996 2345 m 2041 2323 l 1996 2300 l  col0 s
/Times-Roman-iso ff 180.00 scf sf
1926 2473 m
gs 1 -1 sc (B) col0 sh gr
% Polyline
gs  clippath
1703 245 m 1703 200 l 1634 200 l 1679 223 l 1634 245 l cp
eoclip
n 1564 223 m
 1688 223 l gs col0 s gr gr

% arrowhead
n 1634 245 m 1679 223 l 1634 200 l  col0 s
/Times-Roman-iso ff 180.00 scf sf
1564 373 m
gs 1 -1 sc (B) col0 sh gr
% Polyline
gs  clippath
1589 960 m 1589 915 l 1520 915 l 1565 938 l 1520 960 l cp
eoclip
n 1450 938 m
 1574 938 l gs col0 s gr gr

% arrowhead
n 1520 960 m 1565 938 l 1520 915 l  col0 s
/Times-Roman-iso ff 180.00 scf sf
1450 1088 m
gs 1 -1 sc (B) col0 sh gr
% Polyline
gs  clippath
988 254 m 988 209 l 919 209 l 964 232 l 919 254 l cp
eoclip
n 849 232 m
 973 232 l gs col0 s gr gr

% arrowhead
n 919 254 m 964 232 l 919 209 l  col0 s
% Arc
gs  clippath
1064 1778 m 1065 1823 l 1191 1818 l 1097 1799 l 1189 1773 l cp
eoclip
n 1102.5 1102.5 697.9 -91.8 91.8 arc
gs col0 s gr
 gr

% arrowhead
n 1189 1773 m 1097 1799 l 1191 1818 l 1171 1796 l 1189 1773 l 
 cp gs 0.00 setgray ef gr  col0 s
% Arc
gs  clippath
1064 2100 m 1065 2130 l 1175 2124 l 1100 2114 l 1174 2095 l cp
eoclip
n 1071.3 1249.6 865.4 -77.4 89.4 arc
gs col0 s gr
 gr

% arrowhead
n 1174 2095 m 1100 2114 l 1175 2124 l 1159 2110 l 1174 2095 l 
 cp gs 0.00 setgray ef gr  col0 s
% Arc
gs  clippath
1064 2415 m 1065 2445 l 1175 2443 l 1100 2430 l 1174 2414 l cp
eoclip
n 1102.5 1417.5 1012.7 -91.3 91.3 arc
gs col0 s gr
 gr

% arrowhead
n 1174 2414 m 1100 2430 l 1175 2443 l 1159 2429 l 1174 2414 l 
 cp gs 0.00 setgray ef gr  col0 s
$F2psEnd
rs
