#FIG 3.2
Landscape
Center
Metric
A4      
100.00
Single
-2
1200 2
6 1373 1224 1502 1346
4 0 0 50 0 0 12 0.0000 4 75 75 1373 1346 e\001
4 0 0 50 0 0 12 0.0000 4 15 60 1442 1269 -\001
-6
6 782 1110 854 1182
2 1 0 1 0 7 50 0 -1 0.000 0 0 -1 0 0 2
	 782 1142 854 1142
2 1 0 1 0 7 50 0 -1 0.000 0 0 -1 0 0 2
	 813 1110 813 1182
-6
6 741 1222 813 1294
2 1 0 1 0 7 50 0 -1 0.000 0 0 -1 0 0 2
	 741 1254 813 1254
2 1 0 1 0 7 50 0 -1 0.000 0 0 -1 0 0 2
	 772 1222 772 1294
-6
6 710 1334 782 1406
2 1 0 1 0 7 50 0 -1 0.000 0 0 -1 0 0 2
	 710 1366 782 1366
2 1 0 1 0 7 50 0 -1 0.000 0 0 -1 0 0 2
	 741 1334 741 1406
-6
6 670 1456 742 1528
2 1 0 1 0 7 50 0 -1 0.000 0 0 -1 0 0 2
	 670 1488 742 1488
2 1 0 1 0 7 50 0 -1 0.000 0 0 -1 0 0 2
	 701 1456 701 1528
-6
6 812 978 884 1050
2 1 0 1 0 7 50 0 -1 0.000 0 0 -1 0 0 2
	 812 1010 884 1010
2 1 0 1 0 7 50 0 -1 0.000 0 0 -1 0 0 2
	 843 978 843 1050
-6
6 843 866 915 938
2 1 0 1 0 7 50 0 -1 0.000 0 0 -1 0 0 2
	 843 898 915 898
2 1 0 1 0 7 50 0 -1 0.000 0 0 -1 0 0 2
	 874 866 874 938
-6
6 873 754 945 826
2 1 0 1 0 7 50 0 -1 0.000 0 0 -1 0 0 2
	 873 786 945 786
2 1 0 1 0 7 50 0 -1 0.000 0 0 -1 0 0 2
	 904 754 904 826
-6
6 914 632 986 704
2 1 0 1 0 7 50 0 -1 0.000 0 0 -1 0 0 2
	 914 664 986 664
2 1 0 1 0 7 50 0 -1 0.000 0 0 -1 0 0 2
	 945 632 945 704
-6
6 955 551 1027 623
2 1 0 1 0 7 50 0 -1 0.000 0 0 -1 0 0 2
	 955 583 1027 583
2 1 0 1 0 7 50 0 -1 0.000 0 0 -1 0 0 2
	 986 551 986 623
-6
6 1046 551 1118 623
2 1 0 1 0 7 50 0 -1 0.000 0 0 -1 0 0 2
	 1046 583 1118 583
2 1 0 1 0 7 50 0 -1 0.000 0 0 -1 0 0 2
	 1077 551 1077 623
-6
6 1443 551 1515 623
2 1 0 1 0 7 50 0 -1 0.000 0 0 -1 0 0 2
	 1443 583 1515 583
2 1 0 1 0 7 50 0 -1 0.000 0 0 -1 0 0 2
	 1474 551 1474 623
-6
6 1544 551 1616 623
2 1 0 1 0 7 50 0 -1 0.000 0 0 -1 0 0 2
	 1544 583 1616 583
2 1 0 1 0 7 50 0 -1 0.000 0 0 -1 0 0 2
	 1575 551 1575 623
-6
6 1605 602 1677 674
2 1 0 1 0 7 50 0 -1 0.000 0 0 -1 0 0 2
	 1605 634 1677 634
2 1 0 1 0 7 50 0 -1 0.000 0 0 -1 0 0 2
	 1636 602 1636 674
-6
6 1636 693 1708 765
2 1 0 1 0 7 50 0 -1 0.000 0 0 -1 0 0 2
	 1636 725 1708 725
2 1 0 1 0 7 50 0 -1 0.000 0 0 -1 0 0 2
	 1667 693 1667 765
-6
6 1666 805 1738 877
2 1 0 1 0 7 50 0 -1 0.000 0 0 -1 0 0 2
	 1666 837 1738 837
2 1 0 1 0 7 50 0 -1 0.000 0 0 -1 0 0 2
	 1697 805 1697 877
-6
6 1697 907 1769 979
2 1 0 1 0 7 50 0 -1 0.000 0 0 -1 0 0 2
	 1697 939 1769 939
2 1 0 1 0 7 50 0 -1 0.000 0 0 -1 0 0 2
	 1728 907 1728 979
-6
6 1738 1039 1810 1111
2 1 0 1 0 7 50 0 -1 0.000 0 0 -1 0 0 2
	 1738 1071 1810 1071
2 1 0 1 0 7 50 0 -1 0.000 0 0 -1 0 0 2
	 1769 1039 1769 1111
-6
6 1778 1161 1850 1233
2 1 0 1 0 7 50 0 -1 0.000 0 0 -1 0 0 2
	 1778 1193 1850 1193
2 1 0 1 0 7 50 0 -1 0.000 0 0 -1 0 0 2
	 1809 1161 1809 1233
-6
6 1809 1273 1881 1345
2 1 0 1 0 7 50 0 -1 0.000 0 0 -1 0 0 2
	 1809 1305 1881 1305
2 1 0 1 0 7 50 0 -1 0.000 0 0 -1 0 0 2
	 1840 1273 1840 1345
-6
6 1839 1375 1911 1447
2 1 0 1 0 7 50 0 -1 0.000 0 0 -1 0 0 2
	 1839 1407 1911 1407
2 1 0 1 0 7 50 0 -1 0.000 0 0 -1 0 0 2
	 1870 1375 1870 1447
-6
6 1870 1477 1942 1549
2 1 0 1 0 7 50 0 -1 0.000 0 0 -1 0 0 2
	 1870 1509 1942 1509
2 1 0 1 0 7 50 0 -1 0.000 0 0 -1 0 0 2
	 1901 1477 1901 1549
-6
1 3 0 1 0 0 50 0 20 0.000 1 0.0000 1300 1321 24 24 1300 1321 1324 1321
2 1 0 1 0 7 50 0 -1 0.000 0 0 -1 0 0 3
	 630 1545 930 525 1170 525
2 1 0 1 0 7 50 0 -1 0.000 0 0 -1 0 0 3
	 1980 1545 1680 525 1440 525
2 1 0 1 0 7 50 0 -1 0.000 0 0 -1 0 0 4
	 1800 915 2280 915 2280 2805 1440 2805
2 1 0 1 0 7 50 0 -1 0.000 0 0 -1 0 0 4
	 580 1666 420 1665 420 2805 1110 2805
2 1 0 1 0 7 50 0 -1 0.000 0 0 -1 0 0 2
	 811 2231 1257 2231
2 1 0 1 0 7 50 0 -1 0.000 0 0 -1 0 0 2
	 1797 2231 1360 2231
2 1 0 1 0 7 50 0 -1 0.000 0 0 -1 0 0 2
	 1360 2137 1360 2326
2 1 0 1 0 7 50 0 -1 0.000 0 0 -1 0 0 2
	 1248 2034 1248 2428
2 2 0 1 0 7 50 0 -1 0.000 0 0 -1 0 0 5
	 1103 2626 1446 2626 1446 2951 1103 2951 1103 2626
2 1 0 1 0 7 50 0 -1 0.000 0 0 -1 1 0 2
	2 1 1.00 45.00 90.00
	 1304 1329 1210 52
2 1 0 1 0 7 50 0 -1 0.000 0 0 -1 1 0 2
	2 1 1.00 45.00 90.00
	 327 832 524 1440
2 1 0 1 0 7 50 0 -1 0.000 0 0 -1 1 0 2
	2 1 1.00 45.00 90.00
	 318 823 764 1046
2 1 0 1 0 7 50 0 -1 0.000 0 0 -1 0 0 4
	 546 1535 636 1895 1941 1895 2050 1548
2 1 0 1 0 7 50 0 -1 0.000 0 0 -1 0 0 2
	 599 1650 671 1650
2 1 0 1 0 7 50 0 -1 0.000 0 0 -1 0 0 2
	 629 1752 701 1752
2 1 0 1 0 7 50 0 -1 0.000 0 0 -1 0 0 2
	 670 1854 742 1854
2 1 0 1 0 7 50 0 -1 0.000 0 0 -1 0 0 2
	 680 1935 752 1935
2 1 0 1 0 7 50 0 -1 0.000 0 0 -1 0 0 2
	 843 1935 915 1935
2 1 0 1 0 7 50 0 -1 0.000 0 0 -1 0 0 2
	 985 1935 1057 1935
2 1 0 1 0 7 50 0 -1 0.000 0 0 -1 0 0 2
	 1107 1935 1179 1935
2 1 0 1 0 7 50 0 -1 0.000 0 0 -1 0 0 2
	 1239 1935 1311 1935
2 1 0 1 0 7 50 0 -1 0.000 0 0 -1 0 0 2
	 1382 1935 1454 1935
2 1 0 1 0 7 50 0 -1 0.000 0 0 -1 0 0 2
	 1524 1935 1596 1935
2 1 0 1 0 7 50 0 -1 0.000 0 0 -1 0 0 2
	 1646 1935 1718 1935
2 1 0 1 0 7 50 0 -1 0.000 0 0 -1 0 0 2
	 1839 1945 1911 1945
2 1 0 1 0 7 50 0 -1 0.000 0 0 -1 0 0 2
	 1860 1843 1932 1843
2 1 0 1 0 7 50 0 -1 0.000 0 0 -1 0 0 2
	 1880 1732 1952 1732
2 1 0 1 0 7 50 0 -1 0.000 0 0 -1 0 0 2
	 1910 1630 1982 1630
3 2 0 1 0 7 50 0 -1 0.000 0 0 0 35
	 811 2240 810 1485 900 1440 945 1485 990 1620 900 1710
	 900 1620 990 1440 1080 1440 1080 1530 1080 1665 990 1620
	 1080 1485 1215 1440 1260 1530 1260 1665 1125 1710 1170 1620
	 1170 1530 1350 1440 1440 1530 1440 1620 1350 1710 1305 1620
	 1305 1530 1485 1440 1575 1440 1620 1575 1575 1665 1485 1710
	 1485 1575 1530 1530 1665 1440 1800 1440 1797 2231
	 0.000 -1.000 -1.000 -1.000 -1.000 -1.000 -1.000 -1.000
	 -1.000 -1.000 -1.000 -1.000 -1.000 -1.000 -1.000 -1.000
	 -1.000 -1.000 -1.000 -1.000 -1.000 -1.000 -1.000 -1.000
	 -1.000 -1.000 -1.000 -1.000 -1.000 -1.000 -1.000 -1.000
	 -1.000 -1.000 0.000
4 0 0 50 0 0 12 0.0000 4 120 975 811 2454 Basse tension\001
4 0 0 50 0 0 12 0.0000 4 120 510 1523 2993 tension\001
4 0 0 50 0 0 12 0.0000 4 120 420 597 3001 Haute\001
4 0 0 50 0 0 12 0.0000 4 120 240 1154 2838 HT\001
4 0 0 50 0 0 12 0.0000 4 120 585 558 343 Electron\001
4 0 0 50 0 0 12 0.0000 4 120 555 1296 343 acc\351l\351r\351\001
4 0 0 50 0 0 12 0.0000 4 120 735 69 746 Electrodes\001
4 0 0 50 0 0 12 0.0000 4 120 615 928 1835 Filament\001
