#FIG 3.2
Landscape
Center
Metric
A4      
100.00
Single
-2
1200 2
6 90 90 1980 720
1 3 0 1 0 7 50 0 -1 0.000 1 0.0000 1652 407 288 288 1652 407 1832 632
1 3 0 1 0 7 50 0 -1 0.000 1 0.0000 257 407 162 162 257 407 347 542
2 1 1 1 0 7 50 0 -1 3.000 0 0 -1 1 0 2
	0 0 1.00 60.00 120.00
	 257 422 1652 422
2 1 0 1 0 7 50 0 -1 0.000 0 0 -1 1 0 2
	0 0 1.00 60.00 120.00
	 1642 392 1072 392
2 1 0 1 0 7 50 0 -1 0.000 0 0 -1 1 0 2
	0 0 1.00 30.00 30.00
	 772 472 872 472
2 1 0 1 0 7 50 0 -1 0.000 0 0 -1 1 0 2
	0 0 1.00 30.00 30.00
	 1152 152 1252 152
4 0 0 50 0 0 12 0.0000 4 120 90 1622 582 q\001
4 0 0 50 0 0 12 0.0000 4 150 135 432 332 Q\001
4 0 0 50 0 0 12 0.0000 4 75 60 782 602 r\001
4 0 0 50 0 0 12 0.0000 4 120 105 1152 312 F\001
-6
