<?xml version="1.0" encoding="UTF-8" standalone="no"?>
<!-- Created with Inkscape (http://www.inkscape.org/) -->
<svg
   xmlns:xml="http://www.w3.org/XML/1998/namespace"
   xmlns:dc="http://purl.org/dc/elements/1.1/"
   xmlns:cc="http://web.resource.org/cc/"
   xmlns:rdf="http://www.w3.org/1999/02/22-rdf-syntax-ns#"
   xmlns:svg="http://www.w3.org/2000/svg"
   xmlns="http://www.w3.org/2000/svg"
   xmlns:sodipodi="http://inkscape.sourceforge.net/DTD/sodipodi-0.dtd"
   xmlns:inkscape="http://www.inkscape.org/namespaces/inkscape"
   sodipodi:docname="DeviationMagnetiqueSurEcran.svg"
   sodipodi:docbase="/home/guyotv/Documents/echange/Cours/Final/CoursElec/Images/Inkscape"
   inkscape:version="0.41.1"
   sodipodi:version="0.32"
   id="svg2"
   height="297mm"
   width="210mm">
  <defs
     id="defs3">
    <marker
       style="overflow:visible"
       id="StopM"
       refX="0.0"
       refY="0.0"
       orient="auto"
       inkscape:stockid="StopM">
      <path
         transform="scale(0.4)"
         style="fill:none;fill-opacity:0.75000000;fill-rule:evenodd;stroke:#000000;stroke-width:1.0pt"
         d="M 0.0,5.65 L 0.0,-5.65"
         id="path4573" />
    </marker>
    <marker
       inkscape:stockid="DistanceOut"
       orient="auto"
       refY="0.0"
       refX="0.0"
       id="DistanceOut"
       style="overflow:visible">
      <g
         transform="scale(-0.6,0.6) translate(8,0)"
         id="g990">
        <path
           sodipodi:nodetypes="ccccc"
           id="path991"
           d="M 0.0,0.0 L 5.0,-5.0 L -12.5,0.0 L 5.0,5.0 L 0.0,0.0 z "
           style="fill-rule:evenodd;stroke:#000000;stroke-width:1.0pt;marker-start:none" />
        <path
           id="path992"
           d="M -14.759949,-7 L -14.759949,65"
           style="fill:none;fill-opacity:0.75000000;fill-rule:evenodd;stroke:#000000;stroke-width:1.2pt;marker-start:none" />
      </g>
    </marker>
    <marker
       inkscape:stockid="DistanceIn"
       orient="auto"
       refY="0.0"
       refX="0.0"
       id="DistanceIn"
       style="overflow:visible">
      <g
         transform="scale(0.6,0.6) translate(8,0)"
         id="g987">
        <path
           sodipodi:nodetypes="ccccc"
           id="path974"
           d="M 0.0,0.0 L 5.0,-5.0 L -12.5,0.0 L 5.0,5.0 L 0.0,0.0 z "
           style="fill-rule:evenodd;stroke:#000000;stroke-width:1.0pt;marker-start:none" />
        <path
           id="path976"
           d="M -14.759949,-7 L -14.759949,65"
           style="fill:none;fill-opacity:0.75000000;fill-rule:evenodd;stroke:#000000;stroke-width:1.2pt;marker-start:none" />
      </g>
    </marker>
    <marker
       inkscape:stockid="Arrow2Lend"
       orient="auto"
       refY="0.0"
       refX="0.0"
       id="Arrow2Lend"
       style="overflow:visible;">
      <path
         sodipodi:nodetypes="cccc"
         id="path5213"
         style="font-size:12.0;fill-rule:evenodd;stroke-width:0.62500000;stroke-linejoin:round;"
         d="M 8.7185878,4.0337352 L -2.2072895,0.016013256 L 8.7185884,-4.0017078 C 6.9730900,-1.6296469 6.9831476,1.6157441 8.7185878,4.0337352 z "
         transform="scale(1.1) rotate(180) translate(-5,0)" />
    </marker>
    <marker
       inkscape:stockid="Arrow2Mend"
       orient="auto"
       refY="0.0"
       refX="0.0"
       id="Arrow2Mend"
       style="overflow:visible;">
      <path
         sodipodi:nodetypes="cccc"
         id="path5210"
         style="font-size:12.0;fill-rule:evenodd;stroke-width:0.62500000;stroke-linejoin:round;"
         d="M 8.7185878,4.0337352 L -2.2072895,0.016013256 L 8.7185884,-4.0017078 C 6.9730900,-1.6296469 6.9831476,1.6157441 8.7185878,4.0337352 z "
         transform="scale(0.6) rotate(180) translate(-5,0)" />
    </marker>
  </defs>
  <sodipodi:namedview
     inkscape:guide-bbox="true"
     showguides="true"
     inkscape:window-y="0"
     inkscape:window-x="0"
     inkscape:window-height="991"
     inkscape:window-width="1272"
     guidetolerance="0.11288889mm"
     gridoriginx="0.0000000mm"
     gridoriginy="0.0000000mm"
     gridspacingx="0.28222222mm"
     gridspacingy="0.28222222mm"
     inkscape:current-layer="layer1"
     inkscape:document-units="cm"
     inkscape:cy="945.20741"
     inkscape:cx="164.04236"
     inkscape:zoom="3.8616878"
     inkscape:pageshadow="2"
     inkscape:pageopacity="0.0"
     borderopacity="1.0"
     bordercolor="#666666"
     pagecolor="#ffffff"
     id="base" />
  <metadata
     id="metadata4">
    <rdf:RDF
       id="RDF5">
      <cc:Work
         id="Work6"
         rdf:about="">
        <dc:format
           id="format7">image/svg+xml</dc:format>
        <dc:type
           rdf:resource="http://purl.org/dc/dcmitype/StillImage"
           id="type9" />
      </cc:Work>
    </rdf:RDF>
  </metadata>
  <g
     id="layer1"
     inkscape:groupmode="layer"
     inkscape:label="Layer 1">
    <path
       style="fill:none;fill-opacity:0.75000000;fill-rule:evenodd;stroke:#000000;stroke-width:1.0000000px;stroke-linecap:butt;stroke-linejoin:miter;stroke-opacity:1.0000000;marker-start:url(#StopM);marker-end:url(#Arrow2Mend)"
       d="M 33.142592,176.00625 L 64.820303,176.00625"
       id="path2150"
       sodipodi:nodetypes="cc" />
    <g
       id="g7112"
       transform="translate(-11.53586,121.5839)">
      <text
         xml:space="preserve"
         style="font-size:10.000000;font-style:normal;font-variant:normal;font-weight:normal;font-stretch:normal;fill:#000000;fill-opacity:1.0000000;stroke:none;stroke-width:1.0000000px;stroke-linecap:butt;stroke-linejoin:miter;stroke-opacity:1.0000000;font-family:Thryomanes;text-anchor:start;writing-mode:lr-tb"
         x="48.706787"
         y="34.646702"
         id="text6297"
         sodipodi:linespacing="100%"><tspan
           sodipodi:role="line"
           id="tspan6299"
           x="48.706787"
           y="34.646702">F</tspan></text>
      <path
         style="fill:none;fill-opacity:0.75000000;fill-rule:evenodd;stroke:#000000;stroke-width:0.35433072;stroke-linecap:butt;stroke-linejoin:miter;stroke-miterlimit:4.0000000;stroke-opacity:1.0000000;marker-end:url(#Arrow2Mend)"
         d="M 46.326380,25.308182 C 54.566250,25.308182 54.566250,25.308182 54.566250,25.308182"
         id="path7103" />
    </g>
    <path
       id="path6259"
       d="M 33.142591,175.44540 L 33.142591,152.03060"
       style="fill:none;fill-opacity:0.75000000;fill-rule:evenodd;stroke:#000000;stroke-width:0.53909457px;stroke-linecap:butt;stroke-linejoin:miter;stroke-opacity:1.0000000;marker-start:none;marker-end:url(#Arrow2Mend)" />
    <g
       transform="translate(72.69396,116.0906)"
       id="g7072">
      <text
         xml:space="preserve"
         style="font-size:10.000000;font-style:normal;font-variant:normal;font-weight:normal;font-stretch:normal;fill:#000000;fill-opacity:1.0000000;stroke:none;stroke-width:1.0000000px;stroke-linecap:butt;stroke-linejoin:miter;stroke-opacity:1.0000000;font-family:Thryomanes;text-anchor:start;writing-mode:lr-tb"
         x="5.859427"
         y="41.604816"
         id="text7063"
         sodipodi:linespacing="100%"><tspan
           sodipodi:role="line"
           id="tspan7065"
           x="5.8594270"
           y="41.604816">B</tspan></text>
      <path
         style="fill:none;fill-opacity:0.75000000;fill-rule:evenodd;stroke:#000000;stroke-width:0.35433072;stroke-linecap:butt;stroke-linejoin:miter;stroke-miterlimit:4.0000000;stroke-opacity:1.0000000;marker-end:url(#Arrow2Mend)"
         d="M 3.4790200,32.266296 C 11.718890,32.266296 11.718890,32.266296 11.718890,32.266296"
         id="path7067" />
    </g>
    <g
       transform="translate(2.130719,125.3843)"
       id="g7783">
      <text
         xml:space="preserve"
         style="font-size:10.000000;font-style:normal;font-variant:normal;font-weight:normal;font-stretch:normal;fill:#000000;fill-opacity:1.0000000;stroke:none;stroke-width:1.0000000px;stroke-linecap:butt;stroke-linejoin:miter;stroke-opacity:1.0000000;font-family:Thryomanes;text-anchor:start;writing-mode:lr-tb"
         x="38.818905"
         y="44.168331"
         id="text7774"
         sodipodi:linespacing="100%"><tspan
           sodipodi:role="line"
           id="tspan7776"
           x="38.818905"
           y="44.168331">v</tspan></text>
      <path
         style="fill:none;fill-opacity:0.75000000;fill-rule:evenodd;stroke:#000000;stroke-width:0.35433072;stroke-linecap:butt;stroke-linejoin:miter;stroke-miterlimit:4.0000000;stroke-opacity:1.0000000;marker-end:url(#Arrow2Mend)"
         d="M 36.621605,36.477784 C 44.861475,36.477784 44.861475,36.477784 44.861475,36.477784"
         id="path7778" />
    </g>
    <path
       sodipodi:nodetypes="cc"
       id="path7790"
       d="M 32.959479,176.00625 C 32.959479,176.00625 86.243975,179.30220 162.41699,134.25757"
       style="fill:none;fill-opacity:0.75000000;fill-rule:evenodd;stroke:#000000;stroke-width:0.35433072;stroke-linecap:butt;stroke-linejoin:miter;stroke-miterlimit:4.0000000;stroke-dasharray:1.0629922 1.0629922 ;stroke-dashoffset:0.0000000;stroke-opacity:1.0000000;marker-end:url(#Arrow2Lend)" />
    <g
       id="g7190"
       transform="translate(-10.52871,126.0700)">
      <path
         sodipodi:type="arc"
         style="fill:none;fill-opacity:1.0000000;stroke:#000000;stroke-width:0.35433072;stroke-miterlimit:4.0000000;stroke-dashoffset:0.0000000;stroke-opacity:1.0000000"
         id="path7186"
         sodipodi:cx="83.863564"
         sodipodi:cy="64.493340"
         sodipodi:rx="5.6763549"
         sodipodi:ry="5.6763549"
         d="M 89.539918 64.493340 A 5.6763549 5.6763549 0 1 1  78.187209,64.493340 A 5.6763549 5.6763549 0 1 1  89.539918 64.493340 z"
         transform="translate(19.86723,-36.71319)" />
      <path
         sodipodi:type="arc"
         style="fill:#000000;fill-opacity:1.0000000;stroke:#000000;stroke-width:0.35433072;stroke-miterlimit:4.0000000;stroke-dashoffset:0.0000000;stroke-opacity:1.0000000"
         id="path7188"
         sodipodi:cx="72.053085"
         sodipodi:cy="61.288948"
         sodipodi:rx="1.3733116"
         sodipodi:ry="1.3733116"
         d="M 73.426397 61.288948 A 1.3733116 1.3733116 0 1 1  70.679774,61.288948 A 1.3733116 1.3733116 0 1 1  73.426397 61.288948 z"
         transform="translate(31.67771,-33.50881)" />
    </g>
    <path
       id="path9619"
       d="M 33.018080,176.34195 L 33.018080,6.1947309"
       style="stroke-miterlimit:4.0000000;stroke-dasharray:1.4173228,1.4173228;stroke-opacity:1.0000000;stroke-linejoin:miter;stroke-linecap:butt;stroke-width:0.35433071;stroke:#000000;fill-rule:evenodd;fill-opacity:0.75000000;fill:none;stroke-dashoffset:0.0000000" />
    <path
       sodipodi:nodetypes="cc"
       id="path10423"
       d="M 146.64787,142.72895 L 33.018080,6.1947309"
       style="stroke-miterlimit:4.0000000;stroke-dasharray:1.4173228,1.4173228;stroke-opacity:1.0000000;stroke-linejoin:miter;stroke-linecap:butt;stroke-width:0.35433071;stroke:#000000;fill-rule:evenodd;fill-opacity:0.75000000;fill:none;stroke-dashoffset:0.0000000" />
    <path
       sodipodi:nodetypes="cc"
       id="path10425"
       d="M 33.018080,176.34195 L 148.73009,176.34195"
       style="stroke-miterlimit:4.0000000;stroke-dasharray:1.4173228,1.4173228;stroke-opacity:1.0000000;stroke-linejoin:miter;stroke-linecap:butt;stroke-width:0.35433071;stroke:#000000;fill-rule:evenodd;fill-opacity:0.75000000;fill:none;stroke-dashoffset:0.0000000" />
    <text
       id="text10427"
       y="97.514999"
       x="35.695221"
       style="font-size:10.000000;font-style:normal;font-variant:normal;font-weight:normal;font-stretch:normal;fill:#000000;fill-opacity:1.0000000;stroke:none;stroke-width:1.0000000px;stroke-linecap:butt;stroke-linejoin:miter;stroke-opacity:1.0000000;font-family:Thryomanes;text-anchor:start;writing-mode:lr-tb"
       xml:space="preserve"><tspan
         y="97.514999"
         x="35.695221"
         id="tspan10429"
         sodipodi:role="line">R</tspan></text>
    <text
       id="text10431"
       y="89.781036"
       x="87.15583"
       style="font-size:10.000000;font-style:normal;font-variant:normal;font-weight:normal;font-stretch:normal;fill:#000000;fill-opacity:1.0000000;stroke:none;stroke-width:1.0000000px;stroke-linecap:butt;stroke-linejoin:miter;stroke-opacity:1.0000000;font-family:Thryomanes;text-anchor:start;writing-mode:lr-tb"
       xml:space="preserve"><tspan
         y="89.781036"
         x="87.155830"
         id="tspan10433"
         sodipodi:role="line">R</tspan></text>
    <path
       id="path10435"
       d="M 145.46488,187.34798 L 34.498530,187.34798"
       style="fill:none;fill-opacity:0.75000000;fill-rule:evenodd;stroke:#000000;stroke-width:0.34743547;stroke-linecap:butt;stroke-linejoin:miter;stroke-miterlimit:4.0000000;stroke-opacity:1.0000000;marker-start:url(#DistanceIn);marker-end:url(#DistanceOut)" />
    <path
       id="path11237"
       d="M 146.87096,183.03481 L 146.87096,126.21991"
       style="fill:none;fill-opacity:0.75000000;fill-rule:evenodd;stroke:#000000;stroke-width:0.35433072;stroke-linecap:butt;stroke-linejoin:miter;stroke-miterlimit:4.0000000;stroke-opacity:1.0000000" />
    <text
       id="text12039"
       y="122.79913"
       x="135.9393"
       style="font-size:10.000000;font-style:normal;font-variant:normal;font-weight:normal;font-stretch:normal;fill:#000000;fill-opacity:1.0000000;stroke:none;stroke-width:1.0000000px;stroke-linecap:butt;stroke-linejoin:miter;stroke-opacity:1.0000000;font-family:Thryomanes;text-anchor:start;writing-mode:lr-tb"
       xml:space="preserve"><tspan
         y="122.79913"
         x="135.93930"
         id="tspan12041"
         sodipodi:role="line">écran</tspan></text>
    <text
       id="text12043"
       y="185.86067"
       x="77.637108"
       style="font-size:10.000000;font-style:normal;font-variant:normal;font-weight:normal;font-stretch:normal;fill:#000000;fill-opacity:1.0000000;stroke:none;stroke-width:1.0000000px;stroke-linecap:butt;stroke-linejoin:miter;stroke-opacity:1.0000000;font-family:Thryomanes;text-anchor:start;writing-mode:lr-tb"
       xml:space="preserve"><tspan
         y="185.86067"
         x="77.637108"
         id="tspan12045"
         sodipodi:role="line">L=3 cm</tspan></text>
    <path
       id="path12047"
       d="M 155.57167,144.49684 L 155.57167,174.94589"
       style="fill:none;fill-opacity:0.75000000;fill-rule:evenodd;stroke:#000000;stroke-width:0.33724222;stroke-linecap:butt;stroke-linejoin:miter;stroke-miterlimit:4.0000000;stroke-opacity:1.0000000;marker-start:url(#DistanceIn);marker-end:url(#DistanceOut)" />
    <text
       id="text12849"
       y="164.44354"
       x="158.24881"
       style="font-size:10.000000;font-style:normal;font-variant:normal;font-weight:normal;font-stretch:normal;fill:#000000;fill-opacity:1.0000000;stroke:none;stroke-width:1.0000000px;stroke-linecap:butt;stroke-linejoin:miter;stroke-opacity:1.0000000;font-family:Thryomanes;text-anchor:start;writing-mode:lr-tb"
       xml:space="preserve"><tspan
         y="164.44354"
         x="158.24881"
         id="tspan12851"
         sodipodi:role="line">d</tspan></text>
    <text
       sodipodi:linespacing="100%"
       id="text12853"
       y="173.06989"
       x="46.403786"
       style="font-size:9.0000000;font-style:normal;font-variant:normal;font-weight:normal;font-stretch:normal;fill:#000000;fill-opacity:1.0000000;stroke:none;stroke-width:1.0000000px;stroke-linecap:butt;stroke-linejoin:miter;stroke-opacity:1.0000000;font-family:Thryomanes;text-anchor:start;writing-mode:lr-tb"
       xml:space="preserve"><tspan
         y="173.06989"
         x="46.403786"
         id="tspan12855"
         sodipodi:role="line">i</tspan></text>
    <g
       transform="translate(2.130719,125.3843)"
       id="g12857">
      <text
         xml:space="preserve"
         style="font-size:10.000000;font-style:normal;font-variant:normal;font-weight:normal;font-stretch:normal;fill:#000000;fill-opacity:1.0000000;stroke:none;stroke-width:1.0000000px;stroke-linecap:butt;stroke-linejoin:miter;stroke-opacity:1.0000000;font-family:Thryomanes;text-anchor:start;writing-mode:lr-tb"
         x="38.818905"
         y="44.168331"
         id="text12859"
         sodipodi:linespacing="100%"><tspan
           sodipodi:role="line"
           id="tspan12861"
           x="38.818905"
           y="44.168331">v</tspan></text>
      <path
         style="fill:none;fill-opacity:0.75000000;fill-rule:evenodd;stroke:#000000;stroke-width:0.35433072;stroke-linecap:butt;stroke-linejoin:miter;stroke-miterlimit:4.0000000;stroke-opacity:1.0000000;marker-end:url(#Arrow2Mend)"
         d="M 36.621605,36.477784 C 44.861475,36.477784 44.861475,36.477784 44.861475,36.477784"
         id="path12863" />
    </g>
    <g
       transform="translate(123.4945,85.82210)"
       id="g12865">
      <text
         xml:space="preserve"
         style="font-size:10.000000;font-style:normal;font-variant:normal;font-weight:normal;font-stretch:normal;fill:#000000;fill-opacity:1.0000000;stroke:none;stroke-width:1.0000000px;stroke-linecap:butt;stroke-linejoin:miter;stroke-opacity:1.0000000;font-family:Thryomanes;text-anchor:start;writing-mode:lr-tb"
         x="38.818905"
         y="44.168331"
         id="text12867"
         sodipodi:linespacing="100%"><tspan
           sodipodi:role="line"
           id="tspan12869"
           x="38.818905"
           y="44.168331">v</tspan></text>
      <path
         style="fill:none;fill-opacity:0.75000000;fill-rule:evenodd;stroke:#000000;stroke-width:0.35433072;stroke-linecap:butt;stroke-linejoin:miter;stroke-miterlimit:4.0000000;stroke-opacity:1.0000000;marker-end:url(#Arrow2Mend)"
         d="M 36.621605,36.477784 C 44.861475,36.477784 44.861475,36.477784 44.861475,36.477784"
         id="path12871" />
    </g>
    <text
       sodipodi:linespacing="100%"
       id="text12873"
       y="134.1026"
       x="168.065"
       style="font-size:9.0000000;font-style:normal;font-variant:normal;font-weight:normal;font-stretch:normal;fill:#000000;fill-opacity:1.0000000;stroke:none;stroke-width:1.0000000px;stroke-linecap:butt;stroke-linejoin:miter;stroke-opacity:1.0000000;font-family:Thryomanes;text-anchor:start;writing-mode:lr-tb"
       xml:space="preserve"><tspan
         y="134.10260"
         x="168.06500"
         id="tspan12875"
         sodipodi:role="line">f</tspan></text>
    <path
       sodipodi:nodetypes="cc"
       id="path12879"
       d="M 33.315540,37.428050 C 33.315540,37.725510 45.808867,35.643289 52.947911,29.991546"
       style="stroke-miterlimit:4.0000000;stroke-dasharray:none;stroke-opacity:1.0000000;stroke-linejoin:miter;stroke-linecap:butt;stroke-width:0.35433071;stroke:#000000;fill-rule:evenodd;fill-opacity:0.75000000;fill:none" />
    <text
       id="text13681"
       y="43.972176"
       x="41.941887"
       style="font-size:10.000000;font-style:normal;font-variant:normal;font-weight:normal;font-stretch:normal;fill:#000000;fill-opacity:1.0000000;stroke:none;stroke-width:1.0000000px;stroke-linecap:butt;stroke-linejoin:miter;stroke-opacity:1.0000000;font-family:Thryomanes;text-anchor:start;writing-mode:lr-tb"
       xml:space="preserve"><tspan
         y="43.972176"
         x="41.941887"
         id="tspan13683"
         sodipodi:role="line">ß</tspan></text>
  </g>
</svg>
