<?xml version="1.0" encoding="UTF-8" standalone="no"?>
<!-- Created with Inkscape (http://www.inkscape.org/) -->
<svg
   xmlns:xml="http://www.w3.org/XML/1998/namespace"
   xmlns:dc="http://purl.org/dc/elements/1.1/"
   xmlns:cc="http://web.resource.org/cc/"
   xmlns:rdf="http://www.w3.org/1999/02/22-rdf-syntax-ns#"
   xmlns:svg="http://www.w3.org/2000/svg"
   xmlns="http://www.w3.org/2000/svg"
   xmlns:sodipodi="http://inkscape.sourceforge.net/DTD/sodipodi-0.dtd"
   xmlns:inkscape="http://www.inkscape.org/namespaces/inkscape"
   sodipodi:docname="EclairVoiture.svg"
   sodipodi:docbase="/home/guyotv/Documents/echange/Cours/Final/CoursElec/Images/Inkscape"
   inkscape:version="0.41.1"
   sodipodi:version="0.32"
   id="svg2"
   height="297mm"
   width="210mm">
  <defs
     id="defs3">
    <marker
       style="overflow:visible"
       id="StopM"
       refX="0.0"
       refY="0.0"
       orient="auto"
       inkscape:stockid="StopM">
      <path
         transform="scale(0.4)"
         style="fill:none;fill-opacity:0.75000000;fill-rule:evenodd;stroke:#000000;stroke-width:1.0pt"
         d="M 0.0,5.65 L 0.0,-5.65"
         id="path4573" />
    </marker>
    <marker
       inkscape:stockid="DistanceOut"
       orient="auto"
       refY="0.0"
       refX="0.0"
       id="DistanceOut"
       style="overflow:visible">
      <g
         transform="scale(-0.6,0.6) translate(8,0)"
         id="g990">
        <path
           sodipodi:nodetypes="ccccc"
           id="path991"
           d="M 0.0,0.0 L 5.0,-5.0 L -12.5,0.0 L 5.0,5.0 L 0.0,0.0 z "
           style="fill-rule:evenodd;stroke:#000000;stroke-width:1.0pt;marker-start:none" />
        <path
           id="path992"
           d="M -14.759949,-7 L -14.759949,65"
           style="fill:none;fill-opacity:0.75000000;fill-rule:evenodd;stroke:#000000;stroke-width:1.2pt;marker-start:none" />
      </g>
    </marker>
    <marker
       inkscape:stockid="DistanceIn"
       orient="auto"
       refY="0.0"
       refX="0.0"
       id="DistanceIn"
       style="overflow:visible">
      <g
         transform="scale(0.6,0.6) translate(8,0)"
         id="g987">
        <path
           sodipodi:nodetypes="ccccc"
           id="path974"
           d="M 0.0,0.0 L 5.0,-5.0 L -12.5,0.0 L 5.0,5.0 L 0.0,0.0 z "
           style="fill-rule:evenodd;stroke:#000000;stroke-width:1.0pt;marker-start:none" />
        <path
           id="path976"
           d="M -14.759949,-7 L -14.759949,65"
           style="fill:none;fill-opacity:0.75000000;fill-rule:evenodd;stroke:#000000;stroke-width:1.2pt;marker-start:none" />
      </g>
    </marker>
    <marker
       inkscape:stockid="Arrow2Lend"
       orient="auto"
       refY="0.0"
       refX="0.0"
       id="Arrow2Lend"
       style="overflow:visible;">
      <path
         sodipodi:nodetypes="cccc"
         id="path5213"
         style="font-size:12.0;fill-rule:evenodd;stroke-width:0.62500000;stroke-linejoin:round;"
         d="M 8.7185878,4.0337352 L -2.2072895,0.016013256 L 8.7185884,-4.0017078 C 6.9730900,-1.6296469 6.9831476,1.6157441 8.7185878,4.0337352 z "
         transform="scale(1.1) rotate(180) translate(-5,0)" />
    </marker>
    <marker
       inkscape:stockid="Arrow2Mend"
       orient="auto"
       refY="0.0"
       refX="0.0"
       id="Arrow2Mend"
       style="overflow:visible;">
      <path
         sodipodi:nodetypes="cccc"
         id="path5210"
         style="font-size:12.0;fill-rule:evenodd;stroke-width:0.62500000;stroke-linejoin:round;"
         d="M 8.7185878,4.0337352 L -2.2072895,0.016013256 L 8.7185884,-4.0017078 C 6.9730900,-1.6296469 6.9831476,1.6157441 8.7185878,4.0337352 z "
         transform="scale(0.6) rotate(180) translate(-5,0)" />
    </marker>
  </defs>
  <sodipodi:namedview
     inkscape:window-y="0"
     inkscape:window-x="0"
     inkscape:window-height="991"
     inkscape:window-width="1272"
     guidetolerance="0.11288889mm"
     gridoriginx="0.0000000mm"
     gridoriginy="0.0000000mm"
     gridspacingx="0.28222222mm"
     gridspacingy="0.28222222mm"
     inkscape:current-layer="layer1"
     inkscape:document-units="cm"
     inkscape:cy="1002.4657"
     inkscape:cx="101.13591"
     inkscape:zoom="5.4612513"
     inkscape:pageshadow="2"
     inkscape:pageopacity="0.0"
     borderopacity="1.0"
     bordercolor="#666666"
     pagecolor="#ffffff"
     id="base" />
  <metadata
     id="metadata4">
    <rdf:RDF
       id="RDF5">
      <cc:Work
         id="Work6"
         rdf:about="">
        <dc:format
           id="format7">image/svg+xml</dc:format>
        <dc:type
           rdf:resource="http://purl.org/dc/dcmitype/StillImage"
           id="type9" />
      </cc:Work>
    </rdf:RDF>
  </metadata>
  <g
     id="layer1"
     inkscape:groupmode="layer"
     inkscape:label="Layer 1">
    <path
       style="fill:none;fill-opacity:0.75000000;fill-rule:evenodd;stroke:#000000;stroke-width:0.37325650;stroke-linecap:butt;stroke-linejoin:miter;stroke-miterlimit:4.0000000;stroke-opacity:1.0000000"
       d="M 27.302556,60.281845 L 167.70769,60.281852"
       id="path1353"
       sodipodi:nodetypes="cc" />
    <path
       style="marker-start:url(#StopM);fill:none;fill-opacity:0.75000000;fill-rule:evenodd;stroke:#000000;stroke-width:1.0000000px;stroke-linecap:butt;stroke-linejoin:miter;stroke-opacity:1.0000000;marker-end:url(#Arrow2Mend)"
       d="M 190.61566,7.7297925 L 88.258155,44.168328"
       id="path2150"
       sodipodi:nodetypes="cc" />
    <g
       transform="translate(86.79330,-0.549325)"
       id="g6254">
      <text
         xml:space="preserve"
         style="font-size:10.000000;font-style:normal;font-variant:normal;font-weight:normal;font-stretch:normal;fill:#000000;fill-opacity:1.0000000;stroke:none;stroke-width:1.0000000px;stroke-linecap:butt;stroke-linejoin:miter;stroke-opacity:1.0000000;font-family:Thryomanes;text-anchor:start;writing-mode:lr-tb"
         x="15.381076"
         y="35.928455"
         id="text6285"
         sodipodi:linespacing="100%"><tspan
           sodipodi:role="line"
           id="tspan6287"
           x="15.381076"
           y="35.928455">L</tspan></text>
      <path
         style="fill:none;fill-opacity:0.75000000;fill-rule:evenodd;stroke:#000000;stroke-width:0.35433072;stroke-linecap:butt;stroke-linejoin:miter;stroke-miterlimit:4.0000000;stroke-opacity:1.0000000;marker-end:url(#Arrow2Mend)"
         d="M 13.549993,26.589935 C 21.789863,26.589935 21.789863,26.589935 21.789863,26.589935"
         id="path6301" />
    </g>
    <g
       id="g7112"
       transform="translate(79.46893,-10.80338)">
      <text
         xml:space="preserve"
         style="font-size:10.000000;font-style:normal;font-variant:normal;font-weight:normal;font-stretch:normal;fill:#000000;fill-opacity:1.0000000;stroke:none;stroke-width:1.0000000px;stroke-linecap:butt;stroke-linejoin:miter;stroke-opacity:1.0000000;font-family:Thryomanes;text-anchor:start;writing-mode:lr-tb"
         x="48.706787"
         y="34.646702"
         id="text6297"
         sodipodi:linespacing="100%"><tspan
           sodipodi:role="line"
           id="tspan6299"
           x="48.706787"
           y="34.646702">F</tspan></text>
      <path
         style="fill:none;fill-opacity:0.75000000;fill-rule:evenodd;stroke:#000000;stroke-width:0.35433072;stroke-linecap:butt;stroke-linejoin:miter;stroke-miterlimit:4.0000000;stroke-opacity:1.0000000;marker-end:url(#Arrow2Mend)"
         d="M 46.326380,25.308182 C 54.566250,25.308182 54.566250,25.308182 54.566250,25.308182"
         id="path7103" />
    </g>
    <path
       style="fill:none;fill-opacity:0.75000000;fill-rule:evenodd;stroke:#000000;stroke-width:0.35433072;stroke-linecap:butt;stroke-linejoin:miter;stroke-miterlimit:4.0000000;stroke-opacity:1.0000000"
       d="M 164.98376,7.9129004 C 164.98376,7.9129004 164.80066,12.673713 167.18106,15.969661"
       id="path1341"
       sodipodi:nodetypes="cc" />
    <rect
       y="41.787922"
       x="47.747307"
       height="13.183792"
       width="33.047352"
       id="rect3799"
       style="fill:#787878;fill-opacity:1.0000000;stroke:#787878;stroke-width:0.35433071;stroke-linecap:round;stroke-linejoin:round;stroke-miterlimit:4.0000000;stroke-dashoffset:0.0000000;stroke-opacity:1.0000000;stroke-dasharray:none;opacity:1.0000000" />
    <rect
       y="47.830494"
       x="74.525047"
       height="7.1412206"
       width="20.325012"
       id="rect4601"
       style="fill:#787878;fill-opacity:1.0000000;stroke:#787878;stroke-width:0.35433072;stroke-linecap:round;stroke-linejoin:round;stroke-miterlimit:4.0000000;stroke-dashoffset:0.0000000;stroke-opacity:1.0000000" />
    <rect
       y="47.830494"
       x="33.142590"
       height="7.1412206"
       width="20.325012"
       id="rect4603"
       style="stroke-opacity:1.0000000;stroke-dashoffset:0.0000000;stroke-miterlimit:4.0000000;stroke-linejoin:round;stroke-linecap:round;stroke-width:0.35433072;stroke:#787878;fill-opacity:1.0000000;fill:#787878" />
    <path
       transform="translate(-0.366216,-1.098649)"
       d="M 45.044621 58.633877 A 2.5635152 2.5635152 0 1 1  39.917591,58.633877 A 2.5635152 2.5635152 0 1 1  45.044621 58.633877 z"
       sodipodi:ry="2.5635152"
       sodipodi:rx="2.5635152"
       sodipodi:cy="58.633877"
       sodipodi:cx="42.481106"
       id="path4605"
       style="stroke-opacity:1.0000000;stroke-dashoffset:0.0000000;stroke-miterlimit:4.0000000;stroke-linejoin:round;stroke-linecap:round;stroke-width:0.35433072;stroke:#787878;fill-opacity:1.0000000;fill:#787878"
       sodipodi:type="arc" />
    <path
       transform="translate(41.93178,-1.098649)"
       d="M 45.044621 58.633877 A 2.5635152 2.5635152 0 1 1  39.917591,58.633877 A 2.5635152 2.5635152 0 1 1  45.044621 58.633877 z"
       sodipodi:ry="2.5635152"
       sodipodi:rx="2.5635152"
       sodipodi:cy="58.633877"
       sodipodi:cx="42.481106"
       id="path4607"
       style="stroke-opacity:1.0000000;stroke-dashoffset:0.0000000;stroke-miterlimit:4.0000000;stroke-linejoin:round;stroke-linecap:round;stroke-width:0.35433072;stroke:#787878;fill-opacity:1.0000000;fill:#787878"
       sodipodi:type="arc" />
    <path
       id="path5435"
       d="M 190.07086,57.352119 C 85.873220,57.352119 85.873220,57.352119 85.873220,57.352119 L 85.873220,57.352119 L 85.873220,57.352119"
       style="fill:none;fill-opacity:0.75000000;fill-rule:evenodd;stroke:#000000;stroke-width:0.34976587;stroke-linecap:butt;stroke-linejoin:miter;stroke-miterlimit:4.0000000;stroke-opacity:1.0000000;marker-start:url(#DistanceIn);marker-end:url(#DistanceOut)" />
    <text
       id="text6237"
       y="55.521038"
       x="126.34467"
       style="font-size:10.000000;font-style:normal;font-variant:normal;font-weight:normal;font-stretch:normal;fill:#000000;fill-opacity:1.0000000;stroke:none;stroke-width:1.0000000px;stroke-linecap:butt;stroke-linejoin:miter;stroke-opacity:1.0000000;font-family:Thryomanes;text-anchor:start;writing-mode:lr-tb"
       xml:space="preserve"><tspan
         y="55.521038"
         x="126.34467"
         id="tspan6239"
         sodipodi:role="line">200 m</tspan></text>
    <path
       id="path6241"
       d="M 198.76397,8.6454915 C 198.76397,56.436414 198.76397,56.436414 198.76397,56.436414 L 198.76397,56.436414 L 198.76397,56.436414"
       style="fill:none;fill-opacity:0.75000000;fill-rule:evenodd;stroke:#000000;stroke-width:0.23687609;stroke-linecap:butt;stroke-linejoin:miter;stroke-miterlimit:4.0000000;stroke-opacity:1.0000000;marker-start:url(#DistanceIn);marker-end:url(#DistanceOut)" />
    <text
       id="text6243"
       y="33.54805"
       x="170.83997"
       style="font-size:10.000000;font-style:normal;font-variant:normal;font-weight:normal;font-stretch:normal;fill:#000000;fill-opacity:1.0000000;stroke:none;stroke-width:1.0000000px;stroke-linecap:butt;stroke-linejoin:miter;stroke-opacity:1.0000000;font-family:Thryomanes;text-anchor:start;writing-mode:lr-tb"
       xml:space="preserve"><tspan
         y="33.548050"
         x="170.83997"
         id="tspan6245"
         sodipodi:role="line">100 m</tspan></text>
    <text
       id="text6247"
       y="43.252789"
       x="115.54129"
       style="font-size:10.000000;font-style:normal;font-variant:normal;font-weight:normal;font-stretch:normal;fill:#000000;fill-opacity:1.0000000;stroke:none;stroke-width:1.0000000px;stroke-linecap:butt;stroke-linejoin:miter;stroke-opacity:1.0000000;font-family:Thryomanes;text-anchor:start;writing-mode:lr-tb"
       xml:space="preserve"><tspan
         y="43.252789"
         x="115.54129"
         id="tspan6249"
         sodipodi:role="line">I</tspan></text>
    <path
       id="path6259"
       d="M 190.61566,7.7297922 L 110.04804,7.7297922"
       style="marker-start:none;stroke-opacity:1.0000000;stroke-linejoin:miter;stroke-linecap:butt;stroke-width:1.0000000px;stroke:#000000;fill-rule:evenodd;fill-opacity:0.75000000;fill:none;marker-end:url(#Arrow2Mend)" />
    <g
       transform="translate(91.37100,-27.64934)"
       id="g7072">
      <text
         xml:space="preserve"
         style="font-size:10.000000;font-style:normal;font-variant:normal;font-weight:normal;font-stretch:normal;fill:#000000;fill-opacity:1.0000000;stroke:none;stroke-width:1.0000000px;stroke-linecap:butt;stroke-linejoin:miter;stroke-opacity:1.0000000;font-family:Thryomanes;text-anchor:start;writing-mode:lr-tb"
         x="5.859427"
         y="41.604816"
         id="text7063"
         sodipodi:linespacing="100%"><tspan
           sodipodi:role="line"
           id="tspan7065"
           x="5.8594270"
           y="41.604816">B</tspan></text>
      <path
         style="fill:none;fill-opacity:0.75000000;fill-rule:evenodd;stroke:#000000;stroke-width:0.35433072;stroke-linecap:butt;stroke-linejoin:miter;stroke-miterlimit:4.0000000;stroke-opacity:1.0000000;marker-end:url(#Arrow2Mend)"
         d="M 3.4790200,32.266296 C 11.718890,32.266296 11.718890,32.266296 11.718890,32.266296"
         id="path7067" />
    </g>
    <g
       id="g8891"
       transform="translate(125.5207,-37.99496)">
      <path
         sodipodi:type="arc"
         style="fill:none;fill-opacity:1.0000000;stroke:#000000;stroke-width:0.35433072;stroke-miterlimit:4.0000000;stroke-dashoffset:0.0000000;stroke-opacity:1.0000000"
         id="path8893"
         sodipodi:cx="83.863564"
         sodipodi:cy="64.493340"
         sodipodi:rx="5.6763549"
         sodipodi:ry="5.6763549"
         d="M 89.539918 64.493340 A 5.6763549 5.6763549 0 1 1  78.187209,64.493340 A 5.6763549 5.6763549 0 1 1  89.539918 64.493340 z"
         transform="translate(-70.58823,-0.457767)" />
      <path
         style="fill:none;fill-opacity:0.75000000;fill-rule:evenodd;stroke:#000000;stroke-width:0.35433072;stroke-linecap:butt;stroke-linejoin:miter;stroke-miterlimit:4.0000000;stroke-opacity:1.0000000"
         d="M 8.9917348,60.488510 L 17.742065,67.582629 L 17.742065,67.582629"
         id="path8895" />
      <path
         style="fill:none;fill-opacity:0.75000000;fill-rule:evenodd;stroke:#000000;stroke-width:0.35433072;stroke-linecap:butt;stroke-linejoin:miter;stroke-miterlimit:4.0000000;stroke-opacity:1.0000000"
         d="M 17.742065,60.488510 L 8.9917348,67.582629 L 8.9917348,67.582629"
         id="path8897" />
    </g>
    <text
       id="text7768"
       y="16.518986"
       x="156.92374"
       style="font-size:10.000000;font-style:normal;font-variant:normal;font-weight:normal;font-stretch:normal;fill:#000000;fill-opacity:1.0000000;stroke:none;stroke-width:1.0000000px;stroke-linecap:butt;stroke-linejoin:miter;stroke-opacity:1.0000000;font-family:Thryomanes;text-anchor:start;writing-mode:lr-tb"
       xml:space="preserve"><tspan
         y="16.518986"
         x="156.92374"
         id="tspan7770"
         sodipodi:role="line">ß</tspan></text>
  </g>
</svg>
